Normal data,Filtered data
116.177,116.177
121.459,121.195
126.19,125.94
130.155,129.944
130.269,130.253
130.061,130.071
130.333,130.32
130.612,130.597
130.804,130.793
129.948,129.99
131.703,131.617
133.529,133.433
136.604,136.446
139.252,139.111
139.863,139.826
140.097,140.083
142.124,142.022
141.518,141.543
141.516,141.517
141.473,141.476
141.414,141.417
142.832,142.761
138.971,139.16
140.724,140.646
142.633,142.534
144.419,144.325
146.1,146.011
143.694,143.81
138.832,139.081
134.975,135.18
131.89,132.054
131.011,131.063
130.185,130.229
131.411,131.352
132.485,132.428
130.941,131.015
127.663,127.83
124.862,125.011
123.136,123.23
123.501,123.488
124.085,124.055
124.749,124.714
125.349,125.317
127.585,127.471
129.451,129.352
127.703,127.785
127.86,127.856
131.352,131.178
134.434,134.271
133.951,133.967
133.175,133.215
133.808,133.778
131.72,131.823
131.328,131.353
130.851,130.876
129.366,129.442
128.206,128.267
127.331,127.377
130.484,130.328
132.046,131.96
131.834,131.84
130.3,130.377
130.338,130.34
130.41,130.406
130.321,130.325
131.785,131.712
132.829,132.773
134.851,134.747
