Normal data,Filtered data
140.505,140.505
141.217,141.182
140.392,140.431
143.491,143.338
144.946,144.866
142.278,142.408
143.694,143.63
141.529,141.634
140.129,140.204
139.176,139.227
139.186,139.188
136.642,136.769
138.416,138.333
139.289,139.242
140.48,140.418
140.973,140.945
137.238,137.423
135.793,135.875
134.529,134.596
137.201,137.071
139.207,139.1
140.481,140.412
141.405,141.355
137.169,137.378
138.015,137.983
138.196,138.185
137.726,137.749
137.175,137.203
138.998,138.908
140.774,140.68
142.599,142.503
141.839,141.872
138.507,138.675
140.046,139.977
140.634,140.602
138.596,138.697
137.524,137.582
138.93,138.862
137.933,137.979
136.38,136.46
133.727,133.864
129.688,129.897
134.545,134.313
136.546,136.435
135.607,135.648
137.564,137.469
139.446,139.347
139.935,139.905
140.272,140.253
138.639,138.719
135.929,136.069
137.173,137.118
136.105,136.156
135.063,135.118
133.73,133.8
133.144,133.177
133.773,133.743
134.831,134.777
132.536,132.648
130.369,130.483
136.205,135.919
136.796,136.752
137.934,137.875
139.068,139.008
136.253,136.391
137.226,137.184
133.11,133.314
132.13,132.19
133.995,133.904
132.678,132.74
132.747,132.746
132.134,132.165
130.955,131.016
133.821,133.681
130.706,130.854
129.399,129.472
124.863,125.094
126.31,126.249
127.443,127.383
132.016,131.785
133.698,133.603
133.707,133.701
133.434,133.448
132.825,132.856
133.379,133.352
132.289,132.342
133.213,133.169
135.098,135.002
132.764,132.876
134.011,133.955
132.579,132.648
130.85,130.94
133.441,133.316
137.648,137.432
137.671,137.659
141.349,141.164
141.674,141.649
141.788,141.781
140.88,140.925
140.381,140.409
139.646,139.684
138.679,138.729
137.674,137.727
135.497,135.609
136.219,136.189
134.901,134.966
132.13,132.272
135.738,135.564
134.471,134.526
133.434,133.488
133.195,133.209
130.703,130.828
131.429,131.399
134.322,134.176
132.121,132.224
135.456,135.294
132.873,132.994
133.989,133.939
137.344,137.174
135.849,135.915
134.155,134.243
134.092,134.1
137.964,137.77
137.544,137.555
137.619,137.616
135.611,135.711
136.325,136.294
136.886,136.857
136.892,136.89
137.551,137.518
138.436,138.39
139.063,139.03
139.834,139.794
140.331,140.304
138.397,138.492
138.797,138.782
138.716,138.72
139.472,139.434
140.336,140.291
138.045,138.157
134.217,134.414
134.38,134.382
135.012,134.981
132.336,132.468
132.55,132.546
134.377,134.285
135.268,135.218
134.386,134.427
136.883,136.76
138.356,138.276
138.768,138.744
137.319,137.39
134.116,134.279
135.736,135.663
135.108,135.136
136.153,136.102
134.678,134.75
132.17,132.299
132.648,132.631
131.652,131.701
134.646,134.499
134.046,134.069
134.473,134.453
131.826,131.957
134.974,134.823
134.389,134.411
133.818,133.848
131.126,131.262
131.871,131.841
131.06,131.099
129.043,129.146
131.793,131.661
130.81,130.853
126.292,126.521
131.378,131.136
132.504,132.435
132.045,132.064
135.758,135.573
158.664,157.509
158.058,158.031
155.478,155.606
154.738,154.782
151.925,152.068
148.884,149.043
149.736,149.701
148.066,148.148
146.207,146.304
143.779,143.905
139.436,139.66
137.665,137.764
131.317,131.64
131.613,131.615
131.011,131.041
152.217,151.159
158.839,158.455
150.883,151.262
152.831,152.753
154.789,154.687
153.146,153.223
154.386,154.328
153.835,153.86
153.803,153.806
152.837,152.885
149.729,149.886
144.737,144.994
140.129,140.372
137.434,137.581
137.219,137.237
133.127,133.333
130.754,130.883
129.801,129.855
132.437,132.307
135.996,135.811
137.114,137.049
138.574,138.498
139.063,139.035
138.886,138.894
138.442,138.464
139.367,139.322
141.35,141.249
141.983,141.946
141.831,141.837
140.837,140.887
141.316,141.295
140.444,140.486
141.586,141.531
141.856,141.84
142.314,142.291
142.284,142.284
141.397,141.442
141.861,141.84
141.034,141.074
140.323,140.361
141.592,141.531
144.041,143.916
145.906,145.806
140.364,140.636
141.958,141.892
147.614,147.328
146.471,146.514
147.31,147.271
147.789,147.763
148.416,148.383
146.99,147.06
149.654,149.525
149.317,149.327
149.388,149.385
148.436,148.484
154.044,153.766
154.003,153.991
155.178,155.119
156.02,155.975
151.78,151.989
152.768,152.729
152.445,152.459
150.52,150.617
146.323,146.537
144.797,144.884
143.464,143.535
141.429,141.534
140.44,140.494
142.184,142.099
142.653,142.625
142.683,142.68
142.937,142.924
142.675,142.688
141.924,141.963
140.387,140.466
139.851,139.882
139.686,139.695
140.23,140.203
140.039,140.047
140.279,140.268
139.362,139.408
140.758,140.69
141.976,141.911
143.753,143.661
143.3,143.318
143.876,143.848
129.981,130.675
127.439,127.601
128.244,128.211
130.048,129.956
134.966,134.715
135.464,135.427
136.756,136.69
140.813,140.607
142.367,142.279
141.3,141.349
142.694,142.627
