Normal data,Filtered data
124.994,124.994
127.257,127.144
130.159,130.008
133.273,133.11
137.548,137.326
142.133,141.892
145.025,144.868
146.585,146.499
150.653,150.445
154.371,154.174
157.288,157.132
158.809,158.725
160.627,160.532
160.635,160.629
159.629,159.679
158.538,158.595
160.527,160.43
160.886,160.863
160.49,160.509
160.056,160.079
160.337,160.324
161.681,161.614
162.27,162.237
162.61,162.591
161.522,161.576
159.268,159.383
155.895,156.069
155.565,155.591
151.492,151.697
144.626,144.98
139.003,139.301
135.275,135.476
133.828,133.91
132.917,132.967
133.566,133.536
136.153,136.022
136.795,136.757
138.396,138.314
139.302,139.252
142.492,142.33
145.314,145.165
147.639,147.516
148.685,148.627
149.775,149.718
151.008,150.943
152.672,152.586
154.081,154.006
154.198,154.189
154.214,154.213
152.789,152.86
151.012,151.104
151.292,151.283
151.289,151.288
151.191,151.195
150.851,150.869
150.483,150.502
148.444,148.547
146.673,146.766
145.23,145.307
140.893,141.113
137.54,137.718
133.852,134.045
134.051,134.051
130.659,130.829
129.224,129.304
129.177,129.184
130.804,130.723
132.64,132.544
134.674,134.567
136.73,136.621
140.16,139.983
141.626,141.544
141.228,141.244
142.521,142.457
143.562,143.507
143.532,143.531
142.306,142.367
143.795,143.724
145.417,145.332
145.697,145.679
143.999,144.083
145.361,145.297
146.708,146.637
147.358,147.322
146.526,146.565
145.533,145.584
144.45,144.507
143.357,143.415
142.562,142.604
145.811,145.651
142.056,142.236
139.207,139.359
135.402,135.6
133.258,133.375
129.862,130.037
128.391,128.473
127.677,127.717
128.574,128.531
130.688,130.58
132.482,132.387
137.083,136.849
140.959,140.754
144.086,143.919
145.539,145.458
147.125,147.041
148.187,148.129
148.267,148.26
150.759,150.634
152.434,152.344
152.987,152.955
153.888,153.841
154.681,154.639
156.819,156.71
156.655,156.657
156.221,156.243
149.223,149.574
144.98,145.209
139.479,139.766
136.123,136.305
134.573,134.66
134.395,134.409
135.117,135.081
135.504,135.483
135.63,135.623
135.618,135.618
135.929,135.914
136.078,136.07
136.399,136.382
136.224,136.232
139.173,139.026
140.184,140.127
138.623,138.699
140.884,140.775
140.636,140.643
140.187,140.21
135.661,135.889
133.791,133.896
132.38,132.456
129.555,129.7
128.688,128.739
126.209,126.336
126.156,126.165
126.866,126.831
129.161,129.045
131.968,131.822
135.875,135.672
140.011,139.794
139.634,139.642
139.835,139.825
140.082,140.069
140.303,140.292
140.65,140.632
139.504,139.56
141.373,141.283
142.984,142.899
144.444,144.367
144.549,144.539
144.086,144.109
140.612,140.787
134.969,135.26
130.647,130.878
127.123,127.31
125.782,125.858
126.071,126.06
127.764,127.678
129.852,129.743
132.386,132.254
133.74,133.665
135.473,135.382
140.243,140
140.727,140.69
141.176,141.152
141.827,141.793
142.766,142.718
143.419,143.384
142.303,142.357
141.201,141.259
139.794,139.867
142.24,142.121
142.362,142.35
141.922,141.943
141.568,141.587
141.03,141.058
142.548,142.473
143.894,143.823
144.864,144.812
145.464,145.432
142.484,142.632
138.948,139.133
136.387,136.524
131.611,131.857
131.234,131.266
129.839,129.91
130.045,130.038
131.761,131.675
133.716,133.614
135.938,135.822
137.95,137.843
140.98,140.823
143.72,143.575
142.708,142.751
142.087,142.12
142.586,142.563
141.534,141.586
140.439,140.496
139.628,139.671
136.993,137.126
138.025,137.98
139.053,138.999
139.419,139.398
135.622,135.811
134.39,134.461
136.98,136.854
139.195,139.078
140.887,140.797
140.913,140.907
134.934,135.232
131.167,131.37
128.324,128.476
124.663,124.853
121.833,121.984
120.375,120.455
120.296,120.304
121.62,121.554
123.354,123.264
125.228,125.13
126.551,126.48
128.061,127.982
129.837,129.744
130.59,130.548
132.57,132.469
135.464,135.315
137.685,137.567
136.922,136.954
138.898,138.801
139.621,139.58
139.98,139.96
142.257,142.142
137.896,138.108
131.225,131.569
126.769,127.009
123.707,123.872
121.828,121.93
119.375,119.503
116.856,116.988
117.46,117.436
118.994,118.916
120.685,120.597
123.364,123.226
127.593,127.375
129.386,129.285
132.186,132.041
134.834,134.694
137.565,137.421
145.785,145.367
147.662,147.547
147.358,147.367
146.598,146.636
145.859,145.898
143.549,143.667
138.601,138.854
132.558,132.873
128.981,129.175
127.383,127.473
127.123,127.14
126.389,126.427
127.321,127.277
129.216,129.119
131.484,131.366
132.706,132.639
133.857,133.796
134.876,134.822
135.785,135.736
135.681,135.683
135.535,135.543
134.279,134.343
135.572,135.511
135.253,135.266
136.866,136.786
137.838,137.785
135.499,135.613
135.623,135.623
134.994,135.025
137.885,137.742
140.09,139.973
140.341,140.322
140.219,140.224
135.13,135.385
131.269,131.475
129.269,129.379
128.01,128.078
125.927,126.035
124.883,124.941
125.311,125.293
126.932,126.85
128.687,128.595
130.724,130.618
132.319,132.234
133.564,133.498
136.697,136.537
136.316,136.327
136.679,136.661
136.83,136.822
135.857,135.905
137.669,137.581
138.417,138.375
138.862,138.838
137.564,137.628
139.569,139.472
141.04,140.962
142.16,142.1
142.972,142.928
142.317,142.348
141.535,141.575
140.882,140.917
140.206,140.242
140.419,140.41
137.866,137.993
134.074,134.269
131.289,131.438
130.158,130.222
130.065,130.073
131.12,131.068
133.837,133.699
135.439,135.352
137.343,137.243
138.408,138.349
139.373,139.322
140.307,140.258
141.269,141.218
140.847,140.866
143.222,143.104
143.935,143.894
144.563,144.53
144.847,144.831
143.422,143.492
142.132,142.2
141.131,141.184
143.201,143.1
143.244,143.237
143.04,143.05
142.837,142.847
142.068,142.107
143.806,143.721
143.371,143.388
145.976,145.846
140.096,140.383
135.305,135.559
132.64,132.786
130.735,130.837
128.028,128.169
124.16,124.36
124.457,124.452
126.108,126.025
128.144,128.038
131.19,131.033
134.31,134.146
137.678,137.502
140.536,140.385
141.724,141.657
143.001,142.934
145.137,145.027
146.127,146.072
145.529,145.556
145.258,145.273
147.802,147.676
148.412,148.375
147.292,147.346
145.938,146.008
147.306,147.241
147.464,147.453
147.166,147.18
146.765,146.786
146.112,146.146
141.772,141.991
135.686,136.002
131.877,132.083
128.831,128.994
127.8,127.86
128.557,128.522
130.532,130.431
131.079,131.047
134.637,134.458
138.121,137.937
141.749,141.558
144.545,144.396
145.777,145.708
145.607,145.612
144.115,144.19
143.67,143.696
141.997,142.082
140.517,140.595
139.187,139.257
138.227,138.279
137.589,137.623
136.879,136.916
135.396,135.472
133.942,134.019
131.307,131.443
128.97,129.094
125.98,126.136
124.017,124.123
121.929,122.039
121.495,121.522
122.899,122.83
125.737,125.591
128.777,128.618
131.93,131.765
134.875,134.72
137.49,137.351
138.292,138.245
139.028,138.989
139.856,139.813
140.126,140.111
140.583,140.56
140.91,140.893
139.457,139.528
138.096,138.168
140.361,140.252
142.251,142.151
138.099,138.302
133.444,133.687
129.613,129.816
128.112,128.197
127.507,127.541
128.043,128.018
127.397,127.428
127.443,127.442
129.221,129.132
130.535,130.465
131.64,131.581
132.628,132.575
132.728,132.72
133.332,133.301
134.265,134.217
133.712,133.738
135.9,135.792
138.368,138.24
138.458,138.447
141.159,141.023
143.17,143.063
139.789,139.953
136.023,136.219
131.157,131.41
128.377,128.529
126.574,126.672
126.935,126.922
128.418,128.343
129.939,129.859
132.568,132.433
134.738,134.622
136.669,136.566
137.157,137.127
137.455,137.439
137.857,137.836
138.196,138.178
137.281,137.326
136.35,136.399
135.542,135.585
133.584,133.684
134.197,134.172
134.826,134.793
135.438,135.405
134.536,134.58
136.541,136.443
138.175,138.088
139.354,139.29
139.013,139.027
138.347,138.381
135.604,135.743
133.569,133.677
131.243,131.365
127.655,127.84
125.514,125.63
124.788,124.83
125.064,125.053
126.186,126.129
127.366,127.305
127.68,127.662
130.134,130.01
132.309,132.194
133.595,133.525
134.681,134.623
135.774,135.716
135.558,135.565
135.351,135.362
135.38,135.38
135.094,135.109
133.579,133.656
134.674,134.624
135.702,135.649
135.037,135.067
137.2,137.094
139.225,139.119
140.854,140.768
140.998,140.987
138.62,138.738
136.301,136.423
131.779,132.011
129.233,129.372
127.394,127.493
126.916,126.945
128.188,128.126
125.996,126.103
125.507,125.537
127.004,126.931
129.343,129.222
130.827,130.747
131.875,131.819
135.367,135.189
136.333,136.276
138.052,137.963
139.546,139.467
140.741,140.678
140.874,140.864
141.037,141.028
141.049,141.048
143.496,143.374
144.774,144.704
145.909,145.849
146.542,146.507
146.972,146.949
145.323,145.405
143.802,143.882
142.228,142.311
140.325,140.424
136.38,136.582
133.614,133.762
132.567,132.627
131.047,131.126
128.6,128.726
127.496,127.557
129.529,129.431
130.153,130.117
132.58,132.457
134.818,134.7
136.776,136.672
137.352,137.318
139.222,139.127
140.861,140.774
140.924,140.917
140.864,140.867
141.153,141.139
141.426,141.412
140.507,140.552
142.234,142.15
143.911,143.823
143.982,143.974
146.536,146.408
148.702,148.587
150.304,150.219
149.916,149.931
149.302,149.333
148.741,148.77
147.312,147.385
141.838,142.115
137.382,137.619
132.608,132.858
128.823,129.024
124.844,125.053
122.318,122.454
123.374,123.328
122.869,122.892
123.163,123.149
125.278,125.172
127.266,127.162
129.141,129.042
129.847,129.807
132.923,132.767
135.651,135.507
138.143,138.011
138.917,138.872
139.741,139.698
143.239,143.062
144.87,144.78
146.195,146.124
147.146,147.095
149.45,149.332
149.793,149.77
149.582,149.591
149.157,149.179
148.477,148.512
147.551,147.599
148.26,148.227
148.701,148.678
148.373,148.389
143.567,143.808
139.617,139.826
134.822,135.072
130.831,131.043
126.28,126.518
123.526,123.676
121.786,121.88
121.194,121.228
122.015,121.976
123.894,123.798
126.068,125.954
128.118,128.01
