Normal data,Filtered data
49.1328,49.1328
49.0996,49.1013
48.9606,48.9676
48.562,48.5823
49.2498,49.2164
49.3851,49.3767
49.5788,49.5687
49.6453,49.6415
48.734,48.7794
48.484,48.4988
48.6875,48.6781
48.1003,48.1292
48.1841,48.1814
48.2534,48.2498
48.7293,48.7053
49.5669,49.5238
50.5728,50.5203
50.6092,50.6048
50.981,50.9622
51.2362,51.2225
51.1174,51.1227
51.3043,51.2952
52.4189,52.3627
53.156,53.1163
53.1405,53.1393
52.8084,52.8249
51.2025,51.2836
51.0276,51.0404
51.472,51.4504
51.9783,51.9519
51.5685,51.5877
53.188,53.108
54.0862,54.0373
54.5186,54.4945
55.0748,55.0458
55.0408,55.0411
55.0673,55.066
54.6002,54.6235
53.7407,53.7849
52.9442,52.9863
51.8152,51.8738
51.5106,51.5288
51.2803,51.2927
51.5629,51.5494
51.3271,51.3382
51.2054,51.2121
51.3837,51.3752
51.9855,51.955
52.5407,52.5114
52.345,52.3533
52.4197,52.4164
52.5087,52.5041
52.3528,52.3604
52.5051,52.4978
51.9345,51.9627
51.8685,51.8732
51.4059,51.4293
50.8709,50.8989
50.4953,50.5154
49.1964,49.2624
49.2802,49.2793
49.5634,49.5492
49.8448,49.83
50.4831,50.4505
50.0344,50.0552
49.2479,49.2883
49.8732,49.844
50.199,50.1812
50.3528,50.3442
50.5406,50.5307
50.8322,50.8171
51.3416,51.3153
50.4968,50.5377
50.4683,50.4718
50.6426,50.6341
51.0366,51.0165
51.6229,51.5926
51.9854,51.9657
52.3927,52.3714
52.5189,52.5115
52.223,52.2374
51.8267,51.8472
52.6385,52.599
52.7686,52.7601
51.7661,51.8158
51.8529,51.8511
50.5477,50.6128
49.8995,49.9351
49.5607,49.5794
49.8374,49.8245
50.5548,50.5183
51.9262,51.8558
52.395,52.368
52.6307,52.6175
53.319,53.2839
53.5056,53.4945
53.8502,53.8324
53.6702,53.6783
54.0536,54.0348
53.9735,53.9766
54.6169,54.5849
54.5666,54.5675
53.9213,53.9536
53.0966,53.1394
52.7064,52.7281
52.4335,52.4482
52.5671,52.5611
52.481,52.485
52.6436,52.6357
52.8195,52.8103
53.3231,53.2974
53.3852,53.3808
53.6424,53.6293
52.5977,52.6493
52.0916,52.1195
52.2744,52.2667
52.3533,52.349
52.303,52.3053
52.1234,52.1325
52.754,52.7229
52.3147,52.3351
51.6549,51.6889
51.166,51.1921
50.1772,50.228
49.7291,49.754
49.5099,49.5221
50.3388,50.298
51.6428,51.5756
52.6593,52.6051
54.9596,54.8419
57.1294,57.015
58.7694,58.6817
60.6108,60.5143
61.797,61.7328
62.8191,62.7648
62.8676,62.8624
63.7579,63.7131
63.3773,63.3941
63.9535,63.9255
63.8458,63.8498
64.5328,64.4986
66.1286,66.0471
67.3887,67.3216
67.4033,67.3992
67.6272,67.6158
65.6934,65.7895
63.6843,63.7896
65.8414,65.7388
72.0247,71.7104
71.1371,71.1657
69.8946,69.9582
68.4054,68.4831
66.9008,66.9799
65.7923,65.8517
64.0555,64.1454
62.6686,62.7425
61.5829,61.6408
60.1563,60.2306
58.2759,58.3736
57.0428,57.1093
56.0696,56.1216
55.2455,55.2893
54.3728,54.4186
53.8507,53.8791
54.1994,54.1834
54.3975,54.3868
54.7845,54.7647
53.7802,53.8294
53.896,53.8926
54.3409,54.3185
53.5713,53.6087
52.6872,52.7333
52.0798,52.1125
51.1642,51.2116
50.4181,50.4578
50.7633,50.748
51.0567,51.0413
51.3841,51.3669
51.5555,51.5461
52.0108,51.9876
52.3233,52.3065
52.6993,52.6796
52.4674,52.478
51.9043,51.933
51.7279,51.7382
50.9665,51.0051
50.8765,50.8829
51.3152,51.2936
51.4388,51.4316
51.9452,51.9195
51.6878,51.6994
51.9445,51.9322
51.7141,51.725
52.4113,52.377
52.9964,52.9655
53.4654,53.4404
53.4294,53.43
53.6439,53.6332
52.8778,52.9156
52.1221,52.1617
51.5927,51.6212
51.5305,51.535
52.0331,52.0082
52.7772,52.7387
53.2667,53.2403
53.9486,53.9132
55.7615,55.6691
57.8275,57.7196
59.9395,59.8285
60.9606,60.904
60.7214,60.7305
61.9035,61.8449
62.2988,62.2761
61.5142,61.5523
60.5096,60.5618
59.7007,59.7437
59.6534,59.6579
59.2526,59.2729
59.6222,59.6047
60.2083,60.1782
60.6777,60.6527
60.5804,60.584
60.2346,60.2521
59.6789,59.7076
59.9713,59.9581
59.6654,59.6801
58.2944,58.3636
57.874,57.8985
57.4321,57.4554
56.3319,56.3881
55.2298,55.2877
54.5461,54.5831
53.8894,53.9241
53.5497,53.5684
53.0611,53.0865
53.7166,53.6851
53.9949,53.9794
54.6469,54.6135
54.5211,54.5257
54.5004,54.5016
54.5042,54.5041
55.3409,55.2991
55.6873,55.6679
56.1716,56.1465
56.4293,56.4151
56.5376,56.5315
56.2855,56.2978
55.3366,55.3847
53.8574,53.9338
52.5274,52.5977
52.7915,52.7818
54.1486,54.0803
54.4471,54.4287
54.8063,54.7875
70.8797,70.0751
69.3048,69.3433
66.8114,66.938
65.2314,65.3167
63.694,63.7751
62.2498,62.3261
61.1101,61.1709
60.1725,60.2224
59.3199,59.365
58.4577,58.5031
57.9457,57.9735
56.7125,56.7756
55.4408,55.5076
54.7875,54.8235
53.9099,53.9556
53.3335,53.3646
52.3147,52.3672
51.1781,51.2375
50.428,50.4685
50.3461,50.3522
51.0189,50.9855
51.3714,51.3521
52.1735,52.1325
53.2669,53.2102
54.6499,54.5779
55.6502,55.5965
56.1087,56.0831
56.8601,56.8213
57.3329,57.3073
56.6217,56.656
55.3323,55.3985
54.2432,54.301
53.4454,53.4882
52.9423,52.9696
53.1672,53.1574
53.2545,53.2497
53.9169,53.8836
54.5487,54.5155
55.1658,55.1333
55.6308,55.6059
55.2708,55.2876
55.1527,55.1594
55.022,55.0288
54.4549,54.4836
53.4261,53.479
52.3506,52.4071
52.1127,52.1274
52.3953,52.3819
53.371,53.3215
53.9812,53.9482
55.2653,55.1995
56.2367,56.1848
58.7639,58.635
61.0701,60.9483
61.9562,61.9058
62.4002,62.3755
61.3989,61.4477
61.5383,61.5338
60.6804,60.7231
60.0555,60.0889
59.0172,59.0708
58.2681,58.3083
57.6203,57.6547
57.0101,57.0424
56.7816,56.7947
56.8169,56.8158
57.3028,57.2785
57.4146,57.4078
57.6403,57.6287
57.0243,57.0545
55.9712,56.0254
55.1255,55.1705
54.1114,54.1643
53.2869,53.3308
52.6419,52.6763
51.4849,51.5445
50.3153,50.3768
49.486,49.5305
49.104,49.1253
48.9167,48.9272
49.1192,49.1096
49.8192,49.7837
50.4334,50.401
50.3122,50.3166
52.0527,51.9659
52.0658,52.0608
51.9483,51.954
51.3791,51.4079
50.9533,50.976
50.9689,50.9693
51.3952,51.3739
51.053,51.0691
51.1989,51.1925
51.5589,51.5406
51.9806,51.9586
52.4649,52.4396
53.0717,53.0401
52.7417,52.7566
52.6304,52.6367
52.035,52.0651
51.3877,51.4215
51.5971,51.5883
51.6495,51.6464
50.8759,50.9144
51.0567,51.0496
51.1044,51.1017
50.3898,50.4254
50.0814,50.0986
50.645,50.6177
51.3462,51.3097
52.0166,51.9813
52.6828,52.6477
52.5472,52.5522
52.5657,52.565
52.7174,52.7097
53.7686,53.7156
54.9476,54.886
55.5139,55.4825
55.4505,55.4521
54.5739,54.6178
54.0476,54.0761
53.8511,53.8623
53.5847,53.5986
54.0205,53.9994
53.9342,53.9374
53.9345,53.9346
53.8324,53.8375
53.9191,53.915
52.9239,52.9735
51.642,51.7086
50.72,50.7694
50.204,50.2322
49.7609,49.7845
49.0303,49.068
47.9409,47.9972
47.7356,47.7486
48.329,48.2999
48.7208,48.6997
49.7603,49.7072
51.5682,51.4752
53.0374,52.9593
54.5205,54.4424
55.9989,55.9211
56.051,56.0445
56.1545,56.149
55.6436,55.6688
55.9805,55.9649
56.3795,56.3587
56.8273,56.8039
57.2904,57.2661
57.4042,57.3973
57.3003,57.3051
57.1398,57.1481
56.6398,56.6653
55.673,55.7226
54.7089,54.7596
53.9974,54.0355
53.4512,53.4804
52.7732,52.8086
52.2818,52.3081
52.1082,52.1182
52.1815,52.1783
52.0197,52.0276
53.1591,53.1025
53.9584,53.9156
54.709,54.6694
55.0552,55.0359
55.1937,55.1858
55.4515,55.4382
55.9962,55.9683
56.4995,56.473
56.6269,56.6192
56.7911,56.7825
56.2277,56.2555
55.3056,55.3531
54.4819,54.5254
53.4098,53.4656
52.1357,52.2022
50.9189,50.9831
51.0392,51.0364
51.0182,51.0191
51.0129,51.0132
52.2696,52.2068
53.7023,53.6276
54.7294,54.6743
54.667,54.6674
54.3855,54.3996
54.6538,54.6411
55.1307,55.1062
55.3554,55.343
55.4061,55.403
55.5774,55.5687
55.5275,55.5295
55.6491,55.6431
55.3423,55.3573
54.776,54.805
53.6804,53.7366
52.7913,52.8385
51.8181,51.8691
51.0549,51.0956
50.2625,50.3042
49.0371,49.1004
48.2827,48.3236
47.7599,47.7881
47.3978,47.4174
47.9805,47.9523
48.6093,48.5764
49.7172,49.6602
50.7827,50.7266
51.3095,51.2803
52.0265,51.9892
52.4445,52.4217
53.2711,53.2286
53.7323,53.7071
53.7786,53.775
54.0633,54.0489
54.5597,54.5341
54.2714,54.2846
54.9172,54.8856
54.9969,54.9914
54.9873,54.9875
55.1866,55.1766
54.3526,54.3938
53.7119,53.746
52.9916,53.0293
52.6102,52.6312
52.6017,52.6032
52.701,52.6961
51.7299,51.7783
50.8647,50.9104
50.4251,50.4494
50.3454,50.3506
50.3088,50.3109
50.3257,50.3249
50.563,50.5511
51.3304,51.2915
51.6528,51.6347
52.5431,52.4977
53.3009,53.2608
54.394,54.3373
55.1587,55.1176
55.9104,55.8708
55.1025,55.1409
55.132,55.1324
54.9832,54.9907
55.0939,55.0887
55.5369,55.5145
55.9214,55.9011
56.0389,56.032
55.613,55.6339
54.6219,54.6725
54.2703,54.2904
53.7794,53.8049
53.3635,53.3856
52.4472,52.4941
52.1395,52.1572
51.271,51.3154
50.5516,50.5898
50.3014,50.3158
49.9267,49.9462
50.1393,50.1297
50.3098,50.3008
50.5535,50.5409
51.5551,51.5044
52.2951,52.2555
52.6549,52.6349
52.7963,52.7882
53.1593,53.1407
53.3722,53.3606
53.6099,53.5975
53.8926,53.8778
54.3289,54.3063
54.6949,54.6754
55.3287,55.2961
55.6059,55.5904
55.2195,55.238
54.8125,54.8338
54.4803,54.498
54.1695,54.1859
53.4305,53.4683
52.6255,52.6676
51.8183,51.8608
51.0591,51.0992
50.2483,50.2908
49.8509,49.8729
49.0555,49.0964
48.8147,48.8288
48.5726,48.5854
48.7646,48.7556
48.8425,48.8381
49.1752,49.1583
49.5101,49.4925
49.856,49.8378
50.4965,50.4636
50.5753,50.5697
50.7204,50.7129
51.2838,51.2552
50.5071,50.5445
49.7351,49.7755
49.5327,49.5448
49.9845,49.9625
50.149,50.1397
51.1307,51.0812
51.7998,51.7638
52.4739,52.4384
52.6174,52.6084
52.6172,52.6168
52.6088,52.6092
52.2008,52.2212
51.8504,51.869
52.3952,52.3689
52.5387,52.5302
52.778,52.7656
52.8196,52.8169
52.3657,52.3883
51.8458,51.8729
51.4358,51.4577
51.0083,51.0308
51.594,51.5659
51.9302,51.912
52.2063,52.1916
52.3718,52.3628
52.3265,52.3283
52.0969,52.1084
52.1508,52.1487
51.6184,51.6449
50.792,50.8346
50.2881,50.3154
50.3508,50.3491
49.4178,49.4644
49.4171,49.4195
49.1331,49.1474
48.9643,48.9734
49.935,49.8869
50.7915,50.7462
51.7167,51.6682
52.0223,52.0046
52.714,52.6785
53.0853,53.0649
53.5074,53.4853
53.3192,53.3275
53.3425,53.3417
52.9248,52.9456
52.4647,52.4887
