Normal data,Filtered data
114.783,114.783
114.466,114.481
114.326,114.333
113.775,113.803
116.292,116.167
118.447,118.333
120.415,120.311
122.368,122.265
123.032,122.993
123.88,123.836
127.771,127.574
127.952,127.933
127.789,127.797
127.565,127.577
127.604,127.603
127.61,127.61
130.017,129.897
131.959,131.856
133.546,133.461
134.716,134.653
135.354,135.319
138.4,138.246
143.249,142.999
146.874,146.68
144.884,144.974
143.336,143.418
140.439,140.588
142.036,141.963
147.763,147.473
146.493,146.542
144.04,144.165
143.805,143.823
143.008,143.049
142.014,142.066
140.826,140.888
139.705,139.764
136.008,136.195
132.705,132.879
129.935,130.083
130.104,130.103
130.447,130.43
130.735,130.719
131.103,131.084
131.259,131.251
131.349,131.344
133.869,133.743
135.958,135.847
137.515,137.432
138.777,138.71
134.354,134.572
130.708,130.901
129.923,129.972
129.363,129.394
128.835,128.863
128.695,128.703
128.388,128.403
128.276,128.282
128.322,128.32
128.48,128.472
130.296,130.205
133.411,133.251
133.815,133.787
136.213,136.092
130.557,130.834
125.342,125.616
120.51,120.766
118.649,118.755
117.213,117.29
116.123,116.182
115.305,115.349
120.471,120.214
125.546,125.279
121.343,121.539
123.499,123.401
125.627,125.516
127.948,127.826
129.76,129.663
133.689,133.487
136.976,136.801
133.651,133.808
130.681,130.837
130.634,130.644
132.778,132.671
134.743,134.64
133.823,133.864
135.073,135.013
134.078,134.125
133.266,133.309
132.361,132.409
138.425,138.124
141.176,141.024
145.429,145.209
144.379,144.421
143.585,143.627
139.995,140.176
136.339,136.531
132.651,132.845
129.044,129.234
125.761,125.934
122.636,122.801
125.962,125.804
125.384,125.405
125.201,125.212
125.3,125.296
125.326,125.324
125.504,125.495
125.887,125.868
128.967,128.812
131.179,131.061
133.22,133.112
134.562,134.489
135.838,135.771
139.141,138.972
136.62,136.738
139.504,139.366
141.968,141.838
143.944,143.838
143.145,143.18
141.949,142.01
143.522,143.446
141.124,141.24
138.657,138.786
133.795,134.045
129.564,129.788
126.217,126.396
123.336,123.489
124.068,124.039
127.917,127.723
127.974,127.961
133.408,133.136
137.93,137.69
135.764,135.86
136.341,136.317
136.995,136.961
137.841,137.797
138.463,138.43
142.158,141.971
146.301,146.085
146.653,146.624
147.121,147.097
139.52,139.899
132.36,132.737
125.869,126.212
120.561,120.843
115.937,116.183
114.854,114.92
120.593,120.309
116.59,116.776
120.343,120.165
119.693,119.716
119.47,119.483
119.697,119.686
119.876,119.866
122.427,122.299
124.799,124.674
127.13,127.008
128.692,128.607
130.437,130.345
133.967,133.785
134.102,134.086
134.016,134.02
133.996,133.998
133.644,133.662
132.948,132.984
135.618,135.487
138.022,137.895
140.283,140.163
135.112,135.364
134.723,134.755
136.583,136.492
132.319,132.528
128.609,128.805
125.593,125.754
122.519,122.681
119.915,120.053
120.688,120.656
121.234,121.205
121.759,121.731
124.614,124.47
126.746,126.632
128.84,128.73
130.266,130.189
131.344,131.287
134.564,134.4
137.072,136.938
137.316,137.297
137.747,137.724
139.159,139.087
137.079,137.18
134.406,134.544
129.593,129.84
129.518,129.534
124.273,124.536
121.714,121.855
119.257,119.387
117.165,117.276
115.56,115.645
114.424,114.485
116.135,116.053
118.108,118.005
117.992,117.993
118.186,118.176
120.788,120.658
122.899,122.787
124.836,124.734
126.2,126.127
130.261,130.054
135.177,134.92
138.854,138.657
141.686,141.534
139.22,139.335
141.5,141.392
144.076,143.942
145.629,145.545
145.807,145.793
145.203,145.233
147.068,146.976
149.723,149.586
152.388,152.248
150.322,150.419
146.305,146.511
141.402,141.657
136.547,136.802
131.671,131.927
130.713,130.773
129.781,129.83
125.639,125.849
125.414,125.435
125.43,125.43
125.773,125.755
125.101,125.134
127.282,127.175
129.631,129.508
129.149,129.167
131.372,131.262
136.253,136.004
140.2,139.991
145.686,145.401
146.748,146.68
145.164,145.24
143.486,143.574
144.939,144.871
146.135,146.072
144.206,144.299
135.436,135.88
134.43,134.502
133.647,133.689
129.638,129.841
126.249,126.428
125.808,125.839
126.272,126.251
129.096,128.954
131.693,131.556
133.802,133.69
139.372,139.088
139.205,139.199
139.081,139.087
139.017,139.02
138.744,138.757
143.259,143.034
145.284,145.171
145.291,145.285
144.861,144.882
144.044,144.086
142.69,142.76
135.608,135.965
129.162,129.502
126.872,127.003
125.096,125.192
123.625,123.703
122.586,122.641
119.339,119.505
116.685,116.826
119.492,119.359
122.073,121.937
119.407,119.533
119.231,119.246
119.116,119.122
123.386,123.173
127.295,127.089
126.136,126.184
129.12,128.973
131.829,131.686
135.903,135.692
137.076,137.007
140.436,140.265
143.118,142.975
144.434,144.361
145.638,145.574
146.715,146.658
147.273,147.243
145.05,145.159
142.571,142.7
139.918,140.057
137.155,137.3
134.36,134.507
131.535,131.684
128.961,129.097
127.079,127.18
127.737,127.709
126.023,126.107
127.007,126.962
127.895,127.848
128.404,128.376
131.127,130.99
127.398,127.578
127.059,127.085
126.873,126.884
128.931,128.828
130.845,130.745
129.829,129.875
131.271,131.201
130.111,130.166
129.337,129.379
128.931,128.953
128.553,128.573
132.771,132.561
135.392,135.251
135.673,135.652
135.78,135.773
135.841,135.838
136.076,136.064
135.999,136.002
135.921,135.925
133.175,133.312
130.886,131.007
128.827,128.936
127.026,127.121
125.735,125.804
124.898,124.944
121.46,121.634
120.895,120.932
120.426,120.451
119.931,119.957
119.522,119.544
119.297,119.309
118.793,118.819
118.208,118.238
122.28,122.078
123.785,123.7
125.131,125.06
126.109,126.057
127.687,127.605
132.305,132.07
136.521,136.298
142.403,142.098
144.073,143.975
145.283,145.218
146.272,146.22
146.875,146.842
145.134,145.219
137.807,138.178
132.523,132.806
127.532,127.796
122.993,123.233
121.717,121.793
120.8,120.85
117.491,117.659
122.784,122.528
122.332,122.341
119.25,119.405
121.95,121.823
124.282,124.159
126.491,126.374
128.331,128.233
131.8,131.621
129.657,129.755
127.585,127.694
125.759,125.855
129.249,129.079
131.934,131.791
134.48,134.346
134.421,134.418
134.458,134.456
135.88,135.809
134.357,134.429
132.741,132.825
133.586,133.548
133.911,133.893
133.903,133.902
133.791,133.797
127.668,127.975
128.086,128.081
128.586,128.561
129.225,129.192
129.917,129.881
130.614,130.578
131.25,131.217
125.838,126.107
126.828,126.792
125.341,125.414
124.312,124.367
122.96,123.03
121.683,121.75
120.461,120.525
119.386,119.443
118.33,118.385
117.235,117.292
121.821,121.594
125.848,125.635
126.946,126.88
127.757,127.713
125.632,125.736
123.726,123.827
122.071,122.158
120.73,120.801
119.672,119.729
118.88,118.923
118.411,118.436
117.911,117.937
117.769,117.777
118.255,118.231
117.877,117.895
117.513,117.532
117.123,117.143
116.845,116.86
116.702,116.71
119.006,118.891
123.323,123.102
126.944,126.751
131.63,131.386
133.597,133.487
135.28,135.19
136.427,136.365
137.546,137.486
138.281,138.241
136.522,136.608
134.727,134.821
132.907,133.003
131.421,131.5
130.455,130.508
126.494,126.694
123.373,123.539
126.265,126.129
126.133,126.133
125.969,125.977
130.358,130.139
133.856,133.67
136.646,136.497
139.134,139.002
141.012,140.912
143.566,143.433
143.881,143.859
139.996,140.19
136.24,136.438
132.623,132.814
129.076,129.263
125.79,125.964
122.899,123.052
120.475,120.604
118.438,118.546
116.793,116.88
115.325,115.403
114.383,114.434
113.751,113.786
111.368,111.489
109.524,109.622
108.074,108.152
106.893,106.956
107.749,107.709
110.3,110.171
112.489,112.373
114.377,114.276
116.103,116.012
119.511,119.336
122.533,122.373
125.106,124.969
127.288,127.172
129.432,129.319
134.554,134.292
139.083,138.843
139.653,139.612
137.603,137.704
135.513,135.622
133.178,133.3
133.145,133.153
130.354,130.494
127.801,127.935
123.653,123.867
124.326,124.303
124.911,124.881
125.535,125.503
123.804,123.888
122.474,122.545
121.383,121.441
120.438,120.488
119.575,119.621
118.927,118.962
118.159,118.199
119.092,119.048
119.866,119.825
120.546,120.51
125.247,125.01
129.119,128.914
132.161,131.998
134.215,134.104
136.468,136.35
140.496,140.289
142.443,142.336
144.09,144.003
145.203,145.143
145.958,145.917
146.248,146.231
138.519,138.904
131.268,131.65
130.123,130.199
129.141,129.194
128.508,128.542
128.017,128.043
129.53,129.456
126.55,126.695
125.873,125.914
125.458,125.481
125.282,125.292
124.932,124.95
124.65,124.665
124.368,124.383
126.396,126.295
127.911,127.83
129.324,129.249
130.521,130.458
131.313,131.27
132.064,132.025
132.557,132.53
132.977,132.955
136.379,136.208
137.886,137.802
139.147,139.079
140.46,140.391
136.871,137.047
131.396,131.679
126.325,126.592
123.368,123.529
119.236,119.451
117.407,117.509
115.943,116.021
114.678,114.745
114.103,114.135
118.197,117.994
119.946,119.849
121.636,121.546
123.207,123.124
124.694,124.616
125.987,125.918
127.149,127.088
129.855,129.716
132.117,131.997
133.816,133.725
137.469,137.282
140.193,140.048
144.243,144.033
145.778,145.691
147.007,146.941
146.948,146.948
147.489,147.462
147.024,147.046
147.852,147.811
146.985,147.026
145.671,145.739
139.343,139.663
133.145,133.471
129.125,129.342
123.811,124.088
119.101,119.35
119.193,119.201
119.423,119.412
119.609,119.599
120.357,120.319
120.169,120.177
120.11,120.113
120.106,120.107
120.277,120.268
122.892,122.76
127.168,126.948
130.871,130.675
134.107,133.935
137.246,137.08
136.859,136.87
136.27,136.3
135.946,135.964
135.7,135.714
135.629,135.633
135.299,135.316
137.722,137.602
139.609,139.509
141.629,141.523
142.078,142.051
144.188,144.081
143.509,143.538
142.702,142.744
136.051,136.386
132.384,132.584
128.926,129.109
125.627,125.801
122.883,123.029
120.556,120.68
118.848,118.94
117.394,117.471
