1,0.978723
1,0.363636
1,0.615385
1,0
1,1
1,0.982759
1,1
1,1
1,0.633333
1,0.934783
1,0
1,0
1,1
1,1
1,1
1,1
1,1
1,1
1,0.916667
1,0.974359
1,1
1,1
1,1
1,1
1,0.821429
1,0.588235
1,0.125
1,0.0714286
1,1
1,1
1,1
1,1
-1,0
-1,0
-1,0.606061
-1,0.427673
-1,0.427673
-1,0.451613
-1,0
-1,0
-1,0.75
-1,0.409091
-1,0.233333
-1,0
-1,0.5
-1,1
-1,0.03125
-1,0.981818
-1,0.4
-1,0.125
-1,0
-1,0.777778
-1,0
-1,1
