Normal data,Filtered data
61.098,61.098
61.5165,61.4956
60.328,60.3864
58.5973,58.6868
57.5241,57.5822
56.7249,56.7678
55.4783,55.5428
54.81,54.8466
54.8569,54.8564
55.5822,55.5459
56.2541,56.2187
55.4583,55.4963
54.5522,54.5994
53.8766,53.9127
52.9838,53.0303
52.2594,52.298
51.9569,51.974
51.9274,51.9297
51.9232,51.9235
52.9046,52.8555
52.5893,52.6026
51.9678,51.9995
51.3166,51.3507
51.4777,51.4713
51.062,51.0825
50.4375,50.4697
50.6893,50.6783
51.3006,51.2695
51.028,51.0401
51.7284,51.694
52.2421,52.2147
53.0784,53.0352
53.1308,53.126
52.4712,52.5039
51.8857,51.9166
50.9362,50.9852
50.0436,50.0907
48.8776,48.9382
48.8357,48.8408
49.0729,49.0613
50.7581,50.6732
51.3671,51.3324
52.339,52.2887
52.4231,52.4163
52.9905,52.9618
53.3266,53.3084
52.8426,52.8659
52.7198,52.7271
52.784,52.7811
52.5759,52.5861
53.0998,53.0741
54.3056,54.244
54.8953,54.8627
54.3582,54.3834
53.9381,53.9603
52.6713,52.7358
52.2482,52.2726
51.2322,51.2842
50.3043,50.3533
49.7927,49.8207
50.0075,49.9981
51.2458,51.1835
52.4635,52.3995
53.2736,53.2299
53.6798,53.6573
53.9803,53.9641
53.5922,53.6108
53.6554,53.6532
53.2625,53.2821
53.8681,53.8388
53.8974,53.8945
54.4944,54.4644
55.2563,55.2167
55.7464,55.7199
56.0723,56.0547
55.9038,55.9113
54.8242,54.8786
53.2183,53.3013
52.2721,52.3236
51.4963,51.5377
51.2999,51.3118
51.8488,51.822
52.9958,52.9371
53.7068,53.6683
53.9632,53.9485
54.4687,54.4427
54.6069,54.5987
54.6336,54.6318
54.1645,54.1879
54.207,54.2061
54.1869,54.1878
54.3572,54.3487
55.0739,55.0376
55.6911,55.6584
56.6794,56.6283
56.542,56.5463
55.4318,55.4875
54.5388,54.5862
53.3284,53.3913
52.5961,52.6359
52.509,52.5153
53.0374,53.0113
54.8799,54.7865
55.6697,55.6256
56.0781,56.0554
55.7765,55.7905
55.5586,55.5702
55.3013,55.3148
54.1742,54.2312
54.3092,54.3053
54.2771,54.2785
53.8753,53.8955
54.1749,54.1609
54.8252,54.7919
55.1399,55.1225
54.7038,54.7247
53.8004,53.8467
52.0624,52.1516
51.2379,51.2836
50.6737,50.7042
50.491,50.5016
51.0253,50.9992
52.1152,52.0594
53.7424,53.6583
54.8994,54.8373
54.3152,54.3413
54.2992,54.3013
53.2881,53.3388
53.4193,53.4153
53.1914,53.2026
52.7993,52.8194
52.8958,52.892
52.7064,52.7157
53.9643,53.9018
55.5989,55.5141
56.4631,56.4156
56.4689,56.4662
55.5729,55.6176
54.2777,54.3447
53.2822,53.3353
52.4474,52.4918
51.9758,52.0016
52.245,52.2328
53.1915,53.1436
54.8673,54.7811
55.873,55.8184
55.5294,55.5439
55.2081,55.2249
54.6548,54.6833
53.9409,53.9781
54.116,54.1091
54.3576,54.3452
54.631,54.6167
55.3223,55.287
57.1433,57.0505
58.4603,58.3898
58.9688,58.9398
58.4112,58.4377
57.1944,57.2566
55.4918,55.5801
54.518,54.5711
53.4308,53.4878
52.716,52.7546
53.2018,53.1795
54.7323,54.6547
55.7762,55.7201
56.6938,56.6451
56.6756,56.674
56.9354,56.9223
55.4719,55.5444
54.7133,54.7548
54.1576,54.1874
54.334,54.3267
53.5324,53.5721
54.1987,54.1674
55.165,55.1151
55.7567,55.7246
55.5185,55.5288
55.2647,55.2779
53.8648,53.9355
52.6117,52.6779
51.5344,51.5916
51.0676,51.0938
51.6815,51.6521
52.3394,52.305
53.7627,53.6898
54.7895,54.7345
55.6295,55.5848
55.4614,55.4675
54.8756,54.9052
54.5744,54.5909
54.3763,54.387
53.8718,53.8976
53.7562,53.7632
53.8064,53.8043
55.022,54.9611
56.0304,55.977
56.6918,56.6561
55.9901,56.0234
54.8736,54.9311
53.7426,53.802
52.3605,52.4326
51.0604,51.129
50.3539,50.3926
50.5798,50.5704
51.5274,51.4796
53.2958,53.205
54.6544,54.5819
55.408,55.3667
55.2334,55.2401
54.9203,54.9363
55.0825,55.0752
54.6443,54.6658
54.8616,54.8518
53.9472,53.9924
54.8725,54.8285
56.0792,56.0166
57.0561,57.0041
56.3487,56.3814
55.1707,55.2313
53.6482,53.7273
52.6569,52.7105
52.0425,52.0759
52.4597,52.4405
53.062,53.0309
53.496,53.4728
54.3339,54.2909
54.5122,54.5012
54.1936,54.209
52.3194,52.4138
51.4704,51.5175
51.3305,51.3399
51.6263,51.612
51.7171,51.7119
52.6437,52.5971
54.5631,54.4648
55.0871,55.056
55.1384,55.1342
54.8191,54.8349
53.209,53.2903
52.0154,52.0791
50.6833,50.7531
49.5686,49.6279
49.6571,49.6557
50.9843,50.9178
51.8089,51.7643
52.8363,52.7827
53.303,53.277
53.7263,53.7038
54.3555,54.3229
53.8877,53.9095
53.3597,53.3872
53.4461,53.4432
53.998,53.9703
54.3886,54.3677
55.3687,55.3187
55.9155,55.8857
55.775,55.7806
54.7622,54.8131
53.2104,53.2905
51.923,51.9913
50.9815,51.032
49.9211,49.9766
50.0276,50.025
50.9216,50.8768
52.6817,52.5914
53.8014,53.7409
54.9026,54.8445
54.9588,54.953
55.0852,55.0786
54.4258,54.4584
53.2043,53.267
52.895,52.9136
52.6649,52.6773
52.8598,52.8507
53.999,53.9416
55.0144,54.9607
55.5296,55.5012
55.1403,55.1584
54.3635,54.4032
53.2822,53.3383
52.377,52.4251
51.423,51.4731
50.4361,50.488
50.2576,50.2691
51.8527,51.7735
52.8978,52.8416
53.536,53.5013
53.6618,53.6538
53.1586,53.1834
52.6427,52.6697
52.4464,52.4576
52.926,52.9026
52.9305,52.9291
53.2039,53.1901
53.1084,53.1125
53.827,53.7913
55.0969,55.0316
56.2398,56.1794
56.4785,56.4635
55.5026,55.5506
54.1872,54.2554
52.6248,52.7063
51.9391,51.9775
50.9943,51.0434
51.1346,51.1301
51.8712,51.8341
52.9759,52.9188
53.837,53.7911
54.1912,54.1712
54.7634,54.7337
54.7992,54.7959
54.3841,54.4047
54.1834,54.1945
54.2593,54.2561
54.2181,54.22
54.3214,54.3163
55.384,55.3307
56.4362,56.381
57.0433,57.0102
56.632,56.6509
55.6378,55.6884
53.9762,54.0618
52.6138,52.6862
51.9106,51.9494
51.5245,51.5458
52.2062,52.1731
52.7687,52.7389
54.3861,54.3038
55.3991,55.3443
56.3364,56.2868
56.0439,56.0561
55.22,55.2618
53.9384,54.0046
53.4535,53.4811
52.8415,52.8735
52.9143,52.9123
52.7702,52.7773
53.0182,53.0062
54.2248,54.1639
55.0162,54.9736
54.7192,54.7319
53.6943,53.7462
52.5046,52.5667
51.3983,51.4567
50.5724,50.6166
49.9966,50.0276
50.9672,50.9202
52.1227,52.0626
53.2632,53.2032
54.5227,54.4567
55.2937,55.2519
54.9026,54.92
54.7542,54.7625
55.0069,54.9947
55.3074,55.2917
55.5727,55.5587
56.2954,56.2585
55.849,55.8695
56.1153,56.103
56.8825,56.8435
56.9997,56.9919
56.6061,56.6254
55.8886,55.9255
54.5169,54.5873
53.7664,53.8074
52.3977,52.4681
51.849,51.8799
53.2291,53.1617
53.9869,53.9457
55.5739,55.4925
55.9286,55.9068
56.63,56.5939
56.6164,56.6153
56.0601,56.0879
55.2827,55.3229
54.576,54.6134
54.4803,54.487
54.802,54.7863
54.6589,54.6653
55.2374,55.2088
56.6965,56.6221
55.8346,55.874
54.8925,54.9415
53.6248,53.6906
52.7069,52.7561
51.9421,51.9828
51.2731,51.3086
52.1873,52.1433
53.4062,53.3431
54.7966,54.7239
55.6471,55.6009
56.1398,56.1128
55.6809,55.7025
55.1827,55.2086
55.2102,55.2101
54.912,54.9269
55.2399,55.2242
54.8531,54.8717
56.471,56.391
56.7941,56.7739
57.2801,57.2548
57.0818,57.0905
56.6644,56.6857
55.6674,55.7183
54.9686,55.0061
53.9007,53.956
53.167,53.2064
52.8983,52.9137
53.0024,52.998
54.351,54.2834
55.1919,55.1465
55.954,55.9136
56.1897,56.1759
55.6133,55.6414
54.8524,54.8919
55.0385,55.0312
55.4595,55.438
55.1529,55.1672
55.3495,55.3404
55.9933,55.9606
56.7082,56.6708
57.224,57.1963
56.7077,56.7321
55.7652,55.8136
53.9404,54.0341
52.308,52.3943
50.7802,50.8609
49.98,50.024
49.6813,49.6985
50.6533,50.6056
51.7533,51.6959
52.0129,51.997
51.6636,51.6803
51.67,51.6705
51.7707,51.7657
51.8413,51.8375
52.7076,52.6641
53.3107,53.2784
54.4238,54.3666
54.8797,54.8541
55.6075,55.5699
56.8703,56.8053
57.3525,57.3251
57.0806,57.0928
56.1418,56.1893
54.727,54.8001
53.4189,53.488
52.5476,52.5946
52.715,52.709
53.1588,53.1363
54.9585,54.8674
55.7848,55.7389
55.7286,55.7291
55.3956,55.4123
55.0525,55.0705
54.7353,54.7521
54.5231,54.5345
54.1559,54.1749
54.1286,54.1309
54.1561,54.1548
54.9611,54.9207
55.6497,55.6132
55.7886,55.7798
55.4675,55.4831
54.7134,54.7519
53.4005,53.4681
52.8273,52.8593
52.224,52.2558
51.1111,51.1683
50.898,50.9115
51.6019,51.5674
52.6719,52.6167
53.6513,53.5996
54.1891,54.1596
54.0095,54.017
54.2195,54.2094
53.9853,53.9965
54.3296,54.3129
54.9684,54.9357
55.608,55.5744
55.6113,55.6094
56.085,56.0612
56.8295,56.7911
57.9306,57.8736
57.623,57.6355
56.9277,56.9631
55.7945,55.8529
54.3104,54.3875
53.3377,53.3902
52.2683,52.3244
52.1633,52.1713
52.871,52.836
54.1183,54.0542
54.1948,54.1878
54.738,54.7105
55.3412,55.3097
55.6132,55.598
54.8724,54.9087
54.4587,54.4812
54.1712,54.1867
53.9562,53.9677
54.2334,54.2201
54.5977,54.5788
55.1762,55.1464
55.7443,55.7144
55.8615,55.8541
54.7399,54.7956
53.4796,53.5454
52.2808,52.344
51.6851,51.718
50.8928,50.9341
51.1605,51.1492
51.5851,51.5633
53.2531,53.1686
55.3816,55.2709
56.2512,56.2022
56.7526,56.7251
56.0502,56.0839
55.9095,55.9182
54.71,54.7704
54.7619,54.7624
54.8097,54.8074
54.3522,54.3749
55.9273,55.8497
57.9813,57.8748
58.2281,58.2104
57.6224,57.6518
56.1917,56.2647
55.0996,55.1579
53.8923,53.9556
52.7069,52.7693
52.0229,52.0602
51.5163,51.5435
51.734,51.7245
52.7524,52.701
53.9823,53.9183
54.8809,54.8328
54.8359,54.8358
54.7054,54.7119
53.9547,53.9926
54.0919,54.087
53.8409,53.8532
54.3469,54.3222
55.0711,55.0336
56.6268,56.5471
57.4666,57.4207
57.2752,57.2825
56.4707,56.5113
55.0878,55.159
53.7177,53.7897
52.5763,52.637
51.8465,51.886
52.0456,52.0376
52.9288,52.8842
54.5824,54.4974
55.5555,55.5026
56.513,56.4625
56.1514,56.167
55.8575,55.873
54.9525,54.9986
55.0308,55.0292
55.236,55.2257
54.6022,54.6334
54.7071,54.7034
55.0985,55.0788
56.6772,56.5973
57.6537,57.6009
57.4793,57.4854
56.8231,56.8563
55.4685,55.5379
54.3366,54.3966
53.31,53.3643
52.4576,52.5029
53.3961,53.3514
55.0333,54.9492
55.9581,55.9077
55.9821,55.9784
55.3701,55.4005
54.7453,54.7781
54.3551,54.3763
54.0436,54.0602
54.6802,54.6492
54.6396,54.6401
55.1294,55.1049
55.8146,55.7791
56.0757,56.0609
55.6077,55.6303
54.5872,54.6394
53.6636,53.7123
53.1376,53.1664
52.4234,52.4605
53.0277,52.9993
53.9082,53.8628
55.3235,55.2505
56.075,56.0338
56.2178,56.2086
56.3513,56.3441
55.9595,55.9787
55.9818,55.9817
55.605,55.6238
55.5647,55.5676
55.7393,55.7307
56.3772,56.3449
57.0489,57.0137
57.9556,57.9085
58.2304,58.2143
57.4391,57.4778
56.3227,56.3805
54.9979,55.067
53.1353,53.2319
51.4436,51.533
51.0189,51.0446
51.6513,51.621
52.3804,52.3424
53.5931,53.5305
54.8031,54.7394
55.381,55.3489
54.8799,54.9033
54.4536,54.4761
54.0237,54.0463
54.1954,54.1879
54.5823,54.5626
54.3141,54.3265
54.3296,54.3294
55.1719,55.1297
56.5018,56.4332
56.7943,56.7762
55.8402,55.887
54.4552,54.5268
53.2934,53.3551
51.5631,51.6527
50.3497,50.4149
50.2939,50.3
51.2388,51.1918
52.2435,52.1909
53.9255,53.8388
54.603,54.5648
54.6216,54.6188
54.8103,54.8007
54.6525,54.6599
54.3344,54.3506
54.0269,54.043
53.9869,53.9897
53.2012,53.2406
53.6225,53.6034
54.8356,54.774
56.0837,56.0182
56.6694,56.6369
55.7186,55.7645
55.2088,55.2365
53.6069,53.6884
52.0219,52.1052
50.7594,50.8267
50.4333,50.453
50.7717,50.7558
51.3862,51.3547
52.5218,52.4635
53.1426,53.1086
53.9001,53.8605
55.0247,54.9665
55.3594,55.3397
55.9075,55.8791
55.4214,55.4443
55.193,55.2056
54.6468,54.6747
55.3738,55.3389
56.5433,56.4831
57.4991,57.4483
57.2164,57.228
56.7068,56.7329
55.4538,55.5178
54.2492,54.3126
52.937,53.0058
52.6293,52.6481
52.3733,52.3871
53.3482,53.3002
54.4218,54.3657
55.3251,55.2771
55.8936,55.8627
56.3513,56.3269
55.903,55.9242
54.7956,54.852
54.8336,54.8345
54.7123,54.7184
55.1825,55.1593
56.8332,56.7495
58.4019,58.3193
59.1864,59.1431
58.663,58.687
56.7904,56.8852
54.9474,55.0442
52.7546,52.8691
51.1253,51.2124
50.4385,50.4772
50.6806,50.6704
52.4137,52.3265
54.3319,54.2316
55.5242,55.4595
55.576,55.5702
55.5626,55.563
54.4254,54.4823
53.2514,53.3129
53.2899,53.291
52.9482,52.9654
53.1269,53.1189
54.4034,54.3392
55.5841,55.5219
55.6098,55.6054
55.0443,55.0724
54.3517,54.3878
53.4429,53.4901
51.975,52.0508
50.7957,50.8584
51.4087,51.3812
52.098,52.0622
53.3946,53.328
54.2851,54.2372
53.9387,53.9537
53.1295,53.1707
53.2379,53.2346
52.7983,52.8201
53.213,53.1933
53.9989,53.9586
53.5286,53.5501
54.1823,54.1506
55.2487,55.1938
56.2633,56.2098
56.5083,56.4934
56.0006,56.0253
55.154,55.1976
53.9531,54.0153
52.5017,52.5774
51.2639,51.3296
51.3402,51.3396
52.3517,52.3011
52.7896,52.7652
54.4895,54.4033
55.7754,55.7068
56.8437,56.7869
56.3297,56.3525
55.5493,55.5895
55.3455,55.3577
54.7385,54.7694
55.0286,55.0157
54.335,54.369
55.0523,55.0182
56.1056,56.0512
57.3157,57.2524
58.2564,58.2062
57.7182,57.7426
56.5013,56.5633
55.1168,55.1891
53.741,53.8134
52.8473,52.8956
52.8251,52.8286
53.6268,53.5869
54.8746,54.8102
56.1404,56.0739
56.289,56.2783
56.3579,56.3539
55.2823,55.3359
54.2876,54.34
53.3624,53.4113
53.0491,53.0672
53.2922,53.281
53.1771,53.1823
53.3374,53.3297
54.6428,54.5771
55.4793,55.4342
55.6558,55.6448
55.0337,55.0643
53.3796,53.4639
52.3749,52.4294
51.5002,51.5467
51.1356,51.1562
51.1202,51.122
51.4384,51.4225
52.2892,52.2459
53.7038,53.6309
54.0358,54.0156
54.6901,54.6564
54.8192,54.8111
53.7675,53.8197
53.7134,53.7187
53.8314,53.8257
54.0564,54.0449
53.6556,53.6751
54.8319,54.7741
56.108,56.0413
57.3045,57.2414
56.9453,56.9601
56.1163,56.1585
54.4037,54.4915
53.0501,53.1222
51.7575,51.8257
51.54,51.5543
52.3357,52.2966
53.4196,53.3635
55.1179,55.0302
56.1725,56.1154
56.6858,56.6573
56.9254,56.912
56.6083,56.6234
56.4754,56.4828
56.301,56.3101
56.3243,56.3236
56.9513,56.9199
57.3511,57.3295
58.4416,58.386
58.8166,58.7951
59.0695,59.0558
58.2403,58.281
56.9868,57.0515
55.1214,55.2179
52.9327,53.0469
51.9536,52.0083
51.8837,51.8899
51.6828,51.6932
52.5458,52.5032
53.1244,53.0934
52.8091,52.8233
53.3902,53.3618
52.9421,52.963
53.8646,53.8196
54.3263,54.301
54.1592,54.1663
54.2184,54.2158
55.072,55.0292
55.4895,55.4664
57.2461,57.1571
57.7107,57.683
57.2507,57.2723
55.8947,55.9636
54.3674,54.4472
53.3132,53.3699
52.4477,52.4938
52.0871,52.1075
52.112,52.1118
52.7501,52.7182
54.4935,54.4047
55.2652,55.2221
55.7016,55.6776
56.2287,56.2011
56.673,56.6494
55.3561,55.4208
54.7722,54.8046
54.2501,54.2778
54.8223,54.7951
55.0398,55.0276
55.3455,55.3297
56.5148,56.4556
57.4685,57.4178
57.0151,57.0352
56.1873,56.2297
55.0457,55.1049
53.9204,53.9796
52.8472,52.9039
51.8198,51.8741
52.9651,52.9105
53.9415,53.89
55.5826,55.498
55.9088,55.8882
55.6011,55.6155
55.8538,55.8419
55.6608,55.6699
54.471,54.531
54.0936,54.1155
53.9254,53.9349
53.7257,53.7361
54.8994,54.8412
56.3067,56.2334
57.5596,57.4933
57.3064,57.3157
56.4253,56.4698
54.5807,54.6752
53.5441,53.6007
51.9781,52.0592
51.2192,51.2612
51.3563,51.3515
51.9789,51.9475
52.8247,52.7808
53.8457,53.7925
54.3757,54.3466
53.7481,53.778
53.5207,53.5336
53.4374,53.4422
53.3287,53.3344
53.4286,53.4239
53.4734,53.4709
54.6466,54.5878
56.0156,55.9442
57.2368,57.1722
57.8924,57.8564
56.9967,57.0397
55.6702,55.7387
54.0258,54.1114
52.7946,52.8605
52.4333,52.4547
52.5061,52.5035
53.7755,53.7119
55.5847,55.4911
56.9023,56.8318
57.8597,57.8083
58.0355,58.0241
57.5154,57.5408
55.8033,55.8901
54.9681,55.0142
54.2701,54.3073
54.0776,54.0891
54.1568,54.1534
55.1129,55.065
56.0235,55.9756
56.6654,56.6309
55.8195,55.86
54.4254,54.4971
53.2253,53.2889
51.9671,52.0331
51.2299,51.2701
50.9467,50.9628
51.1488,51.1395
51.9736,51.9319
53.412,53.338
53.9987,53.9657
53.8889,53.8927
53.5467,53.564
52.5985,52.6468
51.3111,51.3778
51.1405,51.1524
51.7699,51.739
52.7194,52.6704
53.7493,53.6954
55.6886,55.5889
56.6624,56.6087
57.399,57.3595
57.2713,57.2757
56.7535,56.7796
55.3974,55.4665
54.5153,54.5629
53.2659,53.3307
52.7051,52.7364
53.4042,53.3708
54.5731,54.513
55.7862,55.7225
55.9324,55.9219
56.456,56.4292
55.2715,55.3294
55.2909,55.2928
54.3177,54.3665
54.1056,54.1186
54.3461,54.3347
54.2032,54.2098
55.0142,54.974
56.6345,56.5514
57.8457,57.781
58.3327,58.3051
57.6728,57.7044
56.0473,56.1301
54.1671,54.2653
53.1658,53.2207
51.9335,51.9979
51.3048,51.3395
51.7313,51.7117
52.7009,52.6514
54.0216,53.9531
54.291,54.2741
54.3399,54.3366
54.8122,54.7884
53.6595,53.716
53.2983,53.3192
53.6854,53.6671
54.3648,54.3299
54.5377,54.5273
55.9272,55.8572
57.3507,57.276
58.6755,58.6055
58.1289,58.1527
56.7715,56.8406
55.5063,55.5731
53.9606,54.0412
52.4352,52.5155
51.4785,51.5304
52.3162,52.2769
53.1499,53.1063
54.5278,54.4568
55.7517,55.6869
56.9005,56.8398
57.1207,57.1067
56.3276,56.3666
55.2049,55.263
54.7652,54.7901
54.2665,54.2927
54.049,54.0612
54.1606,54.1556
55.2804,55.2241
55.9095,55.8753
55.5375,55.5544
55.0542,55.0792
53.4203,53.5033
52.056,52.1284
51.7301,51.7501
51.3652,51.3845
51.1846,51.1946
