Normal data,Filtered data
120.092,120.092
138.466,137.547
145.596,145.193
153.438,153.026
163.267,162.755
167.33,167.101
167.22,167.214
166.048,166.107
164.178,164.275
171.063,170.723
169.979,170.016
168.952,169.005
159.841,160.299
147.69,148.32
139.936,140.355
149.15,148.71
157.181,156.758
164.114,163.746
170.163,169.842
175.14,174.875
177.236,177.118
175.206,175.301
172.581,172.717
170.366,170.483
174.62,174.413
171.946,172.069
165.982,166.286
160.19,160.495
155.119,155.388
150.414,150.663
156.336,156.053
151.437,151.667
157.82,157.513
155.902,155.982
153.822,153.93
149.864,150.067
145.27,145.51
140.918,141.148
136.121,136.373
139.031,138.898
142.711,142.521
143.94,143.869
151.88,151.48
158.619,158.262
156.082,156.191
152.336,152.529
148.599,148.795
144.867,145.064
141.372,141.556
141.599,141.597
142.774,142.715
141.862,141.904
141.53,141.548
139.305,139.417
137.164,137.277
137.42,137.413
131.732,132.016
128.816,128.976
123.755,124.016
122.18,122.272
117.612,117.845
116.114,116.201
111.84,112.058
110.201,110.294
109.272,109.323
123.268,122.571
131.524,131.076
140.748,140.265
145.14,144.896
149.445,149.218
161.311,160.706
161.294,161.265
159.792,159.866
157.54,157.657
164.935,164.571
163.473,163.528
158.993,159.22
150.483,150.919
155.249,155.033
155.237,155.226
154.059,154.117
151.399,151.535
149.685,149.778
146.751,146.902
143.594,143.759
150.098,149.781
150.974,150.915
149.709,149.77
147.002,147.141
161.445,160.729
150.131,150.661
145.495,145.753
141.318,141.54
137.801,137.988
134.871,135.027
132.503,132.63
130.612,130.712
126.511,126.721
122.297,122.518
118.332,118.542
111.117,111.489
107.952,108.129
108.079,108.081
111.33,111.168
108.347,108.488
108.821,108.804
109.989,109.929
111.962,111.861
115.923,115.72
117.589,117.496
119.58,119.475
123.12,122.938
125.213,125.099
125.176,125.172
123.622,123.7
122.683,122.734
122.214,122.24
123.727,123.653
122.01,122.092
123.709,123.628
126.054,125.933
128.69,128.552
138.652,138.147
144.825,144.491
148.163,147.979
155.059,154.705
156.641,156.544
154.73,154.821
152.642,152.751
145.754,146.104
156.391,155.877
160.82,160.573
159.816,159.854
156.444,156.614
152.085,152.312
148.36,148.557
146.235,146.351
145.556,145.596
144.89,144.925
145.46,145.433
146.036,146.006
