Normal data,Filtered data
145.498,145.498
145.55,145.5
144.447,145.448
146.943,145.522
146.659,145.579
145.947,145.598
146.301,145.633
145.6,145.631
146.899,145.695
145.494,145.685
143.419,145.571
143.744,145.48
144.64,145.438
145.237,145.428
140.499,145.181
140.495,144.947
140.8,144.74
139.527,144.479
138.187,144.165
140.273,143.97
142.745,143.909
145.635,143.995
144.83,144.037
141.605,143.915
139.685,143.704
139.177,143.477
138.729,143.24
143.177,143.237
142.916,143.221
143.053,143.212
140.314,143.067
138.662,142.847
138.71,142.64
141.509,142.584
145.617,142.735
145.841,142.891
143.75,142.934
143.196,142.947
140.808,142.84
140.625,142.729
144.673,142.826
148.263,143.098
147.466,143.316
146.334,143.467
144.48,143.518
142.737,143.479
144.015,143.506
145.063,143.584
144.798,143.644
145.107,143.717
144.719,143.767
147.266,143.942
149.09,144.2
147.071,144.343
144.622,144.357
142.492,144.264
141.168,144.109
139.12,143.86
138.686,143.601
137.58,143.3
139.133,143.092
140.57,142.966
142.843,142.959
140.326,142.828
139.36,142.654
139.125,142.478
137.21,142.214
140.164,142.112
142.461,142.129
140.442,142.045
139.325,141.909
139.531,141.79
140.521,141.727
145.301,141.905
145.105,142.065
145.513,142.238
145.824,142.417
146.108,142.602
148.901,142.917
148.004,143.171
145.541,143.289
144.161,143.333
145.021,143.417
147.013,143.597
147.416,143.788
147.664,143.982
146.531,144.109
144.506,144.129
142.801,144.063
144.811,144.1
147.503,144.27
150.254,144.57
150.462,144.864
150.786,145.16
148.677,145.336
147.408,145.44
148.531,145.594
148.36,145.733
144.967,145.694
142.666,145.543
146.015,145.566
146.83,145.63
146.313,145.664
147.173,145.739
147.18,145.811
147.84,145.913
147.029,145.969
146.068,145.973
144.799,145.915
142.298,145.734
142.452,145.57
140.432,145.313
143.146,145.205
145.51,145.22
143.598,145.139
142.768,145.02
141.61,144.85
141.093,144.662
139.139,144.386
140.035,144.168
138.371,143.878
135.913,143.48
133.432,142.978
132.2,142.439
134.835,142.059
141.221,142.017
147.068,142.269
149.464,142.629
149.008,142.948
147.34,143.168
145.965,143.307
143.474,143.316
143.011,143.3
140.956,143.183
141.825,143.115
142.848,143.102
143.798,143.137
144.038,143.182
144.005,143.223
144.383,143.281
140.208,143.127
136.349,142.788
133.5,142.324
134.948,141.955
137.655,141.74
140.003,141.653
140.308,141.586
138.345,141.424
138.321,141.269
138.806,141.146
138.645,141.021
139.505,140.945
143.017,141.048
147.065,141.349
146.957,141.63
145.843,141.84
143.894,141.943
143.031,141.997
142.833,142.039
146.924,142.283
149.557,142.647
148.963,142.963
148.852,143.257
148.54,143.521
148.528,143.772
149.734,144.07
151.605,144.447
152.219,144.835
148.955,145.041
146.668,145.123
145.763,145.155
145.315,145.163
148.885,145.349
147.891,145.476
145.176,145.461
142.32,145.304
140.248,145.051
138.929,144.745
138.826,144.449
142.535,144.353
145.619,144.416
147.545,144.573
144.94,144.591
141.925,144.458
139.287,144.199
137.205,143.85
139.213,143.618
143.637,143.619
146.41,143.758
144.264,143.784
141.798,143.684
139.466,143.473
137.575,143.179
144.171,143.228
141.769,143.155
139.456,142.97
137.883,142.716
142.49,142.705
146.336,142.886
149.147,143.199
146.748,143.377
147.529,143.584
148.211,143.816
149.514,144.101
149.158,144.353
147.366,144.504
146.027,144.58
143.422,144.522
144.415,144.517
142.553,144.419
141.252,144.26
144.346,144.265
146.666,144.385
148.279,144.579
146.148,144.658
145.025,144.676
144.856,144.685
145.358,144.719
148.752,144.921
149.296,145.139
149.639,145.364
149.134,145.553
147.863,145.668
147.084,145.739
146.115,145.758
145.134,145.727
143.805,145.631
143.15,145.507
141.746,145.319
141.29,145.117
141.261,144.924
142.46,144.801
143.751,144.749
144.68,144.745
145.364,144.776
145.353,144.805
145.604,144.845
145.929,144.899
146.783,144.993
146.459,145.067
146.476,145.137
147.911,145.276
148.477,145.436
147.786,145.553
149.481,145.75
149.841,145.954
151.454,146.229
150.687,146.452
150.832,146.671
149.274,146.801
146.717,146.797
144.937,146.704
145.96,146.667
146.965,146.682
146.669,146.681
144.189,146.556
141.109,146.284
139.775,145.959
138.405,145.581
140.11,145.307
140.282,145.056
138.418,144.724
136.237,144.3
137.009,143.935
136.507,143.564
137.055,143.238
140.093,143.081
141.653,143.01
138.673,142.793
138.808,142.594
138.219,142.375
142.455,142.379
145.663,142.543
144.442,142.638
142.938,142.653
141.592,142.6
