Normal data,Filtered data
161.471,161.471
161.212,161.458
160.124,161.392
161.408,161.392
156.198,161.133
152.252,160.689
148.941,160.101
151.561,159.674
153.74,159.378
156.038,159.211
159.85,159.243
160.552,159.308
157.819,159.234
153.158,158.93
145.74,158.27
138.364,157.275
142.405,156.531
143.655,155.888
143.627,155.275
143.018,154.662
149.971,154.427
150.194,154.216
156.139,154.312
151.644,154.178
155.906,154.265
148.58,153.98
135.594,153.061
138.184,152.317
143.619,151.882
146.686,151.623
146.164,151.35
148.611,151.213
140.128,150.658
127.647,149.508
135.442,148.805
141.677,148.448
145.638,148.308
149.045,148.345
151.911,148.523
141.305,148.162
137.763,147.642
137.589,147.139
143.958,146.98
149.402,147.101
149.816,147.237
151.549,147.453
155.6,147.86
170.042,148.969
171.047,150.073
168.621,151
166.641,151.782
156.702,152.028
149.912,151.923
150.621,151.858
153.699,151.95
154.285,152.066
156.611,152.294
160.987,152.728
159.406,153.062
155.48,153.183
151.625,153.105
145.027,152.701
138.235,151.978
141.721,151.465
142.801,151.032
144.026,150.682
147.981,150.547
154.218,150.73
147.431,150.565
137.427,149.908
129.225,148.874
124.607,147.661
127.267,146.641
131.56,145.887
139.396,145.562
145.014,145.535
142.667,145.392
147.653,145.505
148.769,145.668
149.457,145.857
149.923,146.061
147.733,146.144
136.668,145.67
129.455,144.86
132.131,144.223
137.359,143.88
143.336,143.853
144.01,143.861
146.892,144.012
156.969,144.66
159.209,145.388
154.181,145.827
153.754,146.224
145.62,146.193
140.816,145.924
141.527,145.705
142.928,145.566
147.882,145.682
152.149,146.005
151.976,146.304
155.395,146.758
160.861,147.463
162.234,148.202
165.06,149.045
165.122,149.849
160.142,150.363
149.221,150.306
140.937,149.838
142.492,149.47
147.973,149.396
151.571,149.504
152.72,149.665
155.704,149.967
160.809,150.509
164.485,151.208
159.382,151.617
151.846,151.628
144.334,151.263
133.741,150.387
139.073,149.822
142.075,149.434
143.733,149.149
145.213,148.952
151.663,149.088
154.008,149.334
151.053,149.42
145.926,149.245
142.534,148.91
132.25,148.077
124.215,146.884
130.992,146.089
136.588,145.614
139.938,145.33
145.186,145.323
149.506,145.532
156.322,146.072
161.577,146.847
159.841,147.496
155.185,147.881
142.553,147.615
147.522,147.61
152.96,147.877
156.296,148.298
153.418,148.554
156.311,148.942
164.05,149.698
161.473,150.286
158.752,150.71
155.877,150.968
148.944,150.867
153.758,151.011
158.115,151.367
152.11,151.404
153.199,151.493
144.595,151.149
135.889,150.386
138.665,149.799
139.761,149.298
144.059,149.036
147.318,148.95
153.371,149.171
149.492,149.187
146.275,149.041
138.922,148.535
131.53,147.685
136.999,147.151
138.83,146.735
140.591,146.428
145.251,146.369
145.947,146.348
144.004,146.23
145.249,146.181
144.464,146.095
138.887,145.735
132.938,145.095
135.37,144.609
141.981,144.477
146.87,144.597
148.234,144.779
151.883,145.134
157.875,145.771
162.304,146.598
157.369,147.136
155.512,147.555
144.95,147.425
138.123,146.96
144.104,146.817
148.002,146.876
148.214,146.943
151.29,147.16
160.338,147.819
157.234,148.29
152.028,148.477
141.369,148.122
134.834,147.457
137.019,146.935
144.021,146.79
148.493,146.875
152.025,147.132
154.965,147.524
164.55,148.375
164.624,149.188
164.094,149.933
157.948,150.334
150.554,150.345
142.168,149.936
147.262,149.802
150.401,149.832
149.532,149.817
152.214,149.937
154.029,150.142
152.267,150.248
150.412,150.256
146.375,150.062
135.955,149.357
127.638,148.271
133.4,147.527
137.808,147.041
142.912,146.835
147.005,146.843
157.414,147.372
155.924,147.799
154.194,148.119
152.385,148.333
145.404,148.186
137.878,147.671
138.943,147.234
144.775,147.111
145.153,147.013
148.483,147.087
150.995,147.282
149.838,147.41
151.896,147.634
149.974,147.751
139.94,147.361
133.743,146.68
135.832,146.138
142.772,145.969
144.635,145.903
148.986,146.057
152.583,146.383
162.207,147.174
162.951,147.963
159.946,148.562
160.329,149.151
152.868,149.336
144.407,149.09
149.837,149.127
154.937,149.418
157.538,149.824
156.037,150.134
157.568,150.506
158.065,150.884
158.523,151.266
155.393,151.472
147.615,151.279
137.412,150.586
138.248,149.969
144.006,149.671
147.668,149.571
145.622,149.373
148.847,149.347
151.192,149.439
152.918,149.613
151.066,149.686
140.364,149.22
133.428,148.43
137.848,147.901
142.117,147.612
140.01,147.232
146.957,147.218
146.577,147.186
145.93,147.123
145.084,147.021
139.072,146.624
127.062,145.646
130.591,144.893
136.108,144.454
144.212,144.442
147.669,144.603
137.395,144.243
127.024,143.382
120.417,142.233
120.28,141.136
127.573,140.458
139.238,140.397
145.138,140.634
150.09,141.107
149.644,141.533
135.943,141.254
130.55,140.719
135.588,140.462
141.822,140.53
147.713,140.889
146.366,141.163
147.163,141.463
144.93,141.636
141.112,141.61
129.294,140.994
127.809,140.335
135.16,140.076
141.723,140.159
144.622,140.382
143.126,140.519
141.7,140.578
132.793,140.189
127.373,139.548
131.756,139.159
139.702,139.186
145.593,139.506
150.684,140.065
144.64,140.294
141.2,140.339
131.483,139.896
126.141,139.208
127.661,138.631
135.227,138.461
139.892,138.532
144.013,138.806
147.129,139.223
151.985,139.861
159.124,140.824
155.333,141.549
150.721,142.008
140.945,141.955
143.512,142.033
145.787,142.22
150.618,142.64
154.379,143.227
156.962,143.914
155.975,144.517
154.94,145.038
153.387,145.456
141.155,145.241
135.853,144.771
141.985,144.632
146.495,144.725
150.531,145.015
156.48,145.589
154.433,146.031
150.383,146.248
137.455,145.809
129.979,145.017
128.879,144.21
132.5,143.625
140.179,143.452
143.205,143.44
148.374,143.687
149.371,143.971
155.892,144.567
152.184,144.948
149.159,145.158
138.301,144.816
131.547,144.152
138.7,143.88
145.586,143.965
150.39,144.286
154.544,144.799
160.771,145.598
164.914,146.563
159.96,147.233
155.409,147.642
143.956,147.458
149.102,147.54
152.517,147.789
155.801,148.189
158.157,148.688
159.6,149.233
160.227,149.783
160.768,150.332
158.087,150.72
150.551,150.712
139.899,150.171
140.9,149.707
144.916,149.468
144.469,149.218
142.572,148.886
146.101,148.746
146.351,148.627
149.483,148.669
146.594,148.566
143.946,148.335
133.536,147.595
138.884,147.159
140.702,146.836
145.202,146.755
149.678,146.901
153.554,147.233
156.405,147.692
152.112,147.913
148.525,147.944
137.423,147.418
129.141,146.504
134.813,145.919
140.346,145.641
143.009,145.509
148.072,145.637
146.204,145.665
150.092,145.887
149.96,146.09
149.436,146.258
143.557,146.123
132.558,145.444
139.073,145.126
145.644,145.152
144.246,145.106
154.552,145.579
153.324,145.966
145.958,145.966
135.565,145.446
125.315,144.439
132.229,143.829
134.378,143.356
139.731,143.175
138.267,142.929
142.032,142.885
138.426,142.662
128.226,141.94
130.104,141.348
136.742,141.118
141.828,141.153
147.146,141.453
147.951,141.778
148.109,142.094
145.946,142.287
141.894,142.267
131.628,141.735
140.144,141.656
147.408,141.943
151.765,142.434
165.452,143.585
163.084,144.56
163.371,145.501
161.146,146.283
152.302,146.584
144.944,146.502
146.047,146.479
152.086,146.76
155.094,147.176
163.825,148.009
167.108,148.964
169.019,149.966
162.763,150.606
150.061,150.579
143.443,150.222
148.857,150.154
150.995,150.196
156.835,150.528
154.456,150.724
152.203,150.798
140.215,150.269
133.89,149.45
131.936,148.574
138.509,148.071
144.938,147.914
144.736,147.756
141.396,147.438
133.243,146.728
129.247,145.854
128.764,144.999
136.875,144.593
142.327,144.48
147.701,144.641
151.495,144.984
157.633,145.616
162.46,146.458
162.936,147.282
158.033,147.82
149.621,147.91
144.488,147.739
146.566,147.68
152.354,147.914
155.814,148.309
161.637,148.975
165.69,149.811
160.545,150.348
156.009,150.631
142.821,150.24
136.254,149.541
140.333,149.08
144.357,148.844
150.745,148.939
152.152,149.1
158.268,149.558
154.008,149.781
146.631,149.623
142.319,149.258
143.853,148.988
145.676,148.822
147.436,148.753
151.442,148.887
154.399,149.163
160.211,149.715
