Normal data,Filtered data
74.9846,74.9846
74.8275,74.9768
75.3065,74.9933
76.1126,75.0492
74.9112,75.0423
74.0139,74.9909
72.3487,74.8588
71.354,74.6836
70.7495,74.4869
73.1979,74.4224
75.2824,74.4654
76.6686,74.5756
77.6715,74.7304
76.9292,74.8403
76.479,74.9222
77.0637,75.0293
74.219,74.9888
72.9707,74.8879
72.7213,74.7796
75.7927,74.8302
77.5533,74.9664
79.6018,75.1981
81.2957,75.503
82.3617,75.8459
81.2619,76.1167
79.6843,76.2951
77.667,76.3637
74.6912,76.2801
71.9941,76.0658
71.7847,75.8517
71.1883,75.6186
70.2781,75.3515
71.8968,75.1788
74.1536,75.1275
73.7932,75.0608
73.7555,74.9956
73.2358,74.9076
70.5799,74.6912
69.2274,74.418
69.5956,74.1769
70.9202,74.014
71.9958,73.9131
73.209,73.8779
73.9713,73.8826
74.6345,73.9202
75.7432,74.0113
75.3024,74.0759
74.8599,74.1151
74.7896,74.1488
74.7583,74.1793
73.6192,74.1513
74.1495,74.1512
74.3613,74.1617
74.1461,74.1609
73.1755,74.1116
74.6891,74.1405
75.3688,74.2019
74.9892,74.2413
75.1648,74.2875
75.2192,74.3341
74.2181,74.3283
74.4556,74.3346
73.6854,74.3022
72.759,74.225
72.8845,74.158
71.9231,74.0462
73.8143,74.0346
74.6777,74.0668
74.521,74.0895
76.3863,74.2043
76.5866,74.3234
76.6373,74.4391
76.7468,74.5545
76.4362,74.6486
74.8166,74.657
74.1078,74.6295
75.373,74.6667
75.4798,74.7074
75.6773,74.7559
75.4301,74.7896
75.3232,74.8163
74.2467,74.7878
74.7116,74.784
75.3905,74.8143
75.0407,74.8256
74.1065,74.7897
73.8494,74.7426
75.6158,74.7863
75.1522,74.8046
74.9432,74.8115
74.5029,74.7961
74.016,74.7571
72.3368,74.6361
72.9869,74.5536
73.2247,74.4872
72.4584,74.3857
71.9956,74.2662
71.6393,74.1349
71.1924,73.9878
70.9981,73.8383
72.102,73.7515
72.6801,73.6979
72.9966,73.6628
73.5596,73.6577
73.5883,73.6542
73.4385,73.6434
73.1733,73.6199
72.9033,73.5841
72.6143,73.5356
71.9723,73.4574
71.6967,73.3694
73.6573,73.3838
74.4676,73.4379
74.7509,73.5036
74.9433,73.5756
74.4101,73.6173
73.7114,73.622
74.7264,73.6772
75.0678,73.7467
74.9109,73.805
73.6794,73.7987
72.8238,73.7499
74.0506,73.765
74.9581,73.8246
75.6385,73.9153
75.9063,74.0149
74.6727,74.0478
73.2297,74.0069
73.2146,73.9672
72.3952,73.8886
70.8177,73.7351
69.8408,73.5404
70.0926,73.368
72.009,73.3
72.5719,73.2636
72.8411,73.2425
72.7861,73.2197
73.4176,73.2296
73.509,73.2436
73.5113,73.2569
71.9468,73.1914
71.1501,73.0894
70.9605,72.9829
72.6705,72.9673
74.086,73.0232
74.9904,73.1216
74.9695,73.214
75.7541,73.341
75.2346,73.4356
74.9094,73.5093
72.9426,73.481
71.4551,73.3797
71.6579,73.2936
71.359,73.1969
72.5339,73.1637
71.936,73.1023
71.3715,73.0158
72.962,73.0131
73.8048,73.0527
74.0875,73.1044
74.2095,73.1597
74.7887,73.2411
74.0519,73.2817
74.8699,73.3611
74.3401,73.41
74.0717,73.4431
73.2379,73.4329
74.5115,73.4868
75.117,73.5683
74.8842,73.6341
74.2061,73.6627
72.9339,73.6263
71.6222,73.5261
72.6372,73.4816
72.4284,73.429
71.4089,73.328
70.7438,73.1987
70.4288,73.0603
71.5535,72.9849
72.095,72.9404
71.4912,72.868
71.353,72.7922
70.5728,72.6812
70.4353,72.5689
70.8797,72.4845
70.6315,72.3918
71.0376,72.3241
71.1084,72.2633
71.6816,72.2343
72.1368,72.2294
72.544,72.2451
73.112,72.2884
75.8826,72.4681
76.9559,72.6925
76.1349,72.8647
75.2241,72.9826
73.9394,73.0305
73.5698,73.0574
74.5359,73.1313
75.403,73.2449
75.523,73.3588
76.0771,73.4947
75.4473,73.5924
74.1762,73.6216
73.8213,73.6315
72.9516,73.5975
71.8439,73.5099
71.4036,73.4045
72.762,73.3724
74.1542,73.4115
75.2993,73.5059
75.9894,73.6301
75.5295,73.725
73.7668,73.7271
74.0044,73.741
73.1931,73.7136
72.041,73.63
71.743,73.5356
73.3326,73.5255
73.2176,73.5101
72.486,73.4589
72.1254,73.3922
72.3237,73.3388
71.1433,73.229
72.9646,73.2158
73.5989,73.2349
73.0456,73.2255
72.8192,73.2051
73.4937,73.2196
72.919,73.2045
72.4236,73.1655
72.9343,73.1539
73.2311,73.1578
72.6261,73.1312
73.2231,73.1358
73.0758,73.1328
73.0291,73.1276
73.428,73.1426
73.3783,73.1544
74.2848,73.2109
74.9693,73.2988
74.3752,73.3526
73.2441,73.3472
72.7344,73.3166
72.4863,73.2751
73.1453,73.2686
73.5713,73.2837
74.096,73.3243
73.9457,73.3554
73.2855,73.3519
74.1791,73.3932
74.1958,73.4334
74.5024,73.4868
74.6212,73.5435
74.0487,73.5688
74.0728,73.594
74.3168,73.6301
74.0472,73.651
74.2882,73.6829
73.4327,73.6703
74.8211,73.7279
74.3378,73.7584
74.1622,73.7786
74.2215,73.8007
72.8869,73.755
74.248,73.7797
74.1518,73.7983
73.3762,73.7772
72.4161,73.7091
73.0043,73.6739
73.3543,73.6579
72.9073,73.6204
73.1472,73.5967
72.676,73.5507
72.8788,73.5171
73.041,73.4933
72.8556,73.4614
72.3921,73.4079
74.2266,73.4488
75.4943,73.5511
76.5745,73.7023
78.055,73.9199
78.493,74.1486
77.3083,74.3065
77.7931,74.4809
77.2233,74.618
78.6669,74.8204
77.9959,74.9792
77.1014,75.0853
78.6311,75.2626
79.688,75.4839
79.7996,75.6997
78.6518,75.8473
77.7676,75.9433
77.0606,75.9992
77.4061,76.0695
75.6621,76.0491
77.5041,76.1219
77.7189,76.2017
77.9116,76.2872
77.2958,76.3377
75.9861,76.3201
77.1445,76.3613
75.0086,76.2937
72.8701,76.1225
74.1319,76.023
75.0305,75.9733
75.4186,75.9456
74.0158,75.8491
73.5401,75.7337
72.8008,75.587
71.5042,75.3829
73.0212,75.2648
73.8924,75.1962
74.672,75.17
75.178,75.1704
75.1117,75.1674
74.1386,75.116
73.3439,75.0274
74.4517,74.9986
74.1734,74.9573
74.2109,74.92
73.9317,74.8706
74.9161,74.8729
74.831,74.8708
74.3839,74.8464
73.4862,74.7784
75.0023,74.7896
75.5774,74.829
75.7812,74.8766
76.1001,74.9378
76.9061,75.0362
77.2217,75.1455
75.8297,75.1797
73.7786,75.1096
73.3949,75.0239
72.7085,74.9081
73.9099,74.8582
74.8132,74.8559
75.1732,74.8718
74.6233,74.8594
75.0004,74.8664
75.1655,74.8814
75.3317,74.9039
75.575,74.9375
75.9229,74.9867
74.8634,74.9806
75.9726,75.0302
76.0203,75.0797
75.4199,75.0967
74.3165,75.0577
73.5972,74.9846
73.7214,74.9215
73.8655,74.8687
72.6058,74.7555
72.7151,74.6535
72.4447,74.5431
73.1294,74.4724
73.9729,74.4474
74.0679,74.4284
73.9848,74.4063
73.8815,74.38
73.9589,74.359
72.2789,74.255
71.1501,74.0997
72.4808,74.0188
73.4988,73.9928
73.9858,73.9924
74.873,74.0364
75.4632,74.1078
74.9946,74.1521
75.3922,74.2141
75.8042,74.2936
75.7633,74.3671
74.5456,74.376
74.5522,74.3848
74.5371,74.3924
74.2217,74.3839
74.5559,74.3925
74.5075,74.3983
74.5845,74.4076
73.3612,74.3552
73.5974,74.3173
72.5804,74.2305
71.5911,74.0985
71.157,73.9514
73.259,73.9168
74.5292,73.9474
75.1112,74.0056
74.8718,74.0489
72.9439,73.9937
73.5869,73.9734
74.15,73.9822
74.4785,74.007
74.0968,74.0115
73.3034,73.9761
74.4831,74.0014
74.5894,74.0308
74.2417,74.0414
74.1208,74.0453
74.3175,74.0589
74.1119,74.0616
73.9338,74.0552
72.8532,73.9951
71.6273,73.8767
73.4158,73.8536
74.107,73.8663
74.236,73.8848
73.2178,73.8514
73.4995,73.8338
73.3173,73.808
72.2889,73.7321
72.5726,73.6741
74.0592,73.6933
75.2161,73.7695
78.3082,73.9964
77.455,74.1693
75.0409,74.2129
73.6746,74.186
72.4356,74.0985
71.6603,73.9766
73.0803,73.9317
73.5465,73.9125
74.2983,73.9318
73.6786,73.9191
74.7904,73.9627
75.1377,74.0214
74.4036,74.0406
73.1268,73.9949
74.2985,74.01
74.4957,74.0343
75.2768,74.0965
76.2669,74.205
76.1186,74.3007
75.7282,74.372
75.2384,74.4154
74.2943,74.4093
73.4555,74.3616
74.6011,74.3736
75.6385,74.4368
75.7505,74.5025
75.9345,74.5741
75.0462,74.5977
75.102,74.6229
74.9467,74.6391
75.1932,74.6668
73.2712,74.597
73.3233,74.5333
73.0134,74.4573
72.3023,74.3496
73.7676,74.3205
74.8135,74.3451
74.8381,74.3698
75.2333,74.4129
75.585,74.4715
73.9706,74.4465
72.6008,74.3542
74.2767,74.3503
75.6039,74.413
76.8634,74.5355
77.6373,74.6906
76.5886,74.7855
76.5262,74.8726
75.2148,74.8897
73.8931,74.8398
73.075,74.7516
72.9768,74.6628
72.1031,74.5349
72.657,74.441
72.3815,74.338
71.8914,74.2157
71.4751,74.0786
72.36,73.9927
72.494,73.9177
73.2509,73.8844
74.3163,73.906
74.9287,73.9571
74.2425,73.9714
73.5723,73.9514
72.4705,73.8774
71.7187,73.7695
72.0679,73.6844
74.3916,73.7197
74.1022,73.7389
73.0359,73.7037
73.7887,73.708
73.9145,73.7183
74.2335,73.744
74.7374,73.7937
73.9552,73.8018
73.2284,73.7731
71.9096,73.6799
72.3232,73.6121
