Normal data,Filtered data
154.18,154.18
153.918,153.931
149.821,150.027
142.45,142.829
149.594,149.256
154.33,154.076
156.795,156.659
156.488,156.496
154.729,154.817
153.451,153.52
154.209,154.174
148.297,148.591
146.595,146.695
141.716,141.965
141.739,141.75
142.752,142.702
140.307,140.426
138.905,138.981
143.118,142.911
142.322,142.351
156.662,155.946
155.049,155.094
154.713,154.732
155.508,155.469
152.779,152.913
152.316,152.346
151.893,151.916
153.512,153.432
151.198,151.31
150.952,150.97
149.964,150.014
149.882,149.888
148.9,148.949
149.63,149.596
148.747,148.789
148.971,148.962
148.269,148.304
148.828,148.801
147.762,147.814
147.183,147.215
148.355,148.298
150.521,150.41
151.9,151.826
151.942,151.937
152.124,152.114
154.36,154.248
155.832,155.753
156.532,156.493
156.376,156.382
155.938,155.96
155.059,155.104
154.026,154.08
153.073,153.123
152.193,152.239
152.296,152.293
152.938,152.906
153.124,153.113
153.392,153.378
152.006,152.074
152.674,152.644
153.189,153.162
153.193,153.192
152.179,152.23
148.875,149.043
147.577,147.65
149.757,149.651
149.569,149.574
150.91,150.843
149.137,149.222
149.825,149.795
150.46,150.426
150.948,150.922
151.245,151.228
153.018,152.928
154.88,154.783
154.798,154.797
153.757,153.809
153.103,153.139
153.314,153.306
152.537,152.575
152.067,152.092
153.175,153.121
153.83,153.794
155.713,155.617
155.646,155.644
155.658,155.657
155.026,155.057
154.399,154.432
153.701,153.737
152.961,153
152.481,152.507
152.967,152.944
152.214,152.25
151.557,151.592
152.2,152.169
153.082,153.036
153.147,153.141
153.6,153.577
153.036,153.063
152.344,152.38
152.004,152.023
150.793,150.855
149.094,149.182
149.121,149.124
150.629,150.553
150.975,150.954
151.21,151.197
150.261,150.308
151.973,151.89
150.947,150.994
151.577,151.548
149.306,149.418
147.848,147.927
146.603,146.67
145.638,145.689
144.796,144.841
145.148,145.133
146.715,146.636
147.484,147.442
146.105,146.172
145.699,145.723
145.613,145.619
141.393,141.604
141.025,141.054
144.962,144.767
147.635,147.491
150.548,150.395
151.2,151.16
151.448,151.433
153.388,153.29
151.595,151.68
149.837,149.929
148.935,148.984
149.365,149.346
150.46,150.404
151.259,151.216
153.141,153.045
152.931,152.937
153.645,153.61
155.677,155.573
155.999,155.977
155.879,155.884
159.883,159.683
153.76,154.056
144.749,145.215
137.648,138.026
132.484,132.761
136.201,136.029
143.448,143.077
149.831,149.494
150.692,150.632
151.493,151.449
155.798,155.581
156.578,156.528
157.178,157.145
156.541,156.572
155.284,155.349
153.653,153.738
147.806,148.103
144.435,144.619
150.002,149.733
150.632,150.587
154.442,154.249
155.231,155.182
155.247,155.243
154.951,154.965
153.697,153.761
152.631,152.688
150.416,150.529
148.208,148.324
145.969,146.087
145.27,145.311
145.186,145.192
147.07,146.976
149.012,148.91
149.253,149.236
148.257,148.306
149.415,149.359
150.764,150.694
152.981,152.866
152.012,152.054
153.682,153.601
153.455,153.463
153.257,153.267
152.076,152.135
150.671,150.744
150.283,150.306
150.711,150.691
149.909,149.948
150.174,150.163
151.013,150.97
151.665,151.631
153.126,153.051
154.206,154.149
153.518,153.55
153.96,153.939
154.489,154.462
156.484,156.383
157.443,157.39
156.85,156.877
155.725,155.782
155.707,155.71
156.527,156.486
155.81,155.844
156.449,156.419
157.294,157.251
157.463,157.452
156.32,156.376
154.664,154.75
152.625,152.732
151.227,151.302
147.791,147.967
149.92,149.822
151.372,151.295
151.166,151.172
151.223,151.22
151.04,151.049
150.5,150.528
149.605,149.651
148.104,148.181
147.997,148.006
145.932,146.035
147.129,147.074
148.853,148.764
149.825,149.772
149.382,149.401
150.151,150.114
149.125,149.174
146.694,146.818
148.884,148.781
149.944,149.886
148.685,148.745
146.977,147.066
148.592,148.516
148.914,148.894
148.695,148.705
146.533,146.641
144.369,144.482
144.336,144.343
146.472,146.366
148.655,148.541
146.522,146.623
149.476,149.334
148.4,148.447
149.099,149.066
146.698,146.816
143.908,144.053
147.288,147.127
149.655,149.529
149.745,149.734
150.347,150.317
151.316,151.266
153.25,153.151
153.318,153.31
152.265,152.317
150.969,151.036
150.256,150.295
151.99,151.905
149.365,149.492
146.706,146.845
149.053,148.943
140.711,141.122
147.322,147.012
150.904,150.71
153.894,153.735
155.466,155.38
156.836,156.764
157.649,157.605
156.861,156.898
154.878,154.979
152.954,153.055
149.525,149.702
148.535,148.593
147.919,147.952
145.643,145.758
144.323,144.394
143.546,143.588
146.27,146.136
144.055,144.159
142.87,142.935
147.586,147.354
147.946,147.917
148.729,148.688
150.084,150.014
153.38,153.212
154.716,154.64
153.448,153.508
152.581,152.627
152.023,152.053
155.62,155.442
157.914,157.791
158.432,158.4
157.823,157.852
157.501,157.518
157.331,157.341
158.206,158.163
158.005,158.013
158.05,158.049
158.167,158.161
157.981,157.99
157.075,157.121
157.969,157.927
158.332,158.312
159.052,159.015
159.962,159.915
159.027,159.072
156.922,157.029
155.321,155.407
158.126,157.99
159.551,159.473
157.481,157.581
159.206,159.125
158.098,158.15
157.928,157.939
157.835,157.84
159.422,159.343
159.609,159.596
159.448,159.456
159.243,159.254
158.685,158.713
154.732,154.931
147.82,148.176
152.978,152.738
151.655,151.709
150.724,150.773
155.208,154.986
155.63,155.598
155.774,155.765
155.704,155.707
155.968,155.955
155.527,155.548
155.104,155.126
159.311,159.102
160.976,160.883
159.807,159.861
158.754,158.809
157.043,157.132
157.34,157.329
157.999,157.965
160.244,160.13
161.313,161.254
161.186,161.19
161.957,161.918
161.284,161.316
160.703,160.734
157.742,157.892
157.264,157.295
156.963,156.98
155.587,155.656
159.135,158.961
158.91,158.912
159.297,159.278
159.902,159.87
159.889,159.888
158.993,159.038
157.842,157.902
156.526,156.594
155.675,155.721
155.883,155.875
156.74,156.696
157.523,157.481
157.441,157.443
157.376,157.38
157.223,157.231
156.508,156.544
156.226,156.242
156.857,156.826
155.626,155.686
154.111,154.19
154.158,154.16
157.998,157.806
159.701,159.606
159.329,159.343
158.633,158.668
156.086,156.215
155.277,155.324
157.028,156.943
