Normal data,Filtered data
87.1124,87.1124
86.7862,87.0961
85.6917,87.0259
85.1243,86.9308
84.1878,86.7937
84.8582,86.6969
84.9643,86.6103
85.266,86.5431
84.7702,86.4544
82.2396,86.2437
80.2376,85.9434
78.7562,85.584
78.2659,85.2181
77.0888,84.8116
76.8637,84.4142
75.439,83.9655
74.3542,83.4849
74.1551,83.0184
74.3768,82.5863
73.4807,82.1311
71.9766,81.6233
71.5289,81.1186
71.9279,80.6591
71.253,80.1888
71.2955,79.7441
71.7905,79.3464
71.3607,78.9471
71.9031,78.5949
73.8096,78.3557
75.7816,78.227
77.7334,78.2023
80.2388,78.3041
81.268,78.4523
81.1854,78.589
81.3033,78.7247
81.8039,78.8786
82.5253,79.061
84.0888,79.3123
84.8917,79.5913
84.938,79.8586
85.168,80.1241
84.9678,80.3663
84.405,80.5682
83.2637,80.703
82.2904,80.7824
82.1467,80.8506
82.9672,80.9564
82.9242,81.0548
82.3248,81.1183
82.1522,81.17
81.6764,81.1953
80.7258,81.1718
80.6908,81.1478
81.4085,81.1608
80.8919,81.1474
80.2581,81.1029
80.9534,81.0954
81.0229,81.0918
80.5402,81.0642
80.0858,81.0153
79.0693,80.918
80.1418,80.8792
81.2432,80.8974
81.9268,80.9489
83.2413,81.0635
83.1836,81.1695
84.7508,81.3485
84.3548,81.4988
