Normal data,Filtered data
164.376,164.376
168.135,164.564
171.751,164.923
155.28,164.441
140.789,163.259
137.311,161.961
145.532,161.14
159.722,161.069
166.587,161.345
152.717,160.913
138.293,159.782
129.271,158.257
125.608,156.624
127.623,155.174
133.942,154.113
143.301,153.572
149.604,153.374
138.097,152.61
127.931,151.376
123.987,150.006
123.93,148.703
130.216,147.778
135.685,147.174
146.018,147.116
137.09,146.615
131.205,145.844
124.577,144.781
124.86,143.785
133.027,143.247
143.016,143.235
156.582,143.903
163.69,144.892
156.664,145.481
147.689,145.591
138.542,145.239
136.241,144.789
142.138,144.656
149.188,144.883
159.425,145.61
167.313,146.695
163.476,147.534
156.373,147.976
144.463,147.8
137.653,147.293
133.67,146.612
136.459,146.104
143.643,145.981
150.182,146.191
158.871,146.825
161.231,147.545
159.813,148.159
158.837,148.693
161.661,149.341
166.647,150.206
161.449,150.769
160.696,151.265
166.9,152.047
177.201,153.304
176.097,154.444
170.891,155.266
156.495,155.328
145.255,154.824
147.318,154.449
153.409,154.397
158.495,154.602
161.906,154.967
162.368,155.337
159.336,155.537
148.052,155.163
138.219,154.316
129.988,153.099
131.017,151.995
137.48,151.269
143.548,150.883
146.618,150.67
145.531,150.413
134.098,149.597
123.748,148.305
117.85,146.782
119.232,145.405
123.685,144.319
134.666,143.836
142.29,143.759
140.513,143.596
135.596,143.196
133.718,142.722
132.887,142.231
137.126,141.975
144.73,142.113
156.41,142.828
162.288,143.801
163.674,144.795
151.174,145.114
147.446,145.23
149.672,145.452
159.087,146.134
165.566,147.106
166.51,148.076
160.26,148.685
152.249,148.863
145.123,148.676
142.334,148.359
146.161,148.249
152.824,148.478
159.562,149.032
163.666,149.764
155.584,150.055
145.938,149.849
135.216,149.117
140.717,148.697
141.169,148.321
142.263,148.018
133.8,147.307
125.82,146.233
121.331,144.988
129.641,144.22
132.296,143.624
144.388,143.662
136.994,143.329
130.023,142.664
125.974,141.829
125.276,141.001
133.207,140.612
142.846,140.723
151.798,141.277
154.885,141.958
146.474,142.183
140.264,142.087
133.867,141.676
136.062,141.396
139.781,141.315
146.446,141.571
154.755,142.231
156.406,142.939
146.482,143.116
135.453,142.733
129.211,142.057
136.798,141.794
149.425,142.176
157.242,142.929
156.321,143.599
145.344,143.686
136.408,143.322
132.663,142.789
134.84,142.392
143.849,142.464
150.71,142.877
158.136,143.64
157.603,144.338
161.878,145.215
167.501,146.329
168.461,147.436
160.502,148.089
152.434,148.306
151.34,148.458
155.124,148.791
155.805,149.142
153.432,149.357
146.066,149.192
140.027,148.734
136.329,148.113
138.792,147.647
146.525,147.591
145.576,147.491
133.923,146.812
127.745,145.859
123.575,144.745
123.026,143.659
127.42,142.847
133.138,142.361
142.586,142.373
146.691,142.588
147.834,142.851
152.555,143.336
144.682,143.403
137.196,143.093
131.382,142.507
132.778,142.021
138.232,141.832
144.545,141.967
150.772,142.408
152.013,142.888
156.456,143.566
158.078,144.292
148.305,144.492
140.03,144.269
135.241,143.818
136.04,143.429
139.397,143.227
150.364,143.584
149.314,143.871
146.65,144.01
145.343,144.076
154.362,144.591
155.758,145.149
157.375,145.76
152.463,146.095
146.357,146.109
148.25,146.216
154.988,146.654
158.513,147.247
157.958,147.783
154.544,148.121
149.365,148.183
149.634,148.255
152.576,148.472
155.453,148.821
155.82,149.171
148.669,149.145
147.026,149.039
150.083,149.092
155.796,149.427
154.978,149.704
158.828,150.161
164.484,150.877
165.905,151.628
164.498,152.272
156.572,152.487
148.477,152.286
149.678,152.156
155.193,152.308
157.802,152.582
153.764,152.641
148.527,152.436
148.954,152.262
155.614,152.429
160.726,152.844
154.781,152.941
151.606,152.874
150.587,152.76
155.236,152.884
152.025,152.841
154.013,152.899
148.499,152.679
145.416,152.316
147.175,152.059
141.479,151.53
139.549,150.931
140.466,150.408
143.272,150.051
146.408,149.869
145.771,149.664
146.704,149.516
144.508,149.266
149.929,149.299
148.748,149.271
146.95,149.155
145.941,148.994
145.194,148.804
146.631,148.696
150.866,148.804
147.989,148.764
149.747,148.813
153.829,149.063
148.476,149.034
149.573,149.061
154.936,149.355
159.764,149.875
156.335,150.198
156.258,150.501
161.672,151.06
155.241,151.269
153.227,151.367
157.461,151.671
162.482,152.212
157.653,152.484
156.578,152.689
161.467,153.128
158.027,153.373
155.394,153.474
156.238,153.612
161.231,153.993
165.635,154.575
165.463,155.119
160.49,155.388
157.971,155.517
161.292,155.806
156.902,155.861
154.477,155.791
158.064,155.905
164.233,156.321
165.625,156.787
165.899,157.242
170.72,157.916
162.813,158.161
158.227,158.164
160.717,158.292
167.669,158.761
160.71,158.858
161.065,158.968
