Normal data,Filtered data
142.703,142.703
142.117,142.673
143.042,142.692
145.691,142.842
147.726,143.086
147.81,143.322
149.635,143.638
149.578,143.935
149.318,144.204
149.269,144.457
150.82,144.775
151.183,145.096
151.952,145.439
153.862,145.86
154.26,146.28
154.743,146.703
155.707,147.153
156.137,147.602
157.352,148.09
158.527,148.612
158.552,149.109
157.883,149.547
157.791,149.96
154.585,150.191
155.127,150.438
155.025,150.667
154.989,150.883
154.575,151.068
151.528,151.091
149.64,151.018
149.813,150.958
152.472,151.034
155.167,151.24
156.909,151.524
155.959,151.745
157.712,152.044
155.043,152.194
151.488,152.159
151.629,152.132
150.123,152.032
148.733,151.867
147.861,151.666
147.843,151.475
148.842,151.344
149.244,151.239
146.083,150.981
148.077,150.836
149.265,150.757
148.739,150.656
145.219,150.384
145.177,150.124
145.278,149.882
146.733,149.724
140.387,149.257
