Normal data,Filtered data
138.629,138.629
140.617,138.729
141.459,138.865
141.415,138.993
141.123,139.099
142.566,139.272
142.555,139.437
142.888,139.609
142.996,139.779
141.405,139.86
142.167,139.975
140.356,139.994
141.286,140.059
140.828,140.097
138.607,140.023
132.851,139.664
129.189,139.14
131.667,138.767
134.57,138.557
132.658,138.262
132.415,137.97
131.664,137.654
129.825,137.263
129.964,136.898
129.732,136.54
133.778,136.402
136.398,136.401
138.821,136.522
139.642,136.678
140.695,136.879
150.821,137.576
152.93,138.344
150.917,138.972
150.051,139.526
150.772,140.089
150.873,140.628
149.054,141.049
147.632,141.378
146.124,141.616
143.473,141.708
142.083,141.727
141.29,141.705
141.081,141.674
140.739,141.627
141.018,141.597
139.422,141.488
136.773,141.252
140.038,141.192
140.821,141.173
141.616,141.195
142.376,141.254
141.483,141.266
141.378,141.271
141.398,141.278
137.573,141.092
128.815,140.478
134.777,140.193
134.525,139.91
132.773,139.553
131.003,139.126
129.217,138.63
132.291,138.313
134.823,138.139
137.508,138.107
139.536,138.179
140.955,138.317
141.088,138.456
142.263,138.646
140.582,138.743
156.131,139.612
153.78,140.321
152.741,140.942
152.055,141.498
150.919,141.969
148.55,142.298
147.794,142.573
145.29,142.708
145.98,142.872
145.676,143.012
144.593,143.091
143.542,143.114
143.26,143.121
144.522,143.191
144.984,143.281
145.552,143.394
145.139,143.482
144.085,143.512
143.984,143.535
144.12,143.565
143.539,143.563
144.663,143.618
143.295,143.602
143.013,143.573
142.371,143.513
141.828,143.428
142.202,143.367
141.649,143.281
140.235,143.129
141.494,143.047
142.116,143
141.592,142.93
139.887,142.778
137.234,142.501
134.948,142.123
133.507,141.692
132.787,141.247
135.217,140.946
138.311,140.814
138.548,140.701
135.69,140.45
133.751,140.115
134.432,139.831
139.731,139.826
144.355,140.052
144.693,140.284
142.992,140.42
142.114,140.504
140.491,140.504
140.516,140.504
140.817,140.52
136.5,140.319
137.217,140.164
138.711,140.091
135.46,139.86
134.847,139.609
137.636,139.51
139.201,139.495
140.097,139.525
139.575,139.527
140.817,139.592
139.653,139.595
136.007,139.416
134.01,139.145
134.544,138.915
135.451,138.742
136.194,138.615
137.616,138.565
136.038,138.438
134.572,138.245
137.793,138.222
140.055,138.314
141.382,138.467
141.868,138.637
141.35,138.773
140.765,138.873
140.146,138.936
139.919,138.985
137.704,138.921
135.069,138.729
136.697,138.627
130.839,138.238
134.43,138.047
138.889,138.089
142.848,138.327
144.186,138.62
145.261,138.952
144.775,139.243
144.185,139.49
143.927,139.712
142.842,139.869
140.766,139.914
139.557,139.896
139.707,139.886
141.585,139.971
142.899,140.118
143.845,140.304
138.903,140.234
137.122,140.078
135.373,139.843
139.821,139.842
139.817,139.841
138.714,139.784
137.282,139.659
134.608,139.407
132.042,139.038
131.512,138.662
129.833,138.221
125.993,137.609
129.026,137.18
134.67,137.055
137.819,137.093
138.634,137.17
140.506,137.337
142.067,137.573
142.851,137.837
143.667,138.129
143.818,138.413
141.954,138.59
140.361,138.679
140.318,138.761
140.175,138.831
139.7,138.875
140.797,138.971
141.414,139.093
142.109,139.244
152.131,139.888
151.826,140.485
149.348,140.928
148.122,141.288
149.526,141.7
149.127,142.071
147.509,142.343
145.785,142.515
143.189,142.549
142.409,142.542
142.424,142.536
142.253,142.522
142.768,142.534
145.602,142.688
145.636,142.835
143.329,142.86
136.185,142.526
135.382,142.169
137.695,141.945
143.218,142.009
144.934,142.155
144.183,142.256
141.245,142.206
138.279,142.009
141.425,141.98
140.918,141.927
145.297,142.096
143.228,142.152
143.179,142.204
143.959,142.291
143.755,142.365
143.532,142.423
143.532,142.478
142.07,142.458
141.701,142.42
138.656,142.232
137.48,141.994
138.642,141.827
139.766,141.724
139.622,141.619
141.828,141.629
141.893,141.642
143.697,141.745
142.507,141.783
140.272,141.708
141.743,141.709
142.403,141.744
142.988,141.806
143.486,141.89
143.514,141.971
143.719,142.059
144.045,142.158
141.826,142.142
141.79,142.124
140.997,142.068
141.316,142.03
141.876,142.022
141.226,141.983
136.559,141.711
134.521,141.352
136.1,141.089
137.777,140.924
137.927,140.774
138.139,140.642
137.816,140.501
137.42,140.347
137.995,140.229
137.187,140.077
140.385,140.092
141.864,140.181
141.675,140.256
142.967,140.391
141.756,140.459
142.763,140.575
142.938,140.693
143.127,140.814
143.164,140.932
144.126,141.092
144.231,141.249
142.695,141.321
141.428,141.326
140.631,141.291
141.763,141.315
139.506,141.225
139.881,141.157
140.67,141.133
141.298,141.141
141.638,141.166
141.069,141.161
141.268,141.167
141.01,141.159
144.173,141.309
146.557,141.572
149.542,141.97
147.981,142.271
147.78,142.546
144.498,142.644
142.584,142.641
142.389,142.628
141.37,142.565
142.16,142.545
143.247,142.58
142.044,142.553
142.158,142.534
142.873,142.551
143.771,142.612
144.688,142.716
143.709,142.765
142.88,142.771
141.727,142.719
142.243,142.695
139.844,142.552
140.456,142.448
139.136,142.282
134.378,141.887
136.184,141.602
134.186,141.231
136.186,140.979
137.918,140.826
133.251,140.447
134.237,140.136
136.565,139.958
136.061,139.763
132.593,139.404
135.301,139.199
136.905,139.085
137.924,139.027
139.814,139.066
138.909,139.058
138.149,139.013
137.689,138.946
138.257,138.912
135.296,138.731
138.81,138.735
141.062,138.851
142.551,139.036
143.566,139.263
143.593,139.479
142.199,139.615
140.881,139.679
141.924,139.791
143.03,139.953
142.155,140.063
140.898,140.105
143.509,140.275
143.966,140.46
142.054,140.539
142.916,140.658
155.308,141.391
160.131,142.328
160.543,143.238
158.841,144.018
157.322,144.684
155.889,145.244
159.33,145.948
156.755,146.489
152.325,146.78
146.378,146.76
144.113,146.628
140.432,146.318
142.048,146.105
142.573,145.928
141.35,145.699
151.505,145.989
153.371,146.358
157.289,146.905
153.453,147.232
150.004,147.371
151.254,147.565
150.178,147.696
147.866,147.704
146.419,147.64
144.788,147.497
142.881,147.267
138.957,146.851
139.572,146.487
139.782,146.152
140.771,145.883
139.347,145.556
138.141,145.185
135.342,144.693
135.097,144.213
136.779,143.842
137.385,143.519
137.722,143.229
137.42,142.939
137.12,142.648
136.189,142.325
136.964,142.057
135.141,141.711
135.553,141.403
136.523,141.159
139.619,141.082
140.046,141.03
141.922,141.075
139.814,141.012
139.522,140.937
142.382,141.009
143.86,141.152
142.65,141.227
141.941,141.263
140.926,141.246
140.833,141.225
143.031,141.315
144.075,141.453
144.989,141.63
144.691,141.783
144.062,141.897
156.258,142.615
155.4,143.254
152.67,143.725
157.246,144.401
156.672,145.015
157.94,145.661
156.437,146.2
152.744,146.527
149.673,146.684
147.426,146.721
146.007,146.686
144.061,146.554
143.253,146.389
142.159,146.178
141.823,145.96
139.981,145.661
134.562,145.106
136.369,144.669
138.81,144.376
138.754,144.095
139.362,143.859
137.169,143.524
136.665,143.181
136.389,142.841
136.946,142.547
151.156,142.977
145.216,143.089
143.948,143.132
146.328,143.292
143.985,143.327
144.297,143.375
144.396,143.426
143.48,143.429
143.542,143.434
141.949,143.36
143.132,143.349
143.138,143.338
142.752,143.309
141.872,143.237
151.683,143.659
151.795,144.066
150.306,144.378
149.487,144.634
148.355,144.82
147.725,144.965
145.991,145.016
143.386,144.935
143.601,144.868
142.558,144.752
141.958,144.613
139.288,144.347
132.541,143.756
132.81,143.209
134.752,142.786
133.726,142.333
132.115,141.822
134.05,141.434
131.213,140.923
132.786,140.516
133.805,140.18
138.374,140.09
139.823,140.076
137.237,139.934
138.563,139.866
141.979,139.972
142.045,140.075
138.661,140.005
137.038,139.856
136.959,139.711
135.873,139.519
137.221,139.404
137.884,139.328
153.056,140.015
159.108,140.969
159.917,141.917
157.613,142.702
155.55,143.344
154.301,143.892
153.801,144.387
152.893,144.813
150.031,145.074
147.209,145.18
144.606,145.152
141.134,144.951
140.715,144.739
141.863,144.595
141.014,144.416
141.18,144.254
141.249,144.104
136.603,143.729
134.088,143.247
135.464,142.858
133.562,142.393
131.503,141.848
130.783,141.295
129.909,140.726
133.92,140.386
135.917,140.162
137.2,140.014
151.376,140.582
148.209,140.963
149.423,141.386
150.739,141.854
150.132,142.268
147.021,142.506
144.372,142.599
145.431,142.741
143.733,142.79
141.625,142.732
139.385,142.565
136.232,142.248
138.245,142.048
139.916,141.941
141.009,141.895
141.885,141.894
141.089,141.854
136.168,141.57
134.455,141.214
137.817,141.044
140.525,141.018
142.16,141.075
141.212,141.082
141.688,141.112
142.972,141.205
141.75,141.232
139.821,141.162
137.415,140.975
133.656,140.609
135.789,140.368
132.414,139.97
136.418,139.792
139.209,139.763
140.564,139.803
141.767,139.901
139.565,139.885
141.359,139.958
143.524,140.137
143.821,140.321
143.193,140.464
142.794,140.581
141.175,140.611
141.705,140.665
140.799,140.672
140.919,140.684
140.734,140.687
139.715,140.638
140.182,140.615
142.326,140.701
142.657,140.799
141.249,140.821
140.173,140.789
139.176,140.708
137.361,140.541
138.938,140.461
140.544,140.465
140.692,140.476
141.303,140.518
141.194,140.551
138.73,140.46
141.308,140.503
142.099,140.583
141.846,140.646
142.029,140.715
141.451,140.752
141.659,140.797
143.062,140.91
142.074,140.968
140.712,140.956
140.747,140.945
140.314,140.914
141.302,140.933
152.01,141.487
151.928,142.009
145.199,142.168
138.66,141.993
136.891,141.738
138.125,141.557
135.664,141.263
132.878,140.843
130.752,140.339
130.202,139.832
134.329,139.557
138.107,139.484
139.751,139.498
140.523,139.549
153.025,140.223
150.765,140.75
145.112,140.968
146.003,141.22
145.445,141.431
144.645,141.592
141.089,141.566
141.367,141.556
141.634,141.56
140.723,141.518
140.373,141.461
140.541,141.415
140.315,141.36
138.069,141.196
138.704,141.071
140.456,141.04
141.208,141.049
142.152,141.104
