Normal data,Filtered data
150.771,150.771
152.974,150.881
162.846,151.48
169.145,152.363
169.228,153.206
170.587,154.075
172.702,155.007
172.383,155.875
171.45,156.654
172.341,157.438
170.768,158.105
168.936,158.646
169.889,159.209
170.085,159.752
174.691,160.499
168.401,160.894
167.41,161.22
166.377,161.478
167.539,161.781
168.411,162.113
167.255,162.37
159.768,162.24
151.253,161.69
147.008,160.956
140.077,159.912
139.399,158.887
140.842,157.984
146.318,157.401
159.185,157.49
165.636,157.897
171.4,158.573
168.624,159.075
169.405,159.592
167.891,160.007
167.073,160.36
167.602,160.722
167.175,161.045
164.375,161.211
157.784,161.04
159.205,160.948
162.087,161.005
166.054,161.257
170.749,161.732
169.851,162.138
171.213,162.592
165.614,162.743
165.58,162.885
168.587,163.17
170.538,163.538
172.538,163.988
170.731,164.325
159.252,164.072
162.922,164.014
162.837,163.955
158.153,163.665
158.608,163.412
164.85,163.484
168.678,163.744
168.045,163.959
168.236,164.173
164.688,164.199
157.564,163.867
151.892,163.268
151.521,162.681
156.495,162.371
161.177,162.312
169.165,162.654
168.841,162.964
168.478,163.239
167.848,163.47
170.127,163.803
168.983,164.062
170.169,164.367
170.254,164.661
163.282,164.592
155.816,164.154
155.247,163.708
155.908,163.318
157.714,163.038
158.563,162.814
167.611,163.054
168.117,163.307
168.526,163.568
170.497,163.915
165.761,164.007
164.883,164.051
159.383,163.817
153.742,163.314
149.648,162.63
142.274,161.612
142.001,160.632
144.141,159.807
149.339,159.284
160.351,159.337
168.464,159.794
167.065,160.157
166.098,160.454
171.951,161.029
173.358,161.645
172.769,162.202
173.196,162.751
171.43,163.185
165.669,163.309
157.306,163.009
152.542,162.486
159.781,162.351
165.366,162.501
168.48,162.8
166.739,162.997
162.499,162.972
165.55,163.101
167.545,163.323
170.424,163.678
170.665,164.028
169.708,164.312
169.625,164.578
164.996,164.598
159.152,164.326
152.319,163.726
148.012,162.94
148.008,162.193
151.918,161.68
156.475,161.419
156.298,161.163
160.848,161.148
162.156,161.198
165.368,161.407
169.351,161.804
166.453,162.036
162.961,162.082
159.042,161.93
158.606,161.764
160.807,161.716
167.06,161.983
173.822,162.575
177.99,163.346
177.767,164.067
172.624,164.495
169.683,164.754
172.521,165.143
171.577,165.464
170.56,165.719
170.322,165.949
167.927,166.048
160.054,165.748
152.05,165.064
143.117,163.966
141.635,162.85
139.181,161.666
141.277,160.647
147.245,159.977
155.847,159.77
163.195,159.941
164.453,160.167
165.017,160.41
161.012,160.44
156.799,160.258
149.37,159.713
143.194,158.887
139.94,157.94
138.628,156.974
145.124,156.382
151.453,156.135
157.02,156.18
157.861,156.264
160.208,156.461
161.043,156.69
166.028,157.157
173.805,157.989
174.212,158.8
173.242,159.523
172.903,160.192
167.807,160.572
160.997,160.594
155.913,160.36
151.668,159.925
145.825,159.22
145.981,158.558
148.462,158.053
153.588,157.83
161.627,158.02
162.444,158.241
162.334,158.446
166.832,158.865
170.14,159.429
171.672,160.041
169.827,160.53
167.392,160.873
162.61,160.96
157.33,160.779
150.645,160.272
151.373,159.827
155.677,159.62
161.778,159.727
163.586,159.92
167.073,160.278
162.357,160.382
161.486,160.437
166.942,160.762
170.923,161.27
170.922,161.753
170.942,162.212
168.868,162.545
160.656,162.451
152.132,161.935
149.29,161.303
148.241,160.65
152.964,160.265
162.593,160.382
167.793,160.752
165.39,160.984
162.374,161.054
163.347,161.168
166.2,161.42
168.555,161.777
167.11,162.043
165.063,162.194
162.658,162.217
157.747,161.994
152.166,161.503
149.721,160.913
155.62,160.649
159.78,160.605
159.68,160.559
157.556,160.409
162.035,160.49
161.446,160.538
162.645,160.643
163.243,160.773
159.43,160.706
155.213,160.432
148.99,159.859
143.39,159.036
140.175,158.093
140.885,157.232
151.384,156.94
159.212,157.054
160.857,157.244
161.559,157.46
161.37,157.655
168.06,158.175
172.027,158.868
171.477,159.498
169.31,159.989
167.683,160.374
162.604,160.485
154.244,160.173
151.736,159.751
149.186,159.223
154.788,159.001
159.77,159.04
159.838,159.08
155.744,158.913
160.707,159.003
164.655,159.285
171.185,159.88
171.427,160.458
169.989,160.934
168.091,161.292
161.818,161.318
152.86,160.895
145.132,160.107
144.707,159.337
148.895,158.815
156.669,158.708
163.543,158.95
165.089,159.257
165.861,159.587
165.133,159.864
165.302,160.136
169.695,160.614
171.18,161.142
170.172,161.594
169.873,162.008
169.515,162.383
161.738,162.351
153.96,161.931
147.506,161.21
147.173,160.508
151.36,160.051
155.347,159.816
161.282,159.889
160.559,159.922
161.934,160.023
158.695,159.957
163.35,160.126
169.59,160.599
172.258,161.182
171.448,161.696
171.974,162.21
170.203,162.609
162.81,162.619
161.104,162.543
165.359,162.684
162.349,162.667
162.582,162.663
158.201,162.44
157.293,162.183
161.11,162.129
164.043,162.225
164.645,162.346
166.602,162.559
164.48,162.655
160.465,162.545
155.642,162.2
149.936,161.587
149.817,160.998
152.371,160.567
152.646,160.171
152.327,159.779
160.388,159.809
161.6,159.899
162.51,160.029
162.689,160.162
158.243,160.066
151.766,159.651
160.432,159.69
157.114,159.562
156.615,159.414
163.349,159.611
164.652,159.863
167.256,160.233
163.472,160.395
156.769,160.213
153.545,159.88
147.359,159.254
144.722,158.527
146.552,157.928
151.846,157.624
158.766,157.681
161.429,157.869
162.417,158.096
158.419,158.112
158.759,158.145
163.199,158.397
169.073,158.931
171.703,159.57
171.484,160.165
171.973,160.756
169.535,161.195
162.982,161.284
169.082,161.674
171.653,162.173
169.902,162.559
165.63,162.713
164.959,162.825
165.111,162.94
164.519,163.019
164.231,163.079
165.267,163.189
167.059,163.382
167.411,163.584
160.46,163.427
155.18,163.015
155.37,162.633
159.791,162.491
165.161,162.624
169.249,162.955
169.419,163.279
165.885,163.409
165.146,163.496
166.029,163.622
166.239,163.753
166.078,163.869
166.1,163.981
168.187,164.191
171.327,164.548
166.065,164.624
160.061,164.396
157.905,164.071
160.499,163.893
166.702,164.033
171.916,164.427
171.712,164.792
168.613,164.983
166.353,165.051
173.197,165.458
174.493,165.91
173.077,166.268
172.044,166.557
168.021,166.63
162.672,166.432
155.218,165.872
149.477,165.052
143.245,163.962
143.042,162.916
144.517,161.996
151.359,161.464
161.578,161.47
162.485,161.52
156.851,161.287
166.734,161.559
167.307,161.847
170.965,162.303
169.158,162.645
166.55,162.841
159.204,162.659
155.15,162.283
152.618,161.8
152.027,161.311
155.567,161.024
161.534,161.05
164.99,161.247
167.587,161.564
164.523,161.712
163.339,161.793
162.03,161.805
164.608,161.945
164.69,162.082
165.663,162.261
166.289,162.463
164.365,162.558
158.288,162.344
151.636,161.809
150.865,161.262
154.988,160.948
159.598,160.88
159.956,160.834
156.19,160.602
157.636,160.454
167.571,160.81
170.763,161.307
170.277,161.756
170.068,162.171
168.689,162.497
161.995,162.472
160.221,162.36
167.08,162.596
167.83,162.857
165.625,162.996
169.804,163.336
169.121,163.625
169.487,163.918
170.322,164.239
168.796,164.467
161.792,164.333
155.422,163.887
154.272,163.406
153.179,162.895
156.231,162.562
164.27,162.647
169.375,162.984
169.167,163.293
162.161,163.236
169.708,163.56
169.991,163.881
169.966,164.186
168.921,164.422
162.644,164.334
154.497,163.842
154.006,163.35
157.192,163.042
156.936,162.737
152.815,162.241
154.602,161.859
161.455,161.838
166.24,162.059
166.234,162.267
163.032,162.306
159.227,162.152
156.801,161.884
160.15,161.797
165.407,161.978
164.89,162.123
163.443,162.189
162.584,162.209
164.049,162.301
165.108,162.442
165.739,162.606
164.063,162.679
161.628,162.627
154.638,162.227
154.107,161.821
162.241,161.842
165.788,162.039
168.054,162.34
163.259,162.386
159.441,162.239
163.906,162.322
164.4,162.426
164.337,162.522
163.993,162.595
164.851,162.708
164.601,162.803
159.587,162.642
152.59,162.139
152.087,161.637
153.269,161.218
157.161,161.015
167.28,161.329
172.485,161.887
169.856,162.285
167.451,162.543
172.483,163.04
172.755,163.526
171.765,163.938
172.48,164.365
168.508,164.572
162.451,164.466
154.765,163.981
159.941,163.779
163.026,163.741
166.072,163.858
163.725,163.851
167.592,164.038
168.846,164.279
168.115,164.471
163.481,164.421
158.393,164.12
151.87,163.507
155.223,163.093
164.067,163.142
155.447,162.757
151.371,162.188
162.819,162.219
166.083,162.412
163.754,162.48
166.596,162.685
161.191,162.611
154.214,162.191
153.002,161.731
158.177,161.554
164.259,161.689
169.019,162.055
164.123,162.159
173.521,162.727
172.259,163.203
172.22,163.654
170.303,163.987
166.752,164.125
161.465,163.992
156.534,163.619
152.404,163.058
155.827,162.697
163.697,162.747
168.957,163.057
168.175,163.313
175.614,163.928
173.997,164.432
170.534,164.737
172.347,165.117
167.585,165.241
169.413,165.449
170.434,165.699
173.548,166.091
176.611,166.617
175.725,167.072
173.329,167.385
170.128,167.522
171.785,167.736
172.763,167.987
172.036,168.189
169.068,168.233
163.196,167.981
155.754,167.37
153.491,166.676
154.549,166.07
157.366,165.635
159.075,165.307
157.444,164.913
152.261,164.281
152.082,163.671
154.773,163.226
156.765,162.903
160.673,162.791
158.945,162.599
152.652,162.102
146.394,161.316
138.239,160.162
138.718,159.09
141.072,158.189
146.389,157.599
151.356,157.287
156.459,157.246
157.552,157.261
159.925,157.394
164.265,157.738
166.425,158.172
167.977,158.662
167.683,159.113
167.939,159.555
167.818,159.968
166.535,160.296
163.782,160.471
156.585,160.276
160.063,160.266
165.681,160.536
166.548,160.837
169.329,161.262
164.174,161.407
161.581,161.416
164.455,161.568
168.034,161.891
169.13,162.253
167.932,162.537
164.769,162.649
158.996,162.466
155.912,162.138
154.501,161.756
160.265,161.682
159.18,161.557
160.172,161.487
164.684,161.647
168.508,161.99
168.816,162.332
170.804,162.755
