Normal data,Filtered data
172.627,172.627
169.344,172.463
169.866,172.333
167.448,172.089
168.273,171.898
166.135,171.61
164.954,171.277
166.395,171.033
167.281,170.845
168.268,170.717
171.734,170.767
172.273,170.843
170.115,170.806
171.044,170.818
173.947,170.975
168.845,170.868
167.107,170.68
170.265,170.659
171.103,170.681
168.677,170.581
166.936,170.399
168.019,170.28
171.34,170.333
