Normal data,Filtered data
138.455,138.455
135.549,138.31
133.329,138.061
134.776,137.896
132.882,137.646
127.335,137.13
122.084,136.378
121.7,135.644
121.002,134.912
148.27,135.58
157.216,136.661
162.605,137.959
161.315,139.126
155.956,139.968
151.323,140.536
161.512,141.585
159.54,142.482
152.614,142.989
144.236,143.051
136.148,142.706
128.65,142.003
122.392,141.023
110.884,139.516
107.707,137.925
113.741,136.716
124.207,136.091
153.032,136.938
157.233,137.952
138.581,137.984
124.078,137.289
137.92,137.32
128.121,136.86
141.262,137.08
135.039,136.978
119.341,136.096
110.789,134.831
106.31,133.405
104.574,131.963
102.032,130.467
104.094,129.148
97.6355,127.573
91.3771,125.763
110.233,124.986
132.265,125.35
125.511,125.358
121.53,125.167
119.464,124.882
116.658,124.47
114.887,123.991
114.112,123.497
111.972,122.921
110.583,122.304
108.109,121.594
106.59,120.844
105.779,120.091
114.678,119.82
122.814,119.97
130.037,120.473
135.942,121.247
140.02,122.185
140.299,123.091
139.967,123.935
139.45,124.711
137.478,125.349
135.992,125.881
135.021,126.338
129.868,126.515
120.089,126.193
133.666,126.567
144.702,127.474
135.59,127.88
153.051,129.138
155.418,130.452
152.071,131.533
156.543,132.784
151.172,133.703
144.761,134.256
144.244,134.755
149.006,135.468
150.157,136.202
146.682,136.726
139.702,136.875
132.805,136.672
129.064,136.291
123.325,135.643
130.803,135.401
135.498,135.406
139.946,135.633
143.924,136.047
157.025,137.096
152.673,137.875
145.031,138.233
137.641,138.203
128.423,137.714
120.654,136.861
114.317,135.734
113.077,134.601
112.433,133.493
115.653,132.601
118.746,131.908
121.805,131.403
123.281,130.997
124.318,130.663
130.947,130.677
133.157,130.801
135.254,131.024
136.081,131.276
135.953,131.51
135.762,131.723
135.277,131.901
135.121,132.062
135.32,132.225
136.101,132.418
136.491,132.622
137.132,132.847
137.558,133.083
136.672,133.262
136.283,133.413
135.852,133.535
136.388,133.678
137.305,133.859
138.101,134.071
146.677,134.702
149.923,135.463
147.108,136.045
149.189,136.702
150.24,137.379
150.881,138.054
150.638,138.683
148.095,139.154
143.812,139.387
140.625,139.449
138.264,139.389
133.941,139.117
132.081,138.765
131.203,138.387
131.032,138.019
130.46,137.641
130.502,137.284
132.12,137.026
135.458,136.948
