Normal data,Filtered data
154.187,154.187
156.959,156.82
156.412,156.432
155.215,155.275
154.397,154.441
153.312,153.369
153.74,153.721
152.85,152.894
153.309,153.289
154.141,154.098
154.78,154.746
154.604,154.612
154.881,154.867
154.321,154.348
154.354,154.354
154.035,154.051
153.861,153.87
152.869,152.919
153.148,153.137
151.392,151.479
147.626,147.818
155.372,154.994
138.803,139.612
148.446,148.004
161.741,161.054
166.455,166.185
168.055,167.961
173.787,173.495
172.249,172.312
170.383,170.48
168.837,168.919
166.832,166.936
163.527,163.698
162.449,162.512
173.422,172.876
125.982,128.327
131.348,131.197
136.434,136.172
142.541,142.223
141.026,141.086
144.184,144.029
148.167,147.96
151.471,151.295
153.056,152.968
152.435,152.461
150.644,150.735
141.771,142.22
122.727,123.702
122.088,122.168
122.664,122.639
124.452,124.362
127.869,127.694
132.479,132.239
138.889,138.557
144.532,144.233
141.469,141.607
138.976,139.108
144.318,144.057
149.157,148.902
150.303,150.233
150.881,150.849
151.025,151.016
150.216,150.256
150.584,150.568
150.386,150.395
151.318,151.272
152.678,152.608
152.995,152.976
153.351,153.333
153.747,153.726
154.764,154.712
154.716,154.716
153.249,153.322
151.956,152.024
151.353,151.387
148.554,148.696
145.707,145.857
146.78,146.733
148.203,148.13
149.001,148.957
148.893,148.897
149.016,149.01
151.386,151.267
154.038,153.899
155.6,155.515
157.074,156.996
156.093,156.138
156.198,156.195
157.342,157.285
157.118,157.126
156.601,156.628
155.413,155.474
156.509,156.457
156.042,156.063
155.307,155.345
153.029,153.145
150.924,151.035
150.603,150.624
149.685,149.732
151.186,151.113
150.771,150.788
150.635,150.643
151.368,151.332
151.93,151.9
151.422,151.446
149.735,149.82
145.821,146.021
146.142,146.136
147.629,147.554
149.32,149.232
153.204,153.006
154.695,154.611
155.523,155.477
155.68,155.67
154.495,154.554
154.567,154.566
154.25,154.266
154.918,154.885
155.931,155.878
155.648,155.66
156.56,156.515
156.935,156.914
157.03,157.024
156.382,156.414
155.871,155.898
155.05,155.093
155.178,155.174
153.851,153.917
151.98,152.077
151.237,151.279
149.712,149.791
149.495,149.51
149.223,149.237
150.303,150.25
148.939,149.004
151.846,151.704
152.18,152.156
151.461,151.496
151.997,151.972
152.992,152.941
153.386,153.364
153.693,153.676
154.762,154.708
155.182,155.158
155.71,155.682
154.534,154.591
152.716,152.81
152.191,152.222
153.695,153.621
154.305,154.271
131.032,132.194
135.807,135.627
139.925,139.71
145.234,144.958
148.493,148.316
151.008,150.873
153.9,153.748
153.67,153.673
152.987,153.022
153.821,153.781
154.224,154.202
155.309,155.254
155.222,155.224
154.482,154.519
153.837,153.871
154.422,154.395
153.436,153.484
152.955,152.981
151.538,151.61
151.487,151.493
151.278,151.289
150.185,150.241
148.871,148.939
152.38,152.208
152.048,152.056
152.585,152.559
153.177,153.147
153.215,153.212
154.227,154.176
155.22,155.167
156.688,156.612
156.473,156.48
156.845,156.827
156.008,156.049
155.677,155.696
144.386,144.951
138.184,138.523
142.577,142.375
146.567,146.358
150.655,150.44
153.014,152.885
154.358,154.285
154.14,154.147
157.581,157.409
158.497,158.443
158.998,158.97
157.354,157.435
156.047,156.116
155.174,155.221
154.751,154.774
154.801,154.8
155.181,155.162
155.558,155.538
155.015,155.041
154.985,154.988
154.366,154.397
152.363,152.465
149.684,149.823
148.232,148.312
147.458,147.501
146.58,146.626
145.945,145.979
147.975,147.875
149.317,149.245
150.006,149.968
151.195,151.133
150.485,150.517
151.662,151.605
152.63,152.578
153.315,153.279
153.463,153.454
153.262,153.272
153.637,153.618
154.044,154.023
153.738,153.752
152.601,152.659
151.752,151.798
151.006,151.045
153.479,153.358
153.946,153.917
152.338,152.417
153.505,153.45
153.983,153.957
153.62,153.636
153.226,153.247
152.101,152.158
152.633,152.609
152.041,152.07
152.091,152.09
152.528,152.507
150.547,150.645
149.727,149.772
149.617,149.624
155.282,154.999
155.248,155.235
152.962,153.075
149.633,149.805
146.772,146.924
148.315,148.245
147.627,147.658
149.091,149.019
151.015,150.915
152.958,152.856
153.591,153.555
153.898,153.881
153.17,153.205
153.236,153.235
152.697,152.724
152.188,152.215
151.389,151.43
150.362,150.415
171.233,170.192
170.325,170.319
166.902,167.073
163.745,163.911
161.592,161.708
160.558,160.616
160.086,160.112
158.9,158.96
158.901,158.904
158.68,158.691
157.944,157.981
155.144,155.286
151.233,151.435
151.684,151.672
144.455,144.816
141.743,141.897
146.254,146.036
147.508,147.435
148.724,148.66
148.494,148.503
150.058,149.98
149.916,149.919
131.107,132.047
123.365,123.799
125.556,125.468
126.022,125.995
122.399,122.578
128.442,128.149
131.638,131.464
137.406,137.108
141.373,141.16
145.594,145.372
146.023,145.991
131.471,132.197
126.287,126.582
124.305,124.419
128.278,128.085
129.816,129.729
132.691,132.543
135.545,135.395
140.695,140.43
143.966,143.789
146.508,146.372
147.732,147.664
143.727,143.924
147.531,147.351
150.423,150.269
150.312,150.31
150.966,150.933
151.397,151.373
151.611,151.599
152.7,152.645
151.808,151.849
153.212,153.144
152.375,152.413
151.435,151.484
143.18,143.595
127.017,127.845
126.919,126.965
131.096,130.889
140.01,139.554
141.361,141.271
145.39,145.184
149.987,149.747
149.719,149.721
150.462,150.425
153.403,153.254
153.789,153.762
154.248,154.223
153.138,153.192
152.459,152.496
152.419,152.423
151.906,151.932
150.383,150.46
150.07,150.089
148.423,148.506
145.835,145.969
146.95,146.901
152.169,151.905
154.503,154.373
153.588,153.627
150.266,150.434
150.868,150.847
149.207,149.289
149.011,149.025
147.837,147.896
151.141,150.979
153.04,152.937
156.42,156.245
157.413,157.355
157.112,157.124
154.478,154.611
151.826,151.965
151.196,151.234
149.774,149.847
148.871,148.92
148.634,148.648
147.064,147.143
149.385,149.273
151.996,151.86
153.953,153.849
151.847,151.947
153.819,153.725
154.208,154.184
154.683,154.658
154.248,154.269
154.03,154.042
154.166,154.16
153.725,153.747
153.116,153.148
153.367,153.356
153.979,153.948
153.496,153.518
154.094,154.065
153.764,153.779
154.178,154.158
154.188,154.187
154.029,154.037
154.183,154.175
153.744,153.766
152.95,152.991
152.878,152.884
151.333,151.41
151.459,151.456
142.082,142.551
145.024,144.9
149.658,149.42
152.515,152.36
154.638,154.524
156.196,156.112
155.337,155.375
155.735,155.717
156.074,156.056
156.04,156.041
156.114,156.11
154.938,154.997
154.089,154.134
153.719,153.74
153.21,153.237
152.638,152.668
151.593,151.647
150.871,150.91
148.648,148.761
147.668,147.722
147.138,147.167
147.682,147.656
146.011,146.093
145.827,145.84
145.762,145.766
145.667,145.672
148.261,148.132
147.604,147.63
149.857,149.746
153.195,153.022
153.835,153.794
153.86,153.857
154.824,154.775
155.971,155.911
155.751,155.759
156.63,156.586
157.76,157.701
158.608,158.562
159.078,159.052
158.542,158.567
157.852,157.888
156.695,156.754
156.221,156.248
155.466,155.505
154.17,154.237
151.229,151.379
148.502,148.646
145.865,146.004
143.453,143.581
146.161,146.032
146.7,146.667
146.963,146.948
147.841,147.796
150.124,150.008
151.768,151.68
152.795,152.739
153.377,153.345
152.924,152.945
152.43,152.456
152.158,152.172
153.121,153.074
153.133,153.13
151.6,151.677
151.183,151.208
152.065,152.022
153.305,153.241
136.375,137.218
140.705,140.531
145.729,145.469
149.954,149.73
153.276,153.098
155.224,155.118
156.497,156.428
156.662,156.65
156.747,156.742
156.765,156.764
157.097,157.08
157.493,157.473
156.554,156.6
155.631,155.68
155.588,155.593
157.203,157.122
157.585,157.562
157.466,157.471
156.922,156.949
155.841,155.897
155.419,155.443
156.207,156.169
155.56,155.591
155.011,155.04
152.863,152.972
152.71,152.723
153.241,153.215
153.374,153.366
151.4,151.499
149.899,149.979
151.397,151.326
152.316,152.267
152.852,152.823
154.215,154.146
154.35,154.34
154.6,154.587
153.77,153.811
152.376,152.448
151.534,151.579
151.394,151.404
152.041,152.009
150.855,150.913
149.238,149.322
147.49,147.582
143.957,144.138
142.222,142.318
140.732,140.811
142.811,142.711
144.806,144.701
147.48,147.341
150.532,150.373
152.577,152.467
154.099,154.017
153.905,153.911
154.778,154.735
155.617,155.573
156.341,156.303
156.902,156.872
157.602,157.566
158.442,158.398
157.522,157.566
155.89,155.974
153.109,153.253
153.268,153.267
150.653,150.784
148.356,148.478
146.201,146.314
146.8,146.776
148.993,148.882
148.889,148.889
148.736,148.744
149.744,149.694
149.888,149.878
152.064,151.955
152.723,152.684
153.39,153.355
153.65,153.635
152.514,152.57
151.501,151.554
152.288,152.251
152.47,152.459
152.698,152.686
153.096,153.075
153.981,153.936
153.648,153.663
151.708,151.806
149.199,149.33
146.612,146.748
143.687,143.84
146.392,146.264
147.424,147.366
148.36,148.311
149.375,149.322
149.79,149.766
151.058,150.993
152.649,152.566
152.689,152.682
153.409,153.373
152.934,152.956
153.513,153.486
152.448,152.5
152.428,152.432
152.635,152.625
155.015,154.895
154.921,154.92
154.656,154.669
153.017,153.1
151.714,151.784
147.637,147.845
145.673,145.781
146.247,146.224
144.356,144.449
142.284,142.392
144.587,144.477
148.792,148.577
152.119,151.942
151.978,151.977
151.678,151.693
151.529,151.537
151.431,151.436
153.014,152.935
153.644,153.609
152.616,152.666
151.605,151.658
150.883,150.922
151.096,151.087
151.062,151.063
151.584,151.558
151.46,151.465
150.841,150.872
148.519,148.637
149.684,149.632
150.879,150.817
151.025,151.015
151.901,151.857
153.356,153.281
154.28,154.23
154.423,154.413
153.87,153.897
151.746,151.854
152.205,152.187
150.726,150.799
149.385,149.456
150.52,150.466
151.161,151.127
151.593,151.57
152.266,152.231
151.775,151.798
150.393,150.463
150.259,150.269
148.859,148.93
148.805,148.811
147.476,147.543
144.681,144.824
145.335,145.309
145.399,145.395
146.355,146.307
145.497,145.538
147.825,147.71
149.653,149.556
151.073,150.997
151.606,151.576
152.237,152.204
151.728,151.752
151.975,151.964
152.561,152.531
154.537,154.436
155.454,155.403
154.874,154.901
154.69,154.7
153.888,153.929
154.048,154.042
154.748,154.713
155.076,155.057
153.437,153.518
151.203,151.319
151.365,151.363
150.928,150.95
149.482,149.556
149.874,149.858
148.789,148.843
149.866,149.815
151.383,151.304
152.563,152.5
153.334,153.293
153.811,153.785
152.9,152.944
152.521,152.542
152.128,152.149
153.025,152.981
153.505,153.479
153.685,153.675
154.386,154.351
154.014,154.031
152.528,152.603
150.122,150.246
147.338,147.483
144.755,144.891
142.635,142.748
140.429,140.545
141.95,141.88
144.249,144.13
144.012,144.018
145.066,145.014
148.716,148.531
149.149,149.119
149.567,149.544
150.853,150.788
152.389,152.309
153.309,153.259
153.919,153.886
154.97,154.915
155.408,155.383
155.743,155.725
155.694,155.695
155.048,155.08
154.513,154.541
153.347,153.406
152.964,152.986
151.296,151.38
149.005,149.123
148.946,148.955
147.983,148.031
148.37,148.353
148.94,148.91
147.145,147.233
146.97,146.983
149.584,149.454
151.061,150.981
152.216,152.154
152.846,152.811
152.369,152.391
153.635,153.572
152.783,152.822
151.972,152.015
151.829,151.838
152.405,152.377
151.737,151.769
149.664,149.769
149.046,149.082
147.369,147.455
146.631,146.672
147.196,147.17
147.849,147.815
148.6,148.561
149.887,149.821
149.415,149.436
149.846,149.825
149.127,149.162
149.295,149.288
149.727,149.705
149.643,149.646
150.062,150.042
150.02,150.021
151.92,151.825
152.731,152.686
153.067,153.048
151.825,151.886
149.607,149.721
147.473,147.585
145.398,145.507
143.466,143.568
145.283,145.197
147.53,147.413
148.953,148.876
152.493,152.312
154.888,154.759
155.543,155.504
156.59,156.535
156.192,156.209
155.49,155.526
154.757,154.795
154.312,154.336
154.939,154.909
154.357,154.384
153.738,153.77
154.149,154.13
153.438,153.472
154.078,154.048
153.645,153.666
151.89,151.979
152.524,152.497
153.974,153.9
153.163,153.2
152.438,152.476
148.974,149.149
149.335,149.325
150.222,150.177
151.327,151.269
152.094,152.053
152.329,152.315
152.582,152.569
152.29,152.304
153.12,153.079
153.922,153.88
153.222,153.255
152.179,152.233
151.462,151.501
150.51,150.56
150.314,150.326
150.097,150.109
150.743,150.711
150.282,150.303
150.36,150.357
149.266,149.32
148.442,148.486
146.434,146.536
145.665,145.709
145.246,145.269
145.493,145.482
145.16,145.176
146.145,146.096
148.369,148.256
150.01,149.922
151.487,151.409
152.964,152.886
154.031,153.974
153.922,153.925
153.274,153.306
152.389,152.435
152.227,152.237
153.504,153.441
154.834,154.764
152.717,152.82
164.445,163.864
158.852,159.102
162.959,162.766
163.785,163.734
163.721,163.721
165.954,165.842
164.426,164.497
161.457,161.609
158.779,158.92
158.249,158.282
157.65,157.681
156.981,157.016
156.179,156.221
154.358,154.451
152.745,152.83
152.969,152.962
152.585,152.604
152.605,152.605
153.034,153.013
152.45,152.478
151.456,151.507
149.618,149.712
150.457,150.42
154.585,154.377
151.052,151.218
152.791,152.713
153.591,153.547
152.814,152.85
152.129,152.165
149.711,149.834
151.616,151.527
152.155,152.123
152.499,152.48
153.78,153.715
153.994,153.98
153.966,153.967
153.618,153.636
152.131,152.206
152.609,152.589
153.183,153.153
152.89,152.903
152.118,152.157
150.842,150.908
148.67,148.781
149.017,149.006
146.606,146.726
143.903,144.045
141.883,141.991
141.62,141.638
141.819,141.81
141.648,141.656
142.344,142.309
143.659,143.592
146.559,146.411
149.123,148.987
151.156,151.048
153.426,153.307
154.532,154.471
155.423,155.376
155.823,155.801
156.916,156.86
157.666,157.626
157.78,157.772
157.817,157.815
155.595,155.706
152.468,152.63
149.324,149.489
147.659,147.75
147.643,147.648
146.921,146.958
147.835,147.792
148.11,148.094
149.342,149.279
150.813,150.737
152.424,152.34
152.346,152.346
151.695,151.728
151.757,151.756
151.997,151.985
151.396,151.425
151.064,151.082
151.292,151.281
150.853,150.875
149.567,149.632
150.392,150.354
151.055,151.02
150.595,150.617
145.265,145.533
144.816,144.852
146.596,146.509
146.509,146.509
147.87,147.802
149.017,148.956
152.278,152.112
154.986,154.842
155.968,155.912
156.02,156.015
156.941,156.895
157.249,157.231
157.747,157.721
157.847,157.841
158.972,158.915
158.47,158.493
158.202,158.217
157.423,157.463
157.189,157.203
156.558,156.59
155.013,155.091
152.466,152.597
149.555,149.707
144.817,145.061
139.962,140.217
135.266,135.513
137.196,137.112
135.235,135.329
137.842,137.716
142.259,142.032
145.448,145.277
147.561,147.447
149.968,149.841
151.532,151.447
151.487,151.485
151.856,151.837
151.321,151.347
152.745,152.675
153.677,153.627
154.79,154.732
155.441,155.406
155.321,155.325
155.373,155.37
155.793,155.772
155.748,155.749
154.747,154.797
152.219,152.348
149.539,149.68
146.169,146.345
143.363,143.512
140.893,141.024
138.776,138.888
139.077,139.067
141.608,141.481
144.57,144.416
146.106,146.021
148.199,148.09
149.918,149.826
152.452,152.321
153.433,153.378
153.905,153.878
154.023,154.015
153.616,153.636
153.734,153.729
154.596,154.552
153.881,153.914
154.168,154.155
155.037,154.993
157.106,157
156.952,156.954
156.978,156.977
156.651,156.667
154.291,154.41
150.887,151.063
147.826,147.988
144.645,144.812
145.473,145.44
147.824,147.705
148.618,148.572
148.471,148.476
149.486,149.436
149.691,149.678
150.342,150.309
149.939,149.958
150.754,150.714
151.737,151.686
153.071,153.002
153.63,153.598
154.023,154.002
154.223,154.212
155.128,155.082
155.402,155.386
154.135,154.198
154.594,154.575
153.546,153.598
153.434,153.442
153.763,153.747
153.662,153.666
151.752,151.848
150.688,150.746
149.893,149.936
149.016,149.062
149.699,149.668
150.197,150.171
150.05,150.056
150.477,150.456
150.55,150.545
151.068,151.042
152.212,152.154
152.379,152.367
151.707,151.74
151.569,151.578
152.169,152.139
152.435,152.42
151.975,151.997
151.971,151.972
151.918,151.92
150.753,150.812
150.151,150.184
149.249,149.296
146.762,146.889
145.57,145.636
145.981,145.964
145.59,145.609
146.656,146.603
146.288,146.304
146.747,146.725
