Normal data,Filtered data
146.976,146.976
146.403,146.432
146.455,146.454
146.579,146.573
146.295,146.309
146.567,146.554
147.232,147.198
146.856,146.873
147.4,147.374
145.258,145.364
144.414,144.461
144.96,144.935
144.632,144.647
144.665,144.664
144.96,144.945
144.503,144.525
142.391,142.497
138.707,138.897
137.891,137.941
143.101,142.843
149.691,149.348
46.6165,51.7531
19.2824,20.9059
23.315,23.1946
27.6308,27.409
32.9083,32.6333
38.7462,38.4405
45.6043,45.2461
53.4307,53.0215
64.3928,63.8242
76.4788,75.8461
89.7527,89.0573
104.463,103.693
119.262,118.483
131.206,130.57
141.681,141.126
136.796,137.012
127.633,128.102
123.607,123.832
119.66,119.868
120.388,120.362
124.261,124.066
128.219,128.012
130.914,130.769
134.363,134.184
133.336,133.378
129.562,129.753
117.406,118.023
118.002,118.003
121.248,121.086
126.728,126.446
132.71,132.397
138.117,137.831
141.218,141.048
141.576,141.55
137.763,137.952
134.915,135.067
140.345,140.081
144.438,144.22
147.993,147.805
150.061,149.948
152.33,152.21
152.135,152.138
149.406,149.543
146.663,146.807
143.726,143.88
139.612,139.826
136.56,136.723
136.568,136.576
131.389,131.648
128.549,128.704
130.06,129.992
129.826,129.834
131.975,131.868
133.075,133.015
137.932,137.686
141.929,141.717
145.084,144.916
144.491,144.512
143.516,143.566
146.284,146.148
145.578,145.606
146.102,146.077
145.869,145.88
145.672,145.683
143.316,143.434
143.424,143.425
144.939,144.864
145.829,145.781
146.509,146.473
144.742,144.828
143.89,143.936
143.159,143.198
143.016,143.025
147.384,147.166
150.407,150.245
152.324,152.22
152.598,152.579
152.301,152.315
152.303,152.303
152.961,152.928
153.092,153.084
152.486,152.516
151.227,151.292
149.57,149.656
150.298,150.266
151.879,151.799
151.377,151.398
148.455,148.602
147.011,147.091
145.828,145.891
147.006,146.951
148.79,148.698
149.312,149.282
150.775,150.701
148.657,148.759
148.341,148.362
149.652,149.587
149.39,149.4
149.222,149.231
149.456,149.445
148.217,148.279
146.846,146.917
145.775,145.832
144.155,144.239
142.337,142.432
138.436,138.636
138.608,138.61
138.074,138.101
135.431,135.565
135.335,135.346
134.526,134.567
132.692,132.786
135.915,135.758
151.196,150.424
150.913,150.888
151.851,151.803
152.428,152.397
150.943,151.015
151.21,151.2
150.796,150.816
151.238,151.217
151.412,151.402
150.703,150.738
150.213,150.24
150.813,150.784
150.992,150.982
149.221,149.309
148.189,148.245
147.426,147.467
142.883,143.112
142.876,142.888
142.023,142.066
143.52,143.447
148.676,148.415
149.472,149.419
151.926,151.801
152.767,152.718
155.136,155.015
155.536,155.51
154.867,154.899
153.091,153.182
151.21,151.308
149.155,149.263
145.102,145.31
143.148,143.256
141.471,141.56
144.031,143.907
140.325,140.505
138.581,138.677
138.749,138.745
139.837,139.782
151.588,150.998
150.336,150.369
149.712,149.745
150.575,150.533
150.462,150.466
150.478,150.478
149.242,149.304
146.646,146.779
143.829,143.976
143.341,143.373
140.323,140.476
137.297,137.455
140.324,140.181
147.797,147.416
140.516,140.861
142.688,142.597
143.741,143.684
146.05,145.932
147.426,147.351
149.193,149.101
150.183,150.129
149.926,149.936
149.801,149.808
149.363,149.386
148.816,148.845
148.368,148.392
146.573,146.664
143.501,143.659
140.557,140.712
140.255,140.278
139.917,139.935
143.732,143.543
148.392,148.149
149.371,149.31
148.226,148.28
147.429,147.471
146.769,146.804
145.844,145.892
145.759,145.766
143.531,143.643
143.754,143.748
142.508,142.57
141.131,141.203
140.215,140.265
142.325,142.222
142.942,142.906
142.531,142.55
141.006,141.083
143.083,142.983
144.52,144.443
145.29,145.248
148.46,148.3
149.608,149.543
150.165,150.133
149.26,149.304
149.566,149.553
149.897,149.88
149.941,149.938
150.052,150.046
150.314,150.301
149.017,149.081
148.028,148.081
146.83,146.892
144.939,145.036
144.066,144.115
141.88,141.992
142.087,142.082
139.568,139.693
139.705,139.704
141.18,141.107
143.956,143.814
54.135,58.6189
64.8212,64.511
75.4863,74.9375
83.6062,83.1728
94.4206,93.8582
105.355,104.781
111.729,111.382
117.371,117.072
124.543,124.169
129.313,129.055
132.329,132.165
137.722,137.444
142.089,141.856
146.219,146.001
150.401,150.181
151.74,151.662
153.061,152.991
153.246,153.233
51.1799,56.2826
64.4311,64.0237
74.3387,73.8229
84.6122,84.0727
93.9685,93.4737
103.342,102.848
114.019,113.461
120.39,120.044
129.063,128.612
132.555,132.358
135.493,135.336
141.015,140.731
144.841,144.635
146.488,146.395
151.392,151.142
143.098,143.5
143.278,143.289
142.017,142.081
141.381,141.416
143.288,143.195
145.123,145.027
146.106,146.052
130.531,131.307
126.954,127.171
129.445,129.331
132.746,132.575
128.837,129.024
129.569,129.541
129.716,129.707
133.767,133.564
138.098,137.871
140.951,140.797
144.891,144.687
136.188,136.613
70.6591,73.9568
98.4721,97.2463
94.4798,94.6181
94.96,94.9429
94.4196,94.4458
98.3403,98.1456
99.8058,99.7228
102.826,102.671
104.502,104.41
115.049,114.517
146.514,144.914
147.347,147.225
143.329,143.523
141.596,141.693
142.689,142.639
144.189,144.112
143.173,143.22
144.063,144.021
144.675,144.643
143.378,143.441
142.916,142.942
142.52,142.541
140.888,140.971
126.548,127.269
122.318,122.566
122.4,122.408
127.497,127.243
131.009,130.82
134.572,134.384
138.119,137.932
142.581,142.349
147.804,147.532
151.173,150.991
151.813,151.772
151.823,151.82
151.917,151.912
151.632,151.646
147.559,147.764
146.213,146.29
146.575,146.561
143.27,143.435
142.069,142.138
140.603,140.68
143.227,143.1
148.848,148.561
148.479,148.484
148.914,148.892
149.049,149.042
148.087,148.134
148.153,148.152
148.844,148.81
148.601,148.612
148.379,148.39
148.042,148.06
145.609,145.731
145.985,145.972
145.312,145.345
144.801,144.828
144.052,144.091
141.945,142.052
144.654,144.524
145.316,145.277
143.768,143.843
144.583,144.546
144.862,144.846
144.943,144.938
148.154,147.993
152.112,151.906
152.062,152.054
152.508,152.486
152.782,152.767
153.554,153.515
153.289,153.3
153.401,153.396
153.204,153.214
153.361,153.354
152.687,152.72
151.185,151.261
151.77,151.745
151.4,151.418
150.551,150.594
148.683,148.779
147.476,147.541
147.402,147.409
144.505,144.65
143.716,143.763
144.703,144.656
144.407,144.419
144.697,144.683
145.829,145.772
137.451,137.867
137.213,137.246
140.17,140.023
141.806,141.717
144.293,144.164
147.291,147.135
148.413,148.349
150.824,150.7
151.634,151.587
150.504,150.558
147.859,147.994
144.769,144.93
141.584,141.752
138.246,138.422
137.306,137.362
137.694,137.677
135.806,135.9
132.179,132.365
129.877,130.002
131.403,131.333
134.369,134.217
136.275,136.172
140.976,140.736
145.798,145.545
145.601,145.598
144.198,144.268
145.337,145.283
146.739,146.667
145.786,145.83
145.735,145.74
143.968,144.056
144.752,144.718
144.561,144.569
146.459,146.364
146.195,146.203
145.487,145.523
144.384,144.441
142.015,142.137
142.033,142.038
142.542,142.517
142.938,142.917
140.798,140.904
143.328,143.207
143.925,143.889
144.748,144.705
145.814,145.758
147.041,146.977
147.847,147.803
148.662,148.619
149.298,149.264
150.904,150.822
151.199,151.18
150.534,150.566
149.255,149.32
145.387,145.584
142.001,142.18
142.88,142.845
144.354,144.278
145.046,145.008
144.508,144.533
142.542,142.641
142.313,142.33
143.726,143.656
144.244,144.214
145.458,145.396
148.544,148.386
142.175,142.485
140.577,140.672
138.25,138.371
138.587,138.577
140.604,140.503
141.709,141.649
145.25,145.07
147.538,147.414
149.793,149.674
150.102,150.081
149.365,149.401
148.948,148.971
149.115,149.108
148.83,148.844
146.72,146.826
142.179,142.412
139.973,140.094
139.556,139.583
135.136,135.358
136.601,136.539
139.23,139.095
146.663,146.284
149.059,148.92
149.631,149.596
149.945,149.928
149.179,149.216
149.588,149.569
149.197,149.215
148.612,148.642
145.059,145.238
142.695,142.822
142.464,142.482
142.892,142.872
143.159,143.144
142.676,142.699
142.929,142.917
146.422,146.247
146.537,146.523
147.285,147.247
146.829,146.85
146.621,146.632
147.796,147.738
150.094,149.976
152.078,151.973
153.281,153.216
153.415,153.405
152.153,152.216
151.588,151.62
152.116,152.091
151.552,151.579
150.28,150.345
149.228,149.284
147.804,147.878
146.58,146.645
145.767,145.811
145.266,145.293
144.821,144.844
144.704,144.711
143.655,143.708
142.17,142.247
142.75,142.724
143.243,143.217
145.673,145.55
147.545,147.445
149.561,149.455
151.261,151.17
152.296,152.24
152.7,152.677
153.164,153.139
153.842,153.807
153.532,153.546
152.961,152.99
152.414,152.443
150.312,150.419
148.081,148.198
145.435,145.573
147.984,147.864
148.833,148.785
149.763,149.714
147.113,147.243
145.558,145.642
145.822,145.813
147.025,146.965
146.348,146.379
147.397,147.346
149.492,149.385
150.925,150.848
150.527,150.543
148.907,148.989
148.797,148.807
148.206,148.236
148.856,148.825
147.27,147.347
147.012,147.029
146.626,146.646
146.255,146.274
145.272,145.323
143.878,143.95
146.065,145.959
144.647,144.713
143.118,143.197
139.24,139.438
139.218,139.229
140.725,140.65
142.614,142.516
145.355,145.213
148.819,148.639
151.001,150.883
151.89,151.84
152.649,152.609
152.058,152.086
151.074,151.124
149.352,149.441
147.296,147.403
145.756,145.838
146.987,146.93
146.487,146.509
147.07,147.042
146.251,146.291
145.201,145.256
143.76,143.835
140.143,140.328
139.573,139.611
138.726,138.771
139.384,139.354
137.043,137.158
137.406,137.394
140.13,139.994
143.6,143.419
143.22,143.23
144.372,144.315
145.53,145.47
145.996,145.97
146.999,146.948
145.568,145.637
144.384,144.447
144.822,144.803
144.931,144.925
144.341,144.37
144.921,144.893
144.917,144.916
143.891,143.942
143.046,143.091
143.719,143.688
144.488,144.448
146.141,146.056
144.956,145.011
143.939,143.992
144.64,144.608
142.945,143.028
144.564,144.487
146.86,146.741
147.915,147.856
146.983,147.027
146.425,146.455
148.45,148.35
149.338,149.288
147.653,147.735
147.444,147.459
145.493,145.591
145.556,145.558
141.787,141.976
143.256,143.192
145.252,145.149
146.453,146.388
145.11,145.174
142.307,142.45
141.389,141.443
143.346,143.251
144.17,144.124
141.897,142.009
141.738,141.752
143.766,143.665
144.463,144.423
145.377,145.329
148.309,148.16
149.076,149.03
148.104,148.15
149.344,149.284
149.283,149.283
149.141,149.149
147.365,147.454
147.069,147.088
147.172,147.168
146.846,146.862
145.658,145.719
147.26,147.183
148.496,148.43
145.424,145.575
143.7,143.793
143.01,143.049
144.3,144.237
144.652,144.631
146.412,146.323
147.685,147.617
147.629,147.628
149.213,149.133
151.164,151.062
150.747,150.763
150.268,150.293
149.243,149.296
150.135,150.093
148.926,148.984
148.556,148.578
147.827,147.865
143.962,144.157
144.096,144.099
145.248,145.191
145.541,145.523
145.007,145.033
142.952,143.056
140.776,140.89
141.544,141.511
140.796,140.832
141.575,141.538
142.667,142.611
144.647,144.545
145.907,145.839
148.401,148.273
149.928,149.845
149.531,149.547
148.62,148.666
148.915,148.903
150.205,150.139
149.875,149.888
148.261,148.343
146.839,146.914
146.812,146.817
144.883,144.979
145.313,145.297
145.623,145.606
145.465,145.472
145.685,145.674
146.236,146.208
146.892,146.858
151.656,151.416
149.257,149.365
149.714,149.697
149.052,149.084
148.169,148.215
148.142,148.145
149.331,149.272
147.554,147.64
144.646,144.796
144.628,144.637
144.975,144.958
144.494,144.517
145.023,144.998
146.533,146.456
145.308,145.366
143.835,143.912
144.488,144.459
144.658,144.648
147.427,147.288
148.18,148.135
148.794,148.761
151.522,151.384
150.545,150.587
152.093,152.017
151.496,151.522
151.371,151.378
150.264,150.32
150.404,150.4
151.241,151.199
150.765,150.787
149.707,149.761
148.272,148.347
147.816,147.843
146.782,146.835
146.22,146.251
147.926,147.842
146.252,146.332
144.547,144.636
144.522,144.528
144.464,144.467
146.843,146.724
145.802,145.848
144.121,144.207
144.077,144.084
144.236,144.229
143.415,143.456
144.61,144.552
150.067,149.792
151.518,151.432
151.484,151.481
149.679,149.769
149.364,149.384
150.126,150.089
149.567,149.593
149.216,149.235
147.793,147.865
148.301,148.279
146.615,146.699
145.657,145.709
144.31,144.38
142.444,142.54
142.949,142.929
144.236,144.171
146.14,146.041
143.645,143.764
145.862,145.757
147.377,147.296
146.351,146.398
144.709,144.794
147.58,147.441
148.562,148.506
146.504,146.604
147.222,147.191
147.895,147.86
146.559,146.624
146.218,146.238
147.272,147.221
145.895,145.961
148.217,148.105
148.732,148.701
149.002,148.987
148.81,148.819
147.728,147.782
147.84,147.837
149.352,149.276
148.694,148.723
147.422,147.487
148.441,148.394
150.861,150.738
54.2598,59.0838
69.7785,69.2437
82.635,81.9655
91.8967,91.4001
101.455,100.952
110.422,109.949
116.551,116.221
120.962,120.725
124.737,124.536
127.728,127.568
130.874,130.709
133.22,133.095
139.706,139.376
144.368,144.119
145.475,145.407
145.347,145.35
147.589,147.477
148.198,148.162
146.296,146.39
146.069,146.085
147.157,147.104
148.97,148.877
149.13,149.117
149.394,149.38
145.107,145.321
145.63,145.615
147.741,147.635
147.841,147.831
149.656,149.565
151.08,151.004
151.184,151.175
151.861,151.827
152.095,152.081
151.127,151.175
150.209,150.257
149.042,149.103
147.169,147.266
146.438,146.479
144.234,144.347
142.151,142.26
141.929,141.945
142.821,142.777
143.151,143.132
145.626,145.502
148.039,147.912
149.668,149.58
150.291,150.255
151.785,151.709
152.905,152.845
150.84,150.941
148.838,148.943
146.597,146.714
143.823,143.968
143.205,143.244
140.157,140.312
140.804,140.779
141.791,141.74
142.219,142.195
139.461,139.598
139.989,139.97
140.739,140.701
141.728,141.676
145.273,145.094
148.306,148.145
150.302,150.194
152.467,152.354
153.706,153.638
155.216,155.137
156.889,156.802
157.148,157.13
156.814,156.829
155.756,155.809
153.153,153.286
150.973,151.089
153.353,153.239
153.624,153.605
153.014,153.044
152.244,152.284
147.376,147.621
143.332,143.546
141.022,141.148
141.382,141.371
140.117,140.179
144.18,143.98
148.097,147.891
149.224,149.157
150.708,150.631
150.642,150.641
151.088,151.066
150.729,150.746
150.574,150.583
150.614,150.613
150.722,150.717
150.384,150.4
149.649,149.687
148.401,148.466
146.527,146.624
145.668,145.716
143.338,143.457
139.494,139.692
139.141,139.169
138.974,138.983
140.266,140.202
139.619,139.648
139.283,139.301
137.584,137.67
138.123,138.101
139.012,138.966
140.874,140.778
142.74,142.642
145.298,145.165
147.883,147.747
148.383,148.351
149.268,149.222
151.681,151.558
151.031,151.058
151.428,151.409
151.916,151.891
148.296,148.475
146.279,146.389
143.77,143.901
143.43,143.453
144.455,144.405
146.301,146.206
145.899,145.915
143.493,143.614
142.787,142.828
141.027,141.117
141.472,141.455
137.844,138.025
136.521,136.596
138.115,138.039
140.467,140.346
143.286,143.139
147.582,147.36
150.954,150.774
152.362,152.283
153.202,153.157
152.862,152.877
153.43,153.403
154.364,154.315
154.127,154.136
152.132,152.232
148.261,148.46
147.731,147.767
146.971,147.011
144.617,144.736
146.686,146.589
147.04,147.017
147.158,147.151
145.48,145.563
144.764,144.804
144.197,144.227
143.087,143.144
140.564,140.693
138.604,138.709
140.888,140.779
143.101,142.985
143.883,143.838
148.052,147.842
150.724,150.58
152.375,152.285
153.146,153.103
152.568,152.595
152.693,152.688
152.185,152.21
151.999,152.01
149.844,149.952
149.292,149.325
147.081,147.193
144.419,144.558
145.902,145.835
145.943,145.938
143.331,143.461
142.729,142.766
140.481,140.595
142.14,142.063
143.379,143.313
144.794,144.72
142.085,142.217
140.824,140.894
141.53,141.498
142.874,142.805
144.775,144.677
147.642,147.494
149.851,149.733
151.671,151.574
152.275,152.24
153.504,153.441
154.489,154.437
154.073,154.091
153.586,153.611
153.353,153.366
152.565,152.605
150.963,151.045
149.516,149.592
149.312,149.326
150.143,150.102
149.057,149.109
147.87,147.932
147.668,147.682
148.256,148.227
144.908,145.074
143.695,143.764
145.741,145.642
148.737,148.583
151.553,151.405
152.788,152.719
154.096,154.027
153.168,153.211
154.071,154.028
153.849,153.858
152.726,152.783
150.385,150.505
