Normal data,Filtered data
56.6268,56.6268
55.2704,55.3382
55.1081,55.1196
55.7008,55.6718
56.805,56.7483
58.332,58.2529
59.9454,59.8608
61.8358,61.7371
61.5038,61.5155
61.6176,61.6125
61.78,61.7716
61.6831,61.6875
61.6716,61.6724
61.4016,61.4151
64.2668,64.1242
66.0568,65.9602
66.5618,66.5317
66.283,66.2954
66.1127,66.1219
65.413,65.4484
58.2482,58.6082
106.256,103.873
117.468,116.788
116.983,116.974
111.593,111.862
109.11,109.247
106.149,106.303
99.2698,99.6214
92.8329,93.1723
85.4019,85.7905
77.7337,78.1366
70.7387,71.1086
64.0558,64.4085
59.7441,59.9773
55.0854,55.33
28.3505,29.6995
30.8559,30.7981
32.6033,32.513
34.877,34.7588
31.5373,31.6984
33.9315,33.8199
37.5702,37.3827
41.6291,41.4168
46.1062,45.8718
48.7746,48.6295
46.2453,46.3646
37.6918,38.1255
23.7241,24.4442
26.0486,25.9684
29.094,28.9377
33.2315,33.0168
38.2556,37.9936
44.5039,44.1783
48.7739,48.5441
51.3054,51.1674
46.5565,46.787
42.2892,42.514
44.7967,44.6826
47.6594,47.5106
49.6201,49.5146
52.3951,52.2511
55.0237,54.885
57.6922,57.5518
58.884,58.8174
59.3079,59.2834
59.0353,59.0477
58.5548,58.5794
57.9613,57.9922
57.4054,57.4348
57.1478,57.1621
57.2738,57.2682
58.7497,58.6756
57.8016,57.8453
56.9811,57.0243
57.2539,57.2424
56.2608,56.3099
55.782,55.8084
55.2761,55.3028
55.6411,55.6242
56.406,56.3669
57.6949,57.6285
58.5338,58.4885
59.2223,59.1856
58.8332,58.8508
58.5557,58.5705
58.2984,58.312
58.9313,58.9003
59.1294,59.118
59.1873,59.1838
59.6119,59.5905
60.6869,60.632
61.4916,61.4486
60.0892,60.1572
59.1656,59.2152
57.7752,57.8472
56.862,56.9112
56.1383,56.177
55.5897,55.619
56.4754,56.4326
57.1171,57.0828
57.9474,57.9042
58.5663,58.5332
59.3418,59.3013
59.0344,59.0477
58.6374,58.6579
57.7641,57.8088
56.6652,56.7223
57.2527,57.2262
58.0672,58.0251
59.3783,59.3106
59.7326,59.7115
58.1052,58.1855
56.5881,56.6679
55.58,55.6344
54.7976,54.8395
55.2963,55.2735
55.4688,55.4591
55.1121,55.1294
55.6208,55.5962
56.6481,56.5955
56.7158,56.7098
57.4263,57.3904
57.572,57.563
57.5902,57.5889
57.7269,57.72
57.8703,57.8627
58.611,58.5736
59.5121,59.4651
60.7567,60.6921
61.2,61.1746
61.2997,61.2935
60.4528,60.4949
60.6237,60.6172
59.8584,59.8963
52.7962,53.1512
52.7688,52.7879
52.1342,52.1668
53.0252,52.9822
53.6414,53.6084
53.873,53.8598
54.7697,54.7242
55.3854,55.3523
55.2895,55.2926
55.1936,55.1986
55.0728,55.0791
55.0185,55.0215
55.5332,55.5076
55.703,55.6932
56.8278,56.7711
58.6844,58.5887
38.6484,39.6454
41.3077,41.2246
41.571,41.5537
44.0817,43.9553
46.3036,46.1862
47.4783,47.4137
49.4451,49.3435
51.4604,51.3545
54.0285,53.8948
55.2097,55.144
55.9543,55.9137
56.731,56.6901
57.4821,57.4425
58.0595,58.0287
58.9619,58.9153
59.751,59.7092
60.8534,60.7962
62.522,62.4358
62.4318,62.432
61.4065,61.4578
60.9693,60.9937
61.0469,61.0443
50.7308,51.2465
53.1319,53.0376
52.6594,52.6784
53.1381,53.1151
54.0416,53.9953
55.1867,55.1271
55.8146,55.7802
56.5511,56.5126
56.7653,56.7527
57.4005,57.3682
58.1418,58.1031
59.2662,59.208
59.2306,59.2294
46.0367,46.6964
38.1892,38.6146
40.5119,40.417
42.7353,42.6194
44.7641,44.6569
46.3227,46.2394
49.1276,48.9832
51.3307,51.2133
52.9316,52.8457
53.9209,53.8672
54.7336,54.6903
55.6703,55.6213
56.7971,56.7383
57.569,57.5275
58.5032,58.4545
58.8414,58.822
60.5085,60.4242
59.1629,59.226
58.5374,58.5718
57.4807,57.5352
56.177,56.2449
56.4991,56.4864
57.4012,57.3555
58.5242,58.4657
59.6044,59.5475
60.5938,60.5415
61.1063,61.0781
61.2118,61.2051
61.1994,61.1997
61.2697,61.2662
60.8936,60.9123
61.0835,61.0749
62.0599,62.0107
62.6799,62.6464
64.415,64.3266
66.3499,66.2487
64.5047,64.5919
62.7431,62.8355
60.2667,60.3952
58.953,59.0251
57.4514,57.5301
56.9941,57.0209
57.3591,57.3422
56.864,56.8879
57.1979,57.1824
58.6125,58.541
58.5883,58.586
58.6937,58.6884
58.5901,58.595
58.3596,58.3713
58.5991,58.5877
59.6116,59.5604
61.008,60.9356
62.2586,62.1924
62.4505,62.4376
61.635,61.6752
60.9362,60.9731
60.5208,60.5435
83.8102,82.6469
77.7144,77.961
73.5566,73.7768
70.186,70.3656
67.1469,67.3079
66.0406,66.104
65.5457,65.5736
65.9013,65.885
64.6684,64.7292
63.1858,63.263
62.1315,62.1881
60.9022,60.9665
60.2166,60.2541
61.3107,61.2579
62.1664,62.1209
62.1047,62.1055
62.0422,62.0454
62.5464,62.5213
82.5571,81.5553
82.5112,82.4634
77.2679,77.5277
72.4834,72.7357
67.8877,68.1301
64.5602,64.7387
63.7718,63.8202
63.7787,63.7808
62.043,62.1299
60.8938,60.9556
59.8592,59.914
58.7075,58.7678
58.1435,58.1747
58.2129,58.211
50.2838,50.6802
44.4676,44.7782
45.6728,45.6281
46.3548,46.3184
47.3084,47.2589
48.8929,48.8112
51.5033,51.3687
52.8324,52.7592
30.2486,31.3742
24.8911,25.2152
27.6763,27.5532
30.9625,30.7921
23.6327,23.9906
26.2315,26.1194
26.1652,26.1629
29.2192,29.0664
32.7733,32.588
37.084,36.8592
40.7989,40.6019
27.6391,28.2873
116.669,112.25
93.5516,94.4865
94.8854,94.8654
91.731,91.8877
87.399,87.6234
81.2822,81.5993
76.0378,76.3159
70.992,71.2582
66.8773,67.0963
62.9935,63.1986
56.6959,57.0211
57.0265,57.0262
58.2886,58.2254
59.4257,59.3657
59.926,59.898
60.6694,60.6308
61.0132,60.994
61.0565,61.0534
61.1042,61.1017
60.8493,60.8619
60.9504,60.946
61.1347,61.1253
43.7188,44.5892
27.5557,28.4073
26.0184,26.1378
28.7098,28.5812
32.3251,32.1379
34.4522,34.3365
38.3032,38.1049
42.869,42.6308
46.7693,46.5624
49.6198,49.4669
52.7687,52.6036
55.3718,55.2334
57.3214,57.217
59.0617,58.9695
59.9559,59.9066
60.6497,60.6126
61.4476,61.4058
62.5865,62.5274
61.6623,61.7055
61.1754,61.2019
61.7456,61.7184
61.5533,61.5616
60.5414,60.5924
58.3414,58.454
57.6615,57.7011
57.3613,57.3783
57.309,57.3125
57.8241,57.7985
58.368,58.3395
59.4483,59.3929
58.8587,58.8854
58.5067,58.5257
58.2556,58.2691
57.5885,57.6226
57.2464,57.2652
57.2547,57.2553
57.4495,57.4398
57.7898,57.7723
58.1241,58.1065
58.4055,58.3906
58.7365,58.7192
58.7014,58.7023
58.8072,58.8019
59.2904,59.266
58.3938,58.4374
52.9736,53.2468
52.1767,52.2302
51.3892,51.4313
52.6544,52.5932
52.6465,52.6438
52.9945,52.977
54.1616,54.1024
55.7106,55.6302
57.1633,57.0867
58.2052,58.1493
58.4819,58.4653
57.6819,57.7211
57.618,57.6231
57.9392,57.9234
58.7769,58.7343
60.3476,60.2669
61.7606,61.6859
63.0546,62.9862
64.2778,64.2132
64.6671,64.6444
64.2455,64.2655
63.4575,63.4979
48.5292,49.2777
37.1211,37.729
39.3477,39.2667
42.0027,41.8659
44.4532,44.3238
47.5401,47.3793
49.8159,49.6941
52.4835,52.344
53.9245,53.8455
55.2798,55.2081
56.6577,56.5852
57.906,57.84
59.4244,59.3452
59.7648,59.7438
60.0152,60.0016
60.8135,60.7729
62.2255,62.1529
62.6848,62.6582
62.0409,62.0718
61.6158,61.6386
60.9194,60.9554
60.9003,60.9031
60.8892,60.8899
60.0739,60.1147
59.2738,59.3159
57.8975,57.9684
57.931,57.9329
57.951,57.9501
58.5191,58.4906
58.6527,58.6446
58.385,58.398
58.5402,58.5331
58.6523,58.6463
58.4641,58.4732
58.6096,58.6027
59.6238,59.5728
60.7905,60.7296
61.8809,61.8233
61.8304,61.8301
64.0869,63.974
66.5505,66.4217
65.9237,65.9486
63.6529,63.7676
62.1046,62.1877
61.3412,61.3835
60.3872,60.437
59.4052,59.4568
58.2707,58.33
57.501,57.5425
56.7816,56.8196
55.5925,55.6539
55.6808,55.6795
56.4234,56.3862
57.597,57.5364
58.4835,58.4362
58.8846,58.8622
59.1837,59.1676
59.1104,59.1133
58.919,58.9287
59.0786,59.0711
59.9381,59.8947
61.3175,61.2463
61.4542,61.4438
61.6139,61.6054
60.9158,60.9503
60.7295,60.7405
58.8206,58.9166
36.9614,38.0592
38.0916,38.09
39.9523,39.8592
41.7689,41.6734
44.0019,43.8854
45.8707,45.7714
47.9084,47.8016
50.4049,50.2747
52.2379,52.1397
53.8539,53.7682
54.7774,54.727
55.3425,55.3117
56.0786,56.0403
56.8639,56.8227
57.411,57.3816
57.392,57.3914
59.0003,58.9199
60.9423,60.8412
59.9175,59.9637
59.5864,59.6053
59.2911,59.3068
56.7143,56.8439
55.0702,55.1589
54.0238,54.0806
54.1291,54.1266
54.7155,54.686
54.7138,54.7124
55.2824,55.2539
57.5104,57.3976
59.4289,59.3274
59.4759,59.4685
59.8464,59.8275
60.2816,60.2589
60.452,60.4423
60.8285,60.8092
62.2943,62.22
64.2754,64.1727
65.1006,65.0542
65.5141,65.4911
65.5392,65.5368
65.2132,65.2293
64.9358,64.9505
63.8032,63.8606
62.7375,62.7936
61.8519,61.899
60.9322,60.9805
60.7034,60.7173
60.6144,60.6195
60.4735,60.4808
61.2944,61.2537
61.4072,61.3995
61.2681,61.2747
60.7422,60.7688
60.1247,60.1569
59.8864,59.8999
60.1611,60.148
60.753,60.7228
61.7763,61.7237
61.9901,61.9768
63.6759,63.591
62.8055,62.8448
62.3062,62.3331
61.47,61.5132
59.4816,59.5831
58.3491,58.4108
56.7909,56.8718
55.4527,55.5236
54.3171,54.3774
53.5982,53.6372
53.5604,53.5643
54.1134,54.086
55.1152,55.0637
55.907,55.8648
55.4892,55.508
55.4739,55.4756
55.5795,55.5743
55.3863,55.3957
55.7806,55.7614
55.991,55.9795
57.1178,57.0609
58.0717,58.0212
59.6877,59.6044
59.6791,59.6753
60.0717,60.0519
60.0352,60.036
59.3587,59.3926
59.0188,59.0375
58.2019,58.2437
58.1169,58.1232
57.8944,57.9058
58.5759,58.5424
59.6886,59.6313
60.8237,60.7641
61.7092,61.6619
62.0565,62.0367
61.3881,61.4205
61.0087,61.0293
61.8526,61.8115
61.583,61.5944
61.4352,61.4431
61.2003,61.2125
61.3521,61.3451
61.9602,61.9295
61.6435,61.6578
60.7166,60.7637
59.3673,59.4371
58.6348,58.675
57.9646,58.0001
57.66,57.677
57.4618,57.4725
57.4022,57.4057
57.8398,57.8181
58.6928,58.6491
59.4299,59.3909
59.3074,59.3116
58.9148,58.9346
58.7766,58.7845
58.834,58.8315
59.0594,59.048
59.556,59.5306
59.2115,59.2275
58.8229,58.8431
59.8237,59.7746
59.8087,59.807
59.3811,59.4024
58.809,58.8387
58.0486,58.0881
57.4784,57.5088
56.7959,56.8315
56.5296,56.5447
56.8884,56.8712
57.2442,57.2255
58.3738,58.3163
59.5795,59.5163
60.3026,60.2633
60.4861,60.475
60.0137,60.0368
59.3466,59.3811
59.3622,59.3632
58.9658,58.9857
59.5288,59.5017
59.6301,59.6237
59.4206,59.4308
60.5888,60.5309
62.1812,62.0986
64.5075,64.3871
65.6563,65.5929
64.3805,64.4412
63.1799,63.243
61.8916,61.9592
60.7078,60.7704
59.1706,59.2506
58.2104,58.2624
57.9418,57.9579
57.8447,57.8503
57.861,57.8604
58.1821,58.166
59.8402,59.7565
59.9233,59.915
60.1392,60.128
59.3284,59.3684
59.3681,59.3681
58.6422,58.6785
58.1621,58.1879
57.8548,57.8714
58.4562,58.427
58.758,58.7414
59.1829,59.1609
60.9266,60.8383
61.2359,61.216
61.0386,61.0475
60.7378,60.7533
61.1459,61.1263
59.4785,59.5609
58.8867,58.9204
58.6336,58.6479
57.0115,57.0933
56.4944,56.5243
56.7231,56.7132
57.2529,57.2259
58.9018,58.818
59.3563,59.3294
59.8902,59.8621
59.6141,59.6265
59.1938,59.2154
59.9367,59.9007
60.6259,60.5896
60.765,60.7562
60.5333,60.5444
61.3071,61.269
62.1067,62.0648
63.753,63.6686
63.7627,63.758
63.5061,63.5186
62.4495,62.5029
62.0513,62.0739
61.473,61.5031
60.3383,60.3965
59.7901,59.8204
59.4065,59.4272
58.7362,58.7707
59.7319,59.6839
60.6694,60.6202
62.011,61.9415
62.1356,62.1259
62.6109,62.5867
62.1168,62.1403
61.5824,61.6103
61.2127,61.2326
60.6286,60.6588
60.8974,60.8854
60.9601,60.9564
61.8647,61.8192
63.1291,63.0636
64.3785,64.3127
62.9022,62.9728
61.3222,61.4047
60.5813,60.6225
58.7555,58.8489
57.539,57.6045
56.8295,56.8683
56.5787,56.5932
56.6744,56.6703
56.6904,56.6894
57.515,57.4737
59.2099,59.123
60.2254,60.1703
59.8559,59.8716
59.6417,59.6532
59.3329,59.3489
59.1346,59.1453
59.1963,59.1938
60.4085,60.3478
60.3726,60.3714
60.0466,60.0628
57.5758,57.7002
57.6697,57.6712
57.6466,57.6478
58.5699,58.5238
59.1194,59.0896
59.9234,59.8817
60.7266,60.6843
61.5987,61.5529
62.2014,62.169
62.5805,62.56
61.8886,61.9222
61.7051,61.7159
61.8854,61.8769
61.6767,61.6867
61.8665,61.8576
61.8995,61.8974
62.5577,62.5247
63.6051,63.5511
64.2492,64.2143
63.8789,63.8957
63.282,63.3127
61.6027,61.6882
60.8433,60.8856
60.1378,60.1752
58.9133,58.9764
58.0896,58.134
58.1103,58.1115
58.5089,58.489
57.6884,57.7285
57.9256,57.9158
57.7421,57.7508
57.3678,57.3869
56.808,56.837
56.5878,56.6003
56.6793,56.6754
56.9647,56.9502
57.1197,57.1113
57.2883,57.2794
57.5998,57.5838
58.9187,58.852
60.0285,59.9697
61.0119,60.9598
60.8709,60.8754
60.103,60.1417
59.5381,59.5683
59.4038,59.412
58.5693,58.6115
57.3872,57.4484
56.6286,56.6696
56.0089,56.0419
56.4989,56.476
56.4595,56.4603
56.9109,56.8884
57.6015,57.5658
58.9154,58.848
59.8396,59.79
59.7257,59.729
59.6802,59.6826
59.7198,59.7179
59.5932,59.5995
59.8147,59.8039
60.6562,60.6136
61.6175,61.5673
62.8238,62.761
63.0293,63.0159
62.8528,62.861
61.7192,61.7763
60.8925,60.9366
60.0816,60.1243
58.933,58.9926
57.2358,57.3236
56.9472,56.966
57.0382,57.0346
57.6887,57.656
58.2638,58.2335
59.5298,59.465
60.7577,60.6931
60.9091,60.8983
60.2899,60.3203
59.8792,59.9012
59.4835,59.5044
59.1322,59.1508
58.8568,58.8715
59.7674,59.7226
60.4368,60.401
59.1328,59.1962
58.4967,58.5316
57.3488,57.408
52.4902,52.7361
97.3339,95.104
96.2878,96.2286
87.8676,88.2857
82.0707,82.3815
75.8823,76.2072
69.0298,69.3886
65.6748,65.8605
63.7803,63.8843
62.5684,62.6342
61.2808,61.3484
59.8693,59.9433
58.9919,59.0395
58.2281,58.2687
58.1134,58.1212
58.1514,58.1499
58.8324,58.7983
60.1154,60.0495
61.9202,61.8267
62.8397,62.789
63.5034,63.4677
63.828,63.81
63.7021,63.7075
62.0871,62.1682
57.6317,57.8585
49.4614,49.8813
49.0204,49.0635
49.6039,49.5769
51.931,51.8133
52.7709,52.723
54.9819,54.869
55.9494,55.8954
56.7886,56.7439
57.8061,57.753
58.1764,58.1552
58.2881,58.2814
58.0832,58.0931
58.5373,58.5151
58.8214,58.8061
59.3487,59.3216
59.5356,59.5249
59.5681,59.5659
59.6995,59.6928
59.63,59.6331
59.2329,59.2529
58.299,58.3467
57.5474,57.5874
56.944,56.9762
56.9283,56.9307
57.4272,57.4024
58.5962,58.5366
60.2411,60.1559
61.1911,61.1393
61.545,61.5247
61.5786,61.5759
61.3993,61.4081
61.3596,61.362
61.0994,61.1126
61.0416,61.0451
61.1567,61.1511
61.885,61.8483
60.2632,60.3425
59.4306,59.4762
58.6646,58.7052
56.9148,57.0043
56.1329,56.1764
55.4122,55.4505
55.102,55.1195
55.035,55.0392
55.8227,55.7835
57.5984,57.5076
58.6614,58.6037
59.6377,59.586
60.4683,60.4242
60.2625,60.2706
59.4968,59.5355
59.6187,59.6146
60.004,59.9845
60.5263,60.4992
60.3904,60.3959
60.6614,60.6481
60.5641,60.5683
59.9751,60.0047
59.7837,59.7947
60.2388,60.2166
59.2035,59.2542
57.5563,57.6412
56.8765,56.9147
57.3653,57.3428
57.4607,57.4548
58.2407,58.2014
59.2448,59.1926
60.2733,60.2192
60.7514,60.7248
60.3309,60.3506
59.5267,59.5679
59.3598,59.3702
59.5712,59.5612
59.0255,59.0523
58.6538,58.6738
58.9372,58.924
59.717,59.6773
60.8261,60.7687
62.807,62.7051
63.3544,63.3219
63.9715,63.9391
62.9488,62.9983
61.6738,61.7401
60.3628,60.4317
59.8556,59.8844
59.146,59.1829
58.0303,58.0879
56.9271,56.9851
56.2491,56.2859
56.2806,56.2809
57.3454,57.2921
57.9667,57.933
58.7223,58.6828
59.2348,59.2072
60.4089,60.3488
60.3735,60.3723
59.8743,59.8992
59.3898,59.4153
58.8894,58.9157
58.4409,58.4646
57.8525,57.8831
58.0764,58.0667
59.2558,59.1964
59.961,59.9228
60.5025,60.4735
60.3863,60.3907
60.0145,60.0333
59.075,59.1229
58.779,58.7962
57.9196,57.9634
57.0351,57.0815
56.4079,56.4416
56.0481,56.0678
55.6126,55.6353
54.8761,54.9141
54.9807,54.9774
55.5621,55.5329
56.3809,56.3385
57.4112,57.3575
58.0255,57.9921
58.0416,58.0391
57.8763,57.8844
57.769,57.7747
57.6156,57.6236
57.6542,57.6527
58.0405,58.0211
57.7624,57.7753
58.2242,58.2017
59.3612,59.3032
60.1373,60.0956
59.8489,59.8612
61.0004,60.9434
61.6841,61.6471
60.5651,60.6192
60.0952,60.1214
58.5799,58.657
57.7639,57.8086
56.7381,56.7916
56.0782,56.1139
55.8451,55.8586
56.6536,56.6139
57.8706,57.8078
59.4039,59.3241
60.1328,60.0924
60.7646,60.731
60.8381,60.8328
61.1573,61.1411
61.4906,61.4731
61.4375,61.4393
61.2553,61.2645
61.4268,61.4187
61.6127,61.603
62.6783,62.6245
63.9027,63.8388
65.1873,65.1199
64.6479,64.6715
63.34,63.4066
61.9484,62.0213
60.3875,60.4692
58.5046,58.6029
56.4578,56.5651
55.4055,55.4635
54.356,54.4113
53.7632,53.7957
53.5171,53.5311
53.5672,53.5654
54.3664,54.3263
55.7725,55.7002
56.4671,56.4288
57.4702,57.4182
58.2657,58.2233
58.5163,58.5017
58.5571,58.5544
59.2541,59.2191
59.5241,59.5088
59.2087,59.2237
60.9193,60.8345
62.5602,62.4739
61.7476,61.7839
60.6035,60.6625
59.7879,59.8316
58.1808,58.2633
56.4683,56.558
55.2848,55.3484
54.9294,54.9504
54.7125,54.7244
54.5003,54.5115
55.374,55.3309
57.0931,57.005
58.9829,58.884
