Normal data,Filtered data
160.741,160.741
166.109,165.841
169.85,169.649
173.718,173.515
167.329,167.638
155.728,156.323
145.216,145.771
140.381,140.65
138.231,138.352
142.228,142.034
145.73,145.545
151.268,150.982
158.894,158.498
163.939,163.667
164.308,164.276
164.814,164.787
163.445,163.513
162.407,162.462
161.605,161.648
159.008,159.14
160.507,160.439
160.507,160.504
160.507,160.507
160.507,160.507
160.507,160.507
160.507,160.507
160.507,160.507
160.507,160.507
165.629,165.373
167.866,167.741
172.423,172.188
170.146,170.248
168.207,168.309
166.836,166.91
165.297,165.377
164.26,164.316
166.397,166.293
172.598,172.282
173.518,173.456
164.961,165.386
153.544,154.136
143.474,144.007
138.534,138.808
139.667,139.624
146.334,145.998
150.433,150.211
154.578,154.36
158.671,158.456
160.841,160.722
161.19,161.167
161.546,161.527
158.722,158.862
157.748,157.804
160.308,160.183
160.662,160.638
160.966,160.95
164.664,164.478
164.664,164.655
164.664,164.664
164.664,164.664
160.826,161.018
161.64,161.609
162.759,162.701
168.559,168.266
170.443,170.334
170.788,170.765
170.356,170.377
170.248,170.254
171.094,171.052
171.93,171.886
168.053,168.245
164.632,164.813
158.438,158.757
150.902,151.294
144.408,144.752
140.462,140.677
137.486,137.645
140.828,140.669
145.795,145.539
150.56,150.309
158.8,158.376
161.318,161.171
163.592,163.471
165.636,165.528
165.776,165.763
165.887,165.88
164.378,164.453
162.978,163.052
159.877,160.036
158.634,158.704
161.049,160.932
161.134,161.124
161.153,161.151
162.931,162.842
166.58,166.393
169.594,169.434
171.902,171.779
173.423,173.341
173.791,173.769
173.332,173.354
172.498,172.54
168.581,168.779
167.019,167.107
165.972,166.029
171.111,170.857
173.297,173.175
169.854,170.02
162.792,163.153
156.356,156.696
150.796,151.091
147.967,148.123
147.573,147.6
153.469,153.175
154.833,154.75
160.822,160.519
168.238,167.852
172.699,172.457
176.245,176.056
175.791,175.804
177.275,177.202
172.944,173.157
170.288,170.432
172.446,172.345
171.904,171.926
171.334,171.363
170.79,170.819
170.15,170.183
167.047,167.204
168.923,168.837
170.664,170.572
171.811,171.749
172.876,172.819
171.54,171.604
170.364,170.426
169.23,169.29
166.212,166.366
161.887,162.111
158.132,158.331
149.22,149.676
144.852,145.093
143.228,143.322
143.543,143.531
145.751,145.64
152.434,152.094
160.655,160.227
163.967,163.78
167.289,167.114
172.364,172.101
173.092,173.043
171.917,171.974
170.561,170.631
170.989,170.971
171.404,171.382
169.844,169.921
172.421,172.296
172.282,172.283
174.02,173.933
169.595,169.811
169.274,169.301
170.999,170.914
172.2,172.136
173.822,173.737
174.022,174.007
173.879,173.885
173.27,173.301
172.385,172.431
173.865,173.793
174.328,174.301
175.393,175.338
171.53,171.72
168.355,168.523
162.785,163.072
157.961,158.217
153.806,154.027
152.058,152.156
150.826,150.892
152.008,151.952
155.964,155.763
159.696,159.499
163.101,162.921
159.316,159.496
156.078,156.249
153.286,153.434
155.22,155.13
152.58,152.707
148.074,148.306
148.446,148.439
148.808,148.79
151.321,151.194
153.674,153.55
158.373,158.132
162.366,162.154
165.676,165.5
168.076,167.947
169.934,169.834
171.374,171.297
172.045,172.007
172.26,172.248
171.944,171.959
164.191,164.579
166.639,166.536
167.152,167.121
160.306,160.647
154.078,154.406
148.569,148.861
146.097,146.235
150.554,150.338
155.156,154.915
156.576,156.493
159.847,159.679
160.878,160.818
161.988,161.929
163.259,163.192
164.325,164.268
160.59,160.774
160.59,160.599
161.727,161.67
161.727,161.724
161.727,161.726
157.927,158.117
154.483,154.665
156.306,156.224
157.739,157.663
161.5,161.308
164.633,164.466
164.734,164.721
167.253,167.127
169.279,169.171
170.752,170.673
172.131,172.058
171.584,171.608
170.949,170.982
166.153,166.395
158.903,159.278
151.303,151.702
145.383,145.699
143.835,143.928
144.68,144.642
148.534,148.339
150,149.917
153.6,153.416
159.97,159.642
163.869,163.658
163.453,163.463
161.386,161.49
161.386,161.391
161.483,161.479
159.66,159.751
158.204,158.281
160.255,160.157
161.858,161.773
161.537,161.549
161.537,161.538
163.157,163.076
163.045,163.047
162.593,162.616
166.188,166.009
169.168,169.01
169.663,169.631
169.391,169.403
172.645,172.483
173.54,173.487
173.558,173.555
174.011,173.988
173.52,173.544
171.639,171.734
169.292,169.414
162.458,162.806
156.131,156.465
153.575,153.719
153.104,153.134
154.312,154.253
157.283,157.131
161.844,161.609
168.613,168.263
169.414,169.356
170.06,170.024
167.38,167.512
165.046,165.17
162.92,163.033
161.086,161.184
159.436,159.523
156.162,156.33
154.834,154.909
157.224,157.108
155.4,155.485
155.4,155.404
159.498,159.294
158.994,159.009
162.508,162.333
165.503,165.344
165.87,165.843
170.457,170.226
171.953,171.866
173.168,173.102
169.211,169.406
167.533,167.627
166.386,166.448
170.002,169.825
174.908,174.653
174.13,174.156
167.574,167.903
161.125,161.464
157.415,157.618
156.004,156.085
155.04,155.092
157.627,157.5
160.509,160.358
161.519,161.461
162.542,162.488
163.579,163.525
166.544,166.393
165.471,165.518
161.148,161.366
157.372,157.572
155.494,155.597
157.504,157.408
159.411,159.311
161.088,160.999
160.625,160.643
158.204,158.326
157.877,157.9
161.842,161.645
165.182,165.005
170.11,169.855
171.269,171.198
173.536,173.419
172.966,172.989
172.367,172.398
172.229,172.237
171.548,171.583
171.778,171.768
171.943,171.935
170.373,170.451
166.637,166.828
162.797,162.998
153.561,154.033
145.352,145.786
139.829,140.127
140.474,140.456
142.918,142.795
147.25,147.028
151.77,151.533
158.36,158.019
164.475,164.152
170.015,169.722
171.149,171.077
170.248,170.29
171.206,171.16
167.768,167.938
164.724,164.884
166.03,165.973
167.138,167.08
166.046,166.097
164.671,164.742
167.77,167.619
170.309,170.175
172.083,171.987
171.291,171.325
173.828,173.703
172.54,172.598
172.19,172.21
172.138,172.141
172.127,172.128
172.257,172.25
172.9,172.868
174.645,174.557
173.721,173.763
168.466,168.731
159.148,159.627
151.278,151.696
150.366,150.432
147.633,147.773
148.446,148.412
149.66,149.598
152.932,152.766
156.378,156.197
157.801,157.721
161.604,161.41
165.003,164.824
163.75,163.803
158.682,158.938
158.136,158.176
158.136,158.138
158.136,158.136
159.781,159.699
161.128,161.056
162.249,162.189
160.642,160.72
163.902,163.743
166.434,166.299
164.228,164.332
166.729,166.609
168.687,168.583
172.941,172.723
173.062,173.045
173.058,173.057
173.216,173.208
171.731,171.805
172.743,172.696
170.081,170.212
163.376,163.718
156.752,157.1
151.047,151.35
146.505,146.748
144.801,144.898
144.991,144.987
147.544,147.416
149.988,149.86
154.232,154.014
161.052,160.7
167.308,166.977
168.273,168.208
169.014,168.974
165.496,165.67
162.524,162.681
161.684,161.734
159.296,159.418
161.114,161.029
160.502,160.529
159.876,159.909
161.45,161.373
162.766,162.696
166.369,166.185
166.732,166.705
172.014,171.748
173.625,173.531
174.433,174.388
174.804,174.783
175.084,175.069
174.877,174.887
172.667,172.778
170.561,170.672
173.243,173.114
173.635,173.609
168.752,168.995
161.138,161.531
154.164,154.532
144.348,144.857
136.246,136.677
131.125,131.402
133.487,133.382
136.541,136.383
141.467,141.213
146.689,146.416
149.953,149.777
157.461,157.077
159.983,159.838
160.063,160.052
156.236,156.427
156.236,156.245
161.258,161.007
161.3,161.286
158.893,159.012
156.847,156.955
152.422,152.649
152.854,152.844
153.234,153.215
158.215,157.965
167.339,166.87
169.787,169.641
171.76,171.654
172.486,172.445
172.703,172.69
172.686,172.687
171.444,171.506
169.998,170.073
172.108,172.006
173.661,173.578
166.185,166.554
158.009,158.436
154.476,154.674
147.932,148.269
148.059,148.07
147.128,147.175
146.789,146.809
148.482,148.398
150.46,150.357
155.101,154.864
161.322,160.999
165.156,164.948
164.205,164.242
163.168,163.222
164.348,164.292
160.852,161.024
161.698,161.664
162.274,162.243
162.274,162.272
161.109,161.168
164.201,164.05
166.358,166.243
164.374,164.467
166.417,166.319
167.901,167.821
169.912,169.807
170.112,170.097
169.505,169.535
168.615,168.661
167.724,167.77
171.07,170.905
172.765,172.672
171.471,171.531
166.857,167.09
158.015,158.469
150.507,150.905
145.843,146.096
143.58,143.706
143.58,143.587
143.683,143.678
146.863,146.704
150.535,150.344
154.528,154.319
160.808,160.483
164.646,164.438
167.481,167.329
166.945,166.964
170.062,169.908
170.646,170.609
171.091,171.067
171.414,171.397
175.768,175.549
171.225,171.441
173.364,173.267
172.669,172.699
173.885,173.826
174.431,174.401
174.112,174.127
171.81,171.926
171.489,171.511
171.424,171.428
171.618,171.608
171.565,171.567
171.992,171.971
171.428,171.455
174.138,174.004
170.588,170.758
161.05,161.535
152.777,153.215
147.928,148.192
145.418,145.557
145.038,145.064
145.061,145.061
146.865,146.774
150.425,150.243
154.155,153.959
153.836,153.842
155.985,155.878
152.56,152.726
153.278,153.251
155.941,155.806
152.871,153.018
148.319,148.554
147.837,147.873
147.46,147.481
146.819,146.852
150.412,150.234
153.619,153.449
154.006,153.978
158.905,158.658
160.701,160.599
169.105,168.68
171.123,171.001
171.935,171.888
172.285,172.265
171.326,171.373
169.796,169.875
171.704,171.613
172.6,172.551
167.444,167.699
163.705,163.904
156.792,157.147
148.569,148.997
143.318,143.602
140.44,140.598
143.27,143.137
147.814,147.58
154.106,153.78
162.433,162
169.935,169.538
170.858,170.792
173.3,173.175
172.229,172.277
169.314,169.462
170.15,170.116
170.788,170.754
171.288,171.262
171.601,171.584
169.879,169.964
168.232,168.319
170.332,170.232
171.727,171.652
172.625,172.577
173.192,173.161
173.435,173.421
173.92,173.895
173.579,173.595
173.215,173.234
172.547,172.581
172.387,172.396
172.563,172.555
171.833,171.869
167.421,167.643
159.21,159.631
151.878,152.266
147.377,147.621
144.07,144.247
142.891,142.959
143.493,143.466
145.824,145.706
149.701,149.502
153.84,153.623
157.994,157.776
161.878,161.673
163.802,163.695
163.739,163.736
160.399,160.566
160.799,160.787
161.143,161.125
159.465,159.548
158.024,158.1
158.326,158.315
158.56,158.547
162.632,162.428
161.892,161.919
165.451,165.274
168.486,168.326
170.795,170.672
173.285,173.155
173.003,173.01
172.991,172.992
172.477,172.502
171.268,171.329
169.862,169.936
172.444,172.318
172.043,172.056
169.629,169.751
162.426,162.793
157.204,157.484
152.551,152.798
150.498,150.613
147.986,148.118
148.53,148.509
148.423,148.427
148.722,148.707
151.436,151.3
154.114,153.973
154.777,154.737
155.454,155.418
156.12,156.085
156.734,156.702
155.27,155.341
157.864,157.738
160.144,160.024
162.127,162.022
161.511,161.536
165.18,164.998
168.354,168.187
168.69,168.665
169.06,169.04
172.985,172.788
175.37,175.241
174.886,174.904
169.095,169.385
165.082,165.297
158.449,158.792
152.498,152.813
147.564,147.827
140.829,141.179
139.793,139.863
138.469,138.538
140.764,140.652
144.552,144.357
149.527,149.269
154.443,154.184
157.638,157.465
160.561,160.406
163.126,162.99
163.882,163.837
165.962,165.856
167.906,167.804
165.314,165.439
165.726,165.711
164.356,164.424
166.176,166.088
165.936,165.943
163.905,164.007
163.56,163.583
163.56,163.561
163.56,163.56
163.402,163.41
158.423,158.672
162.278,162.098
164.741,164.609
166.222,166.141
168.212,168.108
169.541,169.47
167.667,167.757
166.296,166.369
160.143,160.454
154.217,154.529
149.593,149.84
148.498,148.565
147.038,147.114
149.669,149.541
153.757,153.546
157.826,157.612
161.666,161.463
165.482,165.281
167.103,167.012
168.569,168.491
164.014,164.238
161.504,161.641
160.545,160.599
161.082,161.058
159.857,159.917
158.759,158.817
159.271,159.248
159.675,159.654
161.729,161.625
161.548,161.552
165.164,164.983
172.172,171.813
173.614,173.523
174.056,174.029
172.934,172.989
171.166,171.258
169.142,169.247
167.699,167.776
166.71,166.764
170.027,169.864
174.807,174.56
169.158,169.429
161.844,162.223
152.304,152.8
145.876,146.222
141.761,141.984
142.636,142.604
144.977,144.859
148.919,148.716
152.926,152.715
155.482,155.344
161.245,160.95
163.094,162.987
163.246,163.233
160.336,160.481
157.782,157.917
156.951,157
159.519,159.393
161.791,161.672
163.794,163.688
163.678,163.679
154.212,154.685
154.609,154.613
158.478,158.285
161.792,161.616
162.729,162.674
165.156,165.031
166.798,166.71
169.333,169.202
169.544,169.527
168.665,168.708
167.333,167.402
166.408,166.458
167.729,167.666
170.795,170.639
174.011,173.842
175.42,175.341
171.428,171.624
166.683,166.93
159.153,159.542
154.318,154.579
151.74,151.882
148.687,148.847
150.156,150.09
151.816,151.73
155.116,154.947
158.518,158.34
163.807,163.533
166.852,166.686
165.833,165.875
161.655,161.866
163.064,163.004
159.491,159.666
157.862,157.952
156.395,156.473
158.66,158.551
158.605,158.602
162.256,162.073
163.403,163.337
166.28,166.133
171.722,171.442
171.294,171.301
169.744,169.822
170.359,170.332
169.316,169.367
168.21,168.268
172.302,172.1
171.078,171.129
173.904,173.765
164.775,165.224
164.526,164.561
158.589,158.887
153.371,153.647
150.449,150.609
149.088,149.164
150.205,150.153
150.331,150.323
157.917,157.537
159.563,159.462
159.563,159.558
163.111,162.934
163.111,163.102
162.502,162.532
160.269,160.382
159.81,159.838
159.534,159.549
161.268,161.182
162.842,162.759
166.09,165.924
168.901,168.752
169.298,169.271
169.611,169.594
171.72,171.614
173.485,173.391
172.27,172.326
171.197,171.254
173.114,173.021
173.581,173.553
172.665,172.709
173.307,173.277
172.941,172.958
169.983,170.132
165.722,165.942
157.953,158.353
151.129,151.49
145.444,145.746
142.187,142.365
139.907,140.03
140.673,140.64
145.605,145.357
151.905,151.578
156.354,156.116
162.252,161.945
167.116,166.858
170.127,169.963
169.638,169.654
169.453,169.463
169.744,169.73
169.503,169.514
167.866,167.949
168.146,168.136
167.742,167.762
167.67,167.675
167.293,167.312
167.815,167.79
167.842,167.84
168.518,168.484
168.883,168.863
169.708,169.666
169.806,169.799
168.902,168.947
168.085,168.128
169.153,169.102
168.262,168.304
167.662,167.694
167.128,167.156
171.606,171.383
175.108,174.921
171.864,172.017
164.123,164.517
156.665,157.058
150.364,150.699
144.751,145.049
140.484,140.712
137.465,137.628
136.891,136.928
138.672,138.585
140.924,140.807
140.582,140.593
145.852,145.589
150.857,150.593
155.634,155.382
160.005,159.774
161.311,161.234
162.398,162.34
163.392,163.34
166.721,166.552
166.87,166.854
166.87,166.869
166.87,166.87
166.87,166.87
166.87,166.87
166.955,166.951
169.038,168.933
170.469,170.392
171.16,171.121
171.633,171.607
172.067,172.044
171.7,171.717
171.46,171.473
171.687,171.677
170.913,170.951
168.82,168.927
166.635,166.75
164.387,164.505
161.966,162.093
159.701,159.821
158.905,158.951
158.008,158.056
157.606,157.629
157.022,157.052
156.765,156.779
156.745,156.746
156.958,156.947
157.566,157.535
158.328,158.288
159.6,159.534
161.151,161.07
161.791,161.755
163.308,163.23
164.68,164.608
164.084,164.11
162.808,162.873
163.448,163.42
164.947,164.871
165.511,165.479
164.912,164.94
165.745,165.704
166.412,166.376
166.606,166.595
166.903,166.888
167.07,167.061
167.176,167.171
167.524,167.506
168.092,168.063
168.896,168.855
169.489,169.457
167.913,167.99
160.166,160.557
152.002,152.43
148.154,148.368
146.934,147.005
145.854,145.912
145.28,145.312
145.237,145.241
144.506,144.543
147.181,147.049
147.914,147.871
153.537,153.254
158.32,158.067
161.292,161.13
165.188,164.985
167.496,167.371
169.445,169.341
168.673,168.707
169.318,169.287
170.168,170.124
170.975,170.933
176.959,176.657
177.389,177.353
177.389,177.387
177.389,177.389
177.389,177.389
177.389,177.389
177.389,177.389
178.463,178.409
179.071,179.038
179.29,179.277
179.036,179.048
178.987,178.99
178.622,178.64
178.703,178.7
178.512,178.521
176.333,176.442
176.11,176.126
172.941,173.1
164.743,165.161
157.36,157.75
151.029,151.365
145.51,145.803
141.209,141.439
137.8,137.982
135.686,135.801
134.603,134.663
134.603,134.606
134.603,134.603
134.603,134.603
134.603,134.603
134.603,134.603
134.603,134.603
134.603,134.603
134.603,134.603
134.603,134.603
137.247,137.115
142.42,142.155
147.117,146.869
147.117,147.105
147.117,147.116
147.117,147.117
151.77,151.537
155.874,155.657
155.874,155.863
155.874,155.873
155.874,155.874
162.051,161.742
166.752,166.501
169.626,169.47
169.899,169.877
168.546,168.613
166.587,166.689
164.875,164.966
163.228,163.314
165.356,165.254
167.572,167.456
173.211,172.923
174.663,174.576
172.701,172.794
168.084,168.319
163.367,163.614
156.46,156.817
150.109,150.444
144.779,145.062
140.487,140.715
137.449,137.612
135.952,136.035
135.952,135.956
135.952,135.952
135.952,135.952
135.952,135.952
135.952,135.952
135.952,135.952
135.952,135.952
135.952,135.952
135.952,135.952
135.952,135.952
141.368,141.097
143.872,143.733
148.798,148.544
148.798,148.785
148.798,148.797
148.798,148.798
153.643,153.401
157.763,157.545
161.576,161.375
167.252,166.958
171.359,171.139
172.948,172.858
171.423,171.495
171.13,171.148
171.131,171.132
171.032,171.037
173.587,173.46
174.592,174.536
174.089,174.112
175.538,175.466
174.655,174.695
174.857,174.849
175.097,175.085
174.643,174.665
169.405,169.668
164.238,164.51
159.689,159.93
155.535,155.755
155.535,155.546
155.535,155.536
149.711,150.002
144.732,144.996
141.187,141.377
134.663,134.998
134.663,134.679
134.663,134.663
134.663,134.663
134.663,134.663
134.663,134.663
134.663,134.663
134.663,134.663
134.663,134.663
134.663,134.663
134.663,134.663
134.663,134.663
134.663,134.663
135.151,135.127
135.77,135.738
138.192,138.069
140.749,140.615
143.327,143.191
143.72,143.693
144.036,144.019
144.036,144.035
144.036,144.036
146.697,146.564
148.928,148.809
148.928,148.922
144.333,144.563
140.244,140.46
136.7,136.888
128.272,128.703
123.812,124.057
117.199,117.542
116.201,116.268
115.586,115.62
115.319,115.334
118.299,118.151
121.7,121.523
125.189,125.005
134.048,133.596
142.586,142.136
144.41,144.296
149.227,148.981
153.356,153.137
159.956,159.615
159.956,159.939
159.956,159.955
159.956,159.956
159.956,159.956
159.956,159.956
165.512,165.235
168.529,168.365
172.764,172.544
174.573,174.472
173.613,173.656
175.259,175.179
176.613,176.542
177.476,177.429
177.15,177.164
175.762,175.832
171.319,171.544
162.217,162.683
153.749,154.195
146.078,146.484
139.341,139.699
137.233,137.357
135.903,135.976
137.145,137.086
135.563,135.639
136.386,136.349
139.408,139.255
148.056,147.616
151.233,151.052
154.191,154.034
159.657,159.376
164.275,164.03
168.167,167.96
167.007,167.055
165.931,165.987
164.878,164.933
166.081,166.024
164.618,164.689
167.84,167.683
167.84,167.833
167.84,167.84
167.84,167.84
167.84,167.84
171.02,170.861
171.135,171.121
170.79,170.806
170.554,170.567
166.93,167.112
169.561,169.438
171.662,171.551
173.35,173.26
174.482,174.421
175.431,175.381
176.419,176.367
177.032,176.999
176.324,176.357
169.28,169.634
161.895,162.282
155.464,155.805
145.908,146.403
137.544,137.987
134.451,134.627
131.922,132.057
130.264,130.354
130.794,130.772
128.04,128.176
126.115,126.218
126.56,126.543
132.764,132.453
139.383,139.037
145.831,145.492
151.982,151.657
155.547,155.353
160.975,160.694
161.067,161.049
158.81,158.921
156.556,156.674
159.282,159.151
161.655,161.53
163.913,163.794
163.099,163.134
167.43,167.215
171.194,170.995
171.71,171.674
171.704,171.702
168.443,168.606
167.888,167.923
164.642,164.806
159.396,159.667
150.214,150.687
141.395,141.86
136.209,136.492
131.397,131.652
126.93,127.166
124.093,124.246
121.939,122.054
126.632,126.403
130.824,130.603
132.503,132.408
134.643,134.531
138.48,138.283
142.296,142.096
145.037,144.89
148.01,147.854
151.128,150.964
154.129,153.97
157.18,157.02
159.901,159.757
162.34,162.211
164.39,164.281
166.406,166.3
168.295,168.195
168.295,168.29
171.573,171.409
173.712,173.597
175.094,175.019
175.839,175.798
176.342,176.315
176.639,176.623
174.124,174.249
178.368,178.162
177.79,177.808
174.399,174.569
177.457,177.313
173.995,174.161
170.738,170.909
165.498,165.769
156.72,157.173
148.962,149.373
142.033,142.4
137.371,137.622
132.153,132.426
129.015,129.186
126.74,126.863
125.467,125.537
125.947,125.926
131.042,130.786
133.326,133.199
140.163,139.814
144.623,144.383
148.818,148.597
154.281,153.997
156.402,156.281
157.83,157.753
159.086,159.019
160.431,160.36
162.062,161.977
163.155,163.096
164.386,164.322
165.707,165.638
166.709,166.656
167.583,167.536
165.954,166.033
168.647,168.517
170.721,170.611
172.046,171.975
173.184,173.123
173.15,173.148
170.253,170.397
168.227,168.336
166.315,166.416
164.954,165.027
170.221,169.961
174.134,173.925
171.803,171.91
161.856,162.358
152.132,152.643
143.193,143.665
139.603,139.806
136.398,136.568
134.198,134.317
133.225,133.28
134.62,134.553
136.697,136.59
145.591,145.141
153.544,153.124
158.764,158.482
161.218,161.081
163.321,163.209
165.236,165.134
167.662,167.536
167.828,167.813
166.356,166.428
166.647,166.636
166.568,166.572
166.356,166.367
165.821,165.848
165.821,165.822
166.242,166.221
169.326,169.17
171.548,171.43
170.586,170.628
169.346,169.41
168.421,168.47
173.847,173.578
176.967,176.797
177.047,177.035
177.307,177.294
174.139,174.297
174.887,174.858
175.306,175.283
175.405,175.399
169.749,170.031
164.096,164.393
158.698,158.982
153.829,154.087
149.495,149.724
145.821,146.016
142.863,143.021
139.001,139.202
136.063,136.22
135.628,135.658
135.73,135.726
137.924,137.814
135.458,135.575
134.985,135.014
137.809,137.67
140.454,140.315
137.767,137.895
138.252,138.234
135.572,135.705
133.448,133.561
131.279,131.393
133.969,133.841
136.23,136.11
138.203,138.098
137.685,137.706
141.74,141.539
142.775,142.713
145.581,145.437
146.191,146.153
146.686,146.66
146.793,146.786
146.858,146.855
143.014,143.206
140.957,141.07
132.295,132.733
127.67,127.923
126.373,126.45
122.318,122.525
118.702,118.893
116.113,116.252
118.869,118.738
119.667,119.621
126.834,126.474
135.338,134.895
140.809,140.513
144.732,144.521
147.057,146.93
151.58,151.347
155.345,155.145
157.06,156.964
157.61,157.578
157.043,157.069
157.574,157.548
158.713,158.655
159.532,159.488
160.338,160.295
161.363,161.309
161.558,161.545
161.486,161.489
158.582,158.727
155.345,155.514
152.322,152.482
149.649,149.791
147.43,147.548
140.164,140.533
135.563,135.811
126.719,127.174
126.128,126.18
122.688,122.862
119.651,119.812
117.437,117.556
120.56,120.41
123.604,123.444
127.281,127.089
130.724,130.542
135.899,135.631
139.554,139.358
144.686,144.42
147.49,147.337
149.734,149.614
151.648,151.546
153.42,153.326
154.575,154.513
156.048,155.972
157.213,157.151
159.672,159.546
162.037,161.912
164.798,164.654
165.942,165.877
166.889,166.838
167.099,167.086
166.852,166.864
166.473,166.492
165.347,165.405
160.898,161.123
156.397,156.633
149.289,149.656
142.615,142.967
136.469,136.794
131.216,131.495
123.91,124.29
120.476,120.667
117.72,117.867
115.823,115.925
125.073,124.615
128.696,128.492
137.581,137.127
146.998,146.504
152.012,151.736
155.088,154.92
157.544,157.413
159.58,159.472
161.672,161.562
163.319,163.231
163.54,163.524
162.197,162.264
163.902,163.82
164.997,164.938
166.554,166.473
166.644,166.635
166.901,166.888
166.938,166.935
169.175,169.063
171.287,171.176
172.607,172.536
173.523,173.474
174.092,174.061
174.34,174.326
169.883,170.105
157.793,158.408
149.167,149.629
141.152,141.576
132.275,132.74
126.419,126.735
121.304,121.575
117.212,117.43
118.211,118.172
120.835,120.702
123.579,123.435
127.454,127.253
127.853,127.823
132.132,131.916
132.958,132.906
137.597,137.362
141.929,141.701
144.957,144.794
146.821,146.72
148.058,147.991
149.064,149.011
148.04,148.089
149.619,149.542
151.027,150.953
152.583,152.502
157.229,156.993
159.883,159.739
162.12,162.001
164.227,164.115
166.018,165.923
168.059,167.952
169.641,169.557
169.954,169.934
172.372,172.25
172.912,172.879
172.137,172.174
170.639,170.716
161.844,162.287
154.037,154.45
146.674,147.063
138.109,138.557
132.337,132.648
127.321,127.587
123.299,123.514
120.547,120.696
119.816,119.86
124.443,124.214
132.091,131.697
134.048,133.93
139.111,138.852
143.3,143.078
145.954,145.811
148.42,148.289
150.095,150.005
151.198,151.138
152.709,152.63
153.347,153.311
154.427,154.372
155.832,155.759
157.015,156.952
157.095,157.088
159.483,159.363
161.671,161.556
163.681,163.575
165.49,165.395
168.259,168.116
170.609,170.485
172.231,172.144
173.424,173.36
174.246,174.202
174.255,174.253
170.882,171.051
162.556,162.98
152.386,152.915
145.423,145.797
138.98,139.321
131.366,131.763
128.391,128.56
127.455,127.51
126.801,126.837
126.684,126.691
126.965,126.951
130.597,130.414
133.262,133.12
135.547,135.426
137.297,137.204
139.587,139.468
141.855,141.735
144.283,144.156
147.357,147.197
148.32,148.263
148.4,148.393
150.077,149.993
152.425,152.304
152.425,152.419
152.501,152.497
151.862,151.893
151.763,151.769
151.701,151.704
155.129,154.957
156.354,156.284
157.358,157.304
156.293,156.343
157.078,157.041
158.092,158.039
158.62,158.591
158.487,158.492
150.449,150.851
144.418,144.74
138.76,139.059
135.871,136.03
133.417,133.548
130.852,130.987
126.73,126.943
123.839,123.994
121.78,121.891
120.285,120.365
120.813,120.791
121.823,121.772
126.667,126.422
132.828,132.508
138.826,138.51
144.115,143.835
149.167,148.9
154.248,153.98
156.661,156.527
159.338,159.197
160.023,159.982
160.813,160.771
160.813,160.811
160.813,160.813
160.813,160.813
164.327,164.151
164.67,164.644
164.266,164.285
167.835,167.658
170.654,170.504
172.469,172.37
167.988,168.207
167.452,167.489
159.645,160.037
151.162,151.606
143.176,143.597
135.736,136.129
127.92,128.331
123.335,123.585
119.326,119.539
113.362,113.67
108.428,108.69
104.758,104.955
99.8829,100.137
98.2445,98.3391
98.8684,98.8419
100.228,100.159
104.672,104.446
106.641,106.531
112.335,112.044
116.402,116.184
120.135,119.937
123.406,123.233
126.92,126.736
128.933,128.823
131.329,131.204
133.449,133.336
135.432,135.327
135.066,135.079
134.215,134.258
133.329,133.376
130.417,130.564
127.772,127.912
128.581,128.547
131.286,131.15
130.089,130.142
128.612,128.688
128.612,128.616
128.612,128.612
128.612,128.612
128.612,128.612
126.004,126.134
122.82,122.986
121.4,121.479
118.14,118.307
113.123,113.382
110.197,110.357
111.115,111.077
109.621,109.694
112.673,112.524
116.155,115.973
120.433,120.21
122.705,122.58
127.764,127.505
131.664,131.456
133.999,133.872
136.565,136.431
139.264,139.122
141.631,141.506
144.243,144.106
146.82,146.684
146.455,146.466
145.164,145.229
147.05,146.959
144.475,144.6
141.529,141.683
138.543,138.7
135.755,135.903
130.947,131.195
130.298,130.343
125.782,126.01
124.197,124.287
121.666,121.797
117.9,118.095
111.652,111.974
108.898,109.052
107.539,107.615
106.516,106.571
106.044,106.07
104.071,104.171
105.672,105.597
107.61,107.51
110.008,109.883
113.451,113.273
120.372,120.017
125.843,125.552
131.808,131.495
136.27,136.031
139.902,139.708
143.163,142.99
145.717,145.58
147.95,147.831
150.056,149.945
151.682,151.596
152.393,152.353
152.888,152.861
152.632,152.643
155.651,155.501
158.102,157.972
159.909,159.812
158.976,159.017
157.736,157.8
156.129,156.213
154.221,154.321
148.966,149.234
143.76,144.033
143.76,143.773
143.76,143.76
143.76,143.76
143.76,143.76
134.108,134.59
125.82,126.258
119.796,120.12
115.05,115.304
112.109,112.269
112.822,112.795
114.123,114.057
115.75,115.665
117.654,117.555
119.48,119.384
119.955,119.927
124.679,124.441
130.371,130.075
131.683,131.603
134.017,133.896
136.833,136.687
139.643,139.495
142.154,142.021
144.612,144.483
145.331,145.288
145.859,145.831
145.908,145.904
149.61,149.425
152.727,152.562
153.062,153.037
153.186,153.178
152.791,152.81
152.371,152.393
151.502,151.547
146.932,147.163
143.986,144.144
137.65,137.975
131.748,132.059
131.748,131.763
126.362,126.632
118.881,119.269
112.702,113.03
108.767,108.98
105.781,105.941
103.643,103.758
105.211,105.138
110.183,109.93
116.212,115.898
122.015,121.709
126.884,126.626
132.096,131.823
135.554,135.367
138.751,138.582
141.524,141.377
144.205,144.063
146.375,146.26
148.151,148.056
153.127,152.873
156.408,156.231
159.176,159.029
161.588,161.46
163.367,163.272
163.51,163.498
163.133,163.151
161.748,161.819
160.121,160.206
158.174,158.276
160.647,160.529
162.42,162.326
156.06,156.374
150.085,150.399
141.25,141.708
133.163,133.59
125.993,126.373
119.711,120.044
115.041,115.291
111.153,111.36
108.53,108.672
106.81,106.903
105.844,105.897
105.759,105.766
107.345,107.266
112.063,111.823
117.254,116.982
119.807,119.666
124.969,124.704
128.671,128.472
131.885,131.715
135.215,135.04
138.192,138.034
141.482,141.309
147.441,147.134
152.752,152.472
157.27,157.03
160.587,160.409
163.576,163.418
166.391,166.242
168.669,168.548
168.232,168.248
166.605,166.687
164.002,164.136
161.644,161.769
159.251,159.377
153.084,153.398
144.201,144.661
136.529,136.936
129.521,129.891
124.169,124.455
119.564,119.809
115.519,115.734
112.264,112.437
109.807,109.938
108.893,108.945
108.349,108.378
108.527,108.52
109.338,109.297
113.837,113.61
119.338,119.051
123.717,123.484
131.602,131.196
134.576,134.407
137.265,137.122
140.026,139.881
142.76,142.616
146.386,146.197
149.694,149.519
152.543,152.391
156.474,156.27
159.422,159.265
162.027,161.889
162.244,162.227
163.834,163.754
166.19,166.068
167.806,167.719
169.141,169.07
169.782,169.746
167.754,167.854
161.22,161.551
154.377,154.736
148.1,148.432
148.1,148.117
148.1,148.101
137.36,137.897
128.975,129.421
124.088,124.355
120.381,120.579
115.477,115.732
112.953,113.092
114.471,114.402
116.637,116.525
122.174,121.891
126.158,125.944
130.846,130.6
136.961,136.643
140.983,140.766
144.582,144.391
145.925,145.849
148.513,148.38
150.735,150.618
155.646,155.395
158.122,157.985
160.127,160.02
162.041,161.94
163.279,163.212
164.245,164.193
162.603,162.682
164.49,164.4
165.426,165.375
163.609,163.697
164.502,164.462
161.844,161.975
155.767,156.078
150.636,150.908
150.636,150.649
150.636,150.636
150.636,150.636
150.636,150.636
140.442,140.952
131.086,131.579
123.031,123.458
116.127,116.494
110.532,110.83
107.182,107.365
107.748,107.729
108.949,108.888
110.48,110.401
112.12,112.034
113.064,113.013
114.061,114.009
115.131,115.075
116.3,116.239
120.415,120.207
121.321,121.265
125.542,125.328
129.742,129.521
131.925,131.805
133.894,133.789
135.528,135.441
136.764,136.698
137.828,137.772
136.644,136.7
139.042,138.925
140.966,140.864
138.521,138.638
137.41,137.471
137.41,137.413
137.41,137.41
137.41,137.41
137.41,137.41
130.12,130.484
124.867,125.148
123.267,123.361
122.239,122.295
121.571,121.608
121.499,121.504
121.806,121.791
123.513,123.427
124.404,124.355
126.03,125.946
126.195,126.183
129.886,129.7
133.06,132.892
135.747,135.604
137.318,137.233
138.732,138.657
137.796,137.839
139.052,138.991
143.765,143.526
147.551,147.35
146.633,146.668
148.061,147.991
150.758,150.62
152.904,152.79
154.456,154.373
155.472,155.417
151.975,152.147
151.975,151.984
151.975,151.976
151.975,151.975
151.975,151.975
151.975,151.975
151.975,151.975
151.975,151.975
141.72,142.233
133.028,133.488
126.136,126.504
125.166,125.233
121.232,121.432
118.319,118.474
121.898,121.727
123.125,123.055
126.687,126.505
131.094,130.865
133.825,133.677
136.37,136.235
138.656,138.535
140.223,140.139
142.184,142.081
143.817,143.73
144.08,144.063
147.749,147.565
151.028,150.855
154.074,153.913
152.601,152.667
154.98,154.864
157.037,156.928
158.42,158.346
159.355,159.304
159.804,159.779
159.919,159.912
157.384,157.511
154.857,154.99
154.857,154.864
154.857,154.858
154.857,154.857
154.857,154.857
154.857,154.857
154.857,154.857
143.555,144.12
133.696,134.217
126.445,126.833
120.373,120.696
117.835,117.978
115.712,115.825
118.284,118.161
120.693,120.567
122.155,122.075
126.192,125.986
126.928,126.881
127.901,127.85
128.519,128.485
129.622,129.565
130.907,130.84
134.559,134.373
138.317,138.12
143.604,143.33
146.168,146.026
150.934,150.689
155.055,154.836
158.936,158.731
161.439,161.304
163.2,163.105
164.391,164.327
162.572,162.66
164.208,164.131
161.374,161.512
154.428,154.782
154.428,154.445
154.428,154.428
154.428,154.428
154.428,154.428
146.064,146.482
135.704,136.243
129.802,130.124
125.839,126.053
122.608,122.78
117.561,117.822
116.769,116.821
117.416,117.386
118.657,118.593
118.906,118.891
124.466,124.187
124.747,124.719
126.533,126.443
128.738,128.623
131.883,131.72
132.911,132.851
136.604,136.417
139.074,138.941
141.212,141.099
143.311,143.2
146.781,146.602
149.782,149.623
150.753,150.697
153.352,153.219
155.488,155.375
157.024,156.942
158.404,158.331
161.317,161.168
159.667,159.742
154.162,154.441
148.484,148.782
143.251,143.528
135.442,135.846
135.442,135.462
129.47,129.77
121.615,122.022
117.532,117.756
115.597,115.705
116.955,116.893
113.162,113.348
115.508,115.4
116.18,116.141
120.47,120.254
121.575,121.509
127.674,127.366
130.557,130.397
133.561,133.403
136.132,135.996
138.538,138.411
140.81,140.69
141.986,141.922
144.114,144.005
147.858,147.665
151.446,151.257
154.628,154.459
155.799,155.732
156.381,156.349
154.098,154.211
155.689,155.615
156.801,156.742
157.54,157.5
157.868,157.85
155.823,155.924
149.873,150.175
144.33,144.623
144.33,144.345
135.963,136.382
128.645,129.032
123.697,123.963
117.139,117.48
114.849,114.98
114.305,114.339
114.561,114.55
115.315,115.276
119.918,119.686
124.254,124.026
125.465,125.393
130.273,130.029
133.316,133.152
134.708,134.63
137.552,137.406
139.724,139.608
140.363,140.325
139.218,139.273
143.323,143.121
147.073,146.875
148.665,148.576
151.89,151.725
150.827,150.872
151.631,151.593
155.745,155.537
156.977,156.905
157.956,157.903
158.971,158.918
159.503,159.474
155.729,155.917
151.658,151.87
143.817,144.22
136.37,136.762
129.84,130.186
120.859,121.325
116.389,116.636
112.662,112.861
110.84,110.941
109.674,109.737
109.345,109.364
110.435,110.381
112.3,112.204
114.805,114.675
120.82,120.512
123.581,123.427
132.456,132.005
134.322,134.206
137.195,137.045
140.643,140.464
143.633,143.475
144.619,144.562
149.037,148.813
153.19,152.971
155.545,155.416
158.5,158.345
159.029,158.995
162.784,162.595
164.107,164.031
165.268,165.206
165.878,165.845
164.402,164.474
162.07,162.19
158.132,158.335
150.21,150.616
139.996,140.527
133.368,133.726
125.918,126.309
118.45,118.843
112.305,112.632
107.467,107.725
106.451,106.515
106.876,106.857
107.417,107.389
108.434,108.382
109.671,109.607
113.918,113.702
117.919,117.708
119.133,119.061
124.305,124.043
125.669,125.588
128.393,128.253
131.369,131.213
133.85,133.718
135.071,135.003
137.67,137.537
141.344,141.153
144.617,144.444
146.549,146.443
148.028,147.949
149.584,149.502
152.201,152.066
151.059,151.11
153.415,153.3
154.883,154.804
155.448,155.416
152.318,152.473
145.499,145.848
142.456,142.626
137.182,137.454
132.049,132.319
127.403,127.649
120.45,120.81
114.859,115.156
110.584,110.812
107.159,107.342
109.019,108.936
111.235,111.12
113.748,113.617
119.993,119.674
125.522,125.23
130.332,130.077
131.368,131.303
134.351,134.199
136.875,136.741
139.367,139.236
139.943,139.907
141.98,141.877
143.489,143.408
148.041,147.81
152.199,151.979
154.189,154.078
156.068,155.969
158.357,158.237
159.654,159.583
160.951,160.882
163.937,163.784
164.706,164.66
165.076,165.055
165.127,165.124
161.062,161.265
154.594,154.928
145.729,146.189
140.048,140.355
132.286,132.689
122.216,122.74
114.874,115.267
109.077,109.387
107.566,107.657
106.725,106.771
107.392,107.361
108.585,108.524
111.26,111.123
114.431,114.266
121.367,121.012
124.442,124.271
129.069,128.83
133.378,133.15
135.948,135.808
137.938,137.832
139.948,139.842
142.536,142.402
144.771,144.652
148.193,148.016
151.22,151.06
153.107,153.004
154.875,154.781
155.913,155.857
156.609,156.572
156.58,156.58
160.167,159.988
162.679,162.544
164.726,164.617
166.42,166.33
164.46,164.553
158.536,158.837
153.881,154.129
149.618,149.844
142.241,142.621
135.032,135.411
128.753,129.086
124.462,124.693
121.07,121.251
118.317,118.464
116.512,116.609
115.199,115.269
114.621,114.654
118.154,117.979
121.652,121.468
124.504,124.353
127.686,127.519
130.746,130.584
133.475,133.331
134.606,134.542
136.01,135.937
138.063,137.956
139.993,139.891
141.697,141.607
144.089,143.964
148.76,148.52
152.09,151.911
156.373,156.15
158.09,157.993
159.137,159.08
160.979,160.884
163.834,163.686
166.328,166.196
166.872,166.839
170.036,169.876
171.389,171.313
171.229,171.233
166.906,167.123
159.753,160.122
152.64,153.014
146.16,146.503
137.224,137.688
129.124,129.553
120.511,120.963
112.976,113.376
106.558,106.899
104.969,105.065
103.93,103.987
103.45,103.477
107.295,107.104
111.701,111.471
116.318,116.076
118.072,117.972
122.923,122.676
124.848,124.739
127.493,127.355
129.983,129.851
132.671,132.53
136.264,136.077
139.56,139.386
143.082,142.897
147.495,147.265
149.641,149.522
152.827,152.662
155.85,155.69
158.19,158.065
160.327,160.214
162.521,162.406
164.124,164.038
165.671,165.59
166.62,166.569
166.385,166.394
161.399,161.649
154.561,154.916
149.933,150.182
141.425,141.863
133.546,133.961
128.14,128.431
123.632,123.871
120.061,120.252
117.388,117.531
115.886,115.968
114.919,114.971
115.827,115.784
117.27,117.196
122.377,122.118
127.464,127.197
133.533,133.216
137.99,137.751
140.267,140.142
144.092,143.895
146.086,145.976
145.032,145.079
146.489,146.419
147.62,147.56
149.261,149.176
152.376,152.216
154.003,153.914
155.632,155.546
157.12,157.041
158.305,158.242
158.187,158.19
160.518,160.402
161.289,161.244
161.677,161.655
161.625,161.627
161.487,161.494
157.751,157.938
152.082,152.375
144.626,145.014
137.308,137.694
130.568,130.924
124.39,124.717
116.854,117.247
112.968,113.182
107.777,108.047
106.151,106.246
105.961,105.975
104.301,104.384
106.225,106.133
108.055,107.959
110.422,110.299
112.696,112.576
115.271,115.136
119.756,119.525
124.282,124.044
126.914,126.771
129.246,129.122
131.541,131.42
133.886,133.763
136.089,135.973
137.098,137.042
138.524,138.45
139.563,139.507
140.539,140.488
141.437,141.39
141.92,141.893
141.879,141.88
141.523,141.541
139.421,139.527
137.054,137.178
134.658,134.784
132.355,132.477
128.116,128.334
128.116,128.127
128.116,128.116
123.993,124.199
120.306,120.501
114.906,115.186
111.243,111.44
107.815,107.997
106.117,106.211
106.967,106.929
106.398,106.425
110.233,110.042
114.044,113.844
116.438,116.308
121.231,120.985
124.525,124.348
127.592,127.429
130.28,130.137
130.28,130.272
130.28,130.279
133.564,133.4
136.716,136.55
141.122,140.893
144.945,144.742
147.05,146.934
147.179,147.167
147.095,147.099
146.616,146.64
145.779,145.822
144.537,144.602
142.888,142.973
140.949,141.05
138.879,138.988
134.55,134.772
130.338,130.56
130.338,130.349
130.338,130.338
122.874,123.247
116.722,117.048
112.696,112.914
109.788,109.944
107.957,108.056
106.516,106.593
105.909,105.944
106.722,106.683
111.124,110.902
115.402,115.177
119.465,119.25
124.065,123.824
127.109,126.945
130.032,129.878
134.999,134.743
134.999,134.986
134.999,134.998
137.058,136.955
141.114,140.906
145.084,144.875
148.747,148.554
151.595,151.443
154.874,154.702
155.008,154.993
154.21,154.249
152.384,152.477
149.966,150.092
147.304,147.443
144.433,144.583
137.749,138.09
132.918,133.177
127.37,127.66
124.874,125.013
123.619,123.689
122.809,122.853
122.677,122.685
119.817,119.961
118.344,118.425
118.289,118.296
118.966,118.932
120.381,120.309
123.039,122.903
127.23,127.013
133.714,133.379
141.204,140.812
147.658,147.316
152.074,151.836
154.476,154.344
156.657,156.542
156.74,156.73
158.43,158.345
158.034,158.05
160.885,160.743
161.797,161.745
162.432,162.398
165.125,164.989
167.045,166.942
168.253,168.188
169.188,169.138
174.52,174.25
176.5,176.388
177.541,177.483
176.389,176.444
174.69,174.778
178.406,178.224
178.601,178.582
178.568,178.569
178.255,178.271
177.262,177.313
171.982,172.249
166.58,166.864
161.729,161.985
157.413,157.642
149.9,150.287
147.144,147.301
145.013,145.128
143.601,143.678
142.762,142.808
142.64,142.648
144.316,144.233
146.6,146.482
146.6,146.594
146.6,146.6
146.6,146.6
146.6,146.6
146.6,146.6
146.6,146.6
146.409,146.418
146.282,146.288
146.015,146.029
151.127,150.872
153.38,153.255
155.105,155.012
156.523,156.447
163.403,163.055
169.109,168.806
173.12,172.904
173.882,173.833
173.747,173.751
173.072,173.106
172.11,172.16
175.527,175.359
171.327,171.529
172.13,172.1
167.444,167.677
169.298,169.217
171.174,171.076
176.156,175.902
172.843,172.996
163.212,163.701
163.212,163.236
163.212,163.213
163.212,163.212
156.526,156.861
150.641,150.952
148.741,148.851
140.973,141.367
136.053,136.318
136.053,136.066
136.053,136.053
136.053,136.053
136.053,136.053
136.053,136.053
136.053,136.053
136.053,136.053
136.053,136.053
136.053,136.053
136.053,136.053
136.053,136.053
136.83,136.791
137.64,137.598
142.927,142.661
147.953,147.689
147.884,147.874
147.884,147.883
152.91,152.658
157.495,157.253
161.601,161.384
162.549,162.491
163.338,163.296
169.392,169.087
173.869,173.63
174.499,174.456
172.227,172.338
172.586,172.574
173.008,172.987
173.477,173.453
174.127,174.094
174.587,174.562
174.322,174.334
170.139,170.349
163.624,163.96
157.092,157.435
151.178,151.491
145.92,146.198
141.489,141.724
138.155,138.333
135.729,135.859
138.38,138.254
141.221,141.072
141.221,141.213
141.221,141.22
141.221,141.221
141.221,141.221
141.221,141.221
141.221,141.221
141.221,141.221
141.221,141.221
141.221,141.221
141.221,141.221
148.465,148.103
153.261,153.003
153.261,153.248
158.132,157.888
159.473,159.393
160.768,160.7
169.887,169.427
172.589,172.431
172.589,172.582
172.589,172.589
172.8,172.789
172.962,172.954
172.861,172.866
172.801,172.804
170.21,170.34
167.741,167.871
161.773,162.078
160.792,160.856
166.636,166.347
169.18,169.038
176.68,176.298
177.326,177.275
169.48,169.87
161.122,161.56
151.103,151.626
144.829,145.169
139.484,139.769
135.066,135.301
131.646,131.829
129.342,129.467
129.647,129.638
129.647,129.647
129.647,129.647
129.647,129.647
129.647,129.647
129.647,129.647
129.647,129.647
135.237,134.957
135.237,135.223
135.237,135.236
135.237,135.237
139.208,139.01
143.25,143.038
144.642,144.562
147.913,147.746
150.884,150.727
148.405,148.521
148.405,148.411
148.405,148.405
148.405,148.405
154.135,153.849
153.559,153.573
155.792,155.681
160.52,160.278
164.669,164.449
168.12,167.937
170.875,170.728
170.338,170.357
169.799,169.827
174.289,174.066
175.06,175.01
172.619,172.738
170.004,170.141
167.748,167.868
165.835,165.936
170.413,170.189
172.256,172.153
173.884,173.797
177.352,177.174
171.877,172.142
165.982,166.29
165.982,165.997
165.982,165.982
160.486,160.76
154.72,155.022
151.628,151.798
149.584,149.695
148.175,148.251
144.025,144.236
141.895,142.012
141.895,141.901
141.895,141.895
141.895,141.895
141.989,141.985
143.09,143.035
149.719,149.385
149.739,149.721
152.067,151.95
156.822,156.578
154.694,154.788
152.775,152.875
155.417,155.29
157.75,157.627
159.804,159.695
159.241,159.264
158.535,158.572
158.535,158.537
158.535,158.535
162.453,162.257
163.484,163.422
162.101,162.167
162.101,162.104
162.101,162.101
165.35,165.188
165.243,165.241
169.641,169.421
171.634,171.524
171.352,171.361
169.821,169.898
167.848,167.951
166.102,166.195
167.922,167.836
169.754,169.658
171.575,171.479
173.068,172.988
175.061,174.957
175.169,175.159
172.3,172.443
167.37,167.624
162.5,162.756
162.5,162.513
162.5,162.501
158.469,158.671
156.424,156.536
151.434,151.689
147.579,147.785
141.254,141.581
137.334,137.546
137.334,137.344
137.334,137.334
137.334,137.334
139.013,138.929
141.353,141.232
144.235,144.085
147.269,147.11
152.625,152.35
153.119,153.081
153.681,153.651
150.378,150.542
153.247,153.111
153.779,153.745
158.574,158.333
162.788,162.565
166.47,166.275
166.47,166.461
166.47,166.47
166.47,166.47
169.553,169.399
171.728,171.611
170.897,170.932
170.375,170.402
170.375,170.376
171.906,171.829
172.486,172.453
172.799,172.782
172.87,172.866
173.175,173.16
171.652,171.727
169.711,169.812
168.103,168.188
166.503,166.587
165.176,165.247
164.536,164.572
167.793,167.632
174.443,174.103
175.638,175.562
173.894,173.977
169.274,169.51
164.093,164.364
159.41,159.658
154.985,155.219
151.284,151.481
148.349,148.506
143.784,144.02
140.186,140.378
137.855,137.981
133.196,133.436
133.196,133.208
133.196,133.197
133.196,133.196
133.196,133.196
138.829,138.548
138.829,138.815
144.13,143.864
149.503,149.221
154.677,154.404
161.69,161.326
163.439,163.333
164.975,164.893
163.966,164.013
161.06,161.208
162.566,162.498
163.818,163.752
165.136,165.067
163.535,163.612
162.119,162.194
165.226,165.075
167.579,167.453
169.225,169.137
168.846,168.86
170.22,170.152
170.22,170.217
170.22,170.22
170.44,170.429
170.185,170.197
170.177,170.178
170.292,170.287
169.446,169.488
168.318,168.377
167.13,167.192
166.035,166.093
165.083,165.133
164.589,164.616
164.22,164.24
167.816,167.637
173.372,173.085
175.278,175.169
174.62,174.648
169.443,169.703
169.443,169.456
169.443,169.444
169.443,169.443
169.443,169.443
164.346,164.601
160.096,160.321
153.506,153.847
148.465,148.734
148.465,148.478
148.465,148.465
148.465,148.465
148.465,148.465
147.936,147.962
148.178,148.167
153.44,153.177
158.769,158.489
159.423,159.377
160.115,160.078
163.06,162.911
165.614,165.479
167.916,167.794
167.855,167.852
167.585,167.598
170.935,170.768
172.501,172.415
172.36,172.363
171.872,171.896
171.272,171.303
171.431,171.425
170.194,170.256
170.402,170.394
170.263,170.269
170.276,170.276
170.294,170.293
169.897,169.917
169.897,169.898
169.897,169.897
169.897,169.897
170.09,170.08
170.712,170.68
170.502,170.511
169.939,169.968
169.221,169.258
168.454,168.494
167.756,167.792
167.199,167.229
169.878,169.746
172.048,171.933
173.92,173.82
175.397,175.319
176.326,176.276
173.097,173.256
170.1,170.258
169.27,169.319
164.296,164.547
156.266,156.68
156.266,156.287
156.266,156.267
156.266,156.266
151.164,151.419
148.187,148.348
142.939,143.21
138.835,139.053
136.68,136.799
136.883,136.879
136.883,136.883
136.914,136.912
139.218,139.103
148.058,147.61
157.113,156.638
159.669,159.518
162.037,161.911
164.005,163.9
169.068,168.81
168.393,168.414
167.716,167.75
169.987,169.875
170.513,170.481
170.673,170.663
170.96,170.945
171.179,171.167
171.318,171.31
169.804,169.879
171.112,171.051
170.745,170.761
171.073,171.058
171.082,171.081
170.446,170.477
169.361,169.417
169.361,169.364
169.361,169.361
168.106,168.168
170.776,170.646
169.564,169.618
168.568,168.62
167.72,167.765
169.61,169.518
171.232,171.147
172.651,172.576
174.03,173.958
175.377,175.306
176.061,176.023
176.893,176.85
176.688,176.696
175.8,175.845
172.769,172.922
169.77,169.928
163.707,164.018
157.618,157.938
152.117,152.408
152.117,152.132
148.775,148.943
146.172,146.311
144.173,144.28
139.676,139.907
137.659,137.772
136.295,136.369
136.295,136.298
136.295,136.295
136.295,136.295
136.295,136.295
136.295,136.295
136.295,136.295
139.239,139.092
143.505,143.284
148.761,148.487
156.88,156.46
159.648,159.488
162.042,161.914
164.028,163.922
167.564,167.382
166.526,166.569
165.627,165.674
168.723,168.571
169.286,169.25
169.766,169.74
170.146,170.126
170.603,170.579
170.628,170.626
170.769,170.762
171.99,171.928
172.64,172.604
172.749,172.742
172.091,172.123
172.091,172.092
172.091,172.091
172.091,172.091
172.091,172.091
172.091,172.091
172.091,172.091
172.091,172.091
172.091,172.091
172.091,172.091
172.091,172.091
172.091,172.091
172.091,172.091
172.091,172.091
172.091,172.091
172.091,172.091
172.091,172.091
172.091,172.091
172.091,172.091
165.385,165.72
157.776,158.173
157.776,157.796
157.776,157.777
153.815,154.013
153.815,153.825
153.815,153.815
153.815,153.815
154.722,154.676
156.242,156.164
157.667,157.592
158.901,158.836
158.901,158.898
158.901,158.901
158.901,158.901
159.336,159.314
159.765,159.743
157.428,157.544
158.076,158.049
158.623,158.594
161.265,161.131
155.986,156.243
153.961,154.076
152.019,152.122
150.294,150.386
144.77,145.051
140.182,140.426
137.782,137.915
136.271,136.353
135.654,135.689
135.654,135.656
137.205,137.128
137.562,137.541
138.695,138.637
140.208,140.13
142.058,141.961
146.663,146.428
146.223,146.233
150.343,150.138
154.067,153.871
154.067,154.058
154.067,154.067
154.067,154.067
154.067,154.067
154.772,154.737
157.887,157.729
157.887,157.879
157.887,157.886
157.887,157.887
157.887,157.887
157.887,157.887
157.887,157.887
157.887,157.887
173.702,172.911
140.029,141.673
115.53,116.837
115.53,115.595
115.53,115.533
115.53,115.53
115.53,115.53
115.53,115.53
115.53,115.53
115.53,115.53
93.4552,94.559
105.366,104.826
105.366,105.339
105.366,105.365
105.366,105.366
105.366,105.366
105.366,105.366
105.366,105.366
105.366,105.366
105.366,105.366
105.366,105.366
105.366,105.366
105.366,105.366
105.366,105.366
105.366,105.366
105.366,105.366
105.366,105.366
105.366,105.366
105.366,105.366
105.366,105.366
105.366,105.366
105.366,105.366
105.366,105.366
105.366,105.366
105.366,105.366
105.366,105.366
105.366,105.366
105.366,105.366
105.366,105.366
105.366,105.366
105.366,105.366
105.366,105.366
105.366,105.366
105.366,105.366
105.366,105.366
105.366,105.366
105.366,105.366
105.366,105.366
118.621,117.958
118.621,118.587
118.621,118.619
118.621,118.621
118.621,118.621
118.621,118.621
118.621,118.621
118.621,118.621
118.621,118.621
118.621,118.621
118.621,118.621
118.621,118.621
118.621,118.621
118.621,118.621
118.621,118.621
118.621,118.621
118.621,118.621
118.621,118.621
118.621,118.621
118.621,118.621
118.621,118.621
118.621,118.621
118.621,118.621
118.621,118.621
118.621,118.621
118.621,118.621
130.252,129.671
140.633,140.085
140.633,140.606
140.633,140.632
140.633,140.633
140.633,140.633
140.633,140.633
140.633,140.633
152.969,152.352
174.031,172.947
172.208,172.245
172.208,172.21
173.129,173.083
175.507,175.386
170.237,170.495
165.238,165.5
167.698,167.588
171.312,171.126
172.442,172.376
170.905,170.978
169.002,169.101
168.583,168.609
168.608,168.608
165.545,165.698
162.165,162.342
161.229,161.285
161.229,161.232
161.229,161.229
158.562,158.696
158.187,158.213
157.864,157.881
157.864,157.865
157.864,157.864
157.864,157.864
157.864,157.864
157.864,157.864
157.864,157.864
157.864,157.864
157.864,157.864
157.864,157.864
157.864,157.864
157.864,157.864
157.864,157.864
157.864,157.864
157.864,157.864
157.864,157.864
157.864,157.864
177.327,176.354
153.817,154.944
125.938,127.388
107.735,108.717
84.3789,85.5959
69.8113,70.6006
57.99,58.6206
57.99,58.0216
57.99,57.9916
76.601,75.6705
64.886,65.4253
90.7334,89.468
112.871,111.7
112.871,112.812
112.871,112.868
112.871,112.87
112.871,112.871
112.871,112.871
142.549,141.065
162.981,161.885
166.612,166.376
158.428,158.826
149.961,150.404
149.961,149.983
146.784,146.944
145.758,145.817
151.486,151.203
150.125,150.178
150.898,150.862
151.788,151.742
150.956,150.996
152.749,152.661
154.548,154.454
152.34,152.446
152.34,152.345
152.34,152.34
152.34,152.34
152.34,152.34
148.465,148.659
149.275,149.245
150.722,150.648
156.333,156.049
159.17,159.014
161.845,161.704
164.259,164.131
164.356,164.345
166.734,166.615
168.636,168.535
166.54,166.64
164.353,164.468
157.587,157.931
151.248,151.582
144.529,144.881
136.691,137.101
132.058,132.31
132.058,132.07
130.392,130.476
134.591,134.385
142.785,142.365
150.902,150.475
154.537,154.334
157.899,157.721
160.862,160.705
163.536,163.394
166.016,165.885
164.303,164.382
166.584,166.474
168.584,168.478
168.584,168.578
168.584,168.583
169.828,169.766
168.339,168.41
168.918,168.892
169.244,169.227
171.293,171.19
172.391,172.331
173.199,173.155
170.885,170.998
168.698,168.813
167.013,167.103
170.68,170.502
175.002,174.777
173.61,173.668
164.734,165.181
154.438,154.975
148.337,148.669
145.196,145.369
140.512,140.755
140.512,140.524
141.351,141.31
142.584,142.521
143.703,143.644
141.733,141.828
142.64,142.599
142.64,142.638
142.64,142.64
142.64,142.64
141.177,141.25
141.642,141.623
141.642,141.641
141.642,141.642
141.642,141.642
141.642,141.642
141.642,141.642
141.642,141.642
141.642,141.642
140.251,140.321
139.253,139.307
139.134,139.143
137.06,137.164
139.158,139.058
139.158,139.153
139.158,139.158
139.158,139.158
139.158,139.158
139.158,139.158
140.568,140.497
141.651,141.593
141.651,141.648
140.288,140.356
139.24,139.296
132.31,132.659
127.033,127.314
124.772,124.899
124.772,124.779
124.772,124.772
132.549,132.161
141.956,141.466
151.253,150.764
155.792,155.541
159.746,159.535
159.746,159.735
159.746,159.745
159.746,159.746
159.746,159.746
159.746,159.746
159.065,159.099
158.352,158.39
161.872,161.698
161.872,161.863
161.872,161.872
157.428,157.65
149.226,149.647
142.098,142.476
136.14,136.457
131.472,131.721
129.844,129.938
128.235,128.32
127.105,127.166
129.805,129.673
132.34,132.206
133.034,132.992
135.277,135.163
137.384,137.273
137.384,137.379
137.384,137.384
137.384,137.384
138.779,138.709
138.779,138.775
138.779,138.779
138.779,138.779
138.779,138.779
138.779,138.779
131.979,132.319
131.979,131.996
131.979,131.98
131.979,131.979
124.491,124.865
147.859,146.709
167.125,166.104
138.049,139.452
96.2401,98.4007
96.2401,96.3482
96.2401,96.2455
96.2401,96.2404
96.2401,96.2401
116.214,115.216
139.486,138.273
139.486,139.426
139.486,139.483
156.074,155.244
165.516,165.002
159.234,159.523
159.234,159.249
159.234,159.235
159.234,159.234
159.014,159.025
145.001,145.703
168.507,167.367
128.943,130.864
92.8907,94.7894
75.352,76.3239
75.352,75.4006
75.352,75.3545
75.352,75.3522
101.037,99.7524
125.819,124.515
146.26,145.173
163.507,162.59
169.172,168.843
160.04,160.48
146.739,147.426
138.644,139.083
138.644,138.666
138.644,138.645
138.644,138.644
138.644,138.644
138.644,138.644
140.69,140.587
142.153,142.074
142.153,142.149
142.153,142.152
142.153,142.153
142.153,142.153
171.759,170.279
155.661,156.391
155.661,155.697
155.661,155.662
155.661,155.661
155.661,155.661
172.657,171.807
172.657,172.615
172.657,172.655
172.657,172.657
172.657,172.657
178.465,178.175
175.824,175.942
143.362,144.991
117.712,119.076
96.411,97.5443
83.0168,83.7432
83.0168,83.0531
83.0168,83.0186
102.188,101.23
121.693,120.67
140.247,139.268
140.247,140.198
140.247,140.244
161.674,160.602
176.331,175.545
163.149,163.769
150.88,151.524
141.379,141.886
136.128,136.416
133.593,133.734
131.795,131.892
130.403,130.477
132.46,132.361
133.162,133.122
134.01,133.965
135.219,135.157
135.027,135.033
134.975,134.978
135.052,135.049
135.067,135.066
132.034,132.185
131.059,131.115
128.41,128.545
126.099,126.222
124.261,124.359
123.177,123.236
123.177,123.18
123.177,123.177
124.914,124.827
126.766,126.669
131.662,131.412
138.202,137.862
140.507,140.375
142.393,142.292
143.925,143.843
149.386,149.109
154.308,154.048
158.755,158.52
155.777,155.914
151.266,151.499
149.387,149.493
143.957,144.234
134.898,135.365
129.476,129.771
128.413,128.481
128.413,128.417
129.819,129.748
132.792,132.64
140.794,140.386
146.562,146.253
177.303,175.751
142.411,144.078
153.556,153.082
156.635,156.457
159.353,159.208
167.273,166.869
174.405,174.029
179.089,178.836
173.361,173.635
173.361,173.375
160.848,161.475
150.213,150.776
141.419,141.887
136.27,136.551
132.055,132.279
128.914,129.082
131.435,131.318
136.634,136.368
144.253,143.859
145.838,145.739
149.039,148.874
150.125,150.062
151.232,151.173
152.549,152.481
151.735,151.772
150.746,150.797
146.14,146.372
143.894,144.018
137.367,137.7
132.823,133.067
126.961,127.267
136.657,136.187
136.039,136.046
136.039,136.039
141.865,141.573
147.467,147.173
147.739,147.711
149.587,149.493
151.463,151.364
151.454,151.45
151.488,151.486
154.898,154.728
158.023,157.858
159.175,159.109
156.34,156.479
156.34,156.347
151.848,152.073
147.531,147.758
138.499,138.962
147.192,146.781
147.192,147.172
147.192,147.191
147.192,147.192
147.192,147.192
175.531,174.115
143.728,145.248
169.042,167.853
173.842,173.542
140.616,142.262
105.871,107.69
124.804,123.948
143.747,142.757
157.728,156.98
157.728,157.691
157.728,157.727
157.728,157.728
171.248,170.572
164.075,164.4
164.075,164.091
164.075,164.076
164.075,164.075
164.075,164.075
143.338,144.375
148.461,148.256
171.659,170.488
175.269,175.03
152.201,153.342
163.756,163.235
172.223,171.773
175.797,175.596
164.831,165.369
157.186,157.595
152.984,153.215
145.671,146.048
139.631,139.952
148.203,147.791
151.42,151.239
151.42,151.411
146.852,147.08
143.144,143.34
138.52,138.761
169.39,167.859
166.325,166.401
161.853,162.08
159.301,159.44
157.732,157.818
156.736,156.79
156.143,156.176
155.652,155.678
155.652,155.654
155.652,155.652
148.087,148.465
141.167,141.532
136.191,136.458
146.65,146.14
146.65,146.624
146.65,146.649
146.65,146.65
149.729,149.575
154.061,153.837
153.336,153.361
157.584,157.373
156.502,156.546
153.213,153.38
153.897,153.871
152.602,152.665
151.355,151.42
150.149,150.212
148.994,149.055
148.994,148.997
142.747,143.06
136.989,137.292
146.553,146.09
151.417,151.151
143.572,143.951
137.067,137.411
138.055,138.023
144.481,144.159
148.848,148.613
152.672,152.469
166.459,165.759
172.064,171.749
179.619,179.225
175.745,175.919
169.162,169.5
165.359,165.566
161.957,162.137
154.77,155.138
150.638,150.863
145.62,145.882
141.207,141.441
135.469,135.767
130.994,131.233
130.994,131.006
130.994,130.995
134.179,134.02
138.687,138.454
126.037,126.657
168.331,166.247
167.908,167.825
148.905,149.851
159.8,159.302
165.176,164.882
132.822,134.425
145.136,144.601
145.136,145.109
145.136,145.135
145.136,145.136
160.028,159.283
170.688,170.118
170.688,170.66
170.688,170.687
170.688,170.688
170.688,170.688
170.688,170.688
174.686,174.486
173.447,173.499
170.73,170.868
167.793,167.947
163.199,163.437
159.186,159.399
155.825,156.003
153.141,153.284
153.141,153.148
153.141,153.141
147.308,147.599
139.154,139.576
132.08,132.455
126.201,126.513
126.201,126.216
126.201,126.201
124.921,124.985
128.109,127.953
134.221,133.908
176.681,174.543
177.012,176.888
173.338,173.516
168.111,168.381
167.35,167.401
166.777,166.808
166.177,166.208
163.485,163.621
163.485,163.492
157.311,157.62
157.311,157.327
157.311,157.312
157.311,157.311
146.51,147.05
146.51,146.537
145.919,145.95
150.744,150.505
151.615,151.559
152.496,152.449
151.563,151.607
150.832,150.871
150.183,150.217
149.7,149.726
149.315,149.336
148.873,148.896
148.307,148.336
148.307,148.308
146.142,146.251
142.199,142.401
135.71,136.044
128.586,128.959
128.586,128.604
126.403,126.513
127.229,127.194
134.912,134.526
138.812,138.598
141.035,140.914
144.859,144.662
148.324,148.141
144.603,144.78
148.034,147.871
149.181,149.115
150.131,150.081
152.578,152.454
150.685,150.773
150.938,150.93
147.508,147.679
144.311,144.48
136.391,136.796
129.948,130.291
129.948,129.966
129.948,129.949
133.598,133.415
138.407,138.158
143.177,142.926
178.546,176.765
177.601,177.559
177.601,177.598
177.601,177.6
177.699,177.694
174.557,174.714
171.517,171.677
168.437,168.599
168.437,168.445
163.766,164
157.406,157.735
148.36,148.828
140.784,141.186
134.505,134.839
131.233,131.413
131.288,131.294
133.073,132.984
140.085,139.73
143.028,142.863
144.095,144.033
148.405,148.187
147.329,147.372
149.736,149.618
152.054,151.932
150.333,150.413
152.42,152.32
154.213,154.118
155.719,155.639
154.642,154.692
154.274,154.295
154.274,154.275
164.083,163.593
164.083,164.059
164.083,164.082
164.083,164.083
164.083,164.083
145.392,146.327
170.616,169.401
116.946,119.569
77.4062,79.5143
77.4062,77.5116
77.4062,77.4114
77.4062,77.4064
102.538,101.281
126.678,125.409
145.743,144.726
145.743,145.692
145.743,145.74
158.857,158.201
158.857,158.824
158.857,158.855
158.857,158.857
158.857,158.857
171.998,171.341
177.949,177.619
173.432,173.642
167.336,167.652
167.336,167.352
167.336,167.337
167.336,167.336
167.063,167.077
174.021,173.673
170.351,170.517
170.351,170.359
170.351,170.352
170.351,170.351
170.351,170.351
170.351,170.351
170.351,170.351
170.351,170.351
170.351,170.351
155.568,156.307
164.043,163.656
130.123,131.799
94.5487,96.4112
75.9864,77.0076
75.9864,76.0374
65.6499,66.1693
53.5961,54.2248
44.5244,45.0094
44.5244,44.5486
59.1193,58.3907
83.4237,82.172
118.666,116.842
138.792,137.694
138.792,138.737
138.792,138.789
138.792,138.791
170.07,168.506
141.234,142.597
166.4,165.21
138.154,139.507
138.154,138.222
138.154,138.158
138.154,138.155
79.2094,82.1566
57.3908,58.6291
57.3908,57.4527
57.3908,57.3939
100.149,98.0109
118.805,117.765
147.356,145.877
155.854,155.355
155.854,155.829
155.854,155.853
155.854,155.854
145.824,146.326
131.415,132.16
139.734,139.355
154.172,153.431
163.865,163.343
163.865,163.839
161.139,161.274
157.28,157.479
152.026,152.299
146.937,147.205
140.878,141.194
130.568,131.099
123.925,124.284
123.925,123.943
123.925,123.926
123.925,123.925
125.173,125.11
131.188,130.884
166.494,164.714
166.494,166.405
166.494,166.49
166.494,166.494
166.494,166.494
166.494,166.494
160.171,160.488
156.512,156.711
155.25,155.323
152.38,152.527
150.034,150.158
148.165,148.265
148.449,148.44
148.924,148.899
143.638,143.901
143.638,143.651
143.638,143.638
143.638,143.638
146.959,146.793
148.469,148.385
146.23,146.337
144.304,144.405
144.304,144.309
144.304,144.304
144.304,144.304
140.849,141.022
141.31,141.296
141.31,141.31
141.31,141.31
141.31,141.31
139.829,139.903
139.829,139.833
139.829,139.829
139.829,139.829
134.875,135.123
163.752,162.32
163.752,163.68
163.752,163.748
163.752,163.752
163.752,163.752
163.752,163.752
157.392,157.71
119.271,121.193
119.271,119.367
119.271,119.276
119.271,119.272
119.271,119.271
119.271,119.271
119.271,119.271
119.271,119.271
85.9413,87.6078
62.8218,64.0611
51.8555,52.4658
51.8555,51.886
51.8555,51.857
51.8555,51.8556
51.8555,51.8555
44.4669,44.8363
62.1907,61.323
86.9272,85.647
86.9272,86.8632
118.695,117.103
150.146,148.494
160.994,160.369
155.73,155.962
149.319,149.651
141.089,141.518
138.99,139.117
156.832,155.946
152.249,152.434
131.593,132.635
146.923,146.208
146.923,146.887
146.923,146.921
146.923,146.923
158.07,157.512
164.824,164.458
163.108,163.175
157.849,158.115
157.849,157.862
146.891,147.439
146.891,146.918
146.891,146.892
146.891,146.891
146.891,146.891
141.836,142.089
137.642,137.864
166.285,164.864
161.439,161.611
162.93,162.864
171.534,171.101
147.164,148.361
162.295,161.598
136.235,137.503
150.224,149.588
150.224,150.192
165.39,164.63
167.649,167.498
153.11,153.83
153.11,153.146
153.11,153.112
148.324,148.563
132.671,133.466
163.275,161.785
160.984,161.024
138.627,139.747
138.627,138.683
138.627,138.63
138.627,138.627
109.176,110.649
130.185,129.209
149.214,148.213
164.564,163.746
164.564,164.523
164.564,164.562
164.564,164.564
164.564,164.564
164.564,164.564
164.564,164.564
171.218,170.885
165.021,165.314
158.961,159.279
169.35,168.847
172.591,172.404
169.631,169.77
166.134,166.316
158.348,158.746
155.902,156.044
153.874,153.982
147.947,148.249
141.214,141.565
135.481,135.785
145.185,144.715
149.156,148.934
149.156,149.145
141.159,141.558
128.927,129.559
152.051,150.927
161.299,160.78
90.9864,94.4761
90.9864,91.1609
90.9864,90.9951
90.9864,90.9869
52.7818,54.692
76.7087,75.6079
97.5281,96.4321
120.385,119.187
137.433,136.521
156.326,155.335
171.438,170.633
174.05,173.879
157.05,157.892
145.461,146.082
138.265,138.656
131.932,132.268
134.03,133.942
132.71,132.772
130.354,130.475
128.604,128.697
128.824,128.817
131.004,130.894
133.27,133.151
133.657,133.632
135.991,135.873
138.254,138.135
136.913,136.974
130.667,130.982
125.44,125.717
125.44,125.454
125.44,125.441
123.861,123.94
124.987,124.935
161.044,159.239
145.927,146.593
105.553,107.605
119.885,119.271
119.885,119.855
131.256,130.686
102.306,103.725
78.6161,79.8716
88.7951,88.3489
88.7951,88.7728
88.7951,88.794
115.877,114.523
134.416,133.422
157.641,156.43
157.641,157.58
157.641,157.638
151.529,151.835
135.382,136.204
138.678,138.554
109.276,110.74
30.3091,34.3306
30.1233,30.3336
68.8126,66.8887
109.001,106.895
136.862,135.364
155.498,154.491
168.935,168.213
173.502,173.237
161.448,162.038
149.489,150.117
136.762,137.43
125.215,125.825
117.92,118.315
113.887,114.108
112.709,112.779
115.184,115.064
116.676,116.596
115.692,115.737
116.13,116.11
119.691,119.512
123.246,123.059
126.684,126.503
130.081,129.902
130.15,130.137
130.312,130.303
127.577,127.713
121.302,121.623
121.302,121.318
121.302,121.303
122.367,122.314
116.426,116.72
152.973,151.16
152.973,152.882
152.973,152.968
152.973,152.972
152.973,152.973
159.007,158.705
109.124,111.603
121.587,121.088
121.587,121.562
121.587,121.586
121.587,121.587
121.587,121.587
121.587,121.587
121.587,121.587
121.587,121.587
150.405,148.964
164.466,163.691
135.847,137.239
145.37,144.963
145.37,145.35
145.37,145.369
145.37,145.37
145.37,145.37
159.366,158.667
162.075,161.904
160.842,160.895
158.033,158.176
151.273,151.618
145.406,145.716
136.97,137.408
130.315,130.67
126.583,126.788
124.747,124.849
128.672,128.481
132.383,132.188
134.456,134.342
139.155,138.914
139.155,139.143
139.155,139.154
139.155,139.155
140.318,140.26
138.247,138.348
139.631,139.567
142.565,142.415
145.183,145.044
147.494,147.372
145.824,145.902
144.174,144.261
141.288,141.437
134.296,134.653
127.151,127.526
127.151,127.17
126.685,126.709
129.671,129.523
130.685,130.627
132.294,132.21
132.294,132.289
132.294,132.293
132.294,132.294
132.294,132.294
135.008,134.872
137.413,137.286
139.574,139.46
139.574,139.569
141.302,141.216
139.427,139.517
135.824,136.009
135.824,135.833
135.824,135.825
135.824,135.824
134.238,134.318
166.842,165.215
166.842,166.76
166.842,166.838
166.842,166.841
166.842,166.842
166.842,166.842
166.842,166.842
166.665,166.674
169.974,169.809
169.974,169.966
169.974,169.974
169.022,169.07
166.287,166.426
159.219,159.579
149.932,150.414
141.454,141.902
132.499,132.969
130.236,130.373
131.532,131.474
132.667,132.607
132.074,132.101
132.074,132.076
132.074,132.075
138.227,137.92
139.955,139.854
143.447,143.267
146.652,146.483
145.877,145.907
145.877,145.878
145.877,145.877
145.877,145.877
145.877,145.877
145.545,145.561
145.545,145.545
169.824,168.61
129.837,131.775
129.837,129.934
129.837,129.841
129.837,129.837
129.837,129.837
129.837,129.837
102.984,104.327
121.193,120.35
138.588,137.676
155.689,154.788
165.514,164.978
164.019,164.067
154.375,154.86
145.247,145.727
136.48,136.942
136.48,136.503
129.348,129.705
161.454,159.867
150.235,150.717
150.235,150.259
150.235,150.237
150.235,150.235
150.235,150.235
158.574,158.157
165.381,165.02
170.887,170.594
170.887,170.872
170.887,170.886
169.45,169.522
157.374,157.981
151.107,151.451
151.107,151.124
151.107,151.108
146.58,146.807
131.906,132.651
164.905,163.292
142.974,143.99
105.319,107.253
105.319,105.416
105.319,105.324
105.319,105.319
80.4698,81.7123
96.0527,95.3357
96.0527,96.0168
96.0527,96.0509
115.653,114.673
115.653,115.604
115.653,115.651
115.653,115.653
115.653,115.653
115.653,115.653
115.653,115.653
115.653,115.653
89.067,90.3963
72.8812,73.757
72.8812,72.925
72.8812,72.8834
72.8812,72.8813
72.8812,72.8812
89.4915,88.661
113.044,111.825
133.993,132.885
152.078,151.119
165.238,164.532
175.225,174.69
164.755,165.252
148.257,149.107
135.752,136.42
123.362,124.015
116.916,117.271
117.392,117.386
119.444,119.341
120.716,120.647
122.013,121.944
123.488,123.411
123.488,123.484
126.704,126.543
129.944,129.774
133.132,132.964
136.165,136.005
136.41,136.39
137.165,137.126
139.779,139.646
140.732,140.677
140.732,140.729
140.732,140.731
140.732,140.732
140.732,140.732
129.544,130.103
155.036,153.789
132.511,133.575
132.511,132.564
132.511,132.514
132.511,132.511
132.511,132.511
85.2091,87.5742
56.0616,57.6372
80.1848,79.0574
80.1848,80.1284
104.313,103.103
130.566,129.193
149.734,148.707
164.208,163.433
162.606,162.647
154.69,155.088
148.99,149.295
145.085,145.296
143.116,143.225
141.216,141.316
142.623,142.557
140.475,140.579
143.976,143.806
162.84,161.888
153.102,153.541
126.73,128.071
126.73,126.797
126.73,126.734
126.73,126.73
126.73,126.73
126.73,126.73
126.73,126.73
126.73,126.73
139.899,139.241
164.58,163.313
159.193,159.399
150.5,150.945
87.3701,90.5489
58.2418,59.8572
58.2418,58.3226
58.2418,58.2459
46.0596,46.6689
64.3041,63.4224
51.4242,52.0241
70.3541,69.4376
88.723,87.7588
88.723,88.6748
110.445,109.356
123.742,123.023
146.566,145.389
157.443,156.84
151.276,151.554
143.615,144.012
135.773,136.185
142.931,142.594
142.49,142.495
91.3887,93.944
91.3887,91.5165
91.3887,91.3951
91.3887,91.3891
144.906,142.231
166.845,165.614
175.041,174.57
171.984,172.113
161.996,162.501
152.787,153.273
151.81,151.883
151.014,151.057
151.014,151.016
151.014,151.014
135.526,136.3
122.02,122.734
144.894,143.786
172.367,170.938
172.367,172.295
172.367,172.363
172.367,172.367
148.179,149.389
91.051,93.9679
118.306,117.089
118.306,118.245
118.306,118.303
118.306,118.306
118.306,118.306
133.797,133.022
168.153,166.396
168.153,168.065
168.153,168.148
131.57,133.399
90.2071,92.3667
67.549,68.7899
56.8114,57.4103
56.8114,56.8413
77.1515,76.1359
95.4098,94.4461
115.349,114.304
130.054,129.267
149.618,148.6
161.279,160.645
169.804,169.346
174.245,174
170.39,170.571
159.954,160.485
154.461,154.762
147.651,148.007
138.495,138.97
167.743,166.304
160.449,160.742
112.55,114.96
86.4397,87.8657
86.4397,86.511
68.8488,69.7319
55.3359,56.0557
48.9818,49.3355
67.5906,66.6778
88.673,87.5732
110.75,109.591
