Normal data,Filtered data
137.968,137.968
153.981,153.18
176.465,175.301
176.465,176.407
176.465,176.462
176.465,176.465
176.465,176.465
176.465,176.465
168.217,168.63
151.289,152.156
145.36,145.699
148.393,148.259
147.742,147.768
147.742,147.743
147.742,147.742
147.742,147.742
147.742,147.742
149.985,149.873
171.193,170.127
177.484,177.117
163.954,164.612
158.03,158.359
158.03,158.047
158.03,158.031
158.03,158.03
158.03,158.03
147.804,148.316
133.346,134.094
127.387,127.723
129.209,129.134
129.209,129.205
129.209,129.208
129.209,129.209
129.209,129.209
129.209,129.209
134.445,134.183
157.672,156.498
168.369,167.776
164.411,164.579
159.407,159.666
159.407,159.42
159.407,159.408
159.407,159.407
159.407,159.407
148.092,148.658
136.188,136.812
130.453,130.771
138.635,138.242
144.876,144.544
144.876,144.86
144.876,144.875
144.876,144.876
144.876,144.876
150.685,150.394
163.701,163.035
154.155,154.599
164.637,164.135
176.506,175.887
176.506,176.475
176.506,176.504
176.506,176.505
176.506,176.506
164.214,164.829
150.183,150.915
152.428,152.352
154.892,154.765
153.892,153.935
153.892,153.894
153.892,153.892
153.892,153.892
153.892,153.892
150.722,150.881
175.135,173.923
170.981,171.128
176.538,176.268
175.139,175.196
175.139,175.142
175.139,175.139
175.139,175.139
175.139,175.139
164.039,164.594
152.681,153.276
150.154,150.31
154.759,154.537
159.153,158.922
159.153,159.141
159.153,159.152
159.153,159.153
159.153,159.153
159.153,159.153
175.17,174.369
162.017,162.634
174.107,173.534
177.649,177.443
177.649,177.639
177.649,177.648
177.649,177.649
177.649,177.649
168.702,169.15
155.022,155.728
151.306,151.527
147.447,147.651
151.847,151.637
151.847,151.836
151.847,151.846
151.847,151.847
151.847,151.847
151.847,151.847
177.083,175.822
170.837,171.087
179.094,178.694
172.457,172.769
172.457,172.472
172.457,172.458
172.457,172.457
172.457,172.457
159.367,160.021
151.803,152.214
145.367,145.71
145.589,145.595
151.58,151.281
151.58,151.565
151.58,151.579
151.58,151.58
151.58,151.58
159.34,158.952
172.812,172.119
170.242,170.336
177.665,177.298
177.665,177.647
177.665,177.664
177.665,177.665
177.665,177.665
177.665,177.665
172.549,172.805
163.77,164.222
153.16,153.713
152.866,152.908
156.947,156.745
156.947,156.937
156.947,156.946
156.947,156.947
156.947,156.947
172.739,171.949
167.576,167.795
170.46,170.327
176.913,176.584
168.444,168.851
168.444,168.464
168.444,168.445
168.444,168.444
168.444,168.444
158.842,159.322
158.842,158.866
155.097,155.286
163.275,162.876
164.204,164.138
164.204,164.201
164.204,164.204
164.204,164.204
164.204,164.204
178.067,177.374
153.042,154.259
153.286,153.335
166.553,165.892
170.436,170.209
170.436,170.425
170.436,170.435
170.436,170.436
170.436,170.436
167.735,167.87
154.005,154.698
151.738,151.886
150.348,150.425
156.834,156.514
156.834,156.818
156.834,156.834
156.834,156.834
156.834,156.834
156.834,156.834
177.493,176.46
157.172,158.136
164.593,164.27
168.949,168.715
168.949,168.937
168.949,168.948
168.949,168.949
168.949,168.949
168.949,168.949
176.206,175.843
166.383,166.856
166.037,166.078
168.093,167.992
168.093,168.088
168.093,168.092
168.093,168.093
168.093,168.093
176.274,175.865
159.687,160.496
155.305,155.565
167.351,166.761
178.38,177.799
178.38,178.351
178.38,178.378
178.38,178.38
178.38,178.38
168.027,168.545
162.931,163.212
152.976,153.488
157.666,157.457
163.656,163.346
163.656,163.64
163.656,163.655
163.656,163.656
163.656,163.656
158.357,158.622
176.828,175.917
156.638,157.602
159.664,159.561
160.166,160.136
160.166,160.165
160.166,160.166
160.166,160.166
160.166,160.166
175.758,174.979
165.574,166.044
153.777,154.391
156.837,156.715
162.546,162.255
162.546,162.532
162.546,162.545
162.546,162.546
162.546,162.546
164.467,164.371
175.725,175.157
168.512,168.844
174.482,174.2
176.964,176.826
176.964,176.958
176.964,176.964
176.964,176.964
176.964,176.964
165.2,165.789
151.618,152.326
142.703,143.184
144.083,144.038
154.104,153.601
154.104,154.079
154.104,154.103
154.104,154.104
154.104,154.104
150.411,150.595
173.183,172.053
166.758,167.023
163.572,163.745
170.385,170.053
170.385,170.368
170.385,170.384
170.385,170.385
170.385,170.385
170.061,170.077
162.838,163.2
148.947,149.66
150.385,150.349
151.705,151.637
151.705,151.701
151.705,151.705
151.705,151.705
151.705,151.705
168.112,167.292
167.952,167.919
176.258,175.841
173.257,173.387
173.257,173.264
173.257,173.258
173.257,173.257
173.257,173.257
173.257,173.257
163.368,163.863
158.11,158.398
154.435,154.633
158.332,158.147
158.332,158.322
158.332,158.331
158.332,158.331
158.332,158.332
158.332,158.332
173.15,172.409
177.028,176.797
166.355,166.877
171.997,171.741
174.845,174.689
174.845,174.837
174.845,174.844
174.845,174.845
174.845,174.845
170.072,170.311
166.129,166.338
160.86,161.134
168.369,168.007
176.465,176.042
176.465,176.444
176.465,176.464
176.465,176.465
176.465,176.465
176.451,176.452
158.211,159.123
137.061,138.164
149.897,149.31
157.655,157.238
157.655,157.635
157.655,157.654
157.655,157.655
157.655,157.655
170.47,169.829
176.518,176.184
166.509,166.993
165.245,165.332
166.846,166.77
166.846,166.842
166.846,166.846
166.846,166.846
166.846,166.846
166.846,166.846
168.965,168.859
150.079,151.018
161.857,161.315
173.073,172.485
173.073,173.044
173.073,173.072
173.073,173.073
173.073,173.073
168.478,168.708
151.749,152.597
144.137,144.56
139.268,139.533
147.351,146.96
147.351,147.332
147.351,147.35
147.351,147.351
147.351,147.351
147.351,147.351
171.663,170.447
172.371,172.275
170.958,171.024
178.082,177.73
170.46,170.823
170.46,170.478
170.46,170.461
170.46,170.46
170.46,170.46
154.465,155.265
143.23,143.832
141.864,141.962
130.489,131.063
135.251,135.042
135.251,135.241
135.251,135.251
135.251,135.251
135.251,135.251
135.251,135.251
160.014,158.775
178.389,177.408
170.87,171.197
165.345,165.637
165.345,165.359
165.345,165.346
165.345,165.345
165.345,165.345
151.955,152.624
147.833,148.073
138.486,138.966
140.086,140.03
149.686,149.203
149.686,149.662
149.686,149.685
149.686,149.686
149.686,149.686
149.686,149.686
165.68,164.881
170.57,170.286
174.506,174.295
175.78,175.706
177.793,177.689
177.793,177.788
177.793,177.793
177.793,177.793
177.793,177.793
168.891,169.336
159.232,159.738
154.683,154.936
162.496,162.118
161.613,161.638
161.613,161.614
161.613,161.613
161.613,161.613
161.613,161.613
172.274,171.741
162.624,163.08
152.555,153.082
163.127,162.624
172.945,172.429
172.945,172.92
172.945,172.944
172.945,172.945
172.945,172.945
172.945,172.945
166.937,167.238
153.677,154.355
138.728,139.509
143.01,142.835
141.547,141.612
141.547,141.551
141.547,141.547
141.547,141.547
141.547,141.547
146.905,146.637
171.301,170.068
167.301,167.439
174.006,173.678
179.169,178.895
179.169,179.156
179.169,179.169
179.169,179.169
179.169,179.169
179.169,179.169
173.193,173.492
158.573,159.319
163.939,163.708
166.073,165.954
166.073,166.067
166.073,166.072
166.073,166.073
166.073,166.073
164.141,164.238
173.275,172.823
154.152,155.085
165.874,165.334
173.563,173.152
173.563,173.542
173.563,173.562
173.563,173.563
173.563,173.563
173.563,173.563
176.29,176.154
171.988,172.196
168.796,168.966
173.096,172.889
172.05,172.092
172.05,172.052
172.05,172.05
172.05,172.05
172.05,172.05
176.911,176.668
152.581,153.785
148.191,148.471
162.324,161.632
170.193,169.765
170.193,170.172
170.193,170.192
170.193,170.193
170.193,170.193
171.365,171.306
157.158,157.865
144.402,145.075
143.105,143.203
146.148,146.001
146.148,146.141
146.148,146.148
146.148,146.148
146.148,146.148
146.148,146.148
171.787,170.505
165.539,165.787
177.237,176.664
177.483,177.442
177.483,177.481
177.483,177.483
177.483,177.483
177.483,177.483
177.483,177.483
177.877,177.857
173.121,173.358
171.968,172.037
175.672,175.49
170.185,170.451
170.185,170.199
170.185,170.186
170.185,170.185
170.185,170.185
170.185,170.185
166.933,167.095
157.908,158.367
165.374,165.024
169.654,169.422
169.654,169.642
169.654,169.653
169.654,169.654
169.654,169.654
175.063,174.793
160.511,161.225
156.713,156.938
159.572,159.441
170.947,170.372
170.947,170.918
170.947,170.946
170.947,170.947
170.947,170.947
170.947,170.947
175.282,175.066
171.034,171.236
169.685,169.763
174.343,174.114
174.343,174.331
174.343,174.342
174.343,174.343
174.343,174.343
174.343,174.343
161.96,162.579
152.112,152.635
149.904,150.04
158.868,158.427
162.496,162.293
162.496,162.486
162.496,162.496
162.496,162.496
162.496,162.496
160.65,160.743
171.834,171.279
169.485,169.575
167.867,167.953
167.038,167.083
167.038,167.04
167.038,167.038
167.038,167.038
167.038,167.038
176.939,176.444
164.95,165.525
150.837,151.572
154.51,154.363
158.08,157.894
158.08,158.071
158.08,158.079
158.08,158.08
158.08,158.08
160.972,160.828
175.174,174.457
160.007,160.73
170.489,170.001
174.559,174.331
174.559,174.547
174.559,174.558
174.559,174.559
174.559,174.559
174.559,174.559
161.88,162.514
153.897,154.328
155.509,155.45
164.29,163.848
164.29,164.268
164.29,164.289
164.29,164.29
164.29,164.29
164.29,164.29
174.444,173.936
154.491,155.463
167.14,166.556
170.881,170.664
178.731,178.328
178.731,178.711
178.731,178.73
178.731,178.731
178.731,178.731
166.382,167
152.418,153.147
148.959,149.168
152.279,152.124
162.108,161.609
162.108,162.083
162.108,162.107
162.108,162.108
162.108,162.108
160.737,160.805
174.314,173.638
172.863,172.902
175.605,175.47
177.95,177.826
177.95,177.944
177.95,177.95
177.95,177.95
177.95,177.95
162.68,163.443
159.296,159.503
152.266,152.628
156.193,156.014
162.77,162.432
153.669,154.107
153.669,153.691
153.669,153.67
153.669,153.669
153.669,153.669
170.007,169.191
158.273,158.819
157.46,157.528
163.244,162.958
173.39,172.869
173.39,173.364
173.39,173.389
173.39,173.39
173.39,173.39
175.839,175.717
164.928,165.468
164.536,164.583
170.111,169.834
172.279,172.157
172.279,172.273
172.279,172.279
172.279,172.279
172.279,172.279
172.279,172.279
167.514,167.752
140.126,141.507
137.241,137.455
152.583,151.827
157.884,157.581
157.884,157.869
157.884,157.883
157.884,157.884
157.884,157.884
175.851,174.953
171.518,171.69
169.389,169.504
170.462,170.414
174.598,174.389
174.598,174.588
174.598,174.598
174.598,174.598
174.598,174.598
174.598,174.598
171.067,171.244
155.546,156.331
164.178,163.786
169.683,169.388
169.683,169.668
169.683,169.682
169.683,169.683
169.683,169.683
169.683,169.683
168.781,168.826
166.117,166.253
159.834,160.155
164.14,163.941
160.692,160.854
160.692,160.7
160.692,160.692
160.692,160.692
160.692,160.692
165.686,165.436
171.652,171.341
162.505,162.947
165.439,165.315
170.109,169.869
170.109,170.097
170.109,170.108
170.109,170.109
170.109,170.109
170.109,170.109
175.586,175.312
172.743,172.871
170.936,171.033
174.506,174.332
174.506,174.497
174.506,174.506
174.506,174.506
174.506,174.506
174.506,174.506
175.623,175.567
144.167,145.737
146.822,146.767
153.907,153.55
156.268,156.132
156.268,156.261
156.268,156.268
156.268,156.268
156.268,156.268
177.352,176.297
169.716,170.045
165.274,165.512
166.558,166.506
170.515,170.314
170.515,170.505
170.515,170.514
170.515,170.515
170.515,170.515
170.327,170.336
156.452,157.147
145.305,145.897
150.296,150.076
162.947,162.304
162.947,162.915
162.947,162.946
162.947,162.947
162.947,162.947
176.612,175.929
164.953,165.502
157.604,157.999
157.745,157.758
162.318,162.09
156.761,157.027
156.761,156.774
156.761,156.761
156.761,156.761
156.761,156.761
166.829,166.325
159.816,160.142
163.011,162.867
176.026,175.368
174.882,174.907
174.882,174.883
174.882,174.882
174.882,174.882
174.882,174.882
159.942,160.689
145.401,146.165
140.55,140.831
141.617,141.578
146.227,145.994
146.227,146.215
146.227,146.226
146.227,146.227
146.227,146.227
154.223,153.823
168.956,168.199
164.074,164.281
176.194,175.599
171.395,171.605
171.395,171.406
171.395,171.396
171.395,171.395
171.395,171.395
157.654,158.341
144.01,144.726
142.658,142.761
144.348,144.269
149.779,149.503
149.779,149.765
149.779,149.778
149.779,149.779
149.779,149.779
149.779,149.779
171.242,170.169
169.405,169.443
167.009,167.13
178.228,177.673
178.775,178.72
178.775,178.773
178.775,178.775
178.775,178.775
178.775,178.775
177.103,177.186
173.127,173.33
170.415,170.561
170.389,170.397
173.137,173
173.137,173.13
173.137,173.137
173.137,173.137
173.137,173.137
174.249,174.193
153.518,154.552
128.589,129.888
143.916,143.215
159.22,158.42
159.22,159.18
159.22,159.218
159.22,159.22
159.22,159.22
178.072,177.129
166.348,166.887
159.837,160.189
157.24,157.388
165.56,165.151
165.56,165.539
165.56,165.559
165.56,165.56
165.56,165.56
165.56,165.56
176.653,176.098
150.53,151.808
152.128,152.112
165.349,164.687
165.89,165.83
165.89,165.887
165.89,165.89
165.89,165.89
165.89,165.89
176.057,175.549
172.613,172.76
167.477,167.741
165.749,165.848
170.131,169.917
160.029,160.523
160.029,160.053
160.029,160.03
160.029,160.029
160.029,160.029
176.263,175.451
154.111,155.178
152.242,152.389
165.562,164.903
176.798,176.203
176.798,176.768
176.798,176.796
176.798,176.798
176.798,176.798
162.891,163.586
160.103,160.277
156.486,156.675
160.931,160.718
163.168,163.045
163.168,163.162
163.168,163.168
163.168,163.168
163.168,163.168
163.168,163.168
173.607,173.085
157.354,158.14
165.81,165.426
176.617,176.057
176.617,176.589
176.617,176.615
176.617,176.616
176.617,176.617
176.617,176.617
164.391,165.002
154.453,154.98
147.278,147.663
150.649,150.5
150.649,150.641
150.649,150.649
150.649,150.649
150.649,150.649
150.649,150.649
162.138,161.564
171.524,171.026
176.397,176.129
175.396,175.433
175.396,175.398
175.396,175.397
175.396,175.396
175.396,175.396
175.396,175.396
161.58,162.271
156.077,156.386
151.766,151.997
160.067,159.664
163.17,162.994
163.17,163.161
163.17,163.169
163.17,163.17
163.17,163.17
169.237,168.933
162.718,163.028
144.52,145.445
150.38,150.134
161.225,160.67
161.225,161.197
161.225,161.223
161.225,161.225
161.225,161.225
161.225,161.225
177.819,176.989
171.956,172.207
156.334,157.128
156.025,156.08
152.325,152.513
152.325,152.334
152.325,152.326
152.325,152.325
152.325,152.325
163.956,163.375
165.633,165.521
156.942,157.371
166.297,165.851
174.23,173.811
174.23,174.209
174.23,174.229
174.23,174.23
174.23,174.23
168.784,169.056
153.976,154.73
143.298,143.869
137.02,137.363
141.039,140.855
141.039,141.03
141.039,141.039
141.039,141.039
141.039,141.039
148.477,148.105
169.004,167.959
174.249,173.935
177.106,176.947
174.168,174.307
174.168,174.175
174.168,174.168
174.168,174.168
174.168,174.168
174.168,174.168
164.323,164.815
155.191,155.672
153.836,153.927
160.42,160.095
161.652,161.575
161.652,161.648
161.652,161.652
161.652,161.652
161.652,161.652
168.896,168.534
159.712,160.153
153.195,153.543
159.808,159.495
166.473,166.124
166.473,166.456
166.473,166.472
166.473,166.473
166.473,166.473
171.098,170.867
153.445,154.316
148.905,149.176
146.007,146.165
150.572,150.352
147.537,147.678
147.537,147.544
147.537,147.538
147.537,147.537
147.537,147.537
160.184,159.552
172.208,171.575
169.545,169.646
177.57,177.173
173.65,173.827
173.65,173.659
173.65,173.651
173.65,173.65
173.65,173.65
159.234,159.955
154.995,155.243
156.232,156.183
164.005,163.613
166.949,166.782
166.949,166.94
166.949,166.948
166.949,166.949
166.949,166.949
172.186,171.924
163.74,164.149
140.62,141.797
149.289,148.914
161.451,160.824
161.451,161.42
161.451,161.449
161.451,161.451
161.451,161.451
161.451,161.451
176.108,175.375
175.135,175.147
171.553,171.733
170.537,170.597
167.001,167.181
167.001,167.01
167.001,167.001
167.001,167.001
167.001,167.001
168.239,168.177
156.736,157.308
144.589,145.225
157.251,156.65
169.293,168.66
169.293,169.261
169.293,169.291
169.293,169.292
169.293,169.293
172.275,172.125
158.428,159.112
158.428,158.462
146.05,146.671
145.1,145.179
146.816,146.734
146.816,146.812
146.816,146.816
146.816,146.816
146.816,146.816
157.219,156.699
175.166,174.243
160.842,161.512
171.54,171.038
176.828,176.539
176.828,176.814
176.828,176.828
176.828,176.828
176.828,176.828
168.476,168.894
161.403,161.778
154.443,154.809
157.691,157.547
160.689,160.532
160.689,160.681
160.689,160.689
160.689,160.689
160.689,160.689
160.689,160.689
171.32,170.788
147.476,148.641
150.803,150.695
161.826,161.269
166.98,166.695
166.98,166.966
166.98,166.98
166.98,166.98
166.98,166.98
171.843,171.6
159.03,159.659
157.18,157.304
155.358,155.455
158.919,158.746
158.919,158.91
158.919,158.919
158.919,158.919
158.919,158.919
158.919,158.919
176.662,175.775
151.896,153.09
148.576,148.802
156.229,155.858
162.188,161.871
162.188,162.172
162.188,162.187
162.188,162.188
162.188,162.188
179.152,178.304
164.823,165.497
159.136,159.455
154.526,154.772
155.15,155.131
153.83,153.895
153.83,153.833
153.83,153.83
153.83,153.83
153.83,153.83
164.449,163.918
172.874,172.427
158.909,159.585
163.382,163.192
172.823,172.341
172.823,172.799
172.823,172.821
172.823,172.823
172.823,172.823
169.958,170.101
