Normal data,Filtered data
136.964,136.964
136.072,136.117
135.805,135.821
135.263,135.291
134.242,134.295
133.766,133.792
133.576,133.587
134.036,134.013
134.58,134.552
135.91,135.842
137.189,137.122
138.066,138.019
139.28,139.217
141.017,140.927
141.916,141.866
143.937,143.834
144.262,144.241
143.898,143.915
143.588,143.604
142.129,142.203
141.564,141.596
140.916,140.95
139.756,139.816
138.501,138.567
137.564,137.614
136.867,136.905
136.608,136.623
136.012,136.042
135.677,135.695
134.619,134.673
134.769,134.764
136.835,136.731
138.231,138.156
139.193,139.141
140.599,140.526
141.543,141.493
139.718,139.807
137.726,137.83
135.12,135.255
134.227,134.279
133.474,133.514
133.014,133.039
131.641,131.711
131.155,131.183
133.558,133.439
137.142,136.957
137.916,137.868
138.709,138.667
138.641,138.642
138.793,138.786
135.021,135.209
129.117,129.422
127.479,127.576
127.821,127.808
128.889,128.835
128.543,128.558
128.656,128.651
131.57,131.424
132.874,132.802
133.649,133.607
134.703,134.648
135.436,135.397
136.568,136.509
137.693,137.634
139.184,139.106
140.335,140.274
139.55,139.586
140.307,140.271
137.956,138.072
136.737,136.804
133.646,133.804
133.955,133.947
132.309,132.391
127.421,127.669
122.131,122.408
124.756,124.639
128.018,127.849
130.871,130.72
131.963,131.901
132.509,132.478
134.775,134.66
138.268,138.088
140.391,140.275
142.201,142.105
138.931,139.09
136.336,136.473
130.921,131.198
128.645,128.773
130.249,130.175
130.253,130.249
131.329,131.275
131.602,131.585
133.304,133.218
135.509,135.395
137.802,137.681
138.883,138.823
139.444,139.413
140.011,139.981
136.808,136.967
135.495,135.568
135.339,135.351
134.547,134.588
134.628,134.626
134.355,134.368
132.459,132.555
132.461,132.465
133.62,133.562
135.731,135.622
137.376,137.288
137.508,137.497
135.658,135.75
130.393,130.661
128.49,128.598
127.565,127.617
128.279,128.246
128.975,128.938
129.399,129.376
131.105,131.018
131.542,131.516
132.908,132.838
133.959,133.903
133.539,133.557
133.73,133.721
134.578,134.535
136.144,136.063
136.419,136.401
135.001,135.071
132.263,132.403
129.787,129.918
128.158,128.246
127.142,127.197
127.041,127.049
127.532,127.507
126.236,126.3
124.317,124.416
125.268,125.225
126.413,126.354
126.854,126.829
129.141,129.026
131.981,131.833
135.589,135.401
138.65,138.488
140.619,140.512
138.25,138.363
134.359,134.559
132.221,132.337
130.319,130.42
128.32,128.425
126.18,126.292
123.446,123.588
121.217,121.335
123.524,123.415
121.053,121.171
119.913,119.976
122.693,122.557
127.488,127.241
131.107,130.914
127.344,127.523
128.548,128.497
127.932,127.961
129.599,129.517
130.873,130.805
131.654,131.612
130.133,130.207
133.669,133.496
136.065,135.936
136.087,136.08
133.753,133.869
129.618,129.831
126.838,126.988
125.851,125.908
125.368,125.395
123.836,123.914
122.631,122.695
120.877,120.968
122.209,122.147
124.265,124.159
125.982,125.891
128.294,128.174
130.765,130.636
134.827,134.617
136.382,136.293
138.346,138.244
137.918,137.934
137.884,137.886
137.604,137.618
137.234,137.253
136.582,136.616
136.368,136.38
135.767,135.798
136.301,136.276
136.296,136.295
136.243,136.246
135.411,135.453
135.81,135.792
135.822,135.821
135.45,135.468
135.271,135.28
136.075,136.035
132.49,132.668
131.554,131.61
129.794,129.885
126.154,126.341
124.88,124.953
122.795,122.902
122.012,122.057
121.811,121.823
122.057,122.046
123.901,123.808
125.589,125.5
127.878,127.759
129.98,129.869
130.981,130.926
133.813,133.669
136.435,136.296
138.405,138.299
140.922,140.791
141.839,141.786
139.666,139.772
138.403,138.472
136.116,136.233
132.178,132.381
131.467,131.513
131.425,131.43
131.791,131.773
134.432,134.299
134.393,134.388
135.245,135.202
136.221,136.17
136.571,136.551
137.95,137.88
139.639,139.551
140.538,140.489
142.214,142.128
142.665,142.638
142.657,142.657
141.78,141.824
142.668,142.625
141.752,141.796
139.542,139.655
136.606,136.759
133.811,133.958
132.892,132.946
131.576,131.645
130.344,130.409
129.291,129.347
128.612,128.649
126.33,126.446
126.294,126.302
125.869,125.891
127.182,127.118
128.47,128.402
128.806,128.786
128.124,128.157
126.577,126.656
126.699,126.697
129.536,129.394
129.416,129.415
126.016,126.186
124.986,125.046
125.519,125.495
126.199,126.164
128.503,128.386
130.602,130.491
132.758,132.645
133.849,133.789
133.387,133.407
133.525,133.519
131.971,132.049
131.315,131.352
133.155,133.065
135.847,135.708
136.719,136.668
137.357,137.323
137.224,137.229
138.978,138.89
140.222,140.156
140.567,140.546
140.424,140.43
138.716,138.802
138.85,138.848
138.664,138.674
139.115,139.093
139.35,139.337
140.053,140.017
140.673,140.64
140.494,140.501
139.562,139.609
140.393,140.354
141.394,141.342
142.224,142.18
142.548,142.529
142.599,142.595
142.086,142.111
140.789,140.855
138.868,138.968
136.755,136.866
133.419,133.591
132.599,132.648
132.609,132.611
131.721,131.765
132.888,132.832
133.985,133.927
134.726,134.686
135.791,135.735
137.34,137.26
138.47,138.409
138.242,138.25
138.25,138.25
139.374,139.318
139.024,139.039
138.118,138.164
140.194,140.093
141.838,141.751
141.342,141.362
139.055,139.171
138.039,138.096
136.853,136.915
136.522,136.542
136.969,136.947
137.257,137.242
138.491,138.429
138.927,138.902
139.235,139.218
139.502,139.488
140.768,140.704
141.576,141.532
141.93,141.91
142.311,142.29
141.196,141.251
138.473,138.612
136.315,136.43
136.237,136.247
136.447,136.437
135.605,135.647
133.487,133.595
132.608,132.657
132.414,132.426
131.137,131.201
131.225,131.224
132.91,132.826
133.715,133.671
135.532,135.439
136.646,136.586
137.808,137.747
138.58,138.539
140.171,140.09
139.617,139.64
138.352,138.416
138.566,138.558
136.616,136.713
135.198,135.274
132.98,133.094
130.501,130.631
132.357,132.271
135.556,135.391
136.726,136.66
139.489,139.347
140.567,140.506
141.408,141.363
143.32,143.222
143.398,143.389
143.741,143.723
143.734,143.734
143.491,143.503
142.495,142.546
141.788,141.826
137.386,137.608
129.551,129.954
123.707,124.019
119.052,119.3
116.91,117.029
115.73,115.795
117.189,117.119
115.441,115.525
114.864,114.897
120.303,120.033
120.089,120.087
122.936,122.793
125.623,125.482
130.957,130.683
133.171,133.047
134.863,134.772
