Normal data,Filtered data
85.9978,85.9978
87.7741,87.6853
85.7674,85.8633
84.9748,85.0193
88.105,87.9507
89.0443,88.9896
90.1081,90.0521
89.069,89.1182
87.6627,87.7355
86.0185,86.1044
85.1533,85.2008
84.2036,84.2534
82.2964,82.3943
79.9075,80.0319
78.4744,78.5523
78.7343,78.7252
79.778,79.7254
81.0874,81.0193
81.3844,81.3662
81.1043,81.1174
79.9902,80.0465
79.0459,79.0959
78.4168,78.4508
77.8187,77.8503
79.1503,79.0853
80.4106,80.3443
81.8898,81.8126
84.2912,84.1673
85.7163,85.6389
85.1007,85.1277
85.0961,85.0977
84.4397,84.4726
83.9082,83.9364
82.7913,82.8485
80.8015,80.9038
78.6688,78.7805
79.4543,79.4207
80.0568,80.025
79.2422,79.2813
77.8908,77.9603
76.2915,76.3749
75.119,75.1818
76.0487,76.0054
75.9192,75.9235
76.9303,76.88
77.4347,77.4069
78.2199,78.1792
79.2578,79.2038
79.1803,79.1815
78.5419,78.5739
79.1981,79.1669
79.6543,79.6299
79.1228,79.1481
77.9029,77.9652
76.7553,76.8158
75.9183,75.9631
74.9898,75.0385
75.8977,75.8547
78.4472,78.3176
81.6055,81.4411
84.6391,84.4792
86.2741,86.1844
85.329,85.3718
85.0454,85.0617
83.3497,83.4353
82.0169,82.0878
81.774,81.7897
80.2386,80.3161
81.7408,81.6695
81.7244,81.7217
81.8851,81.877
81.5522,81.5685
79.9696,80.0496
78.1952,78.2879
76.9069,76.9759
76.722,76.7347
75.6763,75.7293
75.2937,75.3155
74.4811,74.5228
73.9132,73.9437
75.0443,74.9893
74.4091,74.4382
75.1281,75.0936
73.2959,73.3858
73.9803,73.9506
74.4763,74.45
75.6389,75.5795
76.5458,76.4975
77.7529,77.6901
79.2595,79.181
79.2186,79.2167
79.8353,79.8044
79.2774,79.3038
79.124,79.133
77.7767,77.8445
76.5604,76.6246
75.4087,75.4695
73.5356,73.6323
74.5053,74.4616
76.3349,76.2412
77.9976,77.9098
80.4822,80.3536
80.6072,80.5945
79.4848,79.5403
78.4179,78.4741
75.8514,75.9825
74.2221,74.3101
74.1619,74.1693
73.9667,73.9769
73.9379,73.9399
74.7423,74.7021
75.3654,75.3322
75.1358,75.1456
74.7274,74.7483
74.6966,74.6992
75.1183,75.0974
75.7411,75.7089
76.8435,76.7867
77.1044,77.0885
77.6189,77.5924
78.1372,78.11
78.1664,78.1636
78.8213,78.7884
78.7357,78.7384
77.8375,77.8826
79.6883,79.598
80.5413,80.4942
81.9332,81.8613
82.5355,82.5018
83.7701,83.7067
84.3709,84.3376
83.8089,83.8354
82.676,82.734
80.5699,80.6781
80.2145,80.2377
82.4447,82.3343
84.0842,83.9967
82.7855,82.846
81.9114,81.9581
80.3566,80.4367
79.2319,79.2921
77.4626,77.5541
75.3341,75.4451
76.4879,76.4358
77.5877,77.5301
78.204,78.1703
77.7199,77.7424
77.07,77.1036
76.1638,76.2108
75.4164,75.4561
75.7647,75.7493
75.3247,75.3459
75.013,75.0297
73.5478,73.6219
74.0315,74.011
74.3757,74.3574
74.6644,74.649
72.942,73.0274
71.1154,71.211
69.6614,69.7388
68.2737,68.347
68.4901,68.4829
68.8167,68.8
69.0044,68.9941
68.3833,68.4138
67.9026,67.9282
66.9575,67.0061
72.1643,71.9064
75.8184,75.6228
81.3796,81.0918
85.6984,85.468
88.9693,88.7942
90.1529,90.085
90.451,90.4327
92.134,92.0489
95.1126,94.9594
94.3774,94.4065
93.777,93.8085
92.9796,93.0211
91.2722,91.3596
90.1683,90.2278
87.3452,87.4893
83.8964,84.076
82.45,82.5313
80.5592,80.6578
77.9049,78.0426
76.7243,76.7902
75.3364,75.4091
73.6211,73.7105
73.0025,73.0379
71.9155,71.9716
73.4071,73.3354
75.2317,75.1368
75.234,75.2291
74.7747,74.7975
70.9062,71.1007
68.032,68.1854
65.9497,66.0615
65.6839,65.7028
68.5401,68.3982
70.8905,70.7659
73.363,73.2331
73.2205,73.2211
73.5076,73.4932
75.0146,74.9385
78.2135,78.0498
81.8804,81.6889
82.2105,82.1844
84.1353,84.0378
85.1749,85.1181
83.6147,83.6899
82.0877,82.1679
80.6826,80.7568
79.8857,79.9293
80.4519,80.4258
80.7711,80.7538
80.1899,80.2181
79.7638,79.7866
79.3839,79.404
80.4332,80.3818
81.2942,81.2486
80.7493,80.7743
82.6075,82.5159
83.5476,83.496
83.7667,83.7532
85.2136,85.1406
85.1819,85.1799
82.8732,82.9885
80.6922,80.807
76.8567,77.0543
74.7414,74.8571
72.9595,73.0543
71.9037,71.9612
69.9867,70.0855
69.2471,69.2891
70.4599,70.4013
72.0532,71.9706
72.4721,72.4471
72.4591,72.4585
73.7837,73.7175
74.5751,74.5322
75.0806,75.0531
76.478,76.4067
78.2943,78.2
78.9199,78.8839
79.456,79.4274
80.1004,80.0668
78.0829,78.1821
79.5946,79.524
81.0799,81.0021
82.7514,82.6639
82.1198,82.147
81.2935,81.3361
83.0133,82.9294
83.8817,83.8341
83.8163,83.8172
83.762,83.7647
84.991,84.9296
86.2393,86.1738
84.2877,84.382
83.4616,83.5077
84.5815,84.5278
85.5571,85.5056
84.5951,84.6406
83.3314,83.3969
83.5834,83.5741
82.2324,82.2995
79.7212,79.8502
80.5783,80.5419
80.8384,80.8235
81.8081,81.7589
82.7548,82.705
82.9221,82.9112
82.6802,82.6917
79.3558,79.5226
76.0745,76.2469
72.6893,72.8671
70.3986,70.522
71.0272,71.0019
71.4655,71.4423
74.1287,73.9944
76.439,76.3168
79.7659,79.5935
81.9436,81.8261
81.6701,81.6779
81.8666,81.8572
81.3882,81.4116
77.407,77.6072
75.5288,75.6327
73.9398,74.0245
75.1171,75.0625
75.3265,75.3133
75.3959,75.3918
75.9085,75.8826
76.4126,76.3861
77.6643,77.6004
78.1811,78.152
79.1423,79.0928
81.6299,81.5031
84.2232,84.0872
86.5562,86.4328
88.2275,88.1378
87.4347,87.4699
87.4019,87.4053
87.8625,87.8396
84.633,84.7933
82.5603,82.6719
82.0376,82.0693
79.8611,79.9715
77.1666,77.3068
77.7589,77.7363
78.5375,78.4974
77.6342,77.6774
77.0875,77.117
76.1009,76.1517
74.7267,74.7979
76.0812,76.0171
76.8093,76.7697
80.7738,80.5736
79.4365,79.4934
79.0708,79.0919
80.4071,80.3413
79.9307,79.9512
79.1276,79.1687
77.6961,77.7697
77.9023,77.8957
77.8591,77.861
77.9847,77.9785
77.7267,77.7393
77.1944,77.2216
76.3804,76.4225
74.938,75.0122
77.6268,77.4961
80.4531,80.3052
82.0999,82.0102
81.4116,81.4416
83.7734,83.6568
85.2439,85.1645
85.023,85.03
84.7227,84.738
86.2999,86.2219
84.3742,84.4666
83.8221,83.8544
82.3886,82.4619
81.5887,81.6324
80.7743,80.8172
79.8169,79.8669
80.9113,80.859
81.7582,81.7133
83.7192,83.6189
84.5806,84.5325
84.2564,84.2702
83.5517,83.5877
82.6694,82.7153
82.6767,82.6786
82.5339,82.5411
83.1256,83.0964
82.9642,82.9708
83.8638,83.8191
84.828,84.7776
85.8694,85.8149
86.6444,86.6029
86.9775,86.9588
86.4887,86.5122
86.0136,86.0385
84.8271,84.8877
87.3312,87.209
88.9728,88.8846
91.3474,91.2243
92.4359,92.3753
94.2481,94.1545
94.3511,94.3412
94.4561,94.4503
94.4992,94.4968
94.6972,94.6872
95.404,95.3681
95.9478,95.9189
96.0101,96.0056
94.4622,94.5394
92.0905,92.213
87.9416,88.1551
85.9327,86.0438
84.6314,84.702
