Normal data,Filtered data
132.516,132.516
132.851,132.533
133.429,132.578
135.343,132.716
136.051,132.883
138.512,133.164
139.359,133.474
138.349,133.718
137.5,133.907
137.085,134.066
137.445,134.235
138.704,134.458
138.869,134.679
139.657,134.927
139.253,135.144
135.63,135.168
135.143,135.167
134.033,135.11
133.323,135.021
131.342,134.837
132.22,134.706
132.909,134.616
134.483,134.609
134.959,134.627
138.046,134.798
135.424,134.829
130.442,134.61
131.076,134.433
132.467,134.335
133.526,134.294
136.36,134.398
138.241,134.59
135.784,134.649
129.564,134.395
130.309,134.191
131.566,134.06
132.662,133.99
133.095,133.945
135.089,134.002
129.261,133.765
127.232,133.438
126.174,133.075
130.311,132.937
131.982,132.889
130.125,132.751
130.642,132.646
130.349,132.531
134.295,132.619
136.016,132.789
138.272,133.063
140.513,133.436
136.871,133.607
132.039,133.529
130.371,133.371
131.416,133.273
131.826,133.201
132.413,133.162
134.881,133.247
135.962,133.383
136.73,133.551
137.045,133.725
134.184,133.748
131.062,133.614
131.397,133.503
128.452,133.251
127.155,132.946
129.123,132.755
133.305,132.782
134.338,132.86
130.475,132.741
127.131,132.46
122.552,131.965
123.452,131.539
124.833,131.204
128.11,131.049
130.632,131.028
130.672,131.01
130.763,130.998
131.506,131.024
132.335,131.089
136.04,131.337
137.702,131.655
132.212,131.683
125.433,131.37
125.366,131.07
124.258,130.729
126.816,130.534
126.968,130.355
128.218,130.249
132.401,130.356
135.033,130.59
136.09,130.865
137.511,131.197
132.175,131.246
127.545,131.061
126.881,130.852
127.73,130.696
129.152,130.619
131.103,130.643
132.535,130.738
134.952,130.948
136.289,131.215
138.145,131.562
139.146,131.941
139.432,132.316
140.799,132.74
137.949,133
133.071,133.004
131.84,132.946
133.14,132.955
133.736,132.994
135.013,133.095
136.515,133.266
137.753,133.491
138.577,133.745
138.978,134.007
138.741,134.243
135.11,134.287
128.443,133.994
128.416,133.716
126.556,133.358
124.776,132.929
127.301,132.647
131.341,132.582
134.332,132.669
135.658,132.819
137.22,133.039
137.201,133.247
131.223,133.146
125.351,132.756
127.525,132.494
129.991,132.369
131.144,132.308
131.79,132.282
131.897,132.263
134.055,132.352
136.633,132.566
137.089,132.793
137.476,133.027
128.79,132.815
128.372,132.593
129.676,132.447
131.016,132.375
130.62,132.288
132.807,132.314
134.799,132.438
135.692,132.601
135.723,132.757
136.137,132.926
132.227,132.891
132.561,132.874
133.023,132.882
134.09,132.942
136.909,133.14
132.324,133.1
127.768,132.833
129.208,132.652
128.79,132.459
131.02,132.387
133.558,132.445
136.587,132.652
136.968,132.868
137.327,133.091
133.637,133.118
130.924,133.009
130.265,132.871
131.018,132.779
129.035,132.592
130.784,132.501
131.723,132.462
132.754,132.477
136.269,132.667
137.538,132.91
133.96,132.963
128.872,132.758
128.731,132.557
129.879,132.423
131.079,132.356
129.467,132.211
129.539,132.078
132.87,132.117
135.34,132.278
135.86,132.457
137.317,132.7
130.95,132.613
125.277,132.246
126.173,131.942
128.072,131.749
125.85,131.454
126.523,131.207
130.375,131.166
131.563,131.186
130.594,131.156
127.112,130.954
125.15,130.664
126.329,130.447
128.847,130.367
131.295,130.413
134.366,130.611
134.213,130.791
136.512,131.077
136.945,131.37
139.588,131.781
140.681,132.226
138.193,132.525
134.873,132.642
134.793,132.75
135.232,132.874
135.18,132.989
135.658,133.122
135.879,133.26
136.167,133.406
136.411,133.556
138.048,133.781
134.03,133.793
130.541,133.63
132.157,133.557
133.007,133.529
133.894,133.547
133.713,133.556
136.345,133.695
136.657,133.843
136.521,133.977
136.254,134.091
132.043,133.989
126.933,133.636
125.803,133.244
126.768,132.92
123.875,132.468
124.767,132.083
126.05,131.781
127.526,131.569
132.58,131.619
134.594,131.768
129.576,131.658
123.657,131.258
123.86,130.888
125.236,130.606
126.575,130.404
128.328,130.3
130.614,130.316
132.908,130.446
134.361,130.641
135.628,130.891
138.014,131.247
135.331,131.451
129.632,131.36
129.352,131.26
130.176,131.205
131.685,131.229
129.739,131.155
130.398,131.117
134.189,131.271
136.698,131.542
137.385,131.834
135.187,132.002
132.254,132.014
131.074,131.967
130.285,131.883
131.301,131.854
130.751,131.799
131.136,131.766
131.725,131.764
134.354,131.893
135.184,132.058
130.785,131.994
128.349,131.812
129.928,131.718
131.867,131.725
130.977,131.688
132.751,131.741
134.851,131.896
136.149,132.109
137.044,132.356
134.127,132.444
127.418,132.193
123.724,131.77
125.778,131.47
127.33,131.263
129.331,131.166
129.588,131.087
121.672,130.617
114.357,129.804
113.718,128.999
119.58,128.528
123.834,128.294
126.931,128.226
127.168,128.173
127.866,128.157
122.248,127.862
115.856,127.262
117.498,126.773
117.302,126.3
118.398,125.905
118.557,125.537
123.449,125.433
126.601,125.491
125.059,125.47
117.859,125.089
117.387,124.704
120.886,124.513
124.76,124.525
127.01,124.65
129.33,124.884
131.399,125.209
128.332,125.366
125.86,125.39
126.732,125.457
129.479,125.658
130.984,125.925
132.35,126.246
133.62,126.615
134.652,127.017
129.341,127.133
123.651,126.959
123.169,126.769
127.824,126.822
127.527,126.857
127.239,126.876
129.417,127.003
130.317,127.169
133.592,127.49
134.408,127.836
133.361,128.112
127.734,128.093
127.846,128.081
126.352,127.995
128.019,127.996
128.611,128.027
129.926,128.122
131.464,128.289
132.657,128.507
133.708,128.767
123.393,128.498
117.904,127.969
120.388,127.59
123.581,127.389
126.614,127.35
128.062,127.386
133.21,127.677
135.172,128.052
128.617,128.08
122.541,127.803
121.007,127.463
122.447,127.212
125.964,127.15
125.671,127.076
127.896,127.117
130.379,127.28
133.277,127.58
133.827,127.892
134.813,128.238
128.735,128.263
122.513,127.976
125.601,127.857
128.327,127.88
131.118,128.042
132.974,128.289
136.136,128.681
138.095,129.152
138.794,129.634
138.858,130.095
133.314,130.256
134.196,130.453
135.185,130.69
135.696,130.94
136.785,131.232
137.168,131.529
137.23,131.814
138.936,132.17
139.522,132.538
135.663,132.694
130.438,132.581
127.069,132.306
128.665,132.124
127.089,131.872
124.991,131.528
126.196,131.261
127.143,131.055
132.417,131.123
134.573,131.296
134.692,131.466
127.382,131.261
130.426,131.22
129.216,131.12
128.849,131.006
131.281,131.02
133.118,131.125
133.593,131.248
135.01,131.436
135.317,131.63
128.209,131.459
120.995,130.936
125.186,130.648
129.299,130.581
130.598,130.582
131.306,130.618
129.745,130.574
130.448,130.568
131.132,130.596
131.446,130.639
130.415,130.628
122.238,130.208
123.402,129.868
126.283,129.689
127.309,129.57
133.03,129.743
133.716,129.941
134.777,130.183
128.906,130.119
121.184,129.672
124.562,129.417
122.944,129.093
125.108,128.894
127.572,128.828
129.057,128.839
132.573,129.026
123.981,128.774
123.628,128.517
126.106,128.396
128.388,128.396
130.615,128.507
131.648,128.664
132.092,128.835
134.628,129.125
129.552,129.146
122.658,128.822
124.841,128.623
128.073,128.595
128.618,128.596
132.537,128.793
134.374,129.072
137.559,129.497
138.932,129.968
133.914,130.166
128.164,130.066
127.347,129.93
128.921,129.879
130.426,129.907
133.97,130.11
136.593,130.434
138.332,130.829
138.761,131.225
134.877,131.408
131.672,131.421
132.272,131.464
130.995,131.44
132.614,131.499
133.247,131.586
136.909,131.853
130.177,131.769
127.072,131.534
122.716,131.093
124.051,130.741
126.395,130.524
129.183,130.457
129.957,130.432
127.236,130.272
124.914,130.004
120.854,129.546
123.024,129.22
121.987,128.859
125.56,128.694
125.827,128.55
129.251,128.585
132.619,128.787
135.309,129.113
136.729,129.494
133.29,129.684
128.94,129.647
129.432,129.636
131.448,129.726
131.589,129.82
134.455,130.051
137.147,130.406
137.253,130.749
137.457,131.084
130.896,131.075
127.664,130.904
128.226,130.77
129.694,130.716
131.411,130.751
132.638,130.845
134.44,131.025
135.617,131.255
131.996,131.292
128.123,131.133
128.072,130.98
128.252,130.844
129.707,130.787
131.984,130.847
132.085,130.909
134.025,131.065
