Normal data,Filtered data
154.221,154.221
155.342,155.286
156.032,155.995
157.304,157.238
157.617,157.598
156.969,157.001
155.903,155.958
155.181,155.22
153.502,153.588
151.599,151.698
150.672,150.723
149.089,149.171
150.51,150.443
155.983,155.706
158.353,158.221
158.829,158.799
157.663,157.72
157.502,157.513
158.782,158.718
160.925,160.815
162.97,162.863
165.081,164.97
166.002,165.951
164.677,164.741
162.394,162.511
160.424,160.529
157.99,158.117
156.141,156.24
153.492,153.629
149.821,150.011
131.668,132.585
94.9342,96.8168
69.4477,70.8162
57.3301,58.0044
50.2348,50.6233
45.7123,45.9579
42.5929,42.7611
39.8696,40.0142
37.248,37.3863
37.7907,37.7705
41.9059,41.6991
58.0318,57.2152
85.8424,84.411
113.474,112.021
131.302,130.338
142.039,141.454
149.061,148.68
154.166,153.892
157.549,157.366
160.655,160.491
161.733,161.671
161.199,161.222
160.125,160.18
155.423,155.661
142.637,143.288
118.502,119.742
89.1716,90.7002
69.8896,70.9301
58.4801,59.1026
51.0037,51.4087
45.788,46.0691
41.8208,42.0332
46.9598,46.7135
60.9913,60.2774
89.8672,88.3877
121.356,119.708
137.604,136.709
145.498,145.059
149.395,149.178
151.387,151.277
154.024,153.887
156.638,156.5
160.941,160.719
164.648,164.452
167.25,167.111
168.028,167.982
167.739,167.751
167.029,167.065
166.056,166.106
164.815,164.88
163.982,164.027
163.294,163.331
161.216,161.321
156.268,156.521
136.897,137.878
103.626,105.339
75.4886,76.9811
60.3983,61.2274
51.5524,52.0362
46.2839,46.5715
50.4068,50.215
58.8051,58.3756
75.2785,74.4333
99.8224,98.553
119.571,118.52
132.357,131.665
139.528,139.135
144.559,144.287
148.114,147.922
152.38,152.157
156.037,155.843
160.332,160.108
161.812,161.727
160.754,160.803
160.852,160.85
160.25,160.28
159.743,159.77
160.19,160.169
152.91,153.273
131.679,132.759
98.0148,99.752
72.3451,73.7154
58.3809,59.1477
50.9949,51.4025
46.3892,46.6398
43.4912,43.6486
40.9903,41.1232
39.1785,39.2757
38.0395,38.1013
41.7591,41.5762
51.5864,51.0859
71.0682,70.0691
97.9058,96.5139
120.323,119.133
133.682,132.954
142.202,141.74
148.46,148.124
154.937,154.596
159.591,159.341
163.008,162.825
162.971,162.963
161.931,161.983
152.569,153.04
136.121,136.967
112.267,113.502
91.4547,92.5571
76.191,77.0093
66.3105,66.8454
59.3617,59.7359
54.6831,54.9358
50.1303,50.3705
46.8562,47.0319
52.8439,52.5533
70.265,69.3795
94.0378,92.8049
115.402,114.272
131.507,130.646
143.48,142.838
151.369,150.942
156.505,156.227
158.908,158.774
159.478,159.443
158.011,158.083
155.425,155.558
152.772,152.911
151.62,151.685
151.273,151.293
153.322,153.221
152.841,152.86
152.345,152.371
152.186,152.195
152.013,152.022
151.802,151.813
151.531,151.545
151.076,151.099
152.541,152.469
153.304,153.262
153.384,153.378
155.093,155.007
155.65,155.618
155.618,155.618
157.917,157.802
157.98,157.971
160.041,159.938
162.468,162.342
162.841,162.816
162.073,162.111
160.952,161.01
159.577,159.649
158.55,158.605
157.579,157.63
156.516,156.572
154.743,154.834
153.736,153.791
137.218,138.047
103.09,104.838
73.3531,74.9274
57.8108,58.6666
49.6642,50.1143
45.3675,45.6049
41.7329,41.9265
44.2599,44.1432
50.3305,50.0211
64.4647,63.7425
90.3632,89.0321
117.069,115.667
133.382,132.496
141.878,141.409
146.776,146.508
149.521,149.37
153.177,152.987
156.386,156.216
160.561,160.344
163.448,163.293
165.169,165.076
163.834,163.896
162.077,162.168
158.268,158.463
156.024,156.146
154.358,154.448
154.922,154.898
152.633,152.747
140.471,141.085
112.667,114.088
82.3712,83.957
63.5957,64.6138
53.6516,54.1997
62.7012,62.2761
79.9945,79.1086
103.954,102.712
124.408,123.323
138.018,137.283
144.395,144.04
147.851,147.66
149.8,149.693
150.917,150.856
152.133,152.069
158.217,157.91
160.948,160.797
163.512,163.376
166.986,166.806
169.624,169.483
170.049,170.02
167.096,167.243
162.627,162.858
152.963,153.458
130.698,131.836
97.6591,99.3679
72.6725,74.0072
58.2338,59.0225
50.6123,51.0328
46.6133,46.8343
43.0741,43.2621
40.533,40.6694
38.9156,39.0033
41.9487,41.8015
49.7099,49.3145
65.8603,65.033
90.8124,89.5234
113.849,112.633
128.834,128.024
137.909,137.415
145.273,144.88
151.502,151.171
156.186,155.935
161.908,161.609
166.293,166.059
169.696,169.514
171.563,171.461
169.919,169.996
165.652,165.87
163.273,163.403
164.563,164.505
162.327,162.436
160.828,160.908
157.564,157.732
144.646,145.301
148.201,148.056
150.972,150.826
153.566,153.429
155.487,155.384
156.778,156.708
155.424,155.488
154.973,154.999
154.643,154.661
154.175,154.199
153.1,153.155
152.243,152.288
151.858,151.879
151.927,151.925
152.092,152.084
154.275,154.165
156.482,156.366
159.836,159.663
162.324,162.191
163.611,163.54
162.995,163.023
160.818,160.928
157.898,158.049
156.085,156.183
156.574,156.554
155.65,155.695
142.559,143.216
112.069,113.627
81.8699,83.4578
64.2606,65.2204
54.549,55.0826
48.9179,49.2261
44.7213,44.9466
41.8346,41.9902
39.4675,39.5937
37.9533,38.0353
39.3951,39.3271
45.4352,45.1298
59.4141,58.6999
83.951,82.6884
110.88,109.47
129.373,128.378
140.947,140.318
149.548,149.087
155.956,155.613
161.385,161.096
165.358,165.144
169.011,168.818
171.675,171.533
171.971,171.949
169.543,169.664
165.162,165.387
160.5,160.744
150.432,150.947
153.37,153.249
155.65,155.53
149.964,150.242
140.209,140.71
123.737,124.586
104.889,105.874
84.234,85.316
66.7398,67.6686
55.387,56.0011
61.2185,60.9576
79.795,78.8531
98.5125,97.5295
114.755,113.894
125.691,125.101
134.254,133.796
141.009,140.648
148.046,147.676
153.258,152.978
157.251,157.038
159.93,159.786
162.606,162.465
163.75,163.686
163.154,163.18
160.674,160.799
157.558,157.72
155.24,155.364
154.94,154.961
154.655,154.67
155.245,155.216
156.385,156.326
155.03,155.095
154.832,154.845
153.906,153.953
152.923,152.974
152.121,152.163
151.438,151.474
150.864,150.895
151.954,151.901
152.808,152.762
153.428,153.395
153.387,153.387
154.425,154.373
155.011,154.979
154.693,154.708
155.094,155.075
156.343,156.28
157.726,157.654
159.594,159.497
160.842,160.774
160.706,160.709
160.87,160.862
160.484,160.503
159.968,159.994
159.205,159.245
158.429,158.469
157.369,157.424
157.067,157.085
157.227,157.22
157.693,157.67
158.339,158.306
158.564,158.551
159.702,159.644
159.782,159.775
159.213,159.241
158.008,158.069
157.359,157.394
157.383,157.383
157.054,157.07
156.699,156.718
155.466,155.528
155.419,155.425
155.136,155.151
156.208,156.155
158.032,157.938
158.982,158.929
160.235,160.17
161.142,161.093
161.246,161.238
159.798,159.87
158.232,158.314
156.325,156.424
154.882,154.959
153.969,154.018
153.367,153.4
153.115,153.129
152.719,152.74
151.617,151.673
152.57,152.525
144.206,144.622
120.377,121.589
131.274,130.79
139.104,138.689
146.154,145.781
150.696,150.45
152.366,152.27
154.598,154.482
154.885,154.865
154.444,154.465
153.763,153.798
152.181,152.262
152.83,152.801
153.658,153.615
154.755,154.698
157.461,157.323
159.764,159.642
161.365,161.279
162.109,162.067
162.637,162.608
161.351,161.414
160.874,160.901
160.205,160.24
158.018,158.129
156.899,156.96
157.654,157.619
158.23,158.199
149.989,150.399
151.177,151.138
152.534,152.464
151.483,151.532
152.891,152.823
153.837,153.787
155.633,155.541
156.327,156.288
157.337,157.285
157.831,157.804
158.161,158.143
157.478,157.511
157.119,157.139
157.241,157.236
157.115,157.121
159.761,159.629
161.237,161.157
162,161.958
163.085,163.029
163.398,163.379
163.376,163.377
163.185,163.195
162.248,162.295
148.243,148.945
116.738,118.349
80.9726,82.8414
60.8675,61.9662
51.3269,51.8589
47.0135,47.2558
44.0117,44.1739
41.9513,42.0624
40.5125,40.59
42.2209,42.1394
49.0832,48.736
64.2301,63.4554
89.9652,88.6397
117.049,115.628
134.687,133.734
145.076,144.509
151.561,151.208
156.272,156.019
160.369,160.152
163.938,163.749
166.123,166.004
166.823,166.782
170.336,170.158
171.164,171.113
171.272,171.264
170.724,170.751
169.711,169.763
167.66,167.765
164.673,164.828
160.803,161.004
146.451,147.179
118.734,120.156
85.7751,87.4941
64.9529,66.0799
54.5216,55.0996
48.7314,49.0498
44.7289,44.945
42.471,42.5947
46.1056,45.93
55.5704,55.0884
74.887,73.8971
101.993,100.588
123.687,122.532
136.6,135.897
143.642,143.254
149.493,149.181
153.442,153.229
157.547,157.331
160.932,160.752
164.668,164.472
167.249,167.111
168.273,168.215
165.548,165.681
164.311,164.38
158.288,158.592
156.901,156.986
155.64,155.707
157.016,156.95
155.324,155.405
152.139,152.302
150.663,150.745
152.856,152.75
154.332,154.253
155.312,155.259
153.889,153.957
152.324,152.406
150.866,150.943
149.479,149.552
151.917,151.798
155.233,155.061
156.26,156.2
155.371,155.413
154.509,154.554
154.816,154.803
154.119,154.153
153.999,154.006
154.312,154.297
156.073,155.984
157.56,157.481
158.572,158.518
158.93,158.91
158.41,158.435
158.751,158.735
158.906,158.898
159.74,159.698
159.833,159.827
159.793,159.794
143.478,144.293
111.666,113.297
78.8456,80.5682
60.9463,61.9274
52.4787,52.9511
47.7102,47.9722
52.5299,52.302
62.3385,61.8367
79.9355,79.0306
102.912,101.718
123.875,122.767
137.136,136.418
143.986,143.607
148.322,148.086
151.034,150.887
153.265,153.146
155.675,155.548
159.102,158.924
161.868,161.721
163.755,163.654
161.492,161.6
157.248,157.466
152.631,152.873
148.813,149.016
144.581,144.803
144.125,144.159
144.067,144.071
144.77,144.735
142.074,142.207
147.304,147.049
152.072,151.821
155.898,155.694
157.698,157.598
158.459,158.416
158.971,158.943
158.986,158.984
159.443,159.42
160.052,160.021
161.25,161.189
162.218,162.166
165.093,164.946
167.553,167.423
168.439,168.388
169.109,169.073
167.812,167.875
167.928,167.926
164.499,164.671
159.992,160.226
157.732,157.856
155.802,155.905
154.534,154.603
157.04,156.919
156.225,156.26
155.658,155.688
155.155,155.182
153.907,153.971
154.736,154.698
154.933,154.921
155.449,155.423
155.657,155.646
155.82,155.811
155.642,155.65
154.327,154.393
151.741,151.873
148.048,148.239
144.715,144.891
146.047,145.989
145.328,145.361
145.087,145.1
147.034,146.937
148.64,148.555
148.936,148.917
150.504,150.424
151.756,151.689
152.855,152.797
153.145,153.127
152.553,152.581
153.195,153.164
137.073,137.878
103.851,105.553
75.177,76.6958
87.4409,86.9036
103.172,102.359
117.89,117.114
130.856,130.169
139.809,139.327
146.478,146.12
150.577,150.354
153.245,153.101
154.299,154.239
154.875,154.844
155.682,155.64
156.485,156.443
157.835,157.766
158.846,158.792
160.002,159.942
161.767,161.675
163.373,163.288
164.312,164.261
166.237,166.138
166.526,166.506
165.507,165.557
163.605,163.703
161.396,161.511
159.659,159.751
157.098,157.231
155.838,155.908
157.465,157.387
158.87,158.796
158.973,158.964
159.111,159.104
157.918,157.977
157.318,157.351
156.887,156.911
156.715,156.725
157.098,157.079
157.483,157.463
157.302,157.31
157.063,157.075
157.513,157.491
158.242,158.204
158.658,158.635
157.94,157.975
157.944,157.946
157.827,157.833
157.618,157.629
157.883,157.87
158.908,158.856
159.085,159.073
160.8,160.714
160.74,160.739
158.633,158.739
156.149,156.278
153.578,153.713
139.708,140.409
106.816,108.496
74.8708,76.5521
86.2075,85.7247
100.32,99.5898
71.4198,72.8283
86.7769,86.0795
104.989,104.044
123.182,122.225
135.354,134.698
142.453,142.065
147.42,147.152
151.686,151.459
153.931,153.807
155.099,155.034
154.818,154.829
155.588,155.55
157.561,157.46
159.614,159.506
163.378,163.184
166.157,166.009
168.004,167.905
165.762,165.869
160.764,161.02
157.351,157.534
156.778,156.816
147.751,148.205
126.456,127.544
97.3016,98.8137
107.43,107
118.847,118.255
129.16,128.614
136.873,136.461
142.872,142.551
147.105,146.877
148.882,148.782
150.117,150.05
151.204,151.146
151.892,151.855
153.006,152.949
154.598,154.515
156.942,156.821
158.093,158.03
158.817,158.777
159.321,159.293
163.53,163.318
166.135,165.995
166.715,166.679
165.144,165.221
161.022,161.232
155.609,155.89
151.557,151.774
150.662,150.718
150.468,150.481
150.696,150.686
150.885,150.875
150.763,150.769
151.108,151.091
149.854,149.916
149.584,149.601
150.991,150.921
151.257,151.241
151.128,151.134
152.309,152.25
153.119,153.075
153.146,153.143
153.081,153.084
153.067,153.068
154.641,154.563
155.474,155.428
157.188,157.1
158.859,158.771
159.271,159.246
156.949,157.063
153.902,154.06
150.519,150.696
151.438,151.401
152.821,152.75
153.484,153.447
154.565,154.509
156.751,156.639
143.35,144.014
145.863,145.77
147.521,147.434
149.005,148.926
150.542,150.461
152.628,152.52
154.692,154.583
155.897,155.831
156.309,156.285
156.611,156.595
157.551,157.503
158.376,158.333
158.244,158.249
158.284,158.282
158.674,158.654
159.508,159.466
161.105,161.023
162.704,162.62
163.005,162.985
163.547,163.519
162.105,162.176
160.445,160.531
158.271,158.384
155.936,156.058
153.339,153.475
151.862,151.943
140.686,141.249
112.767,114.191
79.4866,81.2218
60.6099,61.6405
51.4873,51.9949
47.1084,47.3527
44.0583,44.223
47.8839,47.7008
56.2372,55.8104
73.9069,73.002
102.139,100.682
128.243,126.865
142.143,141.379
148.778,148.408
153.426,153.175
155.685,155.559
157.253,157.168
159.84,159.706
163.046,162.879
165.397,165.271
166.291,166.24
164.95,165.014
162.069,162.216
159.172,159.325
153.885,154.157
152.412,152.499
151.456,151.508
150.69,150.731
150.299,150.32
150.496,150.487
148.512,148.611
151.611,151.461
154.577,154.421
157.136,157.001
156.541,156.564
158.386,158.295
159.122,159.081
157.82,157.883
159.287,159.217
159.307,159.302
158.014,158.078
154.448,154.629
154.388,154.4
154.825,154.804
155.692,155.647
158.643,158.494
161.743,161.58
165.067,164.892
165.726,165.684
164.431,164.493
162.769,162.855
159.485,159.654
156.918,157.054
156.625,156.647
156.631,156.632
139.654,140.503
104.205,106.02
71.0596,72.8076
54.8747,55.7714
47.6674,48.0726
43.2277,43.4699
41.0684,41.1885
39.6489,39.7258
42.3739,42.2415
48.8731,48.5416
63.2425,62.5075
89.8248,88.4589
119.894,118.322
138.739,137.718
148.049,147.532
151.865,151.648
153.222,153.144
154.51,154.442
155.432,155.383
155.881,155.856
158.942,158.788
161.701,161.555
164.159,164.029
164.533,164.508
163.972,163.999
163.597,163.617
162.277,162.344
157.706,157.938
144.468,145.142
119.835,121.101
89.4989,91.079
68.9571,70.0632
58.0122,58.6148
51.6295,51.9788
47.2437,47.4804
44.0499,44.2214
46.7922,46.6636
54.921,54.5081
73.357,72.4146
100.454,99.0524
122.744,121.559
135.574,134.873
143.196,142.78
148.005,147.743
151.608,151.415
155.647,155.435
158.449,158.299
160.742,160.619
162.576,162.478
163.164,163.13
162.23,162.275
161.141,161.198
159.83,159.899
158.13,158.218
156.154,156.257
156.539,156.525
158.492,158.394
157.706,157.74
157.354,157.373
155.872,155.947
154.841,154.897
155.493,155.463
155.891,155.869
156.649,156.61
156.872,156.859
156.905,156.903
156.646,156.658
155.886,155.925
154.837,154.891
155.075,155.066
154.229,154.271
155.186,155.14
156.898,156.81
158.563,158.475
158.685,158.674
158.11,158.138
157.482,157.515
156.536,156.585
156.74,156.732
156.503,156.514
155.537,155.586
156.305,156.269
156.344,156.34
156.68,156.663
155.239,155.31
154.183,154.24
153.484,153.522
152.859,152.892
151.743,151.8
153.087,153.023
153.898,153.854
154.441,154.411
155.357,155.31
156.087,156.048
156.985,156.938
157.618,157.584
158.473,158.428
159.373,159.326
158.578,158.616
156.231,156.351
156.443,156.438
156.9,156.877
157.649,157.61
157.434,157.443
158.376,158.329
156.122,156.232
153.782,153.905
151.949,152.047
154.842,154.702
156.299,156.219
157.762,157.685
156.831,156.874
155.97,156.015
155.717,155.732
155.463,155.477
155.356,155.362
154.808,154.836
154.86,154.859
154.78,154.784
154.693,154.697
