Normal data,Filtered data
147.809,147.809
147.849,147.847
147.571,147.585
147.181,147.202
149.794,149.664
149.212,149.235
148.685,148.712
148.665,148.668
146.965,147.05
146.756,146.771
149.567,149.428
152.39,152.242
152.659,152.638
152.18,152.203
151.674,151.7
150.045,150.128
148.218,148.313
148.225,148.229
151.571,151.404
153.039,152.957
152.558,152.578
150.094,150.219
149.926,149.94
150.526,150.497
152.362,152.269
153.515,153.452
153.072,153.091
152.816,152.83
152.084,152.121
151.579,151.606
149.109,149.234
150.292,150.239
149.696,149.723
148.943,148.982
148.207,148.246
148.591,148.574
145.665,145.81
146.487,146.453
147.967,147.892
146.691,146.751
145.804,145.851
144.228,144.309
146.704,146.584
150.458,150.264
149.354,149.399
148.132,148.196
147.711,147.735
147.445,147.46
147.308,147.316
149.19,149.096
149.717,149.686
149.02,149.053
148.606,148.628
148.169,148.192
148.055,148.062
142.482,142.761
116.785,118.084
125.322,124.96
132.105,131.748
137.664,137.368
142.208,141.966
144.736,144.597
148.344,148.156
149.208,149.155
149.254,149.249
149.681,149.66
151.106,151.033
150.728,150.743
151.826,151.772
152.545,152.507
151.568,151.615
150.735,150.779
150.353,150.374
150.011,150.029
151.245,151.184
149.731,149.804
149.201,149.231
149.127,149.132
150.995,150.902
150.135,150.173
149.348,149.39
149.049,149.066
148.888,148.897
150.527,150.446
152.204,152.116
150.654,150.727
149.712,149.763
149.259,149.284
148.501,148.54
148.124,148.145
149.131,149.081
147.664,147.735
147.542,147.552
147.977,147.956
149.382,149.31
148.955,148.973
148.208,148.246
146.937,147.002
146.13,146.173
140.992,141.251
145.878,145.646
145.39,145.403
145.011,145.031
144.594,144.616
147.448,147.306
148.797,148.723
148.752,148.75
144.903,145.095
147.326,147.214
145.987,146.048
148.268,148.157
149.981,149.889
150.237,150.22
151.369,151.311
150.008,150.073
151.137,151.084
151.391,151.376
151.363,151.364
149.698,149.782
148.732,148.785
143.627,143.885
122.304,123.383
129.161,128.872
135.348,135.024
140.286,140.023
112.882,114.239
123.453,122.992
131.022,130.621
138.094,137.72
141.249,141.073
143.406,143.289
146.117,145.976
146.64,146.607
147.771,147.713
148.398,148.364
146.423,146.52
140.767,141.055
115.543,116.818
129.159,128.542
138.227,137.743
144.18,143.858
143.755,143.761
144.805,144.753
149.699,149.451
150.892,150.82
150.186,150.218
151.859,151.777
150.936,150.978
150.333,150.366
151.621,151.558
150.419,150.475
149.522,149.57
148.84,148.877
148.431,148.454
148.157,148.172
149.708,149.631
148.692,148.739
148.27,148.293
148.003,148.017
147.319,147.354
145.419,145.516
145.792,145.778
146.704,146.658
147.69,147.639
146.644,146.694
148.07,148.001
149.232,149.17
147.911,147.974
146.119,146.212
146.681,146.658
145.141,145.217
148.041,147.9
149.119,149.058
148.941,148.947
145.536,145.706
144.571,144.628
143.818,143.858
142.663,142.723
144.586,144.493
147.318,147.177
148.156,148.107
148.309,148.299
147.342,147.39
148.232,148.19
147.69,147.715
146.775,146.822
146.487,146.504
143.627,143.77
142.196,142.275
144.583,144.468
147.034,146.905
146.144,146.182
145.733,145.755
145.777,145.776
146.109,146.093
144.749,144.816
147.75,147.604
147.54,147.543
147.354,147.363
147.415,147.413
147.53,147.524
148.904,148.835
148.851,148.85
149.823,149.775
150.033,150.02
148.737,148.801
149.616,149.575
148.684,148.729
145.741,145.891
146.087,146.077
146.541,146.517
150.371,150.178
149.9,149.914
149.2,149.236
148.982,148.995
149.038,149.036
148.616,148.637
149.95,149.885
150.438,150.41
150.238,150.247
148.956,149.021
147.07,147.168
145.251,145.346
147.155,147.064
149.583,149.457
148.833,148.864
148.567,148.582
148.887,148.872
145.498,145.667
148.621,148.473
146.426,146.528
143.094,143.266
143.816,143.789
144.616,144.574
146.616,146.514
144.722,144.812
141.468,141.635
142.678,142.626
143.721,143.666
144.225,144.197
143.482,143.518
145.65,145.543
147.395,147.302
149.421,149.315
151.146,151.055
149.056,149.156
153.643,153.419
155.048,154.966
154.664,154.679
154.819,154.812
155.123,155.107
153.83,153.893
147.928,148.226
120.282,121.68
130.337,129.904
138.562,138.129
144.815,144.48
112.143,113.76
126.499,125.862
136.459,135.929
143.412,143.038
148.532,148.257
151.908,151.725
136.559,137.317
141.072,140.884
143.48,143.35
147.682,147.465
131.605,132.398
98.4034,100.103
116.947,116.105
129.906,129.216
139.112,138.617
145.332,144.997
148.814,148.623
147.575,147.627
149.525,149.43
150.572,150.515
149.236,149.3
148.743,148.771
149.988,149.927
150.845,150.799
150.661,150.668
149.939,149.975
149.609,149.627
149.215,149.236
147.813,147.884
148.703,148.662
150.81,150.703
