Normal data,Filtered data
107.547,107.547
107.197,107.215
112.313,112.058
116.602,116.375
120.611,120.399
116.656,116.843
112.79,112.993
111.091,111.186
114.936,114.749
118.303,118.125
116.993,117.05
115.858,115.918
115.632,115.647
115.58,115.583
117.746,117.638
116.332,116.397
141.697,140.432
138.179,138.292
135.012,135.176
133.774,133.845
130.494,130.662
127.85,127.991
126.241,126.328
120.355,120.653
116.662,116.862
117.64,117.602
119.12,119.044
121.058,120.957
120.977,120.976
121.005,121.004
149.32,147.904
161.057,160.399
160.533,160.526
157.455,157.609
151.71,152.005
147.439,147.667
144.901,145.039
139.896,140.153
134.955,135.215
128.323,128.668
119.795,120.239
113.083,113.441
112.483,112.531
111.852,111.886
107.837,108.039
104.694,104.861
104.199,104.232
104.113,104.119
104.145,104.143
127.595,126.423
122.631,122.82
119.683,119.84
115.943,116.138
113.864,113.977
116.718,116.581
114.738,114.83
113.412,113.483
114.34,114.297
114.868,114.84
119.824,119.575
124.642,124.389
120.163,120.374
116.442,116.638
118.211,118.133
116.674,116.747
114.516,114.628
112.46,112.568
110.138,110.26
108.142,108.247
106.275,106.374
104.667,104.752
109.975,109.714
112.031,111.915
114.016,113.911
116.068,115.96
141.298,140.031
139.743,139.757
140.258,140.233
140.696,140.673
140.665,140.666
137.684,137.833
150.152,149.536
156.463,156.117
154.89,154.951
151.509,151.681
148.365,148.531
142.995,143.272
138.495,138.734
133.999,134.236
129.919,130.135
126.601,126.777
123.569,123.73
115.817,116.213
113.274,113.421
110.792,110.923
109.366,109.444
109.792,109.774
110.486,110.45
111.703,111.64
114.721,114.567
117.425,117.282
119.995,119.86
122.673,122.532
120.994,121.071
138.779,137.894
147.438,146.961
150.064,149.909
151.6,151.516
150.85,150.883
148.45,148.572
145.098,145.272
142.021,142.183
139.203,139.352
137.377,137.475
135.937,136.014
134.86,134.918
133.024,133.118
129.494,129.675
125.432,125.644
123.609,123.711
122.083,122.164
120.896,120.959
120.287,120.32
121.701,121.632
123.669,123.567
121.438,121.544
138.796,137.934
145.952,145.551
143.887,143.97
145.605,145.523
144.405,144.461
143.735,143.772
140.787,140.936
137.103,137.295
133.711,133.891
131.694,131.804
129.64,129.749
143.569,142.878
147.158,146.944
145.926,145.977
148.917,148.77
149.818,149.765
146.818,146.965
141.93,142.182
136.715,136.988
131.862,132.118
127.714,127.934
122.593,122.86
117.665,117.925
111.407,111.733
105.864,106.158
128.158,127.058
122.444,122.675
117.727,117.974
114.543,114.715
113.944,113.983
113.014,113.062
112.781,112.795
112.636,112.644
135.831,134.672
129.777,130.022
126.619,126.789
124.872,124.968
122.783,122.893
122.039,122.082
141.61,140.634
151.9,151.337
149.061,149.174
144.318,144.561
139.281,139.545
134.748,134.988
130.639,130.857
150.055,149.095
144.651,144.873
140.949,141.145
137.069,137.273
133.998,134.161
131.277,131.421
129.384,129.486
145.909,145.088
148.751,148.568
149.37,149.329
146.424,146.569
141.707,141.95
136.853,137.108
133.03,133.233
129.56,129.744
127.012,127.149
143.677,142.851
153.64,153.101
150.797,150.912
146.461,146.683
141.592,141.847
136.618,136.88
133.57,133.735
127.502,127.814
126.116,126.2
122.86,123.027
120.144,120.288
117.973,118.088
119.557,119.484
119.245,119.257
139.054,138.065
152.817,152.08
148.244,148.436
144.783,144.966
141.056,141.252
138.294,138.442
136.453,136.553
135.271,135.335
134.725,134.756
133.721,133.773
132.272,132.347
130.147,130.257
126.612,126.794
124.989,125.08
121.452,121.633
119.841,119.931
118.379,118.457
117.535,117.581
118.934,118.866
119.012,119.005
139.674,138.64
151.692,151.039
158.202,157.844
156.399,156.472
152.889,153.068
148.222,148.464
143.157,143.422
138.527,138.771
130.929,131.321
122.679,123.111
116.272,116.614
114.516,114.621
112.981,113.063
112.381,112.415
112.042,112.061
112.318,112.306
136.568,135.355
154.082,153.146
155.199,155.097
154.39,154.426
151.565,151.708
148.249,148.422
144.287,144.494
139.525,139.773
134.819,135.067
131.827,131.989
129.679,129.794
127.583,127.694
122.32,122.588
117.332,117.594
112.855,113.092
106.983,107.288
103.305,103.505
98.5023,98.7524
96.6673,96.7715
95.6513,95.7074
94.9788,95.0152
95.8647,95.8222
99.4325,99.252
102.811,102.633
108.043,107.773
112.823,112.571
116.858,116.644
115.352,115.417
137.809,136.69
152.816,152.009
158.549,158.222
150.117,150.523
152.466,152.368
152.29,152.294
153.25,153.202
150.71,150.835
146.855,147.054
142.625,142.846
138.204,138.436
134.275,134.483
126.7,127.089
119.186,119.581
113.483,113.788
112.348,112.42
112.517,112.512
112.937,112.915
111.423,111.498
113.878,113.759
113.094,113.127
112.411,112.447
112.558,112.553
111.838,111.874
113.305,113.233
112.457,112.496
111.275,111.336
110.322,110.373
109.048,109.115
108.519,108.549
108.135,108.156
108.53,108.511
110.755,110.642
112.265,112.183
114.09,113.995
115.877,115.783
118.617,118.475
121.155,121.021
123.26,123.148
125.629,125.505
141.627,140.821
145.653,145.412
147.357,147.26
148.857,148.777
149.298,149.272
149.165,149.17
147.717,147.79
146.3,146.375
145.204,145.263
143.751,143.826
141.413,141.533
138.373,138.531
135.082,135.254
131.081,131.29
127.194,127.399
123.788,123.968
120.865,121.02
119.456,119.535
118.482,118.535
118.212,118.228
119.942,119.856
121.306,121.234
123.109,123.015
125.366,125.248
145.513,144.499
154.113,153.633
152.248,152.317
149.088,149.25
145.775,145.949
142.825,142.982
139.722,139.885
136.747,136.904
150.391,149.717
152.329,152.198
152.092,152.098
152.429,152.413
149.407,149.558
150.923,150.855
146.212,146.444
149.24,149.101
152.569,152.395
144.954,145.326
153.443,153.037
143.517,143.993
149.615,149.334
152.296,152.148
150.633,150.709
144.534,144.843
137.879,138.227
131.779,132.101
126.584,126.86
125.078,125.167
124.167,124.217
