Normal data,Filtered data
77.7728,77.7728
78.3824,78.3519
78.229,78.2351
78.7364,78.7113
78.638,78.6416
77.0496,77.1292
75.1242,75.2244
75.5391,75.5233
77.128,77.0477
78.3967,78.3292
76.0721,76.1849
75.9086,75.9224
75.9632,75.9612
76.2497,76.2353
76.2593,76.2581
75.8598,75.8797
86.915,86.3632
84.2624,84.3674
82.5622,82.6524
82.8891,82.8773
81.3577,81.4337
78.9595,79.0832
77.4928,77.5723
74.4383,74.595
72.2123,72.3315
74.2123,74.1183
77.5264,77.356
80.2492,80.1045
78.6144,78.6889
77.828,77.871
89.8488,89.2499
104.879,104.098
98.7369,99.005
93.135,93.4285
88.0838,88.3511
85.8939,86.0168
84.0716,84.1689
82.4934,82.5772
81.6261,81.6737
81.5616,81.5672
80.413,80.4707
78.2301,78.3421
79.0124,78.9789
79.1957,79.1848
77.4571,77.5435
75.6744,75.7678
74.101,74.1844
74.9921,74.9517
75.4253,75.4016
82.6046,82.2445
82.1255,82.1314
81.5416,81.5711
80.8827,80.9171
80.0717,80.114
81.4976,81.4284
81.0383,81.0578
80.5676,80.5921
79.502,79.5565
79.231,79.2473
80.3458,80.2909
81.1531,81.11
84.9274,84.7365
87.6756,87.5286
86.6623,86.7056
86.6378,86.6412
87.7846,87.7275
86.5592,86.6176
87.8094,87.7498
88.8538,88.7986
90.0475,89.985
87.7286,87.8415
87.5214,87.5374
86.6487,86.6931
86.4037,86.4182
85.9048,85.9304
89.9097,89.7107
86.9534,87.0913
83.8133,83.9772
80.4296,80.607
78.3925,78.5032
77.3221,77.3812
86.829,86.3566
97.5936,97.0317
92.9649,93.1682
89.3918,89.5806
85.9209,86.1039
82.0382,82.2415
78.0655,78.2743
74.6133,74.7964
71.9527,72.0949
69.6915,69.8117
68.2656,68.3429
66.8143,66.8907
66.4127,66.4366
66.3463,66.3508
67.414,67.3608
68.7486,68.6792
69.8984,69.8374
70.4209,70.3918
70.4492,70.4463
71.1624,71.1265
71.3558,71.3444
71.249,71.2538
72.3976,72.3404
80.7834,80.3613
93.0762,92.4404
103.546,102.991
99.0033,99.2027
94.6093,94.8389
90.5823,90.7951
87.2753,87.4513
84.4703,84.6193
82.3964,82.5075
79.9376,80.0661
77.7945,77.9081
76.026,76.1201
75.3585,75.3966
75.1914,75.2017
74.417,74.4562
73.9676,73.9921
73.7012,73.7157
73.3129,73.333
72.8326,72.8576
71.6695,71.7289
70.9011,70.9425
70.9465,70.9463
77.3496,77.0294
89.6483,89.0173
85.7876,85.9491
98.7621,98.1215
93.5468,93.7755
90.1494,90.3307
87.96,88.0785
86.4432,86.5249
85.2138,85.2793
82.9886,83.1032
81.3805,81.4667
92.6067,92.0497
102.072,101.571
106.951,106.682
107.291,107.26
104.586,104.72
101.959,102.097
99.3862,99.5218
96.6202,96.7653
94.6839,94.7879
92.8643,92.9605
91.0849,91.1787
89.5496,89.631
88.6838,88.7312
88.4485,88.4626
95.1036,94.7715
93.1158,93.1986
91.2703,91.3667
89.5725,89.6622
87.7269,87.8237
87.4677,87.4855
87.0062,87.0302
86.7938,86.8057
92.9599,92.6522
92.455,92.4648
91.8344,91.8659
89.8896,89.9884
88.7239,88.7871
87.5499,87.6117
95.6146,95.2144
101.933,101.597
98.5231,98.6768
93.5791,93.834
88.4154,88.6864
83.6555,83.9071
79.7583,79.9658
91.7962,91.2047
87.9651,88.1271
85.5247,85.6548
83.3223,83.4389
82.9103,82.9367
82.6459,82.6604
82.0173,82.0495
91.9116,91.4185
101.441,100.94
96.7695,96.978
93.4883,93.6628
91.1436,91.2696
89.0755,89.1852
87.2673,87.3632
85.1813,85.2904
83.3276,83.4257
92.2725,91.8302
100.274,99.8522
96.516,96.6828
91.9946,92.229
88.4072,88.5983
86.0512,86.1786
83.4904,83.6248
81.0055,81.1365
79.4819,79.5646
77.2581,77.3734
76.4398,76.4865
75.4268,75.4798
75.0314,75.0538
74.084,74.1325
80.6414,80.3159
92.0468,91.4603
87.8073,87.9899
85.4166,85.5452
84.0158,84.0923
82.0557,82.1575
80.8759,80.94
79.3564,79.4356
77.9838,78.0564
77.3568,77.3918
76.9922,77.0122
77.0363,77.0351
77.0796,77.0774
76.9942,76.9984
75.0997,75.1947
73.6459,73.7234
72.2859,72.3578
71.2451,71.3007
70.9339,70.9523
70.0805,70.1241
80.6132,80.0888
96.3051,95.4943
110.048,109.32
106.252,106.406
101.627,101.866
97.548,97.7639
93.5278,93.7396
89.3027,89.5246
83.9806,84.2578
79.4337,79.6749
77.1117,77.2399
74.9835,75.0963
73.595,73.6701
72.1274,72.2046
70.7579,70.8302
69.7446,69.7989
82.2315,81.6098
98.5581,97.7107
106.914,106.454
102.965,103.139
99.8567,100.021
96.661,96.829
92.9083,93.1044
89.3288,89.5176
85.7392,85.9281
82.1748,82.3625
79.0583,79.2235
77.0138,77.1242
76.0838,76.1358
75.1121,75.1633
74.095,74.1484
73.9259,73.937
73.4462,73.4708
73.0304,73.0525
72.5341,72.56
71.8794,71.9134
71.6382,71.652
71.6563,71.6561
73.6245,73.5261
75.3198,75.2301
76.4412,76.3806
77.3572,77.3084
78.2654,78.2175
77.0972,77.1532
83.7993,83.467
94.5007,93.949
100.666,100.33
102.86,102.734
101.78,101.827
101.34,101.364
101.511,101.504
99.3098,99.4195
95.3225,95.5274
91.3483,91.5573
87.3518,87.5621
83.2195,83.4366
80.4907,80.638
78.0517,78.181
78.8754,78.8407
77.9701,78.0136
77.518,77.5428
76.6367,76.682
74.6823,74.7823
73.9595,74.0007
72.2327,72.3211
70.9534,71.0218
68.1569,68.3001
66.7217,66.8006
67.1925,67.1729
68.1912,68.1403
69.3581,69.2972
70.2857,70.2363
70.7462,70.7207
71.7564,71.7046
72.0212,72.0054
73.4617,73.3888
74.5743,74.515
76.2117,76.1269
77.4801,77.4124
78.7147,78.6496
79.9063,79.8434
80.3852,80.3581
82.0557,81.9709
82.8068,82.765
91.1679,90.7477
100.725,100.226
106.79,106.462
103.659,103.799
100.961,101.103
97.861,98.0231
94.9768,95.1291
91.3584,91.5469
87.7351,87.9257
84.5569,84.7253
81.2226,81.3977
78.8522,78.9795
77.1542,77.2454
76.5356,76.571
75.4946,75.5484
74.4997,74.5522
74.5779,74.5766
74.8736,74.8588
74.9899,74.9833
74.7901,74.7998
74.7467,74.7493
74.1866,74.2148
72.7906,72.8618
70.9237,71.0206
77.1679,76.8605
91.9433,91.1891
88.8857,89.0008
86.454,86.5813
83.963,84.0939
82.3857,82.4711
81.166,81.2313
78.9808,79.0934
91.131,90.5292
103.056,102.429
99.25,99.409
93.2724,93.5792
87.2488,87.5653
103.179,102.398
112.491,111.987
114.174,114.065
113.218,113.26
111.632,111.714
112.431,112.395
111.301,111.355
108.743,108.874
105.678,105.838
101.81,102.011
99.7651,99.8774
95.4106,95.634
91.852,92.0411
88.2222,88.4131
84.2808,84.4874
81.4681,81.619
