Normal data,Filtered data
77.7728,77.7728
78.3824,77.8033
78.229,77.8246
78.7364,77.8702
78.638,77.9086
77.0496,77.8656
75.1242,77.7285
75.5391,77.6191
77.128,77.5945
78.3967,77.6346
76.0721,77.5565
75.9086,77.4741
75.9632,77.3985
76.2497,77.3411
76.2593,77.287
75.8598,77.2157
86.915,77.7006
84.2624,78.0287
82.5622,78.2554
82.8891,78.4871
81.3577,78.6306
78.9595,78.647
77.4928,78.5893
74.4383,78.3818
72.2123,78.0733
74.2123,77.8802
77.5264,77.8626
80.2492,77.9819
78.6144,78.0135
77.828,78.0042
89.8488,78.5965
104.879,79.9106
98.7369,80.8519
93.135,81.4661
88.0838,81.797
85.8939,82.0018
84.0716,82.1053
82.4934,82.1247
81.6261,82.0998
81.5616,82.0729
80.413,81.9899
78.2301,81.8019
79.0124,81.6624
79.1957,81.5391
77.4571,81.335
75.6744,81.0519
74.101,80.7044
74.9921,80.4188
75.4253,80.1691
82.6046,80.2909
82.1255,80.3826
81.5416,80.4406
80.8827,80.4627
80.0717,80.4431
81.4976,80.4958
81.0383,80.523
80.5676,80.5252
79.502,80.474
79.231,80.4119
80.3458,80.4086
81.1531,80.4458
84.9274,80.6699
87.6756,81.0202
86.6623,81.3023
86.6378,81.569
87.7846,81.8798
86.5592,82.1138
87.8094,82.3986
88.8538,82.7213
90.0475,83.0876
87.7286,83.3197
87.5214,83.5298
86.6487,83.6857
86.4037,83.8216
85.9048,83.9258
89.9097,84.225
86.9534,84.3614
83.8133,84.334
80.4296,84.1387
78.3925,83.8514
77.3221,83.525
86.829,83.6902
97.5936,84.3853
92.9649,84.8143
89.3918,85.0432
85.9209,85.0871
82.0382,84.9346
78.0655,84.5912
74.6133,84.0923
71.9527,83.4853
69.6915,82.7956
68.2656,82.0691
66.8143,81.3064
66.4127,80.5617
66.3463,79.8509
67.414,79.2291
68.7486,78.705
69.8984,78.2647
70.4209,77.8725
70.4492,77.5014
71.1624,77.1844
71.3558,76.893
71.249,76.6108
72.3976,76.4001
80.7834,76.6193
93.0762,77.4421
103.546,78.7473
99.0033,79.7601
94.6093,80.5026
90.5823,81.0066
87.2753,81.32
84.4703,81.4775
82.3964,81.5234
79.9376,81.4442
77.7945,81.2617
76.026,80.9999
75.3585,80.7178
75.1914,80.4415
74.417,80.1403
73.9676,79.8316
73.7012,79.5251
73.3129,79.2145
72.8326,78.8954
71.6695,78.5341
70.9011,78.1525
70.9465,77.7922
77.3496,77.77
89.6483,78.3639
85.7876,78.7351
98.7621,79.7365
93.5468,80.427
90.1494,80.9131
87.96,81.2654
86.4432,81.5243
85.2138,81.7088
82.9886,81.7728
81.3805,81.7532
92.6067,82.2958
102.072,83.2846
106.951,84.468
107.291,85.6091
104.586,86.558
101.959,87.328
99.3862,87.9309
96.6202,88.3654
94.6839,88.6813
92.8643,88.8905
91.0849,89.0002
89.5496,89.0277
88.6838,89.0105
88.4485,88.9824
95.1036,89.2884
93.1158,89.4798
91.2703,89.5693
89.5725,89.5695
87.7269,89.4773
87.4677,89.3769
87.0062,89.2583
86.7938,89.1351
92.9599,89.3263
92.455,89.4828
91.8344,89.6004
89.8896,89.6148
88.7239,89.5703
87.5499,89.4692
95.6146,89.7765
101.933,90.3843
98.5231,90.7913
93.5791,90.9306
88.4154,90.8049
83.6555,90.4474
79.7583,89.913
91.7962,90.0071
87.9651,89.905
85.5247,89.686
83.3223,89.3678
82.9103,89.0449
82.6459,88.725
82.0173,88.3896
91.9116,88.5657
101.441,89.2094
96.7695,89.5874
93.4883,89.7825
91.1436,89.8505
89.0755,89.8118
87.2673,89.6846
85.1813,89.4594
83.3276,89.1528
92.2725,89.3088
100.274,89.8571
96.516,90.19
91.9946,90.2803
88.4072,90.1866
86.0512,89.9798
83.4904,89.6553
81.0055,89.2229
79.4819,88.7358
77.2581,88.1619
76.4398,87.5758
75.4268,86.9684
75.0314,86.3715
74.084,85.7571
80.6414,85.5014
92.0468,85.8286
87.8073,85.9276
85.4166,85.902
84.0158,85.8077
82.0557,85.6201
80.8759,85.3829
79.3564,85.0816
77.9838,84.7267
77.3568,84.3582
76.9922,83.9899
77.0363,83.6422
77.0796,83.3141
76.9942,82.9981
75.0997,82.6031
73.6459,82.1553
72.2859,81.6618
71.2451,81.141
70.9339,80.6306
70.0805,80.1031
80.6132,80.1286
96.3051,80.9374
110.048,82.393
106.252,83.5859
101.627,84.488
97.548,85.141
93.5278,85.5603
89.3027,85.7475
83.9806,85.6591
79.4337,85.3478
77.1117,84.936
74.9835,84.4384
73.595,83.8962
72.1274,83.3078
70.7579,82.6803
69.7446,82.0335
82.2315,82.0434
98.5581,82.8691
106.914,84.0714
102.965,85.016
99.8567,85.7581
96.661,86.3032
92.9083,86.6335
89.3288,86.7682
85.7392,86.7168
82.1748,86.4897
79.0583,86.1181
77.0138,85.6629
76.0838,85.1839
75.1121,84.6803
74.095,84.1511
73.9259,83.6398
73.4462,83.1301
73.0304,82.6251
72.5341,82.1206
71.8794,81.6085
71.6382,81.11
71.6563,80.6373
73.6245,80.2867
75.3198,80.0383
76.4412,79.8585
77.3572,79.7334
78.2654,79.66
77.0972,79.5319
83.7993,79.7452
94.5007,80.483
100.666,81.4921
102.86,82.5606
101.78,83.5215
101.34,84.4124
101.511,85.2674
99.3098,85.9695
95.3225,86.4371
91.3483,86.6827
87.3518,86.7161
83.2195,86.5413
80.4907,86.2388
78.0517,85.8294
78.8754,85.4817
77.9701,85.1061
77.518,84.7267
76.6367,84.3222
74.6823,83.8402
73.9595,83.3462
72.2327,82.7905
70.9534,82.1987
68.1569,81.4966
66.7217,80.7578
67.1925,80.0796
68.1912,79.4851
69.3581,78.9788
70.2857,78.5441
70.7462,78.1542
71.7564,77.8343
72.0212,77.5437
73.4617,77.3396
74.5743,77.2013
76.2117,77.1518
77.4801,77.1682
78.7147,77.2456
79.9063,77.3786
80.3852,77.5289
82.0557,77.7553
82.8068,78.0079
91.1679,78.6659
100.725,79.7688
106.79,81.1199
103.659,82.2468
100.961,83.1825
97.861,83.9165
94.9768,84.4695
91.3584,84.8139
87.7351,84.96
84.5569,84.9398
81.2226,84.754
78.8522,84.4589
77.1542,84.0936
76.5356,83.7157
75.4946,83.3047
74.4997,82.8644
74.5779,82.4501
74.8736,82.0713
74.9899,81.7172
74.7901,81.3708
74.7467,81.0396
74.1866,80.697
72.7906,80.3017
70.9237,79.8328
77.1679,79.6995
91.9433,80.3117
88.8857,80.7404
86.454,81.0261
83.963,81.1729
82.3857,81.2336
81.166,81.2302
78.9808,81.1177
91.131,81.6184
103.056,82.6903
99.25,83.5182
93.2724,84.006
87.2488,84.1681
103.179,85.1186
112.491,86.4873
114.174,87.8716
113.218,89.1389
111.632,90.2636
112.431,91.372
111.301,92.3684
108.743,93.1871
105.678,93.8117
101.81,94.2116
99.7651,94.4892
95.4106,94.5353
91.852,94.4011
88.2222,94.0922
84.2808,93.6016
81.4681,92.9949
