Normal data,Filtered data
121.782,121.782
125.725,121.979
127.174,122.239
127.845,122.519
128.118,122.799
126.165,122.968
126.895,123.164
126.593,123.336
127.688,123.553
128.316,123.791
127.312,123.967
125.524,124.045
129.052,124.295
131.796,124.67
135.941,125.234
131.999,125.572
149.928,126.79
146.656,127.783
144.516,128.62
142.792,129.329
138.762,129.8
132.845,129.952
131.334,130.022
133.327,130.187
133.691,130.362
136.205,130.654
135.975,130.92
135.495,131.149
134.515,131.317
133.157,131.409
155.132,132.595
166.458,134.288
164.485,135.798
159.933,137.005
160.176,138.164
153.823,138.947
153.034,139.651
147.196,140.028
145.47,140.3
142.642,140.417
137.034,140.248
132.19,139.845
133.732,139.54
134.627,139.294
132.833,138.971
129.063,138.476
129.763,138.04
126.548,137.465
126.505,136.917
132.242,136.684
132.817,136.49
138.998,136.616
140.591,136.814
139.057,136.927
141.734,137.167
138.766,137.247
136.099,137.189
138.24,137.242
140.13,137.386
141.886,137.611
143.583,137.91
147.436,138.386
148.213,138.878
145.26,139.197
139.34,139.204
137.174,139.102
138.062,139.05
139.579,139.077
143.451,139.295
147.155,139.688
150.625,140.235
150.665,140.757
149.644,141.201
148.539,141.568
147.181,141.849
161.289,142.821
156.805,143.52
158.45,144.266
156.536,144.88
154.744,145.373
149.818,145.595
151.063,145.869
144.169,145.784
143.935,145.691
146.195,145.717
145.716,145.716
141.842,145.523
142.651,145.379
140.729,145.147
138.884,144.833
137.06,144.445
135.164,143.981
128.289,143.196
127.466,142.41
130.956,141.837
131.903,141.34
134.872,141.017
135.257,140.729
135.457,140.465
140.162,140.45
141.962,140.526
143.318,140.665
144.295,140.847
139.849,140.797
146.877,141.101
146.16,141.354
137.175,141.145
139.784,141.077
139.877,141.017
138.96,140.914
141.781,140.957
141.652,140.992
146.013,141.243
149.573,141.66
152.217,142.188
151.722,142.664
149.528,143.007
144.357,143.075
142.278,143.035
143.965,143.082
143.387,143.097
142.639,143.074
141.727,143.007
145.219,143.117
145.624,143.243
140.344,143.098
149.325,143.409
157.769,144.127
157.346,144.788
161.375,145.617
164.966,146.585
164.457,147.478
159.759,148.092
152.193,148.297
149.288,148.347
146.409,148.25
141.085,147.892
153.949,148.195
158.231,148.696
152.35,148.879
151.676,149.019
148.441,148.99
144.508,148.766
138.43,148.249
136.959,147.685
135.496,147.075
133.884,146.416
128.745,145.532
127.075,144.609
124.561,143.607
124.474,142.65
120.865,141.561
121.779,140.572
122.343,139.66
122.6,138.807
124.97,138.116
126.725,137.546
127.969,137.067
127.094,136.568
139.039,136.692
138.483,136.782
139.457,136.915
140,137.07
140.037,137.218
137.893,137.252
149.404,137.859
146.407,138.287
148.171,138.781
146.301,139.157
146.169,139.508
145.398,139.802
144.357,140.03
158.955,140.976
157.805,141.818
157.187,142.586
155.808,143.247
151.723,143.671
147.749,143.875
143.913,143.877
165.583,144.962
171.336,146.281
171.986,147.566
168.831,148.629
160.966,149.246
157.439,149.656
151.413,149.743
145.982,149.555
141.248,149.14
157.005,149.533
149.63,149.538
150.201,149.571
149.192,149.552
147.308,149.44
143.295,149.133
142.965,148.824
138.224,148.294
139.695,147.864
138.764,147.409
135.651,146.822
132.831,146.122
132.587,145.445
131.653,144.756
141.908,144.613
139.815,144.373
141.436,144.226
143.075,144.169
143.907,144.156
142.74,144.085
144.716,144.116
144.394,144.13
143.692,144.108
143.049,144.055
140.838,143.895
140.894,143.745
138.647,143.49
139.91,143.311
137.056,142.998
137.842,142.74
136.692,142.438
135.386,142.085
137.794,141.871
135.709,141.563
152.75,142.122
163.768,143.204
151.868,143.637
153.094,144.11
149.24,144.367
148.479,144.572
147.02,144.695
143.151,144.618
135.367,144.155
136.229,143.759
134.706,143.306
135.85,142.933
134.403,142.507
133.082,142.036
131.743,141.521
130.208,140.955
145.834,141.199
155.624,141.92
150.864,142.368
153.053,142.902
154.746,143.494
155.145,144.077
156.334,144.689
154.433,145.177
149.93,145.414
150.1,145.649
149.915,145.862
149.25,146.031
144.123,145.936
142.288,145.753
143.015,145.617
142.062,145.439
146.399,145.487
146.746,145.55
150.755,145.81
147.995,145.919
145.446,145.896
144.624,145.832
143.898,145.735
140.827,145.49
142.388,145.335
143.581,145.247
144.189,145.194
139.767,144.923
146.576,145.006
146.821,145.096
137.527,144.718
154.433,145.204
153.363,145.612
153.739,146.018
148.372,146.136
147.24,146.191
145.287,146.146
141.463,145.911
137.839,145.508
134.663,144.966
128.7,144.152
125.666,143.228
127.88,142.461
128.241,141.75
131.749,141.25
133.301,140.852
136.136,140.616
138.821,140.527
138.675,140.434
138.339,140.329
138.018,140.214
137.449,140.075
137.063,139.925
133.295,139.593
132.198,139.224
132.168,138.871
134.332,138.644
139.667,138.695
144.829,139.002
145.562,139.33
148.311,139.779
150.561,140.318
149.702,140.787
148.779,141.187
155.189,141.887
157.984,142.692
156.933,143.404
158.193,144.143
170.903,145.481
162.531,146.334
156.908,146.862
162.54,147.646
165.727,148.55
164.855,149.366
163.549,150.075
161.49,150.645
158.995,151.063
156.213,151.32
149.968,151.253
147.339,151.057
142.707,150.64
140.925,150.154
142.547,149.774
144.374,149.504
141.985,149.128
141.549,148.749
140.942,148.358
140.215,147.951
141.704,147.639
142.801,147.397
143.443,147.199
143.72,147.025
162.678,147.808
173.429,149.089
170.395,150.154
166.687,150.981
160.255,151.445
161.346,151.94
170.748,152.88
166.52,153.562
165.405,154.154
142.304,153.562
151.119,153.44
166.065,154.071
168.105,154.773
175.29,155.798
165.102,156.264
168.799,156.89
156.533,156.872
171.446,157.601
168.937,158.168
132.027,156.861
148.123,156.424
158.994,156.553
164.758,156.963
161.683,157.199
157.019,157.19
152.622,156.961
148.776,156.552
147.538,156.101
146.335,155.613
