Normal data,Filtered data
147.172,147.172
146.969,146.979
148.741,148.653
150.171,150.095
151.172,151.118
151.418,151.403
151.138,151.152
150.897,150.91
152.516,152.436
153.944,153.868
156.848,156.699
156.86,156.852
154.915,155.012
152.435,152.564
149.389,149.548
145.442,145.647
141.99,142.173
138.81,138.979
135.937,136.089
135.31,135.349
134.202,134.259
135.228,135.179
140.298,140.042
144.281,144.069
143.772,143.787
144.008,143.997
144.338,144.321
147.326,147.176
150.247,150.094
152.195,152.089
154.624,154.497
155.669,155.611
156.453,156.411
157.665,157.603
156.767,156.809
155.893,155.939
153.911,154.013
151.504,151.629
150.381,150.443
151.204,151.166
152.252,152.197
152.452,152.439
153.214,153.176
154.103,154.057
152.934,152.99
152.01,152.059
151.444,151.475
150.726,150.764
149.984,150.023
149.527,149.552
149.225,149.241
148.779,148.802
149.118,149.102
149.89,149.85
155.022,154.763
155.593,155.552
156.275,156.238
155.448,155.487
154.153,154.22
151.996,152.107
149.582,149.708
147.408,147.523
149.165,149.083
148.835,148.847
148.541,148.556
148.444,148.449
148.736,148.722
148.818,148.813
151.432,151.301
153.578,153.464
155.092,155.01
153.326,153.41
151.182,151.293
148.797,148.922
149.577,149.544
150.459,150.413
150.765,150.747
151.205,151.182
151.035,151.043
152.468,152.396
153.731,153.664
154.39,154.354
155.002,154.97
155.175,155.165
153.962,154.022
152.876,152.933
153.86,153.814
153.987,153.978
153.537,153.559
153.677,153.671
153.827,153.819
154.729,154.684
155.201,155.175
155.645,155.622
156.412,156.373
156.786,156.766
155.219,155.297
153.543,153.631
151.748,151.842
150.769,150.823
150.702,150.708
151.17,151.147
151.989,151.947
152.101,152.093
152.885,152.846
153.738,153.694
155.022,154.955
153.229,153.315
151.846,151.919
150.604,150.67
148.823,148.915
147.827,147.882
148.365,148.341
148.906,148.878
149.766,149.722
150.593,150.55
151.633,151.578
152.11,152.083
153.149,153.096
153.889,153.849
152.548,152.614
150.93,151.014
149.162,149.254
147.168,147.272
147.09,147.099
147.154,147.151
147.918,147.88
148.429,148.401
150.035,149.953
152.201,152.089
148.234,148.427
148.425,148.425
151.112,150.978
153.425,153.302
152.253,152.306
150.497,150.587
147.708,147.852
146.852,146.902
147.801,147.756
148.291,148.264
148.846,148.817
149.518,149.483
150.512,150.46
150.829,150.811
150.266,150.293
151.649,151.581
152.633,152.58
153.758,153.7
152.566,152.623
151.814,151.854
150.694,150.752
150.119,150.15
149.532,149.563
151.052,150.978
154.029,153.876
156.234,156.116
157.316,157.256
157.953,157.918
156.391,156.467
154.37,154.475
153.055,153.126
151.788,151.855
150.77,150.824
148.592,148.703
147.903,147.943
147.36,147.389
147.567,147.558
146.609,146.657
148.663,148.563
149.426,149.382
149.735,149.717
149.098,149.128
146.401,146.537
146.515,146.516
148.21,148.125
149.472,149.404
149.885,149.861
150.366,150.341
150.77,150.748
149.316,149.387
156.247,155.904
155.076,155.118
156.656,156.579
157.512,157.465
156.944,156.97
156.143,156.184
155.187,155.236
154.532,154.567
154.118,154.141
153.639,153.664
156.316,156.184
155.318,155.362
154.772,154.802
155.142,155.125
154.756,154.774
154.846,154.842
154.568,154.581
154.216,154.234
154.972,154.935
155.093,155.085
154.283,154.323
154.539,154.528
154.864,154.847
155.777,155.73
155.743,155.743
155.455,155.47
156.042,156.013
156.26,156.248
156.171,156.174
155.079,155.134
155.013,155.019
153.368,153.45
152.959,152.984
153.147,153.139
153.04,153.045
151.119,151.215
151.931,151.895
146.967,147.213
146.757,146.779
147.919,147.862
149.394,149.317
150.636,150.57
151.674,151.619
151.933,151.918
152.587,152.553
153.483,153.437
155.696,155.583
155.705,155.699
156.543,156.501
157.295,157.255
157.661,157.64
157.876,157.864
156.934,156.981
156.378,156.408
149.991,150.312
149.508,149.549
149.028,149.054
146.773,146.887
149.629,149.492
151.548,151.446
151.165,151.179
150.432,150.469
151.7,151.638
153.402,153.314
154.791,154.717
154.652,154.655
154.349,154.364
152.401,152.499
150.273,150.385
150.408,150.407
150.769,150.751
151.294,151.267
150.79,150.813
151.893,151.839
152.587,152.55
150.708,150.8
147.851,147.999
148.176,148.167
148.067,148.072
149.103,149.051
150.293,150.231
151.064,151.022
151.977,151.929
152.542,152.511
153.965,153.892
154.099,154.089
153.359,153.396
151.134,151.247
148.595,148.728
148.977,148.964
149.718,149.68
150.095,150.074
150.93,150.887
150.971,150.967
151.231,151.218
151.867,151.835
152.442,152.412
153.458,153.406
152.295,152.351
151.243,151.298
149.67,149.751
146.185,146.363
145.297,145.351
146.659,146.594
147.159,147.131
148.143,148.092
149.565,149.491
150.795,150.73
151.48,151.443
151.506,151.503
153.089,153.01
155.251,155.139
153.902,153.964
154.603,154.571
153.439,153.496
151.639,151.732
149.672,149.775
148.245,148.322
147.394,147.44
147.625,147.615
147.711,147.706
147.938,147.926
149.316,149.246
150.974,150.888
149.938,149.986
149.434,149.461
148.182,148.246
148.777,148.751
148.437,148.453
149.533,149.479
150.755,150.691
152.098,152.028
153.419,153.35
154.232,154.188
154.873,154.838
153.604,153.665
151.624,151.726
149.215,149.341
147.136,147.246
145.757,145.831
146.52,146.486
145.786,145.821
145.643,145.652
146.294,146.262
148.029,147.941
149.373,149.302
151.213,151.117
151.044,151.048
150.059,150.108
149.639,149.663
148.675,148.724
147.446,147.51
146.832,146.866
147.508,147.476
147.441,147.443
148.581,148.524
150.276,150.188
151.715,151.639
153.361,153.275
155.357,155.253
155.774,155.748
156.86,156.804
155.845,155.893
153.677,153.787
151.963,152.054
149.613,149.735
149.446,149.461
149.638,149.629
149.07,149.098
150.771,150.687
152.739,152.636
153.528,153.483
154.976,154.901
155.791,155.746
156.786,156.734
153.756,153.905
152.288,152.369
151.073,151.138
151.108,151.11
151.154,151.151
151.325,151.316
152.091,152.052
153.62,153.541
153.342,153.352
152.408,152.455
153.154,153.119
153.375,153.362
151.852,151.928
149.759,149.867
148.705,148.763
147.154,147.235
146.942,146.956
146.146,146.186
145.596,145.626
145.432,145.442
145.813,145.795
144.708,144.762
143.767,143.817
144.121,144.105
145.776,145.693
145.049,145.082
145.709,145.678
146.025,146.008
145.921,145.926
148.809,148.665
150.302,150.22
150.194,150.195
148.431,148.519
146.72,146.81
146.044,146.082
145.838,145.85
146.161,146.146
145.514,145.545
144.32,144.381
143.739,143.771
144.414,144.382
145.571,145.512
146.852,146.785
149.844,149.691
148.964,149
149.234,149.223
148.373,148.415
148.383,148.385
148.201,148.21
148.569,148.551
149.378,149.336
150.344,150.294
151.473,151.414
152.32,152.274
152.535,152.522
153.033,153.007
151.707,151.772
149.351,149.472
147.102,147.22
146.192,146.243
145.737,145.762
145.727,145.728
145.805,145.802
145.233,145.262
144.312,144.36
143.405,143.453
142.465,142.514
143.834,143.768
145.121,145.053
149.994,149.747
149.696,149.698
149.101,149.131
148.679,148.702
147.036,147.12
144.361,144.499
143.128,143.197
142.883,142.899
141.827,141.88
140.954,141
141.981,141.932
143.895,143.797
145.134,145.067
147.547,147.423
148.774,148.706
148.38,148.396
147.09,147.155
145.538,145.619
