Normal data,Filtered data
139.948,139.948
146.721,146.383
152.437,152.134
157.257,157.001
159.893,159.748
160.035,160.02
166.297,165.983
167.895,167.799
167.554,167.566
167.451,167.457
164.213,164.375
165.602,165.541
165.72,165.711
166.538,166.496
166.702,166.692
167.044,167.026
168.446,168.375
168.553,168.544
167.676,167.719
167.713,167.713
167.703,167.704
165.976,166.063
166.615,166.587
166.216,166.234
166.743,166.717
162.342,162.561
156.333,156.644
149.86,150.199
154.517,154.301
155.149,155.107
154.097,154.148
146.205,146.602
146.253,146.271
157.43,156.872
162.021,161.764
164.899,164.743
168.391,168.209
161.408,161.748
165.115,164.947
165.64,165.606
170.705,170.45
167.029,167.2
162.3,162.545
153.924,154.355
149.427,149.674
154.974,154.709
164.404,163.92
167.394,167.221
169.098,169.004
170.58,170.501
168.279,168.39
165.78,165.91
167.13,167.069
169.023,168.926
171.088,170.98
172.612,172.53
170.538,170.637
172.556,172.46
173.167,173.132
174.782,174.699
176.012,175.947
176.454,176.429
174.965,175.038
168.945,169.249
170.778,170.701
172.399,172.314
172.988,172.954
168.432,168.658
170.212,170.135
171.794,171.711
174.014,173.899
173.097,173.138
172.351,172.39
173.433,173.381
174.263,174.219
169.824,170.044
163.889,164.197
157.289,157.635
160.272,160.14
165.224,164.969
168.463,168.288
163.15,163.407
161.191,161.302
164.065,163.926
168.293,168.075
165.907,166.015
158.339,158.723
162.125,161.955
169.015,168.662
170.917,170.805
162.958,163.35
166.774,166.603
169.331,169.195
164.943,165.155
158.072,158.426
161.971,161.794
168.314,167.988
167.901,167.905
166.679,166.74
158.035,158.47
158.529,158.526
157.492,157.544
162.627,162.373
169.052,168.718
159.12,159.6
166.871,166.507
172.946,172.624
174.205,174.126
160.146,160.845
161.81,161.762
168.065,167.75
170.687,170.54
172.537,172.437
166.195,166.507
164.551,164.648
167.709,167.556
169.738,169.629
163.739,164.033
164.843,164.802
165,164.99
158.422,158.75
162.361,162.18
168.267,167.963
167.729,167.741
160.003,160.39
163.635,163.473
167.073,166.893
169.281,169.161
162.286,162.63
163.771,163.714
166.366,166.234
168.072,167.98
164.442,164.619
160.363,160.575
164.571,164.371
167.807,167.635
160.483,160.84
167.605,167.266
173.138,172.845
171.788,171.841
165.747,166.052
171.532,171.258
171.568,171.552
170.93,170.961
174.955,174.756
167.377,167.746
167.032,167.068
166.971,166.976
168.241,168.178
163.54,163.772
162.684,162.738
163.333,163.303
163.289,163.29
166.025,165.888
160.438,160.71
165.815,165.56
166.301,166.264
167.54,167.476
164.561,164.707
165.491,165.452
168.346,168.201
165.603,165.733
168.887,168.73
161.806,162.152
165.367,165.207
167.965,167.827
167.343,167.367
160.415,160.762
158.627,158.734
164.986,164.674
167.125,167.003
169.659,169.526
163.566,163.864
164.82,164.772
167.863,167.708
168.613,168.567
168.577,168.576
173.138,172.91
166.434,166.758
172.057,171.792
174.283,174.158
175.349,175.289
170.256,170.507
175.233,174.996
178.389,178.219
177,177.061
174.265,174.405
174.846,174.824
165.275,165.753
165.46,165.475
166.105,166.074
170.305,170.094
168.529,168.607
167.272,167.339
163.723,163.904
157.444,157.767
159.687,159.591
160.763,160.705
162.98,162.866
163.698,163.656
163.869,163.858
163.485,163.504
162.409,162.464
157.2,157.463
152.722,152.959
150.357,150.487
149.633,149.676
147.838,147.93
152.07,151.863
153.472,153.391
161.215,160.823
164.065,163.903
169.987,169.683
173.673,173.474
174.21,174.173
177.547,177.378
178.43,178.377
174.437,174.634
175.057,175.036
175.626,175.597
177.069,176.995
176.729,176.742
176.065,176.099
176.527,176.505
176.479,176.48
173.598,173.742
170.116,170.297
169.926,169.945
169.964,169.963
170.33,170.312
167.997,168.113
165.919,166.029
164.16,164.254
162.725,162.801
161.596,161.656
160.745,160.791
160.113,160.147
159.669,159.693
159.467,159.478
159.429,159.432
159.529,159.524
159.743,159.732
160.04,160.025
160.454,160.432
160.868,160.847
161.253,161.233
161.625,161.605
167.227,166.946
169.518,169.39
171.271,171.177
172.557,172.488
173.444,173.396
173.652,173.639
173.876,173.864
173.798,173.801
173.395,173.415
171.518,171.613
169.321,169.435
166.731,166.867
164.219,164.351
161.923,162.044
159.857,159.967
158.022,158.12
156.413,156.499
155.021,155.095
153.789,153.854
152.759,152.814
