Normal data,Filtered data
140.873,140.873
145.343,145.119
147.741,147.61
149.931,149.815
150.63,150.589
152.321,152.234
154.18,154.083
155.438,155.37
155.448,155.444
155.367,155.371
155.543,155.535
155.488,155.491
156.37,156.326
156.067,156.08
156.316,156.304
154.965,155.032
153.625,153.695
152.162,152.238
152.017,152.028
153.503,153.429
154.996,154.918
152.994,153.09
153.568,153.544
154.799,154.736
155.634,155.589
155.641,155.638
153.426,153.537
150.239,150.404
149.01,149.08
149.233,149.225
150.395,150.336
146.805,146.982
145.679,145.745
145.742,145.742
145.957,145.946
146.97,146.919
149.891,149.742
147.516,147.627
148.597,148.548
149.794,149.732
152.152,152.031
152.234,152.224
152.452,152.44
149.925,150.05
147.931,148.037
149.739,149.654
151.853,151.743
151.96,151.949
152.016,152.012
153.566,153.488
155.518,155.416
154.271,154.328
153.742,153.771
154.891,154.835
154.583,154.596
155.145,155.117
153.38,153.467
152.583,152.627
152.521,152.526
152.085,152.107
151.441,151.474
150.84,150.872
151.026,151.019
164.801,164.112
163.269,163.311
161.148,161.256
159.559,159.644
157.477,157.585
157.387,157.396
156.324,156.378
156.014,156.032
156.545,156.52
154.055,154.178
153.351,153.392
154.02,153.988
156.21,156.099
153.796,153.911
151.311,151.441
150.246,150.306
150.903,150.873
151.625,151.588
150.175,150.246
150.612,150.594
150.658,150.655
152.47,152.379
155.376,155.226
153.137,153.242
152.53,152.566
152.361,152.372
153.089,153.053
151.499,151.577
150.999,151.028
150.552,150.576
149.527,149.579
147.927,148.01
148.733,148.697
149.655,149.607
150.338,150.302
152.676,152.557
150.26,150.375
153.166,153.027
149.964,150.117
150.196,150.192
149.043,149.1
147.321,147.41
150.628,150.467
153.106,152.974
154.151,154.092
150.388,150.573
152.028,151.955
154.512,154.384
154.342,154.344
154.765,154.744
153.065,153.149
153.352,153.342
153.188,153.196
154.007,153.967
152.962,153.013
153.791,153.752
154.854,154.799
152.845,152.943
153.192,153.179
154.758,154.679
155.131,155.108
152.825,152.939
152.326,152.357
152.213,152.221
154.426,154.316
151.594,151.73
151.358,151.377
151.5,151.494
154.852,154.684
153.51,153.569
152.948,152.979
152.649,152.665
152.228,152.249
150.756,150.83
152.162,152.096
153.396,153.331
154.831,154.756
153.29,153.364
154.069,154.033
153.62,153.641
154.093,154.071
154.89,154.849
153.391,153.464
153.897,153.875
154.7,154.659
156.196,156.119
154.731,154.8
154.85,154.847
155.956,155.9
157.218,157.153
157.217,157.214
155.829,155.899
156.296,156.276
156.011,156.025
155.644,155.663
155.04,155.072
154.853,154.864
155.251,155.232
156.403,156.344
157.758,157.687
155.455,155.567
154.397,154.456
153.466,153.516
153.248,153.261
150.464,150.604
149.039,149.118
151.264,151.157
153.651,153.526
154.667,154.61
152.306,152.421
151.732,151.767
151.595,151.603
151.703,151.698
151.176,151.202
153.079,152.985
150.28,150.415
151.871,151.798
152.236,152.214
153.253,153.201
152.136,152.189
152.473,152.459
153.165,153.129
154.422,154.357
155.611,155.549
154.466,154.52
155.191,155.158
154.99,154.998
154.258,154.295
154.094,154.104
155.514,155.443
155.436,155.436
154.754,154.788
152.526,152.639
150.353,150.468
151.001,150.975
151.77,151.731
151.447,151.461
153.024,152.945
154.465,154.389
155.837,155.765
155.833,155.83
156.052,156.041
155.673,155.691
156.444,156.407
154.753,154.836
154.697,154.704
152.801,152.896
152.833,152.836
150.802,150.904
153.835,153.689
156.903,156.743
155.778,155.826
156.452,156.421
156.946,156.92
159.577,159.445
159.521,159.518
159.568,159.566
159.776,159.765
157.201,157.329
157.288,157.29
154.081,154.242
154.416,154.407
160.505,160.2
164.398,164.188
163.022,163.08
162.189,162.234
161.979,161.992
165.827,165.636
167.779,167.672
167.749,167.745
167.979,167.967
168.057,168.053
168.32,168.307
167.581,167.617
166.966,166.999
166.618,166.637
166.534,166.539
166.264,166.277
165.828,165.851
165.683,165.692
166.579,166.535
166.669,166.662
166.45,166.46
166.147,166.163
164.817,164.884
165.379,165.355
164.941,164.962
164.601,164.619
164.428,164.438
162.841,162.921
161.539,161.608
160.247,160.315
162.307,162.208
164.26,164.157
165.704,165.627
166.913,166.848
167.439,167.409
167.655,167.643
167.642,167.642
167.427,167.438
167.139,167.154
166.945,166.956
166.577,166.596
166.24,166.258
