Normal data,Filtered data
145.928,145.928
145.163,145.889
144.572,145.824
144.102,145.738
144.2,145.661
143.262,145.541
143.209,145.424
144.142,145.36
144.383,145.311
144.616,145.276
142.221,145.124
140.959,144.915
140.592,144.699
142.416,144.585
145.03,144.607
145.594,144.657
145.457,144.697
144.926,144.708
144.146,144.68
143.011,144.597
142.565,144.495
141.685,144.354
142.291,144.251
143.325,144.205
145.697,144.28
139.88,144.06
141.792,143.946
140.836,143.791
141.585,143.68
143.178,143.655
144.875,143.716
144.462,143.754
143.304,143.731
143.093,143.699
143.52,143.69
143.607,143.686
145.668,143.785
137.744,143.483
140.857,143.352
142.778,143.323
143.648,143.339
143.579,143.351
143.844,143.376
143.948,143.405
143.975,143.433
144.523,143.488
142.929,143.46
142.329,143.403
143.908,143.428
142.804,143.397
142.577,143.356
142.457,143.311
142.791,143.285
142.993,143.271
140.836,143.149
139.126,142.948
138.821,142.741
138.239,142.516
139.093,142.345
140.222,142.239
141.367,142.195
142.714,142.221
143.59,142.29
144.807,142.415
145.178,142.554
144.439,142.648
145.644,142.798
146.512,142.983
146.048,143.137
145.166,143.238
143.896,143.271
145.462,143.381
143.603,143.392
142.885,143.366
144.88,143.442
143.459,143.443
141.43,143.342
140.368,143.194
137.489,142.908
136.741,142.6
136.3,142.285
141.387,142.24
143.409,142.299
142.033,142.285
143.034,142.323
143.679,142.39
144.605,142.501
142.75,142.514
140.739,142.425
139.952,142.301
137.16,142.044
138.705,141.877
140.557,141.811
146.131,142.027
143.812,142.116
144.067,142.214
144.22,142.314
145.113,142.454
142.736,142.468
140.612,142.375
140.135,142.263
141.159,142.208
145.115,142.354
145.548,142.513
145.479,142.661
146.458,142.851
146.401,143.029
146.692,143.212
146.774,143.39
145.929,143.517
144.9,143.586
144.569,143.635
143.895,143.648
143.826,143.657
145.091,143.729
146.216,143.853
148.99,144.11
149.747,144.392
148.986,144.622
148.931,144.837
149.252,145.058
149.386,145.274
149.406,145.481
148.308,145.622
148.747,145.778
148.875,145.933
145.849,145.929
143.965,145.831
147.847,145.932
144.921,145.881
144.938,145.834
144.984,145.791
147.484,145.876
146.252,145.895
145.28,145.864
144.395,145.791
144.279,145.715
144.612,145.66
143.52,145.553
142.947,145.423
144.331,145.368
144.781,145.339
145.111,145.327
144.903,145.306
144.981,145.29
143.661,145.208
142.758,145.086
143.366,145
143.59,144.929
144.497,144.908
145.642,144.944
144.106,144.902
141.399,144.727
141.112,144.546
143.453,144.492
145.194,144.527
143.403,144.471
142.913,144.393
143.423,144.344
144.378,144.346
142.971,144.277
144.038,144.265
144.886,144.296
145.013,144.332
144.566,144.344
143.598,144.307
144.007,144.292
145.085,144.331
147,144.465
145.318,144.507
146.075,144.586
146.674,144.69
146.748,144.793
146.049,144.856
146.286,144.927
146.541,145.008
146.593,145.087
146.839,145.175
145.305,145.181
142.748,145.06
141.07,144.86
139.904,144.612
139.339,144.349
138.143,144.039
139.433,143.808
142.273,143.731
143.903,143.74
146.816,143.894
146.693,144.034
147.073,144.186
145.733,144.263
144.276,144.264
142.875,144.194
143.466,144.158
145.178,144.209
146.356,144.316
147.14,144.457
146.411,144.555
145.883,144.621
145.75,144.678
145.082,144.698
145.715,144.749
146.517,144.837
145.255,144.858
143.575,144.794
142.346,144.672
141.1,144.493
140.814,144.309
141.596,144.173
142.62,144.096
142.14,143.998
142.323,143.914
142.237,143.83
142.538,143.766
142.333,143.694
140.727,143.546
138.21,143.279
138.69,143.049
136.33,142.714
133.577,142.257
134.442,141.866
134.806,141.513
137.648,141.32
137.953,141.151
138.311,141.009
138.437,140.881
140.54,140.864
141.01,140.871
140.945,140.875
140.739,140.868
139.217,140.785
139.052,140.699
138.893,140.608
140.111,140.583
140.25,140.567
141.441,140.611
142.453,140.703
143.55,140.845
142.843,140.945
142.305,141.013
142.784,141.101
142.811,141.187
143.144,141.285
142.825,141.362
143.685,141.478
141.838,141.496
142.274,141.535
136.601,141.288
138.73,141.16
141.258,141.165
141.208,141.167
141.261,141.172
142.334,141.23
142.114,141.274
140.569,141.239
140.653,141.21
140.194,141.159
138.161,141.009
137.677,140.842
137.82,140.691
140.656,140.689
139.844,140.647
142.237,140.727
143.456,140.863
143.728,141.006
143.589,141.136
143.231,141.24
142.445,141.301
142.087,141.34
141.35,141.34
141.944,141.371
142.367,141.42
143.476,141.523
143.441,141.619
144.733,141.775
145.53,141.962
144.939,142.111
145.032,142.257
144.89,142.389
143.991,142.469
142.66,142.479
140.26,142.368
137.468,142.123
135.537,141.793
134.653,141.436
135.427,141.136
135.381,140.848
135.48,140.58
137.889,140.445
138.848,140.365
139.615,140.328
141.516,140.387
141.732,140.455
140.061,140.435
139.011,140.364
137.529,140.222
138.762,140.149
137.708,140.027
137.577,139.904
138.195,139.819
134.714,139.564
137.208,139.446
137.81,139.364
138.024,139.297
139.738,139.319
140.55,139.381
139.508,139.387
139.795,139.407
141.022,139.488
139.956,139.512
140.233,139.548
140.611,139.601
141.046,139.673
142.427,139.811
142.335,139.937
141.932,140.037
142.107,140.14
142.872,140.277
142.403,140.383
140.919,140.41
140.952,140.437
138.71,140.351
137.348,140.2
136.273,140.004
138.403,139.924
138.143,139.835
139.095,139.798
141.575,139.887
142.627,140.024
143.218,140.184
142.947,140.322
142.957,140.454
142.857,140.574
142.981,140.694
143.059,140.812
142.618,140.903
141.689,140.942
142.916,141.041
143.263,141.152
144.236,141.306
144.387,141.46
144.582,141.616
142.874,141.679
141.113,141.651
140.342,141.585
140.567,141.534
139.559,141.436
140.741,141.401
140.788,141.37
141.525,141.378
142.225,141.42
140.859,141.392
140.3,141.338
139.897,141.266
138.618,141.133
138.27,140.99
138.932,140.887
141.149,140.9
139.209,140.816
140.414,140.796
142.263,140.869
144.576,141.054
143.855,141.194
142.643,141.267
142.548,141.331
142.63,141.396
142.008,141.426
141.538,141.432
141.732,141.447
140.861,141.418
139.544,141.324
139.44,141.23
141.679,141.252
142.106,141.295
143.383,141.399
145.211,141.59
146.469,141.834
147.009,142.093
146.424,142.309
146.132,142.5
145.633,142.657
145.145,142.781
144.792,142.882
144.756,142.976
144.305,143.042
143.637,143.072
143.522,143.094
143.01,143.09
142.934,143.082
142.709,143.064
142.649,143.043
142.592,143.02
142.418,142.99
143.157,142.999
141.322,142.915
140.14,142.776
137.958,142.535
137.774,142.297
136.021,141.983
135.861,141.677
136.804,141.433
140.35,141.379
143.288,141.475
143.735,141.588
143.477,141.682
142.895,141.743
143.481,141.83
143.105,141.894
142.267,141.912
142.827,141.958
143.653,142.043
143.604,142.121
143.39,142.184
143.696,142.26
145.39,142.416
145.202,142.556
144.751,142.665
144.46,142.755
144.807,142.858
143.749,142.902
144.181,142.966
143.754,143.006
142.883,142.999
143.432,143.021
144.731,143.107
144.604,143.181
144.725,143.259
144.569,143.324
144.935,143.405
145.15,143.492
145.109,143.573
143.973,143.593
143.357,143.581
141.217,143.463
139.816,143.28
139.212,143.077
138.835,142.865
138.703,142.657
141.513,142.6
142.94,142.617
145.38,142.755
146.327,142.933
147.003,143.137
148.011,143.381
147.161,143.57
146.028,143.693
144.733,143.745
144.496,143.782
143.806,143.783
142.702,143.729
143.076,143.697
142.614,143.642
142.653,143.593
142.171,143.522
140.458,143.369
138.996,143.15
138.706,142.928
138.612,142.712
137.312,142.442
138.729,142.256
139.493,142.118
137.917,141.908
137.999,141.713
139.262,141.59
139.687,141.495
140.095,141.425
141.998,141.454
141.244,141.443
140.158,141.379
139.959,141.308
140.408,141.263
142.809,141.34
143.804,141.463
144.803,141.63
139.459,141.522
139.713,141.431
139.498,141.335
139.035,141.22
140.726,141.195
141.464,141.208
142.322,141.264
142.962,141.349
143.429,141.453
144.801,141.62
147.045,141.892
147.121,142.153
147.912,142.441
148.955,142.767
148.281,143.042
146.346,143.208
145.355,143.315
144.462,143.372
144.899,143.449
145.078,143.53
144.107,143.559
143.628,143.562
144.135,143.591
143.33,143.578
143.507,143.574
141.896,143.491
142.032,143.418
142.627,143.378
140.383,143.228
140.159,143.075
140.955,142.969
140.245,142.833
138.967,142.639
136.439,142.329
136.823,142.054
137.96,141.849
139.116,141.713
139.094,141.582
140.107,141.508
141.039,141.485
140.172,141.419
138.683,141.282
138.479,141.142
139.168,141.043
139.386,140.96
138.36,140.83
138.27,140.702
138.888,140.612
140.097,140.586
140.297,140.571
141.152,140.601
141.067,140.624
142.22,140.704
141.836,140.76
141.963,140.82
141.362,140.847
141.082,140.859
141.838,140.908
141.348,140.93
139.273,140.847
138.582,140.734
137.884,140.592
137.473,140.436
137.233,140.275
139.655,140.244
140.851,140.275
141.254,140.324
140.922,140.354
141.693,140.421
141.917,140.495
141.128,140.527
139.419,140.472
138.448,140.37
137.323,140.218
136.872,140.051
138.026,139.95
139.765,139.94
