Normal data,Filtered data
141.478,141.478
144.923,141.65
148.149,141.975
150.99,142.426
152.792,142.944
155.974,143.595
157.168,144.274
157.476,144.934
157.852,145.58
156.119,146.107
154.066,146.505
153.365,146.848
153.721,147.192
154.471,147.556
155.516,147.954
156.199,148.366
157.578,148.827
157.583,149.264
157.956,149.699
158.4,150.134
158.27,150.541
157.47,150.887
156.97,151.191
155.85,151.424
155.454,151.626
150.992,151.594
154.124,151.721
159.107,152.09
162.103,152.591
162.52,153.087
159.869,153.426
154.971,153.503
153.732,153.515
154.27,153.553
156.211,153.686
156.199,153.811
155.306,153.886
157.922,154.088
159.754,154.371
160.7,154.687
160.913,154.999
160.601,155.279
158.822,155.456
156.205,155.493
156.118,155.525
156.47,155.572
156.521,155.619
155.482,155.613
154.073,155.536
151.541,155.336
151.139,155.126
150.688,154.904
152.054,154.762
147.804,154.414
148.307,154.108
151.279,153.967
152.114,153.874
152.877,153.824
153.035,153.785
152.957,153.743
150.94,153.603
150.29,153.438
150.686,153.3
151.131,153.192
151.276,153.096
151.007,152.991
152.7,152.977
153.753,153.016
154.15,153.072
154.431,153.14
153.156,153.141
150.162,152.992
149.82,152.833
150.001,152.692
145.748,152.345
147.832,152.119
153.141,152.17
155.509,152.337
156.141,152.527
155.782,152.69
154.745,152.793
155.072,152.907
154.098,152.966
153.681,153.002
154.219,153.063
151.095,152.964
148.458,152.739
149.647,152.585
153.169,152.614
156.193,152.793
156.108,152.959
153.233,152.972
151.34,152.891
151.88,152.84
153.549,152.876
152.686,152.866
153.957,152.921
151.892,152.869
152.572,152.854
155.208,152.972
154.991,153.073
152.928,153.066
153.864,153.106
153.808,153.141
151.947,153.081
152.421,153.048
152.744,153.033
152.438,153.003
152.321,152.969
148.174,152.729
147.912,152.488
147.701,152.249
150.434,152.158
153.031,152.202
154.301,152.307
154.819,152.433
151.522,152.387
146.614,152.098
142.595,151.623
138.564,150.97
141.807,150.512
139.848,149.979
145.984,149.779
151.207,149.851
153.787,150.047
154.973,150.294
154.803,150.519
153.96,150.691
152.584,150.786
153.361,150.915
154.781,151.108
153.894,151.247
152.009,151.285
154.92,151.467
157.698,151.779
158.539,152.117
158.408,152.431
157.901,152.705
156.987,152.919
156.25,153.085
155.733,153.218
155.745,153.344
155.935,153.474
155.495,153.575
154.99,153.645
155.501,153.738
157.088,153.906
157.18,154.069
156.378,154.185
154.487,154.2
152.171,154.099
152.063,153.997
153.646,153.979
154.45,154.003
154.668,154.036
151.443,153.906
152.427,153.832
153.323,153.807
153.668,153.8
155.073,153.864
152.503,153.796
151.281,153.67
150.973,153.535
150.97,153.407
150.899,153.281
152.779,153.256
155.782,153.383
157.123,153.57
156.914,153.737
156.259,153.863
154.599,153.9
154.895,153.949
153.302,153.917
153.275,153.885
150.913,153.736
147.576,153.428
145.028,153.008
145.651,152.641
147.537,152.385
152.843,152.408
155.782,152.577
156.811,152.789
156.42,152.97
155.518,153.098
154.021,153.144
154.092,153.191
154.078,153.236
154.278,153.288
154.891,153.368
154.03,153.401
152.709,153.366
154.275,153.412
155.087,153.496
155.819,153.612
155.496,153.706
154.918,153.767
151.856,153.671
147.322,153.354
148.117,153.092
148.711,152.873
150.136,152.736
151.515,152.675
151.369,152.61
150.67,152.513
151.73,152.473
155.129,152.606
156.131,152.782
156.904,152.989
158.107,153.244
157.625,153.463
155.84,153.582
154.463,153.626
152.272,153.559
149.67,153.364
151.02,153.247
150.395,153.104
150.631,152.981
150.762,152.87
154.057,152.929
155.386,153.052
155.068,153.153
153.491,153.17
151.842,153.103
151.671,153.032
152.076,152.984
154.13,153.041
154.489,153.113
153.545,153.135
155.769,153.267
157.718,153.489
160.157,153.823
162.069,154.235
161.769,154.612
162.34,154.998
159.904,155.243
158.414,155.402
157.52,155.508
157.191,155.592
157.987,155.712
159.356,155.894
159.397,156.069
160.756,156.303
161.106,156.544
159.198,156.676
157.595,156.722
155.65,156.669
154.461,156.558
150.879,156.274
153.045,156.113
155.827,156.099
158.429,156.215
160.924,156.45
161.332,156.695
160.042,156.862
158.872,156.962
158.231,157.026
157.774,157.063
156.455,157.033
155.706,156.967
155.434,156.89
154.336,156.762
153.065,156.577
152.05,156.351
151.483,156.108
151.762,155.89
151.989,155.695
151.027,155.462
152.354,155.306
153.508,155.217
156.294,155.27
157.651,155.389
158.005,155.52
157.267,155.608
155.368,155.596
153.062,155.469
150.11,155.201
147.306,154.806
145.22,154.327
144.666,153.844
145.105,153.407
148.917,153.182
150.11,153.029
151.632,152.959
155.147,153.068
157.005,153.265
158.375,153.521
156.372,153.663
155.211,153.741
154.271,153.767
154.392,153.798
156.177,153.917
157.735,154.108
158.559,154.331
157.347,154.481
158.482,154.682
159.319,154.913
159.506,155.143
158.656,155.319
156.883,155.397
155.983,155.426
152.143,155.262
155.164,155.257
158.88,155.438
161.575,155.745
163.701,156.143
165.019,156.587
164.447,156.98
163.511,157.306
162.148,157.548
160.736,157.708
159.891,157.817
158.63,157.858
158.252,157.877
157.129,157.84
156.36,157.766
156.595,157.707
156.78,157.661
157.023,157.629
157.587,157.627
157.825,157.637
157.482,157.629
155.853,157.54
155.639,157.445
154.762,157.311
153.942,157.143
151.628,156.867
149.772,156.512
149.454,156.159
149.759,155.839
149.46,155.52
149.087,155.199
151.706,155.024
154.522,154.999
157.141,155.106
158.451,155.273
159.118,155.465
156.038,155.494
152.119,155.325
149.735,155.046
151.277,154.857
152.737,154.751
149.945,154.511
152.29,154.4
156.248,154.492
157.74,154.655
157.908,154.817
157.213,154.937
156.561,155.018
155.463,155.041
154.753,155.026
154.16,154.983
153.997,154.934
153.929,154.883
153.583,154.818
155.971,154.876
158.307,155.047
159.442,155.267
157.956,155.402
156.088,155.436
155.529,155.441
155.002,155.419
154.483,155.372
155.11,155.359
157.031,155.442
158.248,155.583
158.9,155.749
159.519,155.937
157.797,156.03
157.079,156.082
157.505,156.154
157.695,156.231
157.808,156.31
156.871,156.338
155.441,156.293
153.278,156.142
151.767,155.923
149.56,155.605
152.875,155.469
153.047,155.347
153.332,155.247
152.916,155.13
154.361,155.092
155.137,155.094
157.656,155.222
159.083,155.415
158.409,155.565
156.855,155.629
156.137,155.655
155.399,155.642
154.857,155.603
153.996,155.522
154.893,155.491
155.359,155.484
155.706,155.495
155.715,155.506
158.663,155.664
158.679,155.815
158.064,155.927
157.156,155.989
155.494,155.964
155.405,155.936
155.58,155.918
156.137,155.929
155.186,155.892
153.606,155.778
154.843,155.731
155.267,155.708
154.041,155.624
155.289,155.608
156.645,155.66
158.507,155.802
158.565,155.94
157.851,156.036
156.249,156.046
155.075,155.998
152.805,155.838
150.562,155.574
148.204,155.206
149.724,154.932
151.003,154.735
150.982,154.548
153.299,154.485
155.392,154.531
157.671,154.688
158.005,154.853
156.985,154.96
154.846,154.954
152.734,154.843
150.539,154.628
148.464,154.32
147.845,153.996
148.383,153.715
151.095,153.584
152.016,153.506
155.062,153.584
156.352,153.722
156.686,153.87
153.811,153.867
150.476,153.698
148.222,153.424
146.231,153.064
144.403,152.631
144.29,152.214
145.659,151.886
146.606,151.622
149.694,151.526
152.309,151.565
153.928,151.683
153.27,151.763
149.071,151.628
145.639,151.329
147.172,151.121
149.236,151.027
148.575,150.904
150.778,150.898
152.29,150.967
155.005,151.169
156.519,151.437
156.796,151.705
155.156,151.877
154.79,152.023
154.193,152.131
153.242,152.187
153.116,152.233
153.57,152.3
154.289,152.4
154.991,152.529
153.813,152.593
155.005,152.714
156.741,152.915
157.419,153.141
157.093,153.338
155.39,153.441
154.898,153.514
148.128,153.244
152.385,153.201
157.085,153.396
160.432,153.747
163.098,154.215
162.948,154.652
162.976,155.068
161.721,155.4
160.209,155.641
159.398,155.829
158.556,155.965
157.613,156.047
155.499,156.02
153.587,155.898
152.353,155.721
151.479,155.509
151.51,155.309
151.503,155.119
151.053,154.915
152.034,154.771
154.695,154.768
156.366,154.848
157.774,154.994
157.755,155.132
157.219,155.236
156.12,155.28
152.666,155.15
150.635,154.924
148.54,154.605
148.206,154.285
148.076,153.974
151.869,153.869
152.623,153.807
157.321,153.983
159.252,154.246
160.738,154.571
160.182,154.851
159.396,155.078
159.086,155.279
160.988,155.564
162.192,155.896
161.913,156.197
160.939,156.434
159.704,156.597
160.162,156.775
161.675,157.02
162.119,157.275
160.557,157.439
157.049,157.42
155.923,157.345
156.62,157.309
155.868,157.237
156.344,157.192
157.506,157.208
159.847,157.34
161.868,157.566
162.079,157.792
161.34,157.969
159.612,158.051
159.863,158.142
160.027,158.236
160.671,158.358
159.828,158.431
158.847,158.452
157.927,158.426
154.876,158.248
153.632,158.018
152.718,157.753
153.395,157.535
153.889,157.352
154.647,157.217
153.194,157.016
153.982,156.864
155.937,156.818
156.339,156.794
156.472,156.778
154.803,156.679
