Normal data,Filtered data
169.657,169.657
170.94,169.721
171.364,169.804
173.283,169.978
172.409,170.099
173.171,170.253
172.62,170.371
171.273,170.416
169.399,170.365
165.197,170.107
155.971,169.4
151.727,168.516
149.005,167.541
146.89,166.508
149.47,165.656
151.971,164.972
152.017,164.324
151.934,163.705
157.656,163.402
160.031,163.234
162.027,163.173
156.73,162.851
150.743,162.246
146.093,161.438
139.304,160.331
138.571,159.243
143.856,158.474
148.551,157.978
150.508,157.604
152.081,157.328
153.408,157.132
157.535,157.152
154.13,157.001
152.344,156.768
148.981,156.379
148.429,155.982
155.952,155.98
160.544,156.208
164.441,156.62
165.036,157.041
165.479,157.463
165.773,157.878
165.852,158.277
168.843,158.805
170.617,159.396
171.377,159.995
170.542,160.522
165.407,160.766
162.776,160.867
157.745,160.711
153.35,160.343
150.002,159.826
147.672,159.218
151.899,158.852
157.748,158.797
157.845,158.749
161.811,158.902
165.067,159.211
165.155,159.508
167.84,159.924
173.921,160.624
174.061,161.296
172.373,161.85
169.035,162.209
162.97,162.247
154.31,161.85
152.08,161.362
150.831,160.835
154.015,160.494
156.591,160.299
156.444,160.106
156.261,159.914
156.266,159.732
153.96,159.443
157.069,159.324
159.37,159.327
161.802,159.45
162.268,159.591
162.251,159.724
162.244,159.85
162.158,159.966
156.899,159.812
153.55,159.499
149.43,158.996
146.493,158.371
149.046,157.904
151.055,157.562
152.564,157.312
152.55,157.074
152.943,156.867
153.583,156.703
151.08,156.422
150.676,156.135
154.065,156.031
158.376,156.148
160.971,156.39
158.358,156.488
160.577,156.692
163.639,157.04
166.22,157.499
165.148,157.881
167.762,158.375
167.435,158.828
167.214,159.248
169.706,159.77
171.371,160.35
165.498,160.608
160.99,160.627
155.255,160.358
150.483,159.865
147.175,159.23
151.266,158.832
154.59,158.62
157.703,158.574
160.078,158.649
162.323,158.833
162.058,158.994
161.229,159.106
163.293,159.315
168.177,159.758
166.385,160.09
164.152,160.293
162.894,160.423
159.57,160.38
156.892,160.206
153.65,159.878
151.767,159.472
151.539,159.076
152.724,158.758
154.928,158.567
155.063,158.391
155.838,158.264
156.191,158.16
156.651,158.085
161.43,158.252
163.668,158.523
162.081,158.701
159.111,158.721
156.643,158.617
155.995,158.486
153.979,158.261
154.756,158.085
152.237,157.793
148.086,157.308
146.998,156.792
151.019,156.504
146.137,155.985
142.803,155.326
142.535,154.687
143.037,154.104
149.485,153.873
154.726,153.916
159.272,154.184
160.615,154.505
161.368,154.848
161.792,155.195
165.127,155.692
164.255,156.12
163.028,156.466
159.386,156.612
155.956,156.579
148.987,156.199
143.552,155.567
141.029,154.84
139.507,154.073
145.054,153.622
147.229,153.303
147.16,152.995
146.871,152.689
149.805,152.545
152.093,152.522
153.959,152.594
155.387,152.734
153.757,152.785
158.551,153.073
165.057,153.673
164.715,154.225
161.305,154.579
158.155,154.758
156.091,154.824
151.184,154.642
153.462,154.583
152.798,154.494
157.239,154.631
161.227,154.961
162.327,155.329
163.086,155.717
169.706,156.417
172.039,157.198
176.104,158.143
176.6,159.066
167.776,159.501
159.203,159.486
154.378,159.231
151.029,158.821
148.447,158.302
151.206,157.947
157.736,157.937
161.249,158.102
161.855,158.29
162.055,158.478
162.032,158.656
168.368,159.142
170.184,159.694
173.869,160.402
170.62,160.913
161.777,160.956
154.511,160.634
148.926,160.049
150.857,159.589
149.678,159.094
153.93,158.835
155.321,158.66
156.36,158.545
163.271,158.781
166.331,159.159
168.755,159.638
170.414,160.177
165.532,160.445
154.889,160.167
150.177,159.668
146.712,159.02
149.214,158.529
153.178,158.262
154.564,158.077
155.577,157.952
156.377,157.873
160.377,157.998
163.711,158.284
169.3,158.835
173.272,159.557
164.789,159.818
159.998,159.827
156.194,159.646
158.016,159.564
164.225,159.797
167.504,160.183
170.304,160.689
169.419,161.125
168.637,161.501
170.732,161.962
172.202,162.474
173.485,163.025
176.983,163.723
178.246,164.449
173.769,164.915
168.557,165.097
161.039,164.894
159.037,164.601
156.969,164.22
160.179,164.018
162.895,163.961
165.131,164.02
164.798,164.059
164.136,164.063
169.713,164.345
171.051,164.68
171.953,165.044
174.541,165.519
174.6,165.973
166.828,166.016
160.952,165.763
155.959,165.272
156.524,164.835
157.425,164.464
160.377,164.26
160.577,164.076
160.631,163.904
167.077,164.062
169.129,164.316
170.872,164.643
175.355,165.179
177.996,165.82
177.773,166.418
175.887,166.891
167.365,166.915
159.605,166.549
159.468,166.195
160.052,165.888
157.375,165.462
159.997,165.189
159.754,164.917
159.475,164.645
159.244,164.375
165.262,164.42
167.275,164.562
174.73,165.071
174.477,165.541
164.315,165.48
156.401,165.026
152.324,164.391
153.995,163.871
152.144,163.285
155.714,162.906
159.15,162.718
159.447,162.555
166.387,162.746
168.777,163.048
170.59,163.425
171.798,163.844
174.64,164.383
174.914,164.91
169.307,165.13
161.624,164.954
156.796,164.547
154.815,164.06
156.597,163.687
159.961,163.501
160.532,163.352
160.78,163.224
167.162,163.42
169.531,163.726
171.222,164.101
172.385,164.515
172.614,164.92
161.089,164.728
154.192,164.202
150.074,163.495
146.681,162.654
150.819,162.063
154.367,161.678
155.416,161.365
156.458,161.119
160.553,161.091
164.126,161.243
167.061,161.534
169.084,161.911
172.418,162.437
163.667,162.498
156.725,162.209
155.504,161.874
153.5,161.456
157.183,161.242
160.547,161.207
161.2,161.207
161.597,161.226
165.438,161.437
168.336,161.782
170.247,162.205
177.796,162.985
176.648,163.668
174.914,164.23
167.603,164.399
161.503,164.254
156.559,163.869
154.378,163.395
157.811,163.115
154.842,162.702
151.881,162.161
155.909,161.848
156.323,161.572
159.961,161.491
163.16,161.575
172.399,162.116
161.471,162.084
155.923,161.776
151.816,161.278
148.481,160.638
149.028,160.057
149.548,159.532
154.455,159.278
158.638,159.246
158.842,159.226
159.184,159.224
163.024,159.414
165.812,159.734
155.993,159.547
150.896,159.114
147.364,158.527
152.154,158.208
156.93,158.144
160.948,158.284
161.875,158.464
165.714,158.826
165.514,159.161
168.632,159.634
170.928,160.199
175.731,160.976
175.506,161.702
168.548,162.044
168.126,162.348
167.964,162.629
173.156,163.156
174.555,163.726
176.2,164.349
177.304,164.997
175.688,165.532
176.578,166.084
173.869,166.473
174.12,166.855
173.982,167.212
169.781,167.34
163.16,167.131
157.422,166.646
154.752,166.051
154.031,165.45
160.088,165.182
166.062,165.226
168.625,165.396
170.446,165.648
168.435,165.788
166.449,165.821
171.943,166.127
175.87,166.614
175.398,167.053
166.612,167.031
165.649,166.962
164.564,166.842
170.279,167.014
172.132,167.27
173.439,167.578
171.151,167.757
168.862,167.812
166.623,167.753
164.403,167.585
172.788,167.845
172.282,168.067
164.813,167.905
158.852,167.452
158.339,166.996
158.01,166.547
157.389,166.089
160.86,165.828
164.051,165.739
166.631,165.783
165.251,165.757
164.114,165.675
163.005,165.541
176.611,166.095
177.824,166.681
175.526,167.123
171.209,167.328
169.662,167.444
169.311,167.538
170.876,167.705
169.365,167.788
171.292,167.963
172.992,168.214
170.967,168.352
168.7,168.369
169.803,168.441
176.675,168.853
175.884,169.204
169.487,169.218
162.657,168.89
159.663,168.429
162.683,168.142
161.779,167.823
167.998,167.832
170.292,167.955
171.982,168.157
169.514,168.224
170.942,168.36
168.75,168.38
169.903,168.456
170.29,168.548
169.889,168.615
161.881,168.278
153.126,167.52
148.882,166.588
152.781,165.898
162.708,165.739
167.65,165.834
169.779,166.031
174.071,166.433
175.512,166.887
174.305,167.258
175.266,167.659
175.609,168.056
175.056,168.406
170.113,168.491
163.418,168.238
159.841,167.818
162.342,167.544
164.755,167.405
164.069,167.238
169.692,167.361
171.54,167.569
169.79,167.68
167.887,167.691
175.356,168.074
173.641,168.352
167.261,168.298
162.707,168.018
159.807,167.608
160.495,167.252
161.131,166.946
166.411,166.919
170.779,167.112
172.375,167.375
173.674,167.69
171.904,167.901
170.129,168.012
171.406,168.182
172.167,168.381
172.164,168.571
171.342,168.709
166.659,168.607
163.251,168.339
157.899,167.817
155.418,167.197
158.756,166.775
157.793,166.326
158.227,165.921
158.434,165.547
155.029,165.021
159.069,164.723
162.541,164.614
165.044,164.635
156.495,164.228
150.082,163.521
146.932,162.692
144.745,161.794
149.472,161.178
150.672,160.653
149.629,160.102
154.567,159.825
156.308,159.649
164.372,159.885
171.52,160.467
177.548,161.321
174.416,161.976
174.401,162.597
174.715,163.203
174.711,163.778
169.916,164.085
161.502,163.956
154.578,163.487
150.983,162.862
152.829,162.36
151.465,161.815
155.201,161.485
158.735,161.347
161.967,161.378
168.747,161.747
171.308,162.225
173.32,162.779
174.645,163.373
165.007,163.454
157.75,163.169
153.73,162.697
155.193,162.322
158.822,162.147
161.868,162.133
161.966,162.125
168.336,162.435
170.705,162.849
172.495,163.331
176.486,163.989
178.335,164.706
174.901,165.216
170.546,165.482
165.569,165.487
159.411,165.183
159.54,164.901
160.055,164.659
162.11,164.531
164.162,164.513
168.891,164.732
168.164,164.903
167.391,165.028
172.637,165.408
176.69,165.972
178.009,166.574
176.294,167.06
174.172,167.416
170.292,167.559
164.566,167.41
159.468,167.013
159.513,166.638
157.034,166.157
154.34,165.567
157.478,165.162
158.067,164.807
158.171,164.476
164.807,164.492
167.362,164.636
169.428,164.875
173.128,165.288
175.157,165.781
173.874,166.186
169.74,166.364
163.605,166.226
161.106,165.97
156.774,165.51
157.868,165.128
160.395,164.891
162.927,164.793
162.745,164.691
162.68,164.59
168.406,164.781
170.554,165.07
172.062,165.419
172.857,165.791
163.551,165.679
160.404,165.415
155.313,164.91
153.352,164.332
156.888,163.96
160.188,163.771
160.557,163.611
160.962,163.478
164.167,163.513
167.518,163.713
170.157,164.035
172.202,164.443
173.257,164.884
175.032,165.392
172.931,165.768
166.865,165.823
161.265,165.595
156.703,165.151
157.834,164.785
163.011,164.696
159.77,164.45
156.621,164.059
159.898,163.851
159.983,163.657
159.748,163.462
163.075,163.442
165.578,163.549
158.669,163.305
153.177,162.799
151.396,162.229
150.124,161.623
154.808,161.283
158.83,161.16
162.798,161.242
162.764,161.318
162.715,161.388
162.356,161.436
165.433,161.636
174.273,162.268
171.798,162.744
168.859,163.05
160.355,162.915
159.851,162.762
157.241,162.486
155.091,162.116
158.375,161.929
161.438,161.905
164.088,162.014
163.499,162.088
163.155,162.142
168.989,162.484
161.714,162.445
155.954,162.121
147.741,161.402
146.369,160.65
147.274,159.981
145.314,159.248
140.708,158.321
136.596,157.235
139.333,156.34
141.527,155.599
146.116,155.125
150.964,154.917
148.812,154.612
148.058,154.284
143.634,153.751
142.463,153.187
143.21,152.688
145.516,152.329
154.091,152.418
159.622,152.778
164.54,153.366
165.42,153.969
166.094,154.575
166.394,155.166
163.809,155.598
159.171,155.777
155.582,155.767
154.97,155.727
160.082,155.945
164.168,156.356
167.952,156.936
174.727,157.825
177.302,158.799
173.193,159.519
173.068,160.196
173.467,160.86
171.853,161.409
170.987,161.888
174.407,162.514
173.13,163.045
166.871,163.236
166.241,163.387
163.31,163.383
160.314,163.229
162.329,163.184
164.24,163.237
163.554,163.253
168.791,163.53
170.354,163.871
171.667,164.261
172.735,164.685
173.242,165.112
175.553,165.634
175.71,166.138
170.5,166.356
166.316,166.354
161.034,166.088
161.06,165.837
162.989,165.694
170.514,165.935
174.53,166.365
172.96,166.695
171.655,166.943
172.733,167.232
173.401,167.541
164.911,167.409
159.834,167.031
156.916,166.525
154.502,165.924
157.845,165.52
160.874,165.287
163.6,165.203
163.066,165.096
162.493,164.966
168.862,165.161
173.769,165.591
177.125,166.168
177.416,166.73
175.937,167.191
172.7,167.466
169.343,167.56
166.339,167.499
168.558,167.552
170.548,167.702
172.016,167.917
173.155,168.179
171.634,168.352
169.976,168.433
171.543,168.589
172.929,168.806
175.881,169.159
176.554,169.529
172.372,169.671
166.108,169.493
160.436,169.04
162.69,168.723
164.623,168.518
166.218,168.403
165.261,168.246
164.257,168.046
169.341,168.111
170.792,168.245
171.902,168.428
172.72,168.642
174.904,168.956
173.037,169.16
172.447,169.324
169.63,169.339
166.501,169.197
163.801,168.928
160.928,168.528
163.018,168.252
161.75,167.927
161.374,167.599
163.786,167.409
162.827,167.18
161.882,166.915
164.447,166.791
166.519,166.778
168.065,166.842
168.328,166.916
167.759,166.959
159.657,166.594
151.009,165.814
146.168,164.832
142.573,163.719
141.757,162.621
146.874,161.834
147.897,161.137
146.396,160.4
151.593,159.959
153.178,159.62
154.475,159.363
155.534,159.172
152.964,158.861
147.347,158.285
143.392,157.541
140.766,156.702
140.888,155.911
149.324,155.582
154.642,155.535
159.631,155.74
160.813,155.993
161.585,156.273
169.5,156.934
172.124,157.694
173.662,158.492
166.828,158.909
163.949,159.161
161.459,159.276
159.299,159.277
162.985,159.463
166.168,159.798
165.676,160.092
165.105,160.342
164.21,160.536
163.191,160.668
165.362,160.903
169.427,161.329
163.073,161.416
162.456,161.468
159.563,161.373
157.37,161.173
157.528,160.991
160.855,160.984
164.088,161.139
164.157,161.29
170.816,161.766
172.917,162.324
162.116,162.313
152.668,161.831
142.051,160.842
140.601,159.83
139,158.789
143.948,158.047
145.623,157.425
146.936,156.901
145.479,156.33
142.304,155.628
140.463,154.87
142.76,154.265
145.296,153.816
147.465,153.499
153.376,153.493
158.514,153.744
159.679,154.04
160.404,154.359
163.702,154.826
168.233,155.496
163.756,155.909
156.877,155.958
151.749,155.747
154.271,155.673
153.526,155.566
154.107,155.493
152.731,155.355
156.793,155.427
160.581,155.684
161.51,155.976
164.849,156.419
167.642,156.981
164.424,157.353
162.225,157.596
158.24,157.628
156.764,157.585
160.626,157.737
163.759,158.038
166.496,158.461
166.684,158.872
166.769,159.267
172.526,159.93
174.501,160.659
174.898,161.371
171.307,161.867
164.281,161.988
159.906,161.884
