Normal data,Filtered data
58.2138,58.2138
58.4728,58.2267
58.8831,58.2595
57.2001,58.2066
55.207,58.0566
55.7451,57.941
54.0885,57.7484
54.3739,57.5797
54.689,57.4351
55.5988,57.3433
56.2973,57.291
56.8087,57.2669
57.5558,57.2813
57.7922,57.3069
58.1682,57.35
58.7775,57.4213
59.8736,57.5439
58.9809,57.6158
57.7395,57.622
55.935,57.5376
55.0316,57.4123
53.1984,57.2016
51.6484,56.924
50.6922,56.6124
51.3716,56.3503
51.9625,56.1309
52.5723,55.953
53.7145,55.8411
55.0345,55.8008
56.1314,55.8173
56.792,55.866
56.1492,55.8802
55.7005,55.8712
55.023,55.8288
56.132,55.8439
55.1684,55.8102
54.3951,55.7394
54.6301,55.6839
56.2558,55.7125
56.5334,55.7536
56.7531,55.8036
56.5789,55.8423
55.7658,55.8385
54.6934,55.7812
54.301,55.7072
54.3618,55.64
54.92,55.604
55.0881,55.5782
55.4451,55.5715
52.6081,55.4233
52.131,55.2587
51.412,55.0664
51.0466,54.8654
51.1098,54.6776
52.1251,54.55
53.6341,54.5042
55.2615,54.5421
56.7824,54.6541
55.9008,54.7164
54.8186,54.7215
53.4475,54.6578
52.4356,54.5467
53.2469,54.4817
53.9764,54.4565
53.5311,54.4102
53.3059,54.355
53.305,54.3025
55.8568,54.3802
56.1213,54.4672
56.8296,54.5854
57.6493,54.7386
58.6335,54.9333
58.8586,55.1296
59.1349,55.3298
58.0372,55.4652
58.2386,55.6039
57.3037,55.6889
57.2071,55.7648
57.0567,55.8294
55.38,55.8069
65.238,56.2785
61.1659,56.5228
57.6945,56.5814
58.0864,56.6567
58.9495,56.7713
58.9601,56.8807
58.8257,56.978
59.1775,57.088
58.0426,57.1357
57.2102,57.1394
55.3855,57.0517
55.1723,56.9577
54.9523,56.8575
54.396,56.7344
65.6038,57.1779
83.9356,58.5158
78.6,59.52
74.2619,60.2571
67.8071,60.6346
63.3598,60.7708
63.3208,60.8983
64.1292,61.0599
64.0429,61.209
62.679,61.2825
58.5284,61.1448
57.2927,60.9522
54.9242,60.6508
53.162,60.2764
51.9501,59.8601
51.0648,59.4203
51.0929,59.0039
51.0221,58.6048
51.1144,58.2303
52.4072,57.9392
54.4664,57.7655
54.4747,57.601
54.4182,57.4418
53.6551,57.2525
53.6827,57.074
52.2671,56.8337
51.8684,56.5854
51.8689,56.3496
50.8093,56.0726
49.7497,55.7564
48.9038,55.4138
48.1249,55.0493
48.9322,54.7435
50.5938,54.536
50.1105,54.3147
52.7116,54.2346
55.4733,54.2965
56.0253,54.3829
55.77,54.4523
54.9583,54.4776
56.0248,54.5549
56.6304,54.6587
53.0707,54.5793
51.6819,54.4344
53.0012,54.3628
54.9232,54.3908
57.1776,54.5301
60.3149,54.8194
62.6249,55.2097
64.146,55.6565
62.3862,55.993
59.8206,56.1843
59.254,56.3378
59.1874,56.4803
59.552,56.6339
60.5742,56.8309
59.0874,56.9437
58.026,56.9978
59.6684,57.1314
60.1534,57.2825
60.3677,57.4367
59.2103,57.5254
59.0822,57.6032
58.8896,57.6676
59.2789,57.7481
59.2468,57.8231
58.8328,57.8736
57.8211,57.8709
57.3308,57.8439
56.9713,57.8003
56.472,57.7339
56.5829,57.6763
56.4925,57.6171
56.314,57.552
55.9327,57.471
56.1554,57.4052
56.7003,57.37
57.0213,57.3526
56.7788,57.3239
56.3166,57.2735
54.795,57.1496
53.1225,56.9482
52.4816,56.7249
52.441,56.5107
51.3202,56.2512
51.3339,56.0053
51.2504,55.7676
51.1358,55.536
52.2175,55.37
53.8334,55.2932
55.6087,55.309
56.1694,55.352
56.6777,55.4183
56.6063,55.4777
56.1332,55.5105
55.8945,55.5297
54.8732,55.4968
54.5973,55.4519
53.3428,55.3464
53.7863,55.2684
54.421,55.226
55.0124,55.2153
54.0567,55.1574
54.534,55.1262
55.2037,55.1301
56.615,55.2044
57.7914,55.3337
58.258,55.4799
58.5568,55.6338
58.4547,55.7748
57.9237,55.8823
57.0667,55.9415
56.2855,55.9587
55.3428,55.9279
54.9126,55.8771
54.6498,55.8157
54.1171,55.7308
54.1336,55.651
54.1417,55.5755
54.9103,55.5422
55.0325,55.5167
54.7913,55.4805
54.5011,55.4315
53.8004,55.3499
52.7302,55.219
52.429,55.0795
52.1141,54.9312
51.834,54.7763
52.157,54.6454
53.0128,54.5637
53.7038,54.5207
54.2681,54.5081
54.788,54.5221
54.512,54.5216
54.594,54.5252
54.423,54.5201
54.2118,54.5047
54.1208,54.4855
54.1117,54.4668
54.1568,54.4513
54.3901,54.4482
54.582,54.4549
54.617,54.463
55.2392,54.5018
56.723,54.6129
57.0195,54.7332
56.6693,54.83
56.6005,54.9186
56.2987,54.9876
55.6687,55.0216
55.7767,55.0594
54.3605,55.0244
53.7068,54.9585
53.2726,54.8742
53.1858,54.7898
53.3347,54.7171
53.6346,54.6629
54.2186,54.6407
54.997,54.6585
56.6193,54.7566
56.9497,54.8662
56.9556,54.9707
57.2298,55.0836
56.7402,55.1665
56.3641,55.2264
55.7356,55.2518
54.4973,55.2141
54.2043,55.1636
53.025,55.0567
52.817,54.9447
52.0033,54.7976
51.2906,54.6223
51.4734,54.4648
51.4414,54.3137
51.0347,54.1497
50.9266,53.9886
50.8666,53.8325
50.4646,53.6641
50.6284,53.5123
51.0115,53.3872
51.1187,53.2738
51.3383,53.177
51.623,53.0993
51.9576,53.0422
52.4424,53.0122
51.7605,52.9497
51.6623,52.8853
52.8702,52.8845
54.0229,52.9415
55.2215,53.0555
55.7225,53.1888
55.9992,53.3293
56.2486,53.4753
56.4802,53.6255
55.6017,53.7243
54.9558,53.7859
54.234,53.8083
53.9192,53.8139
54.1945,53.8329
54.1226,53.8474
54.2305,53.8665
54.5782,53.9021
54.0165,53.9078
53.9416,53.9095
53.7014,53.8991
53.4057,53.8744
52.3774,53.7996
52.6573,53.7425
52.3071,53.6707
51.8343,53.5789
51.8748,53.4937
52.0491,53.4214
52.002,53.3505
52.3616,53.301
53.3271,53.3023
53.9462,53.3345
53.8499,53.3603
53.8276,53.3837
53.2118,53.3751
52.8653,53.3496
52.3382,53.299
52.3661,53.2524
51.6821,53.1738
52.1096,53.1206
52.5347,53.0913
52.2744,53.0505
52.263,53.0111
52.2866,52.9749
52.5387,52.9531
52.3429,52.9226
52.104,52.8816
50.9371,52.7844
50.4518,52.6678
50.0268,52.5357
50.3239,52.4251
49.9986,52.3038
49.8423,52.1807
49.9061,52.067
49.7918,51.9532
50.0357,51.8574
50.1315,51.7711
50.2924,51.6971
50.1021,51.6174
49.6415,51.5186
49.6422,51.4248
49.2622,51.3166
49.1026,51.2059
48.8269,51.087
48.9083,50.978
48.8617,50.8722
49.1698,50.7871
49.708,50.7331
50.173,50.7051
50.8869,50.7142
51.9462,50.7758
52.7209,50.8731
52.9634,50.9776
52.756,51.0665
52.5079,51.1386
52.0228,51.1828
52.0404,51.2257
52.3724,51.283
52.7411,51.3559
53.355,51.4559
53.8598,51.5761
54.3572,51.7151
55.8521,51.922
57.2676,52.1892
57.9818,52.4789
57.7367,52.7418
56.2713,52.9182
55.1781,53.0312
54.4205,53.1007
54.271,53.1592
54.6227,53.2324
54.7617,53.3088
54.5258,53.3697
53.5195,53.3772
53.6271,53.3897
54.5677,53.4486
54.9393,53.5231
53.7212,53.533
53.5211,53.5324
53.3009,53.5208
53.1448,53.502
51.9949,53.4267
51.9427,53.3525
51.9035,53.28
51.481,53.1901
51.8145,53.1213
52.3598,53.0832
53.3131,53.0947
53.6333,53.1217
53.3382,53.1325
53.095,53.1306
52.2205,53.0851
51.7869,53.0202
52.0978,52.9741
51.6217,52.9065
51.1279,52.8175
51.1112,52.7322
51.7312,52.6822
52.4636,52.6712
53.2074,52.698
54.5127,52.7888
55.4339,52.921
55.8168,53.0658
55.783,53.2017
54.9121,53.2872
52.8336,53.2645
52.6179,53.2322
52.023,53.1717
51.6841,53.0973
52.2502,53.055
52.8019,53.0423
53.2101,53.0507
54.5112,53.1237
55.9115,53.2631
56.8231,53.4411
56.5415,53.5961
55.8334,53.708
55.4293,53.7941
54.9015,53.8494
53.522,53.8331
52.6549,53.7742
53.1379,53.7423
53.6945,53.7399
52.9713,53.7015
53.8469,53.7088
54.7963,53.7632
54.1313,53.7816
53.8901,53.787
53.6599,53.7806
52.9836,53.7408
51.9582,53.6516
51.543,53.5462
51.0548,53.4216
50.1926,53.2602
49.9669,53.0955
50.6339,52.9725
50.7071,52.8592
51.4814,52.7903
52.1372,52.7576
53.1273,52.7761
53.7611,52.8254
53.9699,52.8826
52.4915,52.863
51.7977,52.8098
51.0362,52.7211
50.5903,52.6146
50.6706,52.5173
50.8814,52.4355
51.3167,52.3796
51.9022,52.3557
52.3197,52.3539
53.5859,52.4155
54.9439,52.542
55.3739,52.6836
54.6099,52.7799
54.2219,52.852
53.0077,52.8598
52.2731,52.8304
51.7952,52.7787
51.3425,52.7068
51.1935,52.6312
50.475,52.5234
49.9613,52.3953
50.12,52.2815
50.6074,52.1978
50.5442,52.1151
50.9676,52.0577
51.3346,52.0216
51.592,52.0001
51.0059,51.9504
50.6532,51.8855
50.0587,51.7942
49.7609,51.6925
49.7123,51.5935
49.4609,51.4869
49.8257,51.4038
49.5062,51.3089
49.2325,51.2051
49.5908,51.1244
49.8285,51.0596
49.9938,51.0063
50.2284,50.9674
50.9248,50.9653
51.1751,50.9758
50.7784,50.9659
50.7319,50.9542
50.6526,50.9391
51.0179,50.9431
51.5741,50.9746
52.4331,51.0475
53.2563,51.158
54.1215,51.3062
55.2265,51.5022
55.9294,51.7235
56.1554,51.9451
55.1093,52.1033
54.8192,52.2391
53.9511,52.3247
52.9876,52.3579
51.9435,52.3372
51.4705,52.2938
51.6944,52.2639
51.7753,52.2394
51.585,52.2067
51.8858,52.1907
52.4368,52.203
52.195,52.2026
52.1606,52.2005
52.2883,52.2049
51.8725,52.1882
51.1078,52.1342
51.1853,52.0868
50.9316,52.029
50.714,51.9632
50.9393,51.912
51.4174,51.8873
51.726,51.8792
51.8776,51.8792
52.4975,51.9101
52.7503,51.9521
53.2611,52.0175
53.2044,52.0769
52.8423,52.1152
52.4742,52.1331
52.1783,52.1354
51.9139,52.1243
52.6899,52.1526
52.5497,52.1724
51.7788,52.1527
52.4361,52.1669
51.9992,52.1585
51.9033,52.1458
52.378,52.1574
52.6421,52.1816
52.6621,52.2056
53.3492,52.2628
53.7713,52.3382
54.1227,52.4275
54.0033,52.5062
52.9256,52.5272
51.9699,52.4994
51.1475,52.4318
50.6837,52.3444
50.0576,52.23
50.2531,52.1312
50.0318,52.0262
49.6503,51.9074
49.6043,51.7923
49.1762,51.6614
48.6496,51.5109
48.1119,51.3409
47.4312,51.1454
47.2226,50.9493
47.449,50.7743
47.4204,50.6066
47.905,50.4715
48.8152,50.3887
49.3005,50.3343
50.0951,50.3223
50.821,50.3472
51.0427,50.382
51.6581,50.4458
52.3058,50.5388
52.57,50.6404
52.2032,50.7185
52.2595,50.7956
51.823,50.8469
52.0271,50.9059
51.5799,50.9396
51.3373,50.9595
51.3978,50.9814
51.3341,50.9991
52.0523,51.0517
52.2367,51.111
52.1864,51.1647
52.6772,51.2404
52.3971,51.2982
52.2109,51.3438
52.0862,51.381
51.6445,51.3941
51.2809,51.3885
51.1872,51.3784
51.4045,51.3797
50.7775,51.3496
50.7942,51.3218
50.4915,51.2803
51.0619,51.2694
51.7271,51.2923
52.5659,51.3559
53.2078,51.4485
54.0988,51.5811
54.6457,51.7343
54.7787,51.8865
54.6838,52.0264
54.2116,52.1356
53.19,52.1883
52.6395,52.2109
52.4001,52.2204
52.3073,52.2247
52.4975,52.2383
53.1134,52.2821
53.5095,52.3435
53.8684,52.4197
54.2326,52.5104
55.7565,52.6727
55.7467,52.8264
54.7671,52.9234
53.8317,52.9688
52.5575,52.9482
51.9741,52.8995
51.7221,52.8407
51.5287,52.7751
51.4992,52.7113
51.5897,52.6552
51.7743,52.6112
51.6648,52.5638
51.5015,52.5107
51.2796,52.4492
51.0853,52.381
50.6589,52.2949
50.0661,52.1834
49.2116,52.0348
48.4469,51.8554
48.6181,51.6936
48.132,51.5155
48.8904,51.3842
49.5059,51.2903
49.218,51.1867
49.2496,51.0898
50.4894,51.0598
51.4582,51.0797
52.0315,51.1273
52.358,51.1889
51.3633,51.1976
50.8165,51.1785
50.1115,51.1252
50.1459,51.0762
49.8243,51.0136
50.1515,50.9705
50.8385,50.9639
51.8011,51.0058
52.4884,51.0799
53.6904,51.2104
55.1405,51.4069
56.1604,51.6446
56.5166,51.8882
56.2152,52.1045
54.9129,52.245
53.8723,52.3263
54.0213,52.4111
54.0079,52.4909
54.8404,52.6084
55.5363,52.7548
56.6541,52.9497
57.7489,53.1897
58.2967,53.4451
58.0353,53.6746
57.0816,53.8449
54.4633,53.8758
52.9285,53.8285
51.7793,53.726
51.0344,53.5914
50.9616,53.4599
50.7,53.3219
50.8203,53.1969
51.1811,53.0961
52.299,53.0562
52.121,53.0094
52.3368,52.9758
52.1412,52.9341
51.383,52.8565
50.4614,52.7368
50.8594,52.6429
51.3241,52.577
51.6897,52.5326
50.9378,52.4529
50.6876,52.3646
50.6376,52.2783
50.9921,52.2139
51.5858,52.1825
51.6877,52.1578
50.7932,52.0896
50.3366,52.0019
49.4397,51.8738
49.4804,51.7541
49.7782,51.6553
50.1817,51.5817
50.6734,51.5362
51.178,51.5183
51.8602,51.5354
52.5889,51.5881
53.4795,51.6827
53.9636,51.7967
54.7646,51.9451
55.1209,52.1039
55.0594,52.2517
54.3906,52.3586
53.4148,52.4114
52.5623,52.419
52.1896,52.4075
52.0883,52.3915
51.3445,52.3392
50.48,52.2462
50.6486,52.1663
51.0341,52.1097
51.2044,52.0645
50.7991,52.0012
50.7854,51.9404
50.4337,51.8651
50.143,51.779
49.6281,51.6714
49.3432,51.555
49.9518,51.4748
50.2926,51.4157
51.37,51.4134
51.7063,51.4281
52.3695,51.4752
53.4913,51.576
54.2811,51.7112
54.7405,51.8627
54.6321,52.0012
54.4506,52.1236
53.3762,52.1862
52.5164,52.2028
52.1745,52.2013
52.5483,52.2187
52.154,52.2155
51.9646,52.2029
52.5912,52.2223
53.2231,52.2724
53.5904,52.3383
54.3069,52.4367
54.6511,52.5474
54.5734,52.6487
54.5194,52.7422
53.7809,52.7942
53.0618,52.8076
52.7243,52.8034
52.5922,52.7928
52.1619,52.7613
52.4605,52.7463
52.7023,52.744
52.5066,52.7322
52.5427,52.7227
52.0971,52.6914
52.4943,52.6816
52.3231,52.6636
51.7761,52.6193
51.5003,52.5633
51.5597,52.5131
51.1174,52.4433
50.4554,52.3439
50.7762,52.2656
50.6491,52.1847
51.0159,52.1263
51.3392,52.0869
51.5924,52.0622
51.6712,52.0427
52.0165,52.0413
52.8873,52.0836
53.6992,52.1644
54.2227,52.2673
54.4224,52.3751
54.1477,52.4637
53.424,52.5117
52.7986,52.5261
51.933,52.4964
51.714,52.4573
51.6356,52.4162
51.8009,52.3854
51.8099,52.3567
52.0187,52.3398
51.5814,52.3018
52.1806,52.2958
51.2752,52.2447
51.3964,52.2023
52.0263,52.1935
52.2111,52.1944
52.2062,52.195
51.4736,52.1589
51.0862,52.1053
50.165,52.0083
50.3296,51.9243
50.7814,51.8672
52.147,51.8812
53.1681,51.9455
52.468,51.9716
52.1558,51.9809
53.4807,52.0558
53.4769,52.1269
53.6558,52.2033
53.6788,52.2771
53.35,52.3307
52.7728,52.3528
54.2019,52.4453
53.974,52.5217
54.5336,52.6223
55.263,52.7544
55.3544,52.8844
56.1258,53.0464
57.4981,53.269
57.7799,53.4946
58.0971,53.7247
57.5805,53.9175
56.2596,54.0346
56.4981,54.1578
54.5329,54.1765
52.7964,54.1075
52.3811,54.0212
52.3092,53.9356
51.2753,53.8026
50.3018,53.6275
50.6269,53.4775
51.3578,53.3715
50.6165,53.2338
50.6843,53.1063
51.7388,53.0379
52.9631,53.0342
53.8217,53.0736
54.3652,53.1381
55.2034,53.2414
56.6121,53.4099
57.3597,53.6074
57.817,53.8179
56.1495,53.9345
54.9793,53.9867
53.885,53.9816
53.1044,53.9378
52.8249,53.8821
52.1702,53.7965
52.3447,53.7239
52.6446,53.67
52.7043,53.6217
52.8258,53.5819
51.4893,53.4773
50.9584,53.3513
50.9571,53.2316
50.8453,53.1123
51.2688,53.0201
51.6468,52.9515
52.357,52.9217
53.1143,52.9314
54.1038,52.99
55.3053,53.1057
56.1895,53.2599
56.4196,53.4179
54.5014,53.4721
53.8276,53.4899
53.659,53.4983
53.2266,53.4847
54.3662,53.5288
54.2826,53.5665
52.5806,53.5172
52.6343,53.4731
51.9574,53.3973
51.0925,53.282
50.8517,53.1605
50.628,53.0339
50.4166,52.903
49.8975,52.7527
49.8102,52.6056
50.4233,52.4965
51.0998,52.4267
