Normal data,Filtered data
129.35,129.35
129.35,129.35
138.44,129.804
140.918,130.36
140.918,130.888
140.918,131.389
134.432,131.542
137.206,131.825
141.149,132.291
143.762,132.865
144.996,133.471
146.253,134.11
146.253,134.717
146.253,135.294
146.253,135.842
146.253,136.362
145.474,136.818
135.926,136.773
140.035,136.936
141.615,137.17
135.388,137.081
130.683,136.761
130.683,136.457
130.683,136.169
127.965,135.759
131.063,135.524
137.133,135.604
140.862,135.867
141.537,136.151
143.371,136.512
146.331,137.003
146.331,137.469
146.331,137.912
146.331,138.333
142.83,138.558
138.216,138.541
138.811,138.554
137.101,138.482
133.907,138.253
123.194,137.5
123.194,136.785
123.194,136.105
123.194,135.46
125.077,134.94
131.117,134.749
138.129,134.918
142.884,135.317
144.435,135.772
146.052,136.286
146.052,136.775
146.052,137.239
129.913,136.872
129.913,136.524
127.886,136.092
127.721,135.674
129.034,135.342
130.708,135.11
128.667,134.788
128.667,134.482
128.667,134.191
128.667,133.915
123.557,133.397
127.551,133.105
132.485,133.074
138.277,133.334
141.938,133.764
143.939,134.273
143.939,134.756
143.939,135.215
143.939,135.652
143.939,136.066
141.936,136.36
139.13,136.498
140.439,136.695
140.439,136.882
139.217,136.999
139.217,137.11
139.217,137.215
139.217,137.315
123.646,136.632
107.229,135.162
92.7952,133.044
83.0412,130.543
91.8744,128.61
104.249,127.392
119.176,126.981
119.176,126.591
119.176,126.22
119.176,125.868
119.176,125.533
120.34,125.274
125.376,125.279
131.094,125.57
134.688,126.025
135.672,126.508
135.672,126.966
135.672,127.401
135.672,127.815
136.422,128.245
139.157,128.791
143.937,129.548
147.65,130.453
148.009,131.331
147.936,132.161
147.936,132.95
147.936,133.699
147.936,134.411
147.653,135.073
146.478,135.643
144.325,136.077
142.674,136.407
143.808,136.777
144.979,137.187
144.979,137.577
144.979,137.947
144.979,138.299
142.626,138.515
142.337,138.706
142.294,138.886
142.711,139.077
143.048,139.275
143.972,139.51
144.613,139.765
144.613,140.008
144.613,140.238
144.613,140.457
144.084,140.638
143.327,140.773
143.34,140.901
142.748,140.993
141.758,141.031
141.758,141.068
141.758,141.102
141.758,141.135
141.758,141.166
125.839,140.4
126.309,139.695
109.062,138.164
115.378,137.024
122.949,136.321
129.582,135.984
129.582,135.664
129.582,135.36
129.582,135.071
129.383,134.786
130.774,134.586
131.073,134.41
133.296,134.354
135.076,134.39
134.035,134.373
134.035,134.356
134.035,134.34
136.806,134.463
136.111,134.545
139.796,134.808
144.055,135.27
147.77,135.895
148.93,136.547
148.93,137.166
148.93,137.754
148.93,138.313
148.93,138.844
147.682,139.286
146.811,139.662
146.263,139.992
147.472,140.366
147.611,140.728
146.466,141.015
146.466,141.288
146.466,141.547
146.466,141.793
144,141.903
146.003,142.108
145.852,142.295
145.932,142.477
145.995,142.653
145.995,142.82
145.995,142.979
145.995,143.13
145.995,143.273
144.66,143.342
142.674,143.309
140.016,143.144
139.295,142.952
137.529,142.681
132.781,142.186
132.781,141.715
132.781,141.269
132.781,140.844
130.761,140.34
133.675,140.007
136.612,139.837
138.815,139.786
139.69,139.781
141.736,139.879
141.736,139.972
141.736,140.06
141.736,140.144
141.736,140.223
139.801,140.202
139.354,140.16
140.469,140.175
139.499,140.142
139.499,140.109
139.499,140.079
139.499,140.05
139.499,140.022
138.672,139.955
138.006,139.857
139.868,139.858
142.049,139.968
143.088,140.124
143.895,140.312
143.895,140.491
143.895,140.661
143.895,140.823
143.895,140.977
141.611,141.008
141.507,141.033
141.507,141.057
141.507,141.079
141.507,141.101
141.507,141.121
141.507,141.14
141.507,141.159
141.507,141.176
139.052,141.07
138.343,140.934
139.27,140.85
140.899,140.853
142.289,140.925
142.319,140.994
143.642,141.127
143.642,141.253
143.642,141.372
143.642,141.486
143.8,141.601
141.919,141.617
141.919,141.632
141.919,141.647
141.919,141.66
141.919,141.673
142.714,141.725
142.714,141.775
142.714,141.822
140.68,141.765
125.502,140.952
131.719,140.49
137.85,140.358
142.146,140.447
143.672,140.608
143.672,140.762
143.672,140.907
143.672,141.045
143.672,141.177
141.316,141.184
139.322,141.091
140.063,141.039
140.063,140.99
140.063,140.944
140.063,140.9
140.063,140.858
140.063,140.818
140.063,140.781
138.9,140.687
140.146,140.66
141.732,140.713
145.539,140.954
145.936,141.204
145.936,141.44
145.936,141.665
145.936,141.878
145.936,142.081
145.936,142.274
143.719,142.346
140.614,142.26
140.614,142.177
139.814,142.059
139.814,141.947
139.814,141.84
139.814,141.739
139.814,141.643
134.429,141.282
115.325,139.984
89.5692,137.463
104.688,135.825
117.703,134.919
127.806,134.563
137.802,134.725
137.802,134.879
137.802,135.025
137.802,135.164
137.802,135.296
133.627,135.212
135.232,135.213
136.332,135.269
136.332,135.322
130.777,135.095
130.777,134.879
130.777,134.674
130.777,134.479
129.15,134.213
133.298,134.167
138.537,134.386
142.412,134.787
143.639,135.23
144.714,135.704
144.714,136.154
144.714,136.582
144.714,136.989
144.714,137.375
144.714,137.742
143.381,138.024
142.483,138.247
142.483,138.459
142.483,138.66
140.769,138.765
140.769,138.866
141.522,138.998
141.522,139.125
141.771,139.257
141.993,139.394
142.284,139.538
143.12,139.717
143.998,139.931
145.081,140.189
145.081,140.433
145.081,140.666
145.081,140.887
145.081,141.096
144.379,141.26
144.379,141.416
143.36,141.514
142.608,141.568
141.469,141.563
136.203,141.295
136.203,141.041
141.327,141.055
139.28,140.966
139.094,140.873
140.181,140.838
141.629,140.878
142.83,140.975
142.83,141.068
142.83,141.156
142.83,141.24
142.83,141.319
142.83,141.395
139.831,141.317
135.763,141.039
135.763,140.775
135.763,140.524
135.763,140.286
131.891,139.867
131.891,139.468
136.635,139.326
134.459,139.083
133.778,138.817
136.696,138.711
139.571,138.754
139.571,138.795
141.529,138.932
141.529,139.062
141.529,139.185
141.529,139.302
141.529,139.414
140.64,139.475
139.407,139.471
140.317,139.514
141.151,139.596
140.088,139.62
140.088,139.644
140.088,139.666
140.088,139.687
140.088,139.707
138.283,139.636
138.166,139.562
140.339,139.601
141.727,139.708
142.969,139.871
142.969,140.026
142.969,140.173
142.969,140.312
142.969,140.445
141.073,140.477
141.073,140.507
141.128,140.538
141.702,140.596
140.531,140.593
132.836,140.205
132.836,139.836
132.836,139.486
130.816,139.053
128.998,138.55
131.096,138.177
136.417,138.089
140.899,138.23
140.899,138.363
140.899,138.49
140.899,138.61
140.899,138.725
140.899,138.833
137.874,138.785
136.413,138.667
140.755,138.771
140.815,138.873
138.592,138.859
130.578,138.445
130.578,138.052
130.578,137.678
130.578,137.323
124.164,136.665
104.549,135.059
111.507,133.882
122.625,133.319
127.272,133.017
133.602,133.046
133.602,133.074
133.602,133.1
133.602,133.125
133.602,133.149
130.022,132.993
132.498,132.968
135.337,133.086
135.727,133.218
134.628,133.289
134.628,133.356
134.628,133.419
134.628,133.48
134.146,133.513
134.146,133.545
138.629,133.799
141.547,134.186
141.547,134.554
141.547,134.904
141.547,135.236
141.547,135.552
141.547,135.852
140.689,136.093
140.258,136.302
141.368,136.555
141.368,136.796
142.449,137.078
138.519,137.15
138.519,137.219
138.519,137.284
138.519,137.346
132.752,137.116
132.752,136.898
137.545,136.93
140.016,137.084
142.867,137.373
144.064,137.708
144.064,138.026
144.064,138.328
144.064,138.614
144.064,138.887
141.69,139.027
141.69,139.16
144.242,139.414
143.903,139.639
142.677,139.791
136.843,139.643
136.843,139.503
136.843,139.37
136.843,139.244
136.843,139.124
122.148,138.275
100.102,136.366
111.879,135.142
120.816,134.426
126.904,134.05
126.904,133.692
126.904,133.353
126.904,133.031
126.904,132.724
126.904,132.433
123.09,131.966
129.762,131.856
132.951,131.911
132.951,131.963
131.127,131.921
131.127,131.881
131.127,131.843
131.127,131.808
131.127,131.774
135.818,131.976
139.355,132.345
142.122,132.834
143.777,133.381
143.777,133.901
143.777,134.394
143.777,134.864
143.777,135.309
143.777,135.733
143.777,136.135
142.108,136.434
140.088,136.616
140.377,136.804
140.377,136.983
139.365,137.102
137.14,137.104
137.14,137.106
137.14,137.107
137.14,137.109
137.14,137.111
136.201,137.065
138.304,137.127
139.554,137.248
141.248,137.448
142.227,137.687
142.227,137.914
142.227,138.13
142.227,138.335
142.227,138.529
142.227,138.714
140.484,138.803
138.228,138.774
138.544,138.763
138.544,138.752
137.985,138.713
133.207,138.438
133.207,138.176
118.966,137.216
118.966,136.303
97.3433,134.355
82.0936,131.742
73.8505,128.848
70.3499,125.923
79.6126,123.607
95.1623,122.185
95.1623,120.834
95.1623,119.55
95.1623,118.331
95.1623,117.172
102.031,116.415
107.314,115.96
112.885,115.807
120.844,116.058
124.389,116.475
125.922,116.947
125.922,117.396
125.922,117.822
125.922,118.227
127.963,118.714
132.767,119.417
137.863,120.339
141.479,121.396
143.524,122.502
143.524,123.553
143.524,124.552
127.013,124.675
127.013,124.792
127.013,124.903
129.302,125.123
132.382,125.486
132.309,125.827
133.924,126.232
133.215,126.581
133.215,126.913
133.215,127.228
133.215,127.527
133.215,127.812
134.216,128.132
138.715,128.661
140.203,129.238
142.959,129.924
143.846,130.62
145.486,131.363
145.486,132.07
145.486,132.74
145.486,133.378
144.09,133.913
143.267,134.381
142.816,134.803
142.062,135.166
142.062,135.51
141.786,135.824
141.786,136.122
141.786,136.406
141.786,136.675
139.408,136.811
140.338,136.988
141.897,137.233
142.813,137.512
142.813,137.777
144.043,138.09
130.599,137.716
110.984,136.379
110.984,135.109
110.984,133.903
117.181,133.067
120.505,132.439
121.214,131.878
121.214,131.344
123.981,130.976
123.981,130.627
123.981,130.294
123.981,129.979
123.981,129.679
123.388,129.364
126.279,129.21
129.635,129.231
133.952,129.467
135.666,129.777
137.602,130.168
137.602,130.54
137.602,130.893
121.554,130.426
126.7,130.24
129.339,130.195
131.74,130.272
132.632,130.39
134.913,130.616
135.457,130.858
135.457,131.088
135.457,131.307
135.457,131.514
134.155,131.646
135.586,131.843
138.241,132.163
141.304,132.62
141.304,133.054
143.792,133.591
146.387,134.231
146.387,134.839
146.387,135.416
146.387,135.965
145.344,136.434
143.962,136.81
143.652,137.152
143.652,137.477
143.652,137.786
140.233,137.908
140.233,138.024
140.233,138.135
140.233,138.24
140.233,138.339
140.731,138.459
142.272,138.65
143.223,138.878
142.497,139.059
142.985,139.256
145.216,139.554
145.216,139.837
145.216,140.106
145.216,140.361
145.216,140.604
142.271,140.687
142.245,140.765
142.79,140.866
142.79,140.962
140.356,140.932
140.356,140.903
140.356,140.876
140.356,140.85
140.356,140.825
139.212,140.745
140.047,140.71
141.876,140.768
143.673,140.913
144.902,141.113
146.207,141.367
146.207,141.609
146.207,141.839
146.207,142.058
146.207,142.265
144.527,142.378
143.211,142.42
143.538,142.476
142.787,142.491
141.974,142.465
136.889,142.187
136.889,141.922
136.889,141.67
136.131,141.393
119.756,140.311
99.1787,138.255
110.676,136.876
118.723,135.968
126.257,135.482
133.52,135.384
133.52,135.291
133.52,135.203
117.999,134.342
117.999,133.525
119.769,132.837
122.693,132.33
130.84,132.256
131.905,132.238
126.978,131.975
126.978,131.725
126.978,131.488
126.978,131.262
126.978,131.048
129.533,130.972
132.596,131.054
138.312,131.417
142.411,131.966
144.473,132.592
145.823,133.253
145.823,133.882
145.823,134.479
145.823,135.046
144.188,135.503
144.188,135.937
143.558,136.318
142.592,136.632
142.592,136.93
140.886,137.128
140.886,137.316
140.886,137.494
140.886,137.664
140.886,137.825
140.832,137.975
141.938,138.173
143.362,138.433
144.121,138.717
144.121,138.987
129.654,138.521
129.654,138.077
129.654,137.656
129.654,137.256
131.19,136.953
132.906,136.75
132.906,136.558
132.906,136.376
132.906,136.202
132.906,136.037
132.906,135.881
132.906,135.732
132.906,135.591
131.894,135.406
132.535,135.262
132.985,135.149
135.226,135.152
135.928,135.191
139.629,135.413
139.629,135.624
139.629,135.824
139.629,136.014
139.629,136.195
140.681,136.419
141.412,136.669
141.091,136.89
141.825,137.137
141.154,137.338
141.154,137.528
141.154,137.71
141.154,137.882
141.154,138.046
140.516,138.169
140.728,138.297
141.815,138.473
144.273,138.763
146.21,139.135
147.343,139.546
147.343,139.936
147.343,140.306
147.343,140.658
147.343,140.992
144.47,141.166
144.47,141.331
144.369,141.483
142.077,141.513
139.937,141.434
139.937,141.359
139.937,141.288
139.937,141.22
139.937,141.156
139.294,141.063
140.494,141.035
141.877,141.077
141.877,141.117
141.877,141.155
141.877,141.191
141.877,141.225
141.877,141.258
129.501,140.67
129.501,140.111
130.453,139.629
131.824,139.238
131.824,138.868
131.824,138.515
130.656,138.122
130.656,137.749
130.656,137.395
130.656,137.058
124.955,136.452
127.166,135.988
132.705,135.824
134.752,135.77
136.211,135.792
138.374,135.921
138.374,136.044
138.374,136.161
122.99,135.502
122.99,134.876
122.99,134.282
124.147,133.775
125.686,133.371
126.638,133.034
127.738,132.769
127.153,132.489
127.153,132.222
127.153,131.968
127.153,131.728
123.633,131.323
125.84,131.049
130.754,131.034
135.338,131.249
135.338,131.454
135.338,131.648
135.338,131.832
135.338,132.008
135.338,132.174
135.338,132.332
136.363,132.534
137.788,132.797
139.008,133.107
139.16,133.41
136.997,133.589
129.707,133.395
129.707,133.211
129.707,133.035
125.225,132.645
122.727,132.149
127.764,131.93
134.887,132.078
138.423,132.395
140.237,132.787
143.2,133.308
143.2,133.802
143.2,134.272
143.2,134.719
143.2,135.143
142.788,135.525
141.711,135.834
143.859,136.235
143.859,136.617
142.622,136.917
137.238,136.933
137.238,136.948
137.238,136.963
137.238,136.976
134.009,136.828
137.646,136.869
140.85,137.068
140.85,137.257
142.569,137.523
142.569,137.775
142.569,138.015
142.569,138.242
142.569,138.459
142.569,138.664
141.25,138.793
140.562,138.882
141.043,138.99
140.379,139.059
138.433,139.028
138.433,138.998
138.433,138.97
138.433,138.943
134.068,138.699
