Normal data,Filtered data
128.454,128.454
128.454,128.454
133.462,128.704
135.321,129.035
135.321,129.35
135.321,129.648
130.599,129.696
134.92,129.957
134.239,130.171
134.303,130.378
133.847,130.551
133.396,130.693
133.396,130.828
133.396,130.957
133.396,131.079
133.396,131.195
127.362,131.003
119.173,130.412
121.801,129.981
127.762,129.87
132.454,129.999
134.383,130.218
134.383,130.427
134.383,130.624
130.39,130.613
131.696,130.667
131.526,130.71
131.5,130.749
131.807,130.802
131.702,130.847
125.3,130.57
125.3,130.306
125.3,130.056
125.3,129.818
120.805,129.367
113.376,128.568
116.14,127.946
124.963,127.797
131.26,127.97
133.929,128.268
133.929,128.551
133.929,128.82
133.929,129.076
132.137,129.229
130.259,129.28
128.968,129.265
127.554,129.179
129.813,129.211
129.047,129.203
129.047,129.195
129.047,129.188
149.909,130.224
149.909,131.208
145.563,131.926
135.542,132.106
133.513,132.177
137.52,132.444
140.178,132.831
140.178,133.198
140.178,133.547
140.178,133.879
137.296,134.049
136.765,134.185
135.211,134.237
131.624,134.106
129.58,133.88
129.603,133.666
129.603,133.463
129.603,133.27
129.603,133.086
129.603,132.912
126.768,132.605
120.94,132.022
118.892,131.365
118.892,130.742
123.661,130.388
123.661,130.051
123.661,129.732
123.661,129.428
145.691,130.241
154.685,131.464
158.005,132.791
150.088,133.655
150.788,134.512
151.684,135.371
152.815,136.243
152.815,137.072
152.815,137.859
152.815,138.607
152.815,139.317
148.862,139.794
141.318,139.87
140.596,139.907
140.907,139.957
139.74,139.946
139.74,139.936
139.74,139.926
139.74,139.917
135.85,139.713
132.621,139.359
131.366,138.959
129.774,138.5
129.986,138.074
128.802,137.611
128.802,137.17
128.802,136.752
128.802,136.354
126.746,135.874
123.253,135.243
119.708,134.466
117.906,133.638
123.518,133.132
125.358,132.743
125.358,132.374
125.358,132.023
125.358,131.69
123.765,131.294
122.662,130.862
123.305,130.484
123.662,130.143
124.736,129.873
123.392,129.549
117.272,128.935
117.272,128.352
117.272,127.798
117.272,127.271
116.892,126.753
113.386,126.084
112.361,125.398
120.683,125.162
127.532,125.281
127.532,125.393
127.532,125.5
127.532,125.602
127.532,125.698
141.343,126.481
142.698,127.292
145.757,128.215
145.665,129.087
144.873,129.877
145.627,130.664
145.627,131.412
145.627,132.123
145.627,132.798
141.445,133.231
138.066,133.472
133.216,133.46
135.545,133.564
136.769,133.724
136.161,133.846
136.161,133.962
136.161,134.072
134.605,134.098
132.991,134.043
131.703,133.926
131.896,133.825
132.299,133.748
133.098,133.716
133.098,133.685
133.098,133.656
133.098,133.628
133.098,133.601
130.58,133.45
128.036,133.179
127.068,132.874
130.115,132.736
131.942,132.696
132.66,132.694
132.66,132.693
132.66,132.691
132.66,132.689
131.744,132.642
131.667,132.593
133.316,132.63
132.91,132.644
133.082,132.665
133.082,132.686
133.082,132.706
133.082,132.725
133.082,132.743
128.917,132.551
126.326,132.24
123.228,131.789
126.472,131.524
130.69,131.482
131.425,131.479
131.425,131.476
131.425,131.474
131.425,131.471
133.526,131.574
134.177,131.704
134.783,131.858
135.49,132.04
135.991,132.237
135.673,132.409
135.673,132.572
135.673,132.727
135.673,132.875
135.673,133.014
129.039,132.816
121.537,132.252
125.183,131.898
130.283,131.818
130.283,131.741
130.283,131.668
130.283,131.599
130.283,131.533
127.802,131.346
133.625,131.46
134.265,131.6
134.16,131.728
134.789,131.881
134.776,132.026
134.776,132.164
134.776,132.294
134.776,132.418
134.776,132.536
131.869,132.503
124.647,132.11
124.647,131.737
124.647,131.382
124.647,131.046
124.647,130.726
124.647,130.422
124.647,130.133
124.647,129.859
127.18,129.725
130.962,129.787
131.586,129.877
132.137,129.99
133.399,130.16
134.694,130.387
132.257,130.48
132.257,130.569
132.257,130.653
132.257,130.734
128.133,130.604
123.695,130.258
123.695,129.93
123.695,129.618
123.695,129.322
123.695,129.041
122.115,128.694
122.115,128.365
122.115,128.053
124.595,127.88
141.687,128.57
140.442,129.164
139.028,129.657
136.496,129.999
136.287,130.313
136.287,130.612
136.287,130.896
136.287,131.165
136.287,131.422
131.868,131.444
123.985,131.071
123.939,130.714
123.939,130.376
123.939,130.054
123.939,129.748
123.939,129.458
123.939,129.182
123.939,128.919
127.264,128.837
131.593,128.975
133.096,129.181
132.649,129.354
133.322,129.552
133.322,129.741
133.322,129.92
133.322,130.09
133.322,130.252
133.322,130.405
129.866,130.378
126.401,130.179
126.401,129.99
128.539,129.918
128.539,129.849
128.539,129.783
128.539,129.721
128.539,129.662
128.544,129.606
141.586,130.205
152.071,131.298
149.516,132.209
145.277,132.863
142.487,133.344
135.75,133.464
135.75,133.579
135.75,133.687
135.75,133.79
135.75,133.888
132.75,133.831
130.408,133.66
133.026,133.628
133.026,133.598
134.078,133.622
134.078,133.645
134.078,133.667
134.078,133.687
130.588,133.532
132.346,133.473
132.749,133.437
133.141,133.422
133.6,133.431
132.839,133.401
132.839,133.373
132.839,133.347
132.839,133.321
132.839,133.297
132.839,133.274
128.215,133.021
125.628,132.652
125.628,132.3
125.628,131.967
128.967,131.817
128.967,131.674
126.324,131.407
126.324,131.153
128.655,131.028
132.128,131.083
132.96,131.177
133.15,131.275
133.428,131.383
132.227,131.425
132.227,131.465
132.227,131.503
132.227,131.54
132.227,131.574
129.11,131.451
129.11,131.334
128.597,131.197
133.626,131.318
136.659,131.585
139.128,131.962
139.128,132.321
137.724,132.591
136.723,132.797
136.168,132.966
135.643,133.1
135.995,133.245
136.393,133.402
136.393,133.552
136.393,133.694
136.393,133.829
136.393,133.957
136.393,134.079
132.271,133.988
125.424,133.56
125.424,133.153
125.424,132.767
125.424,132.4
129.534,132.257
129.534,132.12
128.573,131.943
127.336,131.713
128.944,131.574
130.847,131.538
129.781,131.45
129.781,131.367
130.454,131.321
130.454,131.278
130.454,131.236
130.454,131.197
130.454,131.16
128.224,131.013
120.928,130.509
122.868,130.127
130.813,130.161
133.092,130.308
133.092,130.447
133.092,130.579
133.092,130.705
133.092,130.824
135.695,131.068
136.796,131.354
135.495,131.561
134.295,131.698
135.023,131.864
135.023,132.022
135.023,132.172
135.023,132.315
135.023,132.45
133.689,132.512
133.689,132.571
129.435,132.414
133.506,132.469
137.341,132.712
138.493,133.001
138.493,133.276
138.493,133.537
137.199,133.72
135.848,133.826
134.071,133.839
131.863,133.74
131.377,133.622
131.377,133.509
131.377,133.403
131.377,133.301
131.377,133.205
131.377,133.114
128.988,132.908
125.262,132.525
124.319,132.115
129.281,131.973
132.319,131.991
133.421,132.062
133.421,132.13
133.421,132.195
133.421,132.256
133.372,132.312
140.419,132.717
136.935,132.928
138.061,133.185
140.095,133.53
141.513,133.929
141.513,134.308
141.513,134.669
141.513,135.011
141.513,135.336
138.719,135.505
136.538,135.557
136.804,135.619
138.492,135.763
138.512,135.9
138.512,136.031
138.512,136.155
138.512,136.273
135.823,136.25
135.823,136.229
137.064,136.271
134.562,136.185
134.562,136.104
134.562,136.027
134.562,135.954
134.562,135.884
134.562,135.818
131.599,135.607
127.623,135.208
124.652,134.68
124.652,134.179
130.954,134.017
130.924,133.863
130.924,133.716
130.924,133.576
130.924,133.444
133.053,133.424
133.053,133.406
131.871,133.329
129.791,133.152
131.05,133.047
131.104,132.95
131.104,132.857
131.104,132.77
131.104,132.686
131.104,132.607
129.892,132.471
129.892,132.343
129.724,132.212
133.943,132.298
136.912,132.529
138.285,132.817
138.285,133.09
138.285,133.35
138.285,133.597
138.285,133.831
150.281,134.653
156.423,135.742
155.44,136.727
154.373,137.609
153.002,138.379
153.002,139.11
153.002,139.805
153.002,140.464
153.002,141.091
153.002,141.687
146.662,141.936
140.978,141.888
143.066,141.947
143.066,142.003
143.769,142.091
143.769,142.175
143.769,142.255
143.769,142.33
143.769,142.402
140.926,142.328
138.229,142.123
136.862,141.86
135.407,141.538
135.407,141.231
135.407,140.94
135.407,140.663
135.407,140.4
135.407,140.151
135.407,139.914
132.891,139.563
128.378,139.003
122.72,138.189
122.72,137.416
126.049,136.847
128.867,136.448
128.867,136.069
128.867,135.709
128.867,135.367
128.867,135.042
129.759,134.778
129.906,134.534
128.989,134.257
128.641,133.976
127.902,133.672
127.902,133.384
127.902,133.11
127.902,132.849
127.902,132.602
127.902,132.367
123.08,131.903
116.543,131.135
116.326,130.394
116.326,129.691
121.648,129.289
125.495,129.099
125.495,128.919
126.947,128.82
126.947,128.726
139.747,129.278
153.381,130.483
153.242,131.621
146.243,132.352
148.472,133.158
147.957,133.898
147.957,134.601
147.957,135.268
147.957,135.903
147.957,136.506
153.32,137.346
155.365,138.247
152.289,138.949
151.624,139.583
149.735,140.091
147.685,140.47
147.685,140.831
147.685,141.174
147.685,141.499
144.132,141.631
139.665,141.533
136.889,141.301
134.476,140.959
132.811,140.552
132.811,140.165
132.811,139.797
151.424,140.378
151.424,140.931
151.424,141.455
145.199,141.643
131.272,141.124
129.973,140.567
132.985,140.187
135.356,139.946
135.356,139.716
135.356,139.498
135.356,139.291
135.356,139.095
134.214,138.851
134.958,138.656
134.217,138.434
132.543,138.139
130.558,137.76
115.922,136.668
115.922,135.631
115.922,134.646
115.922,133.709
115.096,132.779
112.291,131.754
109.464,130.64
114.747,129.845
114.747,129.09
117.118,128.492
117.118,127.923
117.118,127.383
117.118,126.87
114.034,126.228
115.581,125.695
118.658,125.344
119.255,125.039
119.255,124.75
119.672,124.496
142.203,125.381
161.208,127.173
161.208,128.875
161.208,130.491
154.792,131.706
146.646,132.453
141.497,132.905
141.497,133.335
145.573,133.947
145.573,134.528
145.573,135.08
145.573,135.605
145.573,136.103
144.506,136.524
142.984,136.847
139.97,137.003
139.632,137.134
139.199,137.237
137.922,137.272
137.922,137.304
137.922,137.335
153.064,138.122
148.29,138.63
141.423,138.77
137.682,138.715
139.266,138.743
141.004,138.856
140.953,138.961
140.953,139.06
140.953,139.155
140.953,139.245
138.065,139.186
136.132,139.033
133.821,138.773
132.775,138.473
132.775,138.188
132.161,137.886
130.391,137.512
130.391,137.156
130.391,136.817
130.391,136.496
127.291,136.036
122.658,135.367
120.117,134.604
120.117,133.88
120.117,133.192
121.822,132.623
121.822,132.083
121.822,131.57
121.822,131.083
121.822,130.62
121.166,130.147
119.911,129.635
121.452,129.226
118.979,128.714
120.004,128.278
118.759,127.802
118.759,127.35
118.759,126.921
118.759,126.513
118.759,126.125
118.048,125.721
115.778,125.224
122.148,125.07
128.369,125.235
132.089,125.578
132.089,125.903
132.089,126.213
132.089,126.506
132.089,126.786
132.97,127.095
130.476,127.264
131.775,127.489
131.937,127.712
131.698,127.911
131.125,128.072
131.125,128.225
131.125,128.37
131.125,128.507
131.125,128.638
129.235,128.668
122.732,128.371
126.486,128.277
130.802,128.403
134.426,128.704
136.416,129.09
136.416,129.456
136.416,129.804
136.198,130.124
147.837,131.01
156.858,132.302
155.103,133.442
153.061,134.423
151.766,135.29
145.559,135.804
145.559,136.291
145.559,136.755
142.279,137.031
142.279,137.293
133.637,137.11
124.538,136.482
127.749,136.045
133.234,135.905
136.747,135.947
136.747,135.987
136.747,136.025
136.747,136.061
136.747,136.095
136.599,136.12
134.447,136.037
132.931,135.881
131.743,135.675
131.488,135.465
128.117,135.098
128.117,134.749
128.117,134.417
128.117,134.102
125.346,133.664
125.346,133.248
122.317,132.702
126.575,132.395
126.575,132.104
130.732,132.036
130.732,131.971
130.732,131.909
130.732,131.85
130.732,131.794
129.508,131.68
129.014,131.546
127.037,131.321
124.98,131.004
124.98,130.703
146.643,131.5
146.643,132.257
146.643,132.976
146.643,133.659
142.344,134.094
129.165,133.847
129.165,133.613
129.165,133.391
129.165,133.179
129.165,132.979
129.165,132.788
129.165,132.607
129.165,132.435
132.546,132.44
133.17,132.477
133.708,132.538
130.785,132.451
129.976,132.327
122.69,131.845
122.69,131.387
122.69,130.952
122.69,130.539
122.69,130.147
120.295,129.654
115.736,128.958
122.012,128.611
127.528,128.557
129.537,128.606
129.537,128.652
129.537,128.697
129.537,128.739
129.537,128.779
131.805,128.93
132.638,129.115
132.367,129.278
131.254,129.377
129.916,129.404
124.196,129.143
124.196,128.896
124.196,128.661
124.196,128.438
124.196,128.226
125.089,128.069
125.089,127.92
128.717,127.96
131.361,128.13
133.428,128.395
133.428,128.646
133.428,128.885
133.428,129.112
133.428,129.328
135.229,129.623
134.916,129.888
132.85,130.036
132.85,130.177
132.85,130.31
132.85,130.437
132.85,130.558
132.85,130.673
148.671,131.572
148.671,132.427
144.059,133.009
137.01,133.209
137.01,133.399
137.01,133.58
137.609,133.781
137.609,133.972
137.609,134.154
137.609,134.327
138.275,134.524
137.857,134.691
138.221,134.868
137.244,134.986
136.373,135.056
134.03,135.004
134.03,134.956
134.03,134.909
150.544,135.691
150.544,136.434
150.544,137.139
142.383,137.401
140.785,137.571
143.193,137.852
144.192,138.169
143.326,138.427
143.326,138.672
143.326,138.904
143.326,139.125
141.772,139.258
140.181,139.304
139.031,139.29
138.821,139.267
138.821,139.245
138.821,139.223
138.821,139.203
138.821,139.184
138.821,139.166
138.821,139.149
137.078,139.045
127.361,138.461
128.694,137.973
133.185,137.733
136.482,137.671
138.084,137.691
138.084,137.711
138.084,137.73
135.996,137.643
136.13,137.567
135.357,137.457
134.442,137.306
134.676,137.175
134.181,137.025
129.01,136.624
129.01,136.244
129.01,135.882
129.01,135.538
129.01,135.212
124.142,134.658
120.12,133.931
125.21,133.495
125.21,133.081
126.708,132.762
125.817,132.415
125.817,132.085
125.817,131.772
125.817,131.474
129.318,131.366
131.16,131.356
132.174,131.397
132.174,131.436
131.285,131.428
131.285,131.421
131.285,131.414
131.285,131.408
131.285,131.402
131.285,131.396
126.742,131.163
122.366,130.723
129.42,130.658
134.438,130.847
135.674,131.089
135.674,131.318
135.674,131.536
135.674,131.743
136.836,131.997
