Normal data,Filtered data
154.441,154.441
153.92,154.415
153.258,154.357
153.84,154.332
151.382,154.184
154.497,154.2
156.478,154.314
156.633,154.43
159.394,154.678
160.683,154.978
160.645,155.261
159.92,155.494
160.568,155.748
159.962,155.959
159.353,156.128
158.413,156.243
158.023,156.332
158.248,156.427
158.592,156.536
156.004,156.509
157.217,156.545
158.012,156.618
159.716,156.773
160.376,156.953
160.027,157.107
159.655,157.234
159.437,157.344
159.517,157.453
158.288,157.495
158.168,157.528
156.888,157.496
155.598,157.401
154.639,157.263
152.858,157.043
154.56,156.919
155.49,156.847
156.13,156.812
157.359,156.839
157.984,156.896
158.138,156.958
158.574,157.039
157.3,157.052
156.937,157.046
155.718,156.98
153.568,156.809
151.494,156.543
152.848,156.359
153.818,156.232
153.353,156.088
157.291,156.148
158.711,156.276
159.149,156.42
159.889,156.593
160.251,156.776
157.695,156.822
155.812,156.772
154.228,156.644
154.914,156.558
154.285,156.444
151.915,156.218
149.522,155.883
156.574,155.918
157.676,156.005
158.134,156.112
159.014,156.257
159.555,156.422
159.966,156.599
160.614,156.8
159.706,156.945
157.885,156.992
154.053,156.845
153.308,156.668
152.946,156.482
154.781,156.397
157.967,156.476
158.456,156.575
160.577,156.775
161.471,157.01
160.294,157.174
157.932,157.212
157.562,157.229
156.248,157.18
156.62,157.152
158.902,157.24
157.976,157.276
158.273,157.326
158.935,157.407
158.009,157.437
159.309,157.53
159.497,157.629
159.566,157.726
159.724,157.826
159.768,157.923
158.656,157.959
158.598,157.991
160.373,158.11
160.769,158.243
160.106,158.336
159.643,158.402
159.853,158.474
159.208,158.511
158.82,158.526
158.671,158.534
156.607,158.437
157.02,158.366
157.097,158.303
156.434,158.21
156.416,158.12
157.54,158.091
158.473,158.11
159.275,158.168
157.712,158.145
156.553,158.066
154.846,157.905
152.794,157.649
149.942,157.264
151.395,156.97
152.594,156.752
155.639,156.696
157.729,156.748
160.086,156.915
160.559,157.097
161.681,157.326
160.403,157.48
159.515,157.582
159.152,157.66
158.423,157.698
158.249,157.726
155.871,157.633
157.021,157.602
157.612,157.603
158.764,157.661
159.864,157.771
159.638,157.864
159.577,157.95
160.348,158.07
160.192,158.176
159.099,158.222
158.356,158.229
156.941,158.165
156.997,158.106
157.088,158.055
155.4,157.922
155.84,157.818
156.359,157.745
157.743,157.745
158.871,157.802
158.467,157.835
158.846,157.885
160.017,157.992
159.967,158.091
158.37,158.105
156.407,158.02
155.495,157.894
154.305,157.714
153.316,157.494
150.781,157.159
153.832,156.992
157.066,156.996
157.919,157.042
159.069,157.143
159.732,157.273
159.137,157.366
157.677,157.382
156.641,157.345
157.491,157.352
156.337,157.301
156.939,157.283
157.157,157.277
156.006,157.213
155.698,157.137
157.126,157.137
158.271,157.194
158.528,157.26
158.901,157.342
160.254,157.488
160.184,157.623
158.81,157.682
156.778,157.637
156.091,157.56
155.423,157.453
156.225,157.391
156.761,157.36
156.995,157.342
156.656,157.307
157.513,157.318
159.816,157.443
160.917,157.616
161.91,157.831
162.249,158.052
162.751,158.287
162.052,158.475
160.6,158.581
160.424,158.673
159.357,158.708
158.134,158.679
155.631,158.527
156.066,158.403
157.081,158.337
158.043,158.323
157.237,158.268
154.746,158.092
152.768,157.826
152.483,157.559
151.623,157.262
152.954,157.047
154.411,156.915
155.291,156.834
155.742,156.779
156.366,156.758
157.898,156.815
157.726,156.861
156.314,156.834
157.582,156.871
158.782,156.966
159.983,157.117
158.816,157.202
157.9,157.237
157.967,157.274
157.772,157.299
157.846,157.326
158.265,157.373
158.656,157.437
159.334,157.532
159.236,157.617
158.052,157.639
156.343,157.574
158.975,157.644
159.123,157.718
159.586,157.811
158.64,157.853
157.916,157.856
156.181,157.772
156.158,157.692
157.881,157.701
158.05,157.719
158.519,157.759
158.88,157.815
158.619,157.855
159.341,157.929
159.89,158.027
160.092,158.13
161.064,158.277
160.554,158.391
159.536,158.448
157.23,158.387
156.417,158.289
153.709,158.06
156.872,158
156.507,157.926
157.32,157.895
157.814,157.891
159.283,157.961
159.68,158.047
160.318,158.16
158.889,158.197
156.844,158.129
155.73,158.009
154.623,157.84
154.591,157.678
155.157,157.551
154.566,157.402
155.435,157.304
156.446,157.261
157.256,157.261
157.009,157.248
157.986,157.285
158.573,157.349
159.331,157.448
158.718,157.512
157.766,157.525
157.288,157.513
155.225,157.398
154.949,157.276
156.164,157.22
154.345,157.077
155.888,157.017
155.64,156.948
156.766,156.939
157.779,156.981
159.243,157.094
159.358,157.207
160.015,157.348
159.395,157.45
157.85,157.47
156.614,157.427
156.121,157.362
155.653,157.277
155.814,157.203
155.333,157.11
155.147,157.012
157.954,157.059
159.199,157.166
158.692,157.242
157.162,157.238
158.565,157.305
159.962,157.437
160.957,157.613
159.392,157.702
159.165,157.775
158.078,157.791
156.305,157.716
156.08,157.634
156.771,157.591
157.439,157.584
157.286,157.569
159.019,157.641
159.556,157.737
159.946,157.847
160.028,157.956
160.997,158.108
159.679,158.187
157.877,158.171
155.795,158.053
153.421,157.821
152.684,157.564
151.422,157.257
151.176,156.953
153.423,156.776
156.026,156.739
157.802,156.792
158.58,156.882
158.964,156.986
159.249,157.099
159.885,157.238
158.758,157.314
156.461,157.271
154.815,157.149
152.829,156.933
152.276,156.7
153.139,156.522
155.384,156.465
157.342,156.509
159.037,156.635
159.54,156.78
159.542,156.918
160.221,157.084
161.182,157.288
159.96,157.422
158.499,157.476
156.488,157.426
155.194,157.315
154.241,157.161
155.124,157.059
156.861,157.049
156.278,157.011
159.152,157.118
159.914,157.258
160.617,157.426
161.014,157.605
161.744,157.812
159.847,157.914
157.545,157.895
156.048,157.803
157.151,157.77
157.524,157.758
158.679,157.804
159.19,157.873
159.718,157.966
160.082,158.071
160.331,158.184
161.29,158.34
159.554,158.4
158.221,158.391
156.684,158.306
155.181,158.15
152.778,157.881
153.521,157.663
154.716,157.516
155.896,157.435
158.644,157.495
160.044,157.623
160.818,157.783
161.66,157.976
160.548,158.105
159.043,158.152
157.937,158.141
156.969,158.082
155.262,157.941
157.894,157.939
156.386,157.861
156.264,157.782
157.53,157.769
158.686,157.815
158.773,157.863
157.676,157.853
156.445,157.783
155.294,157.659
156.31,157.591
157.268,157.575
157.216,157.557
157.648,157.562
159.337,157.65
159.074,157.721
158.538,157.762
158.224,157.785
158.476,157.82
157.174,157.788
155.135,157.655
157.371,157.641
156.859,157.602
156.728,157.558
156.765,157.518
155.435,157.414
156.615,157.374
158.186,157.415
158.709,157.48
159.603,157.586
159.432,157.678
158.12,157.7
159.733,157.802
158.26,157.825
157.707,157.819
157.112,157.783
154.793,157.634
153.565,157.431
152.041,157.161
150.834,156.845
152.179,156.611
151.631,156.362
154.209,156.255
156.269,156.255
157.102,156.298
158.025,156.384
157.76,156.453
159.293,156.595
159.226,156.727
158.838,156.832
157.69,156.875
156.215,156.842
156.247,156.812
154.194,156.681
156.08,156.651
154.378,156.538
155.787,156.5
157.236,156.537
158.366,156.628
158.194,156.707
159.432,156.843
160.854,157.043
161.437,157.263
159.038,157.352
156.205,157.294
153.352,157.097
153.236,156.904
156.374,156.878
157.335,156.901
156.842,156.898
160.002,157.053
160.881,157.244
160.698,157.417
158.537,157.473
156.246,157.412
154.411,157.262
156.062,157.202
158.392,157.261
157.534,157.275
156.84,157.253
158.02,157.291
157.116,157.283
157.299,157.283
158.377,157.338
159.482,157.445
159.289,157.537
158.769,157.599
158.795,157.659
158.758,157.714
157.625,157.709
154.614,157.555
151.546,157.254
148.66,156.824
149.436,156.455
148.641,156.064
153.201,155.921
156.697,155.96
159.21,156.122
159.746,156.304
160.38,156.507
159.891,156.677
158.807,156.783
158.027,156.845
157.03,156.854
157.703,156.897
158.273,156.966
158.98,157.066
159.412,157.184
155.693,157.109
153.572,156.932
149.115,156.541
149.636,156.196
152.141,155.993
154.938,155.941
155.791,155.933
156.796,155.976
157.564,156.056
156.879,156.097
156.184,156.101
154.931,156.043
154.242,155.953
153.486,155.829
152.834,155.68
154.544,155.623
156.01,155.642
157.838,155.752
156.718,155.8
153.417,155.681
151.799,155.487
150.834,155.254
150.616,155.022
150.697,154.806
148.086,154.47
148.249,154.159
152.758,154.089
158.227,154.296
160.595,154.611
160.6,154.91
160.625,155.196
158.965,155.384
155.63,155.397
155.351,155.394
154.829,155.366
154.129,155.304
154.811,155.28
157.401,155.386
159.096,155.571
159.554,155.77
159.046,155.934
159.057,156.09
159.134,156.242
158.797,156.37
157.749,156.439
156.337,156.434
156.499,156.437
156.975,156.464
157.318,156.507
158.485,156.606
159.526,156.752
159.133,156.871
159.703,157.012
160.62,157.193
161.422,157.404
160.064,157.537
159.072,157.614
158.079,157.637
157.482,157.629
156.742,157.585
158.031,157.607
158.157,157.635
158.268,157.666
159.945,157.78
159.839,157.883
159.75,157.977
160.379,158.097
160.63,158.223
159.524,158.288
158.34,158.291
156.368,158.195
155.769,158.073
155.258,157.933
154.812,157.777
157.739,157.775
159.871,157.88
160.095,157.99
160.958,158.139
161.768,158.32
160.99,158.454
158.433,158.453
156.415,158.351
156.15,158.241
155.187,158.088
156.01,157.984
156.813,157.926
157.532,157.906
158.736,157.947
158.916,157.996
160.111,158.102
158.968,158.145
156.691,158.072
154.476,157.892
154.322,157.714
155.286,157.593
154.56,157.441
155.7,157.354
157.06,157.339
159.875,157.466
160.042,157.595
160.678,157.749
159.033,157.813
158.505,157.848
157.217,157.816
156.612,157.756
154.478,157.592
154.597,157.442
156.689,157.405
158.254,157.447
159.234,157.536
159.305,157.625
159.644,157.726
159.533,157.816
159.804,157.916
159.845,158.012
160.006,158.112
160.244,158.218
160.471,158.331
159.515,158.39
160.162,158.479
159.905,158.55
160.104,158.628
160.491,158.721
158.748,158.722
155.786,158.575
155.806,158.437
153.543,158.192
150.336,157.799
155.158,157.667
151.459,157.357
155.065,157.242
156.54,157.207
159.713,157.333
159.926,157.462
160.596,157.619
