Normal data,Filtered data
145.634,145.634
143.786,145.542
150.766,145.803
154.201,146.223
155.189,146.671
156.428,147.159
157.282,147.665
154.58,148.011
146.384,147.93
144.275,147.747
145.708,147.645
150.304,147.778
153.7,148.074
145.04,147.922
143.694,147.711
151.559,147.903
155.579,148.287
155.181,148.632
144.007,148.4
139.205,147.941
138.665,147.477
144.468,147.326
149.117,147.416
141.577,147.124
146.821,147.109
150.529,147.28
142.187,147.025
141.508,146.749
146.6,146.742
153.488,147.079
142.005,146.826
139.478,146.458
150.247,146.648
156.636,147.147
160.761,147.828
152.351,148.054
148.908,148.097
155.352,148.459
154.334,148.753
143.831,148.507
141.223,148.143
144.931,147.982
151.37,148.152
151.655,148.327
145.601,148.19
144.934,148.028
151.771,148.215
150.447,148.326
142.602,148.04
142.238,147.75
148.92,147.809
150.052,147.921
145.254,147.787
145.937,147.695
149.694,147.795
150.168,147.914
139.711,147.503
139.198,147.088
141.388,146.803
150.67,146.996
151.296,147.211
142.086,146.955
141.751,146.695
150.08,146.864
155.183,147.28
152.582,147.545
151.544,147.745
154.343,148.075
155.864,148.464
147.827,148.433
147.748,148.398
148.143,148.386
153.82,148.657
144.883,148.469
143.176,148.204
136.81,147.634
134.401,146.973
141.904,146.719
141.456,146.456
136.149,145.941
130.297,145.158
131.363,144.469
139.962,144.243
147.086,144.385
143.106,144.321
142.05,144.208
151.891,144.592
160.251,145.375
150.145,145.613
147.839,145.725
153.777,146.127
158.39,146.741
150.978,146.952
150.234,147.117
153.869,147.454
158.692,148.016
159.887,148.61
153.691,148.864
151.915,149.016
152.185,149.175
145.919,149.012
143.535,148.738
152.153,148.909
151.347,149.031
144.192,148.789
141.548,148.427
144.743,148.242
150.693,148.365
155.605,148.727
154.169,148.999
145.648,148.832
143.593,148.57
137.269,148.005
135.563,147.382
136.857,146.856
144.481,146.737
135.559,146.179
132.331,145.486
136.697,145.047
142.051,144.897
150.966,145.2
142.699,145.075
139.137,144.778
148.594,144.969
154.934,145.467
155.359,145.962
144.761,145.902
161.713,146.692
152.089,146.962
150.672,147.148
150.056,147.293
153.535,147.605
153.381,147.894
144.637,147.731
143.591,147.524
144.466,147.371
133.072,146.656
132.905,145.969
142.611,145.801
148.866,145.954
162.282,146.77
151.631,147.014
147.796,147.053
147.436,147.072
156.486,147.543
161.185,148.225
153.421,148.484
149.456,148.533
150.924,148.653
153.973,148.919
158.631,149.404
153.537,149.611
151.723,149.716
152.923,149.877
154.175,150.092
158.914,150.533
