Normal data,Filtered data
62.4234,62.4234
61.1449,62.3594
59.6025,62.2216
58.359,62.0285
57.0849,61.7813
55.8739,61.4859
55.961,61.2097
55.6527,60.9318
55.944,60.6824
57.613,60.5289
58.8996,60.4475
59.6326,60.4067
60.2041,60.3966
60.8106,60.4173
61.8929,60.4911
62.9631,60.6147
64.2133,60.7946
64.9793,61.0038
63.9417,61.1507
63.4942,61.2679
63.1974,61.3644
61.5177,61.372
59.829,61.2949
58.8384,61.1721
57.382,60.9826
56.1776,60.7423
56.5779,60.5341
56.2697,60.3209
55.9072,60.1002
56.0817,59.8993
55.8005,59.6943
56.0086,59.51
56.4472,59.3569
55.8133,59.1797
55.9067,59.0161
55.4223,58.8364
56.7327,58.7312
57.509,58.6701
58.0795,58.6405
58.2146,58.6192
58.1445,58.5955
59.348,58.6331
59.4537,58.6742
59.3274,58.7068
60.233,58.7831
60.9515,58.8916
60.178,58.9559
60.182,59.0172
59.8057,59.0566
59.3656,59.0721
58.9732,59.0671
58.5226,59.0399
58.5249,59.0141
57.973,58.9621
57.8688,58.9074
57.832,58.8536
57.0758,58.7647
57.1717,58.6851
56.943,58.598
56.6827,58.5022
56.4046,58.3973
55.8826,58.2716
56.2345,58.1697
56.7411,58.0983
56.6825,58.0275
57.4275,57.9975
57.7853,57.9869
58.1637,57.9957
58.1043,58.0012
57.9022,57.9962
58.7105,58.0319
59.0568,58.0832
58.0774,58.0829
57.4643,58.052
56.2931,57.964
55.485,57.8401
54.7187,57.684
54.8717,57.5434
54.8918,57.4108
55.2442,57.3025
56.1267,57.2437
56.2475,57.1939
56.5888,57.1636
56.4767,57.1293
57.2073,57.1332
57.1597,57.1345
57.2961,57.1426
57.7885,57.1749
57.9075,57.2115
57.7529,57.2386
57.6719,57.2602
58.486,57.3215
57.9267,57.3518
57.1491,57.3416
56.5291,57.301
55.7397,57.2229
55.9097,57.1573
56.0198,57.1004
55.7691,57.0338
56.0994,56.9871
56.5732,56.9664
56.5647,56.9463
56.824,56.9402
57.1453,56.9505
57.7361,56.9897
58.5501,57.0678
58.6007,57.1444
57.9628,57.1853
59.2358,57.2879
60.1274,57.4298
60.8035,57.5985
60.0653,57.7219
59.945,57.833
59.4969,57.9162
58.7179,57.9563
57.7878,57.9479
57.3344,57.9172
57.1033,57.8765
56.6383,57.8146
56.6423,57.756
56.4863,57.6925
55.6862,57.5922
55.5984,57.4925
55.3947,57.3876
55.3641,57.2864
55.3687,57.1905
56.1824,57.1401
57.1159,57.1389
57.4402,57.154
58.3951,57.216
59.1413,57.3123
59.4531,57.4193
59.8419,57.5405
60.0982,57.6684
60.8635,57.8281
61.7757,58.0255
61.459,58.1972
61.0925,58.3419
60.4608,58.4479
59.9447,58.5227
59.4879,58.571
59.2639,58.6056
59.0422,58.6274
58.5227,58.6222
58.0775,58.595
57.6459,58.5475
57.5794,58.4991
57.8648,58.4674
58.4898,58.4685
58.7383,58.482
59.0586,58.5108
58.9854,58.5346
58.7625,58.546
58.9182,58.5646
59.747,58.6237
60.104,58.6977
60.51,58.7883
59.9119,58.8445
59.8236,58.8935
59.9802,58.9478
60.8326,59.042
60.0658,59.0932
59.0451,59.0908
57.8849,59.0305
56.5788,58.9079
56.3371,58.7794
55.1286,58.5968
55.1117,58.4226
55.1491,58.2589
56.0635,58.1491
56.7324,58.0783
57.4277,58.0458
58.494,58.0682
58.4039,58.085
58.6164,58.1115
59.4811,58.18
60.1277,58.2774
60.3059,58.3788
60.2346,58.4716
60.0105,58.5486
60.7554,58.6589
60.6998,58.7609
60.3201,58.8389
59.6442,58.8792
58.9023,58.8803
58.4443,58.8585
57.8977,58.8105
58.0721,58.7736
58.054,58.7376
58.8921,58.7453
59.4567,58.7809
60.2189,58.8528
60.9227,58.9563
61.8832,59.1026
62.1549,59.2552
61.9444,59.3897
61.4688,59.4936
61.7808,59.608
61.765,59.7159
62.2115,59.8406
61.813,59.9393
61.0691,59.9957
59.8777,59.9898
59.4822,59.9645
58.2032,59.8764
57.5581,59.7605
57.2211,59.6335
57.6057,59.5321
57.1842,59.4147
57.1314,59.3005
57.5379,59.2124
58.3425,59.1689
58.2214,59.1215
58.0288,59.0669
58.201,59.0236
58.3328,58.9891
58.8353,58.9814
58.875,58.9761
59.4857,59.0015
59.81,59.042
60.3431,59.107
59.7811,59.1407
59.0177,59.1346
58.0596,59.0808
57.0707,58.9803
56.7581,58.8692
56.6079,58.7561
56.3573,58.6362
56.0202,58.5054
56.0112,58.3807
57.1654,58.3199
58.109,58.3094
58.7246,58.3301
59.5794,58.3926
59.8988,58.4679
59.894,58.5392
60.8546,58.655
61.5549,58.8
61.2088,58.9204
61.186,59.0337
61.0612,59.1351
60.896,59.2231
59.5639,59.2402
57.8996,59.1731
57.5959,59.0943
57.1049,58.9948
55.9239,58.8413
55.7436,58.6864
56.0854,58.5563
56.409,58.449
57.1157,58.3823
57.6468,58.3455
57.4505,58.3008
57.8812,58.2798
58.1778,58.2747
57.8976,58.2558
58.1116,58.2486
58.3006,58.2512
58.64,58.2707
58.3764,58.2759
57.8057,58.2524
58.2464,58.2521
58.6758,58.2733
58.8655,58.3029
58.6678,58.3212
57.9513,58.3027
56.909,58.233
56.8857,58.1656
56.5409,58.0844
56.2964,57.995
55.7518,57.8828
55.4386,57.7606
54.994,57.6223
54.7978,57.481
54.4403,57.329
55.0683,57.216
55.6815,57.1393
56.4276,57.1037
56.8062,57.0888
58.0699,57.1379
58.9585,57.2289
59.4651,57.3407
60.1658,57.482
60.1149,57.6136
59.5444,57.7101
59.4237,57.7958
59.1101,57.8615
58.2822,57.8826
57.7316,57.875
56.9416,57.8283
56.499,57.7619
56.0087,57.6742
55.571,57.569
55.8611,57.4837
56.654,57.4422
56.1998,57.38
56.5753,57.3398
57.1698,57.3313
57.5645,57.343
58.1622,57.3839
58.3749,57.4335
59.1269,57.5181
59.0981,57.5971
59.5182,57.6932
59.9543,57.8062
60.1498,57.9234
61.0967,58.0821
60.4636,58.2012
59.9318,58.2877
59.5492,58.3508
58.8931,58.3779
58.9606,58.407
58.6788,58.4206
58.3631,58.4177
57.6317,58.3784
57.3766,58.3283
57.4807,58.286
57.5202,58.2477
57.7949,58.225
58.0863,58.2181
57.9406,58.2042
57.1946,58.1537
57.158,58.1039
56.967,58.0471
57.6609,58.0278
57.5147,58.0021
57.7494,57.9895
57.3444,57.9572
58.3274,57.9757
58.6633,58.0101
58.924,58.0558
58.7363,58.0898
58.0006,58.0854
57.3247,58.0473
57.6984,58.0299
57.3173,57.9943
56.7495,57.932
55.7513,57.823
54.9629,57.68
55.6741,57.5797
56.9021,57.5458
57.3049,57.5338
58.4642,57.5803
58.6883,57.6357
58.0129,57.6545
58.3311,57.6884
57.942,57.701
57.6776,57.6999
57.4934,57.6895
58.2543,57.7178
58.5033,57.757
58.3472,57.7866
57.8029,57.7874
57.2603,57.761
56.7876,57.7123
56.2157,57.6375
56.3227,57.5718
56.2912,57.5077
56.1269,57.4387
56.5544,57.3945
58.0642,57.428
59.2309,57.5181
60.1711,57.6508
61.2297,57.8297
61.2668,58.0016
61.1492,58.1589
61.3499,58.3185
61.7449,58.4898
61.8556,58.6581
61.379,58.7941
60.6166,58.8853
60.0065,58.9413
60.1726,59.0029
59.7689,59.0412
59.099,59.0441
58.4323,59.0135
57.3706,58.9313
57.1824,58.8439
56.7449,58.7389
56.2516,58.6146
56.623,58.515
56.842,58.4313
56.85,58.3523
56.9574,58.2825
56.9968,58.2183
57.2217,58.1684
56.9171,58.1059
56.4816,58.0247
55.7917,57.913
56.4383,57.8393
56.8068,57.7876
56.9427,57.7454
57.9749,57.7569
58.4671,57.7924
59.054,57.8555
59.6158,57.9435
59.7295,58.0328
59.9967,58.131
60.0018,58.2245
59.6376,58.2952
59.1796,58.3394
58.6707,58.356
58.289,58.3526
57.9081,58.3304
58.5825,58.343
58.6451,58.3581
58.9257,58.3865
59.0141,58.4179
59.0931,58.4516
59.5325,58.5057
59.174,58.5391
59.1603,58.5701
59.2611,58.6047
59.9797,58.6734
60.2715,58.7533
59.8164,58.8065
58.9727,58.8148
58.1313,58.7806
57.5732,58.7203
57.5102,58.6598
57.2403,58.5888
56.3746,58.4781
55.9302,58.3507
55.9289,58.2296
56.2135,58.1288
56.6711,58.0559
56.5302,57.9796
57.0814,57.9347
56.9619,57.8861
57.7199,57.8778
58.3898,57.9034
59.1635,57.9664
59.1033,58.0232
59.1823,58.0812
59.4011,58.1472
59.3144,58.2055
58.6793,58.2292
58.1771,58.2266
57.844,58.2075
57.6883,58.1815
57.3864,58.1417
57.0995,58.0896
56.8706,58.0287
55.8414,57.9193
55.716,57.8091
55.0091,57.6691
54.7997,57.5257
55.1079,57.4048
54.8595,57.2775
55.0861,57.1679
55.4993,57.0845
57.4435,57.1025
57.9526,57.145
58.4049,57.208
58.0218,57.2486
57.443,57.2584
56.8531,57.2381
56.3813,57.1953
56.3562,57.1533
56.75,57.1331
56.6529,57.1091
56.9943,57.1034
57.3423,57.1153
57.8112,57.1501
58.4434,57.2148
58.5551,57.2818
58.8742,57.3614
60.2245,57.5046
60.772,57.6679
60.6828,57.8187
60.2386,57.9397
59.8923,58.0373
59.812,58.126
59.3164,58.1856
58.8104,58.2168
58.8772,58.2498
59.1607,58.2954
59.0848,58.3348
60.1767,58.4269
60.2613,58.5187
60.4019,58.6128
60.8757,58.726
61.1408,58.8467
60.5133,58.93
61.0275,59.0349
60.6972,59.118
60.6918,59.1967
59.7819,59.226
59.1482,59.2221
58.9515,59.2085
58.553,59.1758
58.104,59.1222
57.7154,59.0518
57.4614,58.9723
57.3028,58.8888
57.2329,58.806
56.3707,58.6843
56.9167,58.5959
56.9882,58.5155
58.0256,58.491
58.7818,58.5055
59.3204,58.5463
60.3357,58.6358
61.1235,58.7601
60.945,58.8694
60.8278,58.9673
60.1523,59.0266
60.9015,59.1203
61.3616,59.2324
60.3438,59.2879
59.6444,59.3058
58.8023,59.2806
57.9294,59.213
57.2006,59.1124
57.1463,59.0141
56.8729,58.907
56.6974,58.7965
57.0735,58.7104
57.4584,58.6478
57.8495,58.6079
58.7397,58.6145
59.3801,58.6527
60.039,58.7221
60.3346,58.8027
61.0128,58.9132
61.7723,59.0561
61.4725,59.177
60.9331,59.2648
60.8176,59.3424
60.7384,59.4122
60.5943,59.4713
60.3772,59.5166
59.4714,59.5143
58.3407,59.4557
57.4678,59.3563
57.3682,59.2569
56.8282,59.1354
56.5597,59.0066
56.8622,58.8994
57.3149,58.8202
58.1221,58.7853
58.6451,58.7783
59.4435,58.8115
60.4314,58.8925
61.2369,59.0097
61.334,59.1259
61.5694,59.2481
61.7002,59.3707
61.7618,59.4903
61.6765,59.5996
61.3749,59.6884
61.2357,59.7657
60.7839,59.8166
60.1127,59.8314
58.6259,59.7712
58.323,59.6987
57.2754,59.5776
55.886,59.393
54.962,59.1715
54.8345,58.9546
54.8364,58.7487
55.2345,58.573
55.1975,58.4042
55.4553,58.2568
55.7205,58.1299
57.0323,58.0751
57.424,58.0425
58.2129,58.051
59.1152,58.1042
59.4004,58.169
59.3959,58.2304
58.9475,58.2662
58.443,58.2751
57.8856,58.2556
58.7078,58.2782
58.1256,58.2706
58.2451,58.2693
57.99,58.2553
57.6573,58.2254
57.3672,58.1825
57.6409,58.1554
57.4362,58.1195
57.4336,58.0852
57.4592,58.0539
57.1643,58.0094
57.3203,57.975
57.2973,57.9411
58.5035,57.9692
58.6272,58.0021
58.87,58.0455
58.5188,58.0692
57.7086,58.0511
58.0415,58.0506
57.72,58.0341
57.3501,57.9999
57.4515,57.9725
57.5281,57.9503
57.8895,57.9472
57.3351,57.9166
56.5122,57.8464
55.6134,57.7347
54.8407,57.59
54.3713,57.4291
53.4345,57.2294
52.7407,57.0049
53.0936,56.8094
53.4595,56.6419
54.226,56.5211
55.8382,56.4869
57.2411,56.5247
58.5981,56.6283
59.6253,56.7782
60.1866,56.9486
60.4516,57.1237
59.8359,57.2593
59.3635,57.3646
59.2716,57.4599
58.6727,57.5205
59.0115,57.5951
58.6325,57.647
57.8727,57.6583
57.239,57.6373
56.4013,57.5755
55.6524,57.4793
55.3109,57.3709
55.3325,57.269
55.1573,57.1634
56.0175,57.1061
56.8073,57.0912
57.4114,57.1072
57.6482,57.1342
58.0036,57.1777
58.4529,57.2415
58.3873,57.2988
58.1867,57.3432
58.554,57.4037
57.7234,57.4197
57.1461,57.406
56.0816,57.3398
55.3812,57.2418
54.4047,57.1
54.304,56.9602
54.4622,56.8353
54.8926,56.7382
55.9483,56.6987
57.3478,56.7311
58.303,56.8097
59.2734,56.9329
59.5672,57.0646
60.0046,57.2116
60.8507,57.3936
61.0383,57.5758
61.4742,57.7707
61.9398,57.9792
62.2976,58.1951
62.1902,58.3948
62.1778,58.584
61.9795,58.7538
62.1879,58.9255
62.0113,59.0798
61.6381,59.2077
61.3064,59.3126
60.9028,59.3921
60.4207,59.4436
60.6024,59.5015
61.8219,59.6175
62.7189,59.7726
63.3231,59.9501
63.8063,60.1429
63.0462,60.2881
63.3043,60.4389
63.5782,60.5959
62.5737,60.6948
61.646,60.7423
61.921,60.8013
62.514,60.8869
62.107,60.9479
61.579,60.9795
60.6913,60.965
60.3982,60.9367
59.9151,60.8856
59.5542,60.819
58.6967,60.7129
58.9485,60.6247
58.8312,60.535
59.3159,60.4741
58.8982,60.3953
58.9106,60.321
59.4703,60.2785
60.043,60.2667
60.8249,60.2946
60.9328,60.3265
60.6731,60.3439
60.7251,60.3629
61.272,60.4084
60.9766,60.4368
60.8907,60.4595
60.5642,60.4647
60.9659,60.4898
60.7215,60.5014
60.4918,60.5009
59.8654,60.4691
59.3601,60.4137
59.2411,60.355
59.4398,60.3093
59.6897,60.2783
59.7536,60.252
60.1922,60.2491
60.1261,60.2429
59.7899,60.2203
59.8944,60.204
58.4318,60.1154
58.3291,60.026
58.0701,59.9282
57.6932,59.8165
57.5582,59.7036
57.3189,59.5843
57.2093,59.4656
57.46,59.3653
57.2392,59.259
56.8697,59.1395
56.4544,59.0053
56.1697,58.8635
56.5132,58.746
58.4367,58.7305
58.9742,58.7427
60.7328,58.8422
61.7217,58.9862
62.299,59.1518
