Normal data,Filtered data
175.525,175.525
173.988,175.448
172.945,175.323
174.969,175.306
174.615,175.271
174.159,175.215
173.674,175.138
169.362,174.85
164.811,174.348
154.913,173.376
145.842,171.999
141.918,170.495
140.469,168.994
139.825,167.535
143.574,166.337
146.591,165.35
150.904,164.628
156.491,164.221
160.52,164.036
162.662,163.967
162.97,163.917
165.323,163.988
164.863,164.031
168.975,164.278
169.965,164.563
175.647,165.117
175.113,165.617
174.004,166.036
172.965,166.383
171.7,166.648
171.926,166.912
166.002,166.867
159.944,166.521
153.069,165.848
149.253,165.018
148.187,164.177
146.957,163.316
150.771,162.689
152.847,162.196
156.889,161.931
161.918,161.93
168.544,162.261
170.269,162.662
171.589,163.108
172.59,163.582
173.702,164.088
174.45,164.606
176.223,165.187
176.248,165.74
175.923,166.249
176.245,166.749
175.519,167.187
174.675,167.562
173.497,167.859
170.623,167.997
167.677,167.981
166.252,167.894
160.574,167.528
154.251,166.864
150.657,166.054
147.068,165.105
145.494,164.124
146.148,163.225
148.023,162.465
150.821,161.883
154.572,161.518
158.271,161.355
159.797,161.277
160.864,161.257
163.338,161.361
163.646,161.475
167.48,161.775
168.679,162.12
173.2,162.674
175.044,163.293
176.16,163.936
176.35,164.557
176.426,165.15
174.648,165.625
169.502,165.819
161.905,165.623
154.709,165.078
150.118,164.33
147.845,163.505
148.261,162.743
150.156,162.114
153.974,161.707
157.967,161.52
161.74,161.531
165.811,161.745
165.596,161.937
168.802,162.281
169.379,162.635
172.52,163.13
173.769,163.662
174.175,164.187
174.241,164.69
173.86,165.148
173.966,165.589
170.339,165.827
166.893,165.88
160.308,165.601
152.724,164.958
149.412,164.18
145.346,163.239
146.17,162.385
146.997,161.616
149.897,161.03
153.903,160.673
158.006,160.54
161.828,160.604
164.292,160.789
164.369,160.968
168.074,161.323
169.04,161.709
172.944,162.271
172.797,162.797
172.989,163.307
172.667,163.775
171.788,164.175
170.86,164.51
165.818,164.575
161.252,164.409
156.475,164.012
150.597,163.341
147.594,162.554
144.508,161.652
143.549,160.747
147.195,160.069
150.287,159.58
154.474,159.325
161.352,159.426
165.087,159.709
167.223,160.085
168.98,160.53
169.18,160.962
170.965,161.462
170.348,161.907
173.501,162.486
173.87,163.055
172.134,163.509
172.169,163.942
172.09,164.35
175.834,164.924
172.474,165.301
169.328,165.503
166.313,165.543
161.856,165.359
154.868,164.834
150.58,164.122
146.383,163.235
144.372,162.292
144.23,161.389
146.312,160.635
149.596,160.083
153.862,159.772
158.101,159.688
159.588,159.683
164.162,159.907
164.432,160.133
167.926,160.523
168.992,160.946
169.902,161.394
171.821,161.916
173.167,162.478
172.733,162.991
173.478,163.515
173.753,164.027
173.217,164.487
166.942,164.609
159.483,164.353
154.591,163.865
153.004,163.322
153.219,162.817
155.752,162.464
159.383,162.31
162.895,162.339
163.167,162.38
164.878,162.505
164.515,162.606
165.72,162.761
166.693,162.958
167.295,163.175
169.488,163.49
171.044,163.868
171.962,164.273
172.332,164.676
167.278,164.806
162.951,164.713
155.62,164.258
150.421,163.567
145.68,162.672
144.955,161.786
144.363,160.915
145.61,160.15
149.024,159.594
153.6,159.294
158.136,159.236
159.456,159.247
160.426,159.306
164.834,159.582
168.39,160.023
169.244,160.484
171.859,161.053
174.056,161.703
173.68,162.302
173.235,162.848
172.684,163.34
171.18,163.732
166.294,163.86
159.005,163.617
154.139,163.143
149.626,162.468
147.38,161.713
147.055,160.98
149.182,160.39
152.38,159.99
156.452,159.813
159.32,159.788
162.081,159.903
162.486,160.032
166.387,160.35
167.72,160.718
171.954,161.28
173.455,161.889
173.1,162.449
173.923,163.023
173.098,163.527
171.899,163.945
167.355,164.116
159.764,163.898
154.057,163.406
150.989,162.785
148.582,162.075
148.885,161.416
150.8,160.885
154.66,160.574
158.627,160.476
159.758,160.441
162.165,160.527
164.15,160.708
167.789,161.062
168.682,161.443
172.574,162
173.866,162.593
173.476,163.137
174.438,163.702
173.388,164.186
171.657,164.56
166.69,164.666
160.015,164.434
152.098,163.817
147.413,162.997
144.162,162.055
144.897,161.197
147.125,160.494
149.122,159.925
153.199,159.589
157.364,159.477
161.341,159.571
163.919,159.788
164.924,160.045
167.09,160.397
170.648,160.91
173.528,161.541
173.78,162.153
176.398,162.865
175.954,163.519
175.182,164.102
174.565,164.626
174.847,165.137
172.038,165.482
170.42,165.729
165.44,165.714
157.936,165.325
153.231,164.721
148.839,163.926
146.548,163.058
146.071,162.208
147.874,161.491
151.852,161.009
155.766,160.747
159.631,160.691
163.245,160.819
165.535,161.055
165.452,161.275
168.989,161.66
169.651,162.06
173.227,162.618
174.161,163.195
173.984,163.735
174.402,164.268
173.406,164.725
173.161,165.147
168.503,165.315
162.124,165.155
156.891,164.742
150.768,164.043
148.111,163.247
147.272,162.448
148.155,161.733
150.957,161.194
157.565,161.013
164.221,161.173
166.36,161.433
168.13,161.768
168.283,162.093
167.74,162.376
170.941,162.804
171.408,163.234
173.287,163.737
172.877,164.194
172.703,164.619
172.421,165.009
169.817,165.25
167.159,165.345
164.724,165.314
162.116,165.154
157.375,164.765
151.575,164.106
148.484,163.325
145.274,162.422
144.862,161.544
146.049,160.769
149.118,160.187
153.165,159.836
157.262,159.707
161.217,159.782
160.516,159.819
161.416,159.899
165.764,160.192
169.475,160.656
170.387,161.143
174.415,161.807
174.062,162.419
174.111,163.004
174.601,163.584
174.705,164.14
174.503,164.658
169.46,164.898
161.639,164.735
154.257,164.211
149.678,163.485
147.614,162.691
148.238,161.968
150.354,161.388
154.283,161.032
158.236,160.893
162.691,160.983
164.641,161.166
167.984,161.506
168.861,161.874
169.34,162.247
172.657,162.768
173.713,163.315
174.748,163.887
175.13,164.449
175.275,164.99
174.693,165.475
171.38,165.771
163.539,165.659
156.056,165.179
151.264,164.483
148.882,163.703
149.123,162.974
150.771,162.364
154.389,161.965
160.887,161.911
165.235,162.077
168.127,162.38
171.032,162.813
171.969,163.27
172.64,163.739
174.797,164.292
175.639,164.859
174.65,165.349
175.209,165.842
175.104,166.305
175.193,166.749
173.991,167.111
170.759,167.294
169.427,167.4
164.168,167.239
159.632,166.858
152.793,166.155
147.618,165.228
143.501,164.142
141.526,163.011
141.504,161.936
143.622,161.02
147.073,160.323
151.45,159.879
156.801,159.725
158.342,159.656
161.26,159.736
162.038,159.851
166.22,160.17
167.366,160.529
168.541,160.93
171.21,161.444
173.181,162.031
174.345,162.647
174.852,163.257
171.998,163.694
170.217,164.02
162.953,163.967
157.383,163.637
154.462,163.179
151.487,162.594
153.314,162.13
156.39,161.843
162.292,161.865
168.143,162.179
171.157,162.628
170.482,163.021
172.652,163.502
172.771,163.966
174.695,164.502
174.593,165.007
174.031,165.458
172.317,165.801
173.042,166.163
173.537,166.532
171.775,166.794
169.634,166.936
161.792,166.679
155.314,166.111
149.563,165.283
146.313,164.335
145.685,163.402
146.818,162.573
151.528,162.021
155.389,161.689
156.708,161.44
160.944,161.415
162.938,161.491
167.437,161.789
167.71,162.085
168.206,162.391
167.366,162.64
169.076,162.961
170.527,163.34
168.674,163.606
168.028,163.827
163.957,163.834
155.3,163.407
149.345,162.704
145.771,161.857
146.273,161.078
147.538,160.401
150.09,159.886
153.874,159.585
155.522,159.382
158.48,159.337
161.015,159.421
164.693,159.684
167.606,160.081
170.156,160.584
171.762,161.143
170.87,161.63
166.598,161.878
160.132,161.791
154.091,161.406
150.53,160.862
149.359,160.287
150.619,159.803
153.013,159.464
156.318,159.307
157.764,159.229
160.484,159.292
162.671,159.461
164.362,159.706
165.797,160.011
166.896,160.355
169.574,160.816
167.589,161.155
165.017,161.348
158.129,161.187
150.614,160.658
145.919,159.921
144.484,159.149
145.067,158.445
147.948,157.92
151.804,157.615
155.659,157.517
157.553,157.519
162.097,157.747
164.399,158.08
169.152,158.634
169.715,159.188
170.414,159.749
171.786,160.351
173.044,160.985
173.741,161.623
172.086,162.146
169.158,162.497
163.945,162.569
156.133,162.248
152.355,161.753
150.924,161.211
151.383,160.72
152.055,160.287
154.993,160.022
158.943,159.968
163.71,160.155
168.157,160.555
167.829,160.919
170.929,161.419
169.909,161.844
172.103,162.357
171.625,162.82
173.426,163.351
174.401,163.903
173.914,164.404
174.834,164.925
175.153,165.437
174.06,165.868
169.565,166.053
162.937,165.897
156.52,165.428
151.836,164.748
150.155,164.019
148.767,163.256
149.952,162.591
152.401,162.081
155.918,161.773
157.172,161.543
161.328,161.532
163.275,161.62
166.697,161.873
167.665,162.163
168.508,162.48
170.688,162.891
172.178,163.355
173.198,163.847
173.895,164.35
173.838,164.824
172.335,165.199
167.312,165.305
159.722,165.026
152.676,164.408
148.154,163.596
145.869,162.709
145.64,161.856
147.773,161.152
151.754,160.682
158.866,160.591
163.675,160.745
167.043,161.06
167.128,161.364
168.91,161.741
168.378,162.073
171.485,162.543
171.764,163.004
175.24,163.616
174.779,164.174
175.523,164.742
176.044,165.307
176.442,165.864
174.894,166.315
169.655,166.482
160.1,166.163
154.662,165.588
148.576,164.737
144.894,163.745
143.314,162.724
146.404,161.908
149.176,161.271
153.237,160.869
158.215,160.737
163.048,160.852
167.713,161.195
170.661,161.669
171.966,162.183
171.565,162.652
172.784,163.159
175.256,163.764
176.331,164.392
175.915,164.968
175.686,165.504
175.234,165.991
174.709,166.427
173.772,166.794
174.22,167.165
172.596,167.437
169.507,167.54
164.78,167.402
157.74,166.919
151.471,166.147
148.374,165.258
147.16,164.353
147.745,163.523
150.228,162.858
153.817,162.406
157.453,162.158
158.576,161.979
162.735,162.017
166.544,162.243
167.643,162.513
168.433,162.809
172.362,163.287
174.183,163.832
173.728,164.327
174.397,164.83
174.662,165.322
173.111,165.711
168.113,165.831
159.727,165.526
154.26,164.963
151.266,164.278
148.99,163.514
151.014,162.889
155.019,162.495
157.52,162.246
158.667,162.067
162.689,162.098
164.532,162.22
168.936,162.556
169.406,162.898
169.705,163.239
171.574,163.655
172.945,164.12
173.835,164.606
171.192,164.935
169.178,165.147
161.733,164.976
154.872,164.471
149.585,163.727
147.786,162.93
147.955,162.181
150.278,161.586
153.43,161.178
155.198,160.879
159.836,160.827
162.218,160.896
165.863,161.145
167.085,161.442
171.502,161.945
173.104,162.503
174.109,163.083
174.648,163.661
174.494,164.203
174.423,164.714
172.565,165.107
164.407,165.072
156.416,164.639
151.282,163.971
148.833,163.214
148.183,162.462
150.12,161.845
153.204,161.413
157.111,161.198
161.839,161.23
166.283,161.483
168.217,161.819
167.979,162.127
171.214,162.582
171.941,163.05
174.229,163.609
173.99,164.128
173.46,164.594
171.142,164.922
172.478,165.3
169.736,165.521
168.091,165.65
161.405,165.438
153.998,164.866
149.798,164.112
148.607,163.337
147.172,162.529
147.934,161.799
148.362,161.127
154.003,160.771
158.802,160.672
161.688,160.723
162.559,160.815
166.36,161.092
167.881,161.432
172.167,161.969
172.526,162.496
172.427,162.993
172.452,163.466
173.386,163.962
168.82,164.205
162.23,164.106
155.955,163.698
151.205,163.074
147.946,162.317
146.653,161.534
147.827,160.849
151.062,160.359
152.752,159.979
158.047,159.882
163.134,160.045
162.453,160.165
163.23,160.319
167.28,160.667
168.78,161.072
171.896,161.614
172.174,162.142
172.168,162.643
173.576,163.19
171.014,163.581
167.781,163.791
161.248,163.664
153.758,163.168
149.15,162.467
146.884,161.688
146.627,160.935
148.857,160.331
152.204,159.925
157.226,159.79
161.377,159.869
165.121,160.132
165.445,160.397
168.973,160.826
170.122,161.291
172.585,161.856
173.234,162.425
173.454,162.976
175.013,163.578
176.089,164.203
176.115,164.799
172.57,165.188
167.355,165.296
159.969,165.03
155.72,164.564
153.494,164.011
153.821,163.501
