Normal data,Filtered data
130.032,130.032
124.473,124.751
118.513,118.825
118.513,118.529
118.513,118.514
118.513,118.513
118.513,118.513
118.513,118.513
118.513,118.513
118.513,118.513
118.513,118.513
118.513,118.513
118.513,118.513
118.513,118.513
118.513,118.513
126.817,126.402
126.817,126.796
126.937,126.93
125.182,125.27
125.182,125.187
124.798,124.817
125.683,125.64
126.68,126.628
144.837,143.926
159.272,158.505
159.272,159.234
159.272,159.27
159.272,159.272
159.272,159.272
159.272,159.272
159.272,159.272
159.272,159.272
159.272,159.272
159.272,159.272
159.272,159.272
159.272,159.272
159.272,159.272
156.251,156.402
150.588,150.878
143.634,143.996
137.802,138.112
137.802,137.818
139.345,139.269
139.612,139.595
139.188,139.208
136.439,136.577
132.865,133.051
132.865,132.874
132.865,132.865
132.865,132.865
129.507,129.675
129.507,129.515
129.507,129.507
129.507,129.507
129.507,129.507
129.507,129.507
129.507,129.507
129.507,129.507
129.507,129.507
129.507,129.507
130.721,130.66
129.181,129.255
125.57,125.754
124.91,124.952
123.631,123.697
123.063,123.095
124.735,124.653
125.129,125.105
122.429,122.562
119.315,119.477
117.593,117.687
118.32,118.289
120.018,119.932
121.74,121.649
122.29,122.258
122.744,122.72
122.744,122.743
122.744,122.744
122.744,122.744
122.744,122.744
122.744,122.744
122.744,122.744
122.744,122.744
127.186,126.964
129.551,129.422
130.074,130.041
130.299,130.286
128.797,128.872
129.688,129.647
130.138,130.114
130.138,130.137
132.491,132.374
133.118,133.081
131.981,132.036
130.626,130.697
142.827,142.22
155.837,155.157
163.221,162.817
160.512,160.628
157.699,157.846
157.699,157.707
157.699,157.7
157.699,157.7
157.699,157.699
157.699,157.699
157.699,157.699
157.699,157.699
157.699,157.699
155.606,155.71
152.278,152.449
146.467,146.766
144.754,144.854
142.996,143.089
140.572,140.697
137.357,137.524
136.358,136.416
133.711,133.846
130.907,131.054
128.232,128.373
125.358,125.509
122.292,122.453
120.556,120.651
118.726,118.822
117.094,117.18
117.094,117.098
117.094,117.094
117.094,117.094
117.094,117.094
117.094,117.094
117.094,117.094
122.678,122.399
126.283,126.089
127.729,127.647
125.971,126.055
124.266,124.355
125.094,125.057
125.657,125.627
125.814,125.805
124.861,124.908
124.123,124.162
126.419,126.307
127.509,127.449
126.151,126.216
126.75,126.723
127.553,127.512
128.653,128.596
128.653,128.65
128.653,128.653
128.653,128.653
128.653,128.653
128.653,128.653
128.653,128.653
128.653,128.653
128.653,128.653
132.801,132.594
134.715,134.609
133.68,133.726
131.968,132.056
130.685,130.754
130.6,130.607
131.874,131.811
131.848,131.846
131.802,131.804
131.146,131.179
130.367,130.408
130.898,130.873
131.1,131.088
131.596,131.57
131.824,131.811
131.824,131.823
131.824,131.824
131.824,131.824
131.824,131.824
131.824,131.824
131.824,131.824
131.824,131.824
133.371,133.294
134.873,134.794
133.192,133.272
132.01,132.073
130.945,131.002
131.111,131.106
131.182,131.178
129.891,129.955
130.662,130.627
130.766,130.759
130.051,130.086
129.822,129.835
128.679,128.737
128.888,128.881
129.518,129.486
128.145,128.212
128.145,128.148
128.145,128.145
128.145,128.145
128.145,128.145
128.145,128.145
128.145,128.145
128.145,128.145
128.145,128.145
130.361,130.25
131.702,131.629
132.107,132.083
132.101,132.1
133.388,133.324
136.252,136.106
139.295,139.136
142.239,142.083
145.338,145.175
148.557,148.388
151.5,151.345
154.125,153.986
157.942,157.744
161.844,161.639
160.344,160.408
154.108,154.423
144.034,144.553
137.456,137.81
134.165,134.348
134.165,134.175
134.165,134.166
134.165,134.165
137.339,137.181
142.596,142.326
148.108,147.819
153.546,153.26
155.439,155.33
155.439,155.433
155.439,155.438
155.439,155.439
150.203,150.465
146.102,146.32
138.55,138.938
128.718,129.229
120.189,120.641
112.533,112.938
103.465,103.938
101.316,101.447
100.108,100.175
100.234,100.231
100.137,100.142
105.828,105.544
106.79,106.728
109.92,109.76
114.791,114.54
119.519,119.27
127.397,126.991
131.865,131.621
136.438,136.197
143.052,142.71
143.052,143.035
143.052,143.052
143.052,143.052
142.788,142.802
143.045,143.033
139.897,140.054
133.141,133.487
133.135,133.153
132.808,132.825
129.725,129.88
123.743,124.05
124.63,124.601
128.219,128.038
131.479,131.307
131.479,131.47
134.732,134.569
139.659,139.404
140.852,140.779
147.363,147.034
149.861,149.72
151.883,151.775
154.374,154.244
155.677,155.605
157.089,157.015
159.278,159.165
160.415,160.353
160.415,160.412
161.855,161.783
159.667,159.772
155.663,155.868
149.468,149.788
142.651,143.008
140.203,140.344
137.508,137.649
137.963,137.948
138.552,138.521
139.342,139.301
137.19,137.295
134.996,135.111
138.085,137.936
138.175,138.163
138.175,138.174
138.175,138.175
139.37,139.31
137.999,138.064
139.463,139.393
137.875,137.951
139.606,139.523
137.929,138.009
135.446,135.574
131.927,132.109
127.852,128.065
123.968,124.173
123.968,123.978
120.437,120.614
122.659,122.557
125.556,125.406
122.946,123.069
126.501,126.33
130.6,130.387
136.353,136.055
143.771,143.385
147.873,147.649
151.622,151.424
154.535,154.379
158.143,157.955
160.123,160.015
159.823,159.833
159.636,159.646
159.107,159.134
156.644,156.768
145.944,146.485
143.296,143.455
138.314,138.571
139.067,139.042
137.451,137.531
132.704,132.945
134.646,134.561
132.845,132.931
135.26,135.143
137.501,137.383
141.269,141.075
144.488,144.317
152.291,151.892
152.291,152.271
152.291,152.29
152.221,152.225
154.515,154.401
154.042,154.06
149.399,149.632
144.733,144.978
142.541,142.663
138.569,138.773
137.038,137.124
135.466,135.549
133.918,134
132.468,132.545
128.38,128.589
124.518,124.722
127.321,127.191
127.321,127.315
127.52,127.509
138.152,137.619
137.54,137.544
136.618,136.664
140.901,140.689
145.448,145.21
144.546,144.579
144.546,144.548
144.546,144.546
145.766,145.705
145.766,145.763
145.766,145.766
145.766,145.766
147.261,147.186
145.681,145.756
140.57,140.83
135.804,136.055
134.139,134.235
134.139,134.143
135.887,135.799
135.264,135.291
135.264,135.265
134.118,134.175
137.317,137.16
137.011,137.018
136.149,136.192
137.855,137.772
142.724,142.476
147.428,147.181
148.726,148.649
152.463,152.273
155.321,155.169
157.846,157.712
154.991,155.127
154.83,154.845
154.83,154.831
149.139,149.424
141.46,141.858
136.602,136.865
131.104,131.392
131.909,131.883
124.207,124.59
123.564,123.615
123.572,123.574
123.572,123.572
129.487,129.191
129.657,129.634
136.014,135.695
140.735,140.483
147.881,147.511
151.133,150.952
153.952,153.802
153.825,153.824
155.665,155.572
157.163,157.084
158.754,158.67
161.047,160.929
162.533,162.453
160.452,160.552
156.522,156.724
147.666,148.119
140.574,140.951
139.837,139.893
136.924,137.072
134.283,134.422
134.714,134.699
135.045,135.028
131.13,131.324
135.435,135.23
139.505,139.292
140.401,140.345
146.401,146.098
150.223,150.017
152.811,152.671
152.283,152.303
152.283,152.284
152.283,152.283
153.953,153.869
155.601,155.514
158.907,158.737
159.637,159.592
159.211,159.23
155.536,155.721
143.661,144.264
138.291,138.589
132.81,133.099
125.497,125.877
122.193,122.377
120.22,120.328
121.173,121.131
119.168,119.266
128.247,127.798
128.608,128.567
131.699,131.543
141.874,141.357
150.535,150.076
149.933,149.94
154.355,154.134
154.355,154.344
155.988,155.906
157.388,157.314
158.452,158.396
156.605,156.694
154.8,154.895
156.03,155.973
154.582,154.652
151.456,151.616
148.537,148.691
146.751,146.848
146.751,146.756
143.467,143.632
138.101,138.377
132.367,132.667
132.721,132.719
132.836,132.83
132.836,132.836
136.249,136.079
134.631,134.704
135.598,135.553
139.911,139.693
138.276,138.347
136.837,136.912
138.17,138.107
144.329,144.018
151.886,151.492
151.886,151.866
151.886,151.885
151.886,151.886
151.886,151.886
151.886,151.886
151.886,151.886
144.291,144.671
136.941,137.328
133.549,133.738
132.793,132.841
130.175,130.308
130.02,130.035
130.436,130.416
131.736,131.67
132.597,132.551
137.631,137.377
143.345,143.046
145.31,145.197
148.086,147.942
149.197,149.134
149.917,149.877
151.329,151.257
153.17,153.075
153.861,153.822
154.671,154.628
155.785,155.727
153.034,153.169
153.034,153.041
152.721,152.737
148.62,148.826
147.232,147.311
144.826,144.951
141.4,141.578
137.753,137.944
132.038,132.333
128.866,129.039
133.078,132.876
139.192,138.877
139.07,139.06
138.675,138.695
140.471,140.382
143.032,142.9
144.95,144.847
147.297,147.175
151.055,150.861
154.616,154.428
157.12,156.985
157.12,157.113
157.12,157.119
156.323,156.363
156.66,156.645
153.5,153.657
147.58,147.884
141.299,141.628
135.089,135.416
126.172,126.634
122.06,122.289
118.708,118.887
118.347,118.374
120.93,120.802
125.842,125.59
130.336,130.098
133.91,133.719
133.91,133.9
133.676,133.687
133.676,133.677
133.676,133.676
138.099,137.878
138.099,138.088
138.099,138.099
138.099,138.099
138.099,138.099
138.099,138.099
138.099,138.099
134.296,134.486
133.175,133.241
127.127,127.432
126.629,126.669
126.629,126.631
126.629,126.629
126.629,126.629
127.684,127.631
128.694,128.641
131.272,131.14
133.515,133.396
133.614,133.603
134.645,134.593
134.235,134.253
136.931,136.797
136.931,136.924
136.931,136.931
140.41,140.236
142.23,142.13
144.173,144.071
145.738,145.655
145.738,145.734
146.613,146.569
146.376,146.385
145.789,145.818
141.37,141.593
136.398,136.658
136.086,136.115
133.561,133.689
134.641,134.593
133.464,133.52
134.304,134.265
131.65,131.781
131.65,131.657
134.84,134.68
134.592,134.596
136.417,136.326
138.612,138.498
139.688,139.628
143.336,143.151
144.901,144.814
145.132,145.116
145.132,145.132
145.132,145.132
145.132,145.132
145.132,145.132
146.179,146.127
144.356,144.444
144.356,144.36
139.739,139.97
132.433,132.81
130.654,130.762
131.54,131.501
132.548,132.495
133.029,133.002
132.063,132.11
132.063,132.066
135.234,135.075
135.904,135.863
137.929,137.826
137.929,137.924
137.929,137.929
137.929,137.929
137.929,137.929
137.929,137.929
137.929,137.929
137.929,137.929
137.929,137.929
137.929,137.929
137.929,137.929
137.929,137.929
137.929,137.929
129.529,129.949
129.529,129.55
125.136,125.356
125.677,125.661
124.435,124.496
120.945,121.122
119.843,119.907
121.139,121.077
122.572,122.497
126.131,125.949
132.012,131.709
130.094,130.175
131.976,131.885
131.824,131.827
136.675,136.433
136.675,136.663
138.508,138.416
139.531,139.475
141.604,141.498
141.604,141.599
141.604,141.604
144.122,143.996
145.653,145.57
146.407,146.366
145.329,145.381
144.711,144.744
142.527,142.638
141.479,141.537
140.688,140.731
140.069,140.102
139.44,139.473
136.504,136.652
137.332,137.298
140.114,139.973
141.174,141.114
142.036,141.99
141.881,141.887
141.98,141.976
141.98,141.98
141.98,141.98
141.98,141.98
141.98,141.98
141.98,141.98
141.98,141.98
141.98,141.98
141.98,141.98
141.98,141.98
141.98,141.98
136.881,137.136
136.881,136.894
132.242,132.475
128.947,129.123
128.947,128.955
131.2,131.088
131.84,131.802
127.157,127.39
131.43,131.228
137.569,137.252
139.785,139.658
143.695,143.493
144.32,144.278
144.041,144.053
144.659,144.629
144.659,144.657
145.907,145.845
145.907,145.904
145.907,145.907
145.907,145.907
145.907,145.907
145.907,145.907
145.907,145.907
145.907,145.907
145.907,145.907
144.042,144.135
139.229,139.474
135.545,135.742
131.115,131.346
128.09,128.253
123.454,123.694
121.133,121.261
117.489,117.678
117.489,117.499
118.506,118.455
119.109,119.077
123.674,123.444
127.76,127.544
132.221,131.987
132.221,132.209
132.221,132.22
132.221,132.221
132.221,132.221
132.221,132.221
132.221,132.221
132.221,132.221
132.221,132.221
130.88,130.947
129.998,130.046
129.438,129.469
127.457,127.558
124.459,124.614
121.474,121.631
119.17,119.293
118.811,118.835
118.72,118.726
122.408,122.224
129.256,128.905
132.959,132.756
135.773,135.622
136.729,136.673
138.361,138.277
140.645,140.527
140.645,140.64
140.645,140.645
140.645,140.645
140.645,140.645
140.645,140.645
140.645,140.645
140.645,140.645
140.645,140.645
140.645,140.645
140.645,140.645
141.484,141.442
138.713,138.85
137.361,137.436
135.89,135.967
134.609,134.677
134.371,134.386
133.731,133.764
132.249,132.325
132.249,132.253
131.749,131.775
129.498,129.612
129.261,129.279
127.27,127.371
130.063,129.928
132.894,132.746
132.894,132.887
132.894,132.894
132.894,132.894
137.464,137.235
137.464,137.452
137.464,137.463
137.464,137.464
137.464,137.464
137.464,137.464
137.464,137.464
135.342,135.448
137.922,137.798
139.437,139.355
139.678,139.662
139.678,139.677
139.678,139.678
138.296,138.365
135.673,135.807
136.615,136.574
137.743,137.685
137.813,137.806
141.256,141.084
141.256,141.248
145.307,145.104
148.434,148.268
149.744,149.67
150.839,150.781
150.839,150.836
151.9,151.847
151.9,151.897
151.9,151.9
151.9,151.9
151.9,151.9
146.669,146.931
139.406,139.782
137.923,138.016
141.258,141.096
143.091,142.992
143.881,143.837
146.108,145.995
144.616,144.685
143.201,143.275
142.879,142.899
140.92,141.019
136.866,137.074
137.624,137.596
137.904,137.889
140.374,140.25
140.374,140.368
140.374,140.374
140.374,140.374
140.374,140.374
140.374,140.374
140.374,140.374
140.374,140.374
140.374,140.374
140.374,140.374
134.39,134.689
131.204,131.378
129.696,129.78
122.516,122.88
119.061,119.252
114.399,114.642
111.376,111.539
109.44,109.545
107.628,107.724
107.628,107.633
113.405,113.117
118.306,118.047
122.226,122.017
123.801,123.712
126.551,126.409
126.551,126.544
126.551,126.551
126.551,126.551
126.551,126.551
126.551,126.551
126.551,126.551
126.551,126.551
126.551,126.551
126.551,126.551
130.774,130.563
129.016,129.093
126.079,126.23
127.532,127.466
127.578,127.572
125.338,125.45
124.906,124.933
123.453,123.527
119.13,119.35
119.13,119.141
119.89,119.853
120.708,120.665
124.682,124.481
127.556,127.403
133.338,133.041
133.338,133.323
133.338,133.337
133.338,133.338
133.338,133.338
133.338,133.338
133.338,133.338
133.338,133.338
133.338,133.338
133.338,133.338
133.338,133.338
133.698,133.68
133.698,133.697
133.842,133.835
135.293,135.22
135.342,135.336
135.262,135.266
136.264,136.214
136.849,136.817
136.849,136.847
137.348,137.323
137.979,137.946
137.449,137.474
138.596,138.54
139.892,139.824
139.892,139.889
139.892,139.892
139.892,139.892
139.892,139.892
139.892,139.892
139.892,139.892
139.892,139.892
139.892,139.892
139.892,139.892
139.892,139.892
136.526,136.695
136.526,136.535
136.38,136.388
138.979,138.849
141.11,140.997
142.562,142.484
144.655,144.546
142.748,142.838
139.787,139.94
139.787,139.795
139.787,139.787
138.155,138.237
141.013,140.874
143.815,143.668
148.47,148.229
148.094,148.101
148.094,148.094
148.094,148.094
148.094,148.094
148.094,148.094
148.094,148.094
148.094,148.094
148.094,148.094
148.094,148.094
138.804,139.269
133.492,133.781
133.492,133.507
131.375,131.481
127.931,128.109
127.931,127.94
129.723,129.634
131.166,131.089
127.227,127.42
127.227,127.236
132.023,131.783
134.677,134.533
135.756,135.695
136.416,136.38
137.324,137.277
142.285,142.034
142.285,142.272
142.285,142.284
142.285,142.285
142.285,142.285
142.285,142.285
142.285,142.285
142.285,142.285
142.285,142.285
141.865,141.886
139.105,139.244
134.402,134.644
134.047,134.077
135.415,135.348
135.708,135.69
140.413,140.177
137.368,137.509
137.368,137.375
137.368,137.369
140.508,140.351
140.07,140.084
139.265,139.306
138.759,138.786
138.216,138.244
138.96,138.924
144.675,144.387
144.675,144.66
144.675,144.674
144.675,144.674
144.675,144.674
144.675,144.674
144.675,144.674
144.675,144.674
144.675,144.674
144.675,144.674
141.181,141.356
136.248,136.503
138.379,138.285
137.402,137.446
137.402,137.404
137.143,137.156
135.903,135.966
135.903,135.906
135.293,135.324
138.534,138.374
138.534,138.526
138.916,138.896
142.575,142.391
143.085,143.05
148.222,147.963
148.222,148.209
148.222,148.221
148.222,148.222
148.222,148.222
148.222,148.222
149.998,149.909
149.998,149.994
149.998,149.998
149.998,149.998
145.516,145.74
140.577,140.835
140.577,140.59
134.659,134.956
131.181,131.37
131.181,131.191
131.181,131.182
131.181,131.181
131.068,131.073
136.068,135.818
135.849,135.847
136.615,136.577
136.734,136.726
135.861,135.904
138.604,138.469
138.604,138.598
138.604,138.604
138.604,138.604
138.604,138.604
138.604,138.604
138.604,138.604
138.604,138.604
138.604,138.604
138.604,138.604
138.604,138.604
135.677,135.823
130.536,130.801
132.69,132.596
134.647,134.545
133.933,133.964
131.334,131.466
129.541,129.637
127.772,127.865
128.715,128.672
131.088,130.967
133.714,133.577
134.773,134.713
133.62,133.674
136.99,136.824
138.869,138.767
138.869,138.864
138.869,138.869
138.869,138.869
138.869,138.869
138.869,138.869
138.869,138.869
138.869,138.869
138.869,138.869
138.468,138.488
138.468,138.469
135.303,135.462
132.917,133.045
135.994,135.847
135.094,135.132
135.74,135.709
137.002,136.937
133.85,134.004
127.942,128.245
128.042,128.052
124.94,125.096
124.924,124.932
127.936,127.786
132.795,132.545
134.692,134.584
135.343,135.305
135.343,135.341
135.343,135.343
135.343,135.343
135.343,135.343
135.343,135.343
135.343,135.343
135.343,135.343
135.343,135.343
137.081,136.994
137.081,137.077
137.081,137.081
139.86,139.721
143.522,143.332
146.47,146.313
149.399,149.244
146.843,146.963
141.706,141.969
140.051,140.147
142.557,142.437
140.76,140.844
143.254,143.133
143.254,143.248
144.983,144.897
147.447,147.319
146.833,146.857
146.833,146.834
146.833,146.833
146.833,146.833
146.833,146.833
146.833,146.833
146.833,146.833
143.108,143.294
141.6,141.684
139.433,139.546
137.359,137.468
140.437,140.288
138.148,138.255
135.376,135.52
132.959,133.087
130.187,130.332
125.691,125.923
126.374,126.352
126.766,126.746
128.557,128.467
130.346,130.252
134.328,134.125
138.253,138.047
139.618,139.54
139.618,139.614
139.618,139.618
139.618,139.618
139.618,139.618
139.618,139.618
139.618,139.618
139.618,139.618
139.618,139.618
140.221,140.191
138.919,138.982
135.105,135.299
136.77,136.696
135.456,135.518
133.992,134.068
130.953,131.109
128.765,128.882
126.136,126.273
124.046,124.158
125.03,124.987
129.869,129.624
128.975,129.008
130.693,130.608
132.082,132.009
132.082,132.079
132.082,132.082
132.082,132.082
132.082,132.082
132.082,132.082
131.733,131.75
132.754,132.704
132.754,132.752
132.754,132.754
132.754,132.754
132.754,132.754
129.969,130.108
129.278,129.319
131.662,131.545
130.692,130.735
130.871,130.864
131.106,131.094
129.006,129.111
125.365,125.553
125.365,125.375
124.165,124.225
127.085,126.942
127.45,127.425
127.796,127.777
129.916,129.809
129.916,129.911
129.916,129.916
129.916,129.916
129.916,129.916
129.916,129.916
129.916,129.916
129.916,129.916
129.916,129.916
129.916,129.916
129.916,129.916
129.916,129.916
130.529,130.498
133.167,133.034
134.904,134.81
133.692,133.747
131.575,131.684
128.56,128.716
126.379,126.496
122.715,122.904
122.715,122.725
124.173,124.101
124.986,124.942
127.658,127.522
129.552,129.451
133.943,133.719
133.943,133.932
133.943,133.943
133.943,133.943
133.943,133.943
133.943,133.943
133.943,133.943
133.943,133.943
