Normal data,Filtered data
128.85,128.85
125.316,128.673
131.389,128.809
133.841,129.06
138.11,129.513
141.011,130.088
147.508,130.959
151.101,131.966
150.662,132.901
151.939,133.853
151.452,134.732
148.556,135.424
151.043,136.205
152.821,137.035
153.876,137.877
152.615,138.614
151.925,139.28
146.719,139.652
144.388,139.889
141.869,139.988
138.644,139.92
137.65,139.807
139.46,139.79
141.475,139.874
143.1,140.035
148.805,140.474
150.576,140.979
149.768,141.418
148.708,141.783
147.26,142.057
145.721,142.24
143.811,142.318
137.452,142.075
133.77,141.66
130.387,141.096
134.356,140.759
139.222,140.682
144.361,140.866
152.336,141.44
154.763,142.106
152.685,142.635
151.492,143.078
147.45,143.296
145.479,143.405
141.602,143.315
138.758,143.087
134.192,142.643
132.62,142.141
133.879,141.728
139.313,141.608
140.947,141.575
144.27,141.709
148.525,142.05
149.924,142.444
151.475,142.895
151.244,143.313
151.881,143.741
151.834,144.146
148.108,144.344
145.104,144.382
143.203,144.323
140.81,144.147
141.878,144.034
143.445,144.005
142.407,143.925
144.172,143.937
144.049,143.943
145.669,144.029
146.673,144.161
144.469,144.177
144.666,144.201
145.197,144.251
145.469,144.312
146.924,144.442
148.809,144.661
150.914,144.973
151.301,145.29
148.926,145.472
148.671,145.632
148.678,145.784
147.461,145.868
145.628,145.856
145.323,145.829
146.845,145.88
148.124,145.992
149.7,146.178
149.025,146.32
149.665,146.487
150.379,146.682
150.105,146.853
150.337,147.027
150.597,147.206
151.83,147.437
153.685,147.749
154.601,148.092
153.058,148.34
149.316,148.389
147.596,148.349
146.256,148.245
146.122,148.138
145.589,148.011
146.217,147.921
147.359,147.893
148.793,147.938
149.708,148.027
150.107,148.131
150.517,148.25
150.585,148.367
151.32,148.514
152.352,148.706
153.707,148.956
152.971,149.157
151.193,149.259
149.4,149.266
147.311,149.168
143.975,148.908
144.861,148.706
144.678,148.505
146.493,148.404
145.452,148.257
141.855,147.936
142.784,147.679
145.263,147.558
149.155,147.638
151.059,147.809
151.587,147.998
152.214,148.209
154.258,148.511
155.46,148.859
153.686,149.1
153.847,149.337
149.305,149.336
147.613,149.25
148.864,149.23
147.938,149.166
148.514,149.133
144.422,148.898
141.695,148.537
141.936,148.207
143.285,147.961
141.146,147.62
144.446,147.462
148.699,147.524
150.097,147.652
152.46,147.893
154.27,148.212
154.436,148.523
154.216,148.807
155.483,149.141
155.908,149.48
155.648,149.788
155.32,150.065
153.854,150.254
149.725,150.228
148.424,150.137
147.438,150.002
147.56,149.88
147.376,149.755
144.669,149.501
144.357,149.244
147.154,149.139
148.204,149.092
148.502,149.063
149.175,149.068
148.425,149.036
147.423,148.956
147.904,148.903
149.464,148.931
151.403,149.055
152.995,149.252
155.374,149.558
157.666,149.963
158.086,150.369
153.616,150.532
148.617,150.436
147.501,150.289
146.215,150.085
143.933,149.778
144.061,149.492
144.637,149.249
142.708,148.922
142.125,148.582
142.919,148.299
146.402,148.204
148.12,148.2
148.208,148.2
150.535,148.317
150.713,148.437
150.354,148.533
151.866,148.699
152.415,148.885
151.504,149.016
147.829,148.957
143.184,148.668
142.104,148.34
145.205,148.183
145.388,148.043
145.976,147.94
148.093,147.948
150.652,148.083
150.671,148.212
148.816,148.242
150.259,148.343
150.891,148.471
151.478,148.621
150.628,148.721
151.486,148.86
151.43,148.988
152.056,149.142
151.907,149.28
153.634,149.498
154.932,149.769
156.803,150.121
155.777,150.404
154.173,150.592
152.231,150.674
150.108,150.646
149.576,150.592
150.481,150.587
149.445,150.53
148.216,150.414
146.665,150.227
142.588,149.845
140.986,149.402
143.656,149.114
147.378,149.028
149.284,149.04
151.173,149.147
152.772,149.328
153.788,149.551
153.857,149.767
153.237,149.94
153.491,150.118
156.602,150.442
158.805,150.86
158.065,151.22
155.55,151.437
153.142,151.522
149.48,151.42
148.883,151.293
150.45,151.251
148.321,151.104
145.784,150.838
144.638,150.528
142.293,150.117
148.191,150.02
149.765,150.008
149.531,149.984
147.821,149.876
148.204,149.792
146.37,149.621
147.242,149.502
148.778,149.466
150.299,149.507
150.568,149.56
151.844,149.675
154.06,149.894
156.354,150.217
154.258,150.419
148.344,150.315
145.965,150.098
144.062,149.796
142.897,149.451
144.614,149.209
144.902,148.994
145.29,148.809
143.416,148.539
141.986,148.211
141.294,147.865
135.857,147.265
138.746,146.839
141.553,146.575
146.494,146.571
148.807,146.682
150.109,146.854
150.051,147.014
150.345,147.18
150.106,147.326
149.524,147.436
151.082,147.619
151.987,147.837
154.336,148.162
155.113,148.51
150.997,148.634
148.43,148.624
142.913,148.338
142.003,148.021
141.859,147.713
141.544,147.405
141.736,147.121
141.844,146.857
141.639,146.597
138.693,146.201
140.287,145.906
143.918,145.806
146.919,145.862
147.335,145.936
146.189,145.948
146.925,145.997
146.599,146.027
146.743,146.063
147.048,146.112
148.131,146.213
150.682,146.437
153.64,146.797
155.629,147.238
154.291,147.591
149.33,147.678
143.17,147.453
142.348,147.197
142.184,146.947
144.847,146.842
144.543,146.727
144.648,146.623
143.094,146.446
144.994,146.374
144.304,146.27
144.698,146.192
145.852,146.175
146.313,146.181
148.895,146.317
149.68,146.485
149.542,146.638
148.665,146.739
148.584,146.832
147.776,146.879
148.604,146.965
151.908,147.212
154.399,147.572
157.258,148.056
155.698,148.438
150.722,148.552
148.603,148.555
146.929,148.474
145.514,148.326
145.304,148.174
144.985,148.015
142.742,147.751
140.555,147.392
140.87,147.065
138.688,146.647
140.009,146.315
144.226,146.21
146.601,146.23
150.684,146.452
151.967,146.728
152.787,147.031
153.589,147.359
154.317,147.707
154.774,148.06
155.852,148.45
157.315,148.893
155.268,149.212
150.444,149.274
148.388,149.229
147.121,149.124
143.11,148.823
143.492,148.557
142.833,148.27
141.519,147.933
141.671,147.62
142.448,147.361
142.578,147.122
144.786,147.005
145.615,146.936
148.79,147.028
150.471,147.2
151.818,147.431
151.938,147.657
151.307,147.839
150.084,147.951
149.039,148.006
149.073,148.059
151.408,148.227
154.764,148.553
157.266,148.989
151.867,149.133
145.804,148.966
144.098,148.723
143.256,148.45
143.062,148.18
143.482,147.945
143.464,147.721
145.723,147.621
147.688,147.625
145.864,147.537
145.388,147.429
145.059,147.311
146.616,147.276
147.729,147.299
149.172,147.392
149.548,147.5
149.834,147.617
149.434,147.708
