Normal data,Filtered data
174.065,174.065
174.735,174.098
174.293,174.108
173.329,174.069
156.13,173.172
134.056,171.216
125.554,168.933
134.307,167.202
140.906,165.887
148.964,165.041
153.33,164.455
154.934,163.979
158.279,163.694
158.586,163.439
163.549,163.444
167.259,163.635
156.951,163.301
142.871,162.279
133.923,160.862
140.245,159.831
147.444,159.211
153.111,158.906
156.023,158.762
162.612,158.955
163.145,159.164
166.005,159.506
167.589,159.91
171.133,160.472
165.04,160.7
151.995,160.265
141.56,159.329
141.094,158.418
136.32,157.313
142.273,156.561
152.996,156.383
160.044,156.566
166.207,157.048
167.33,157.562
170.09,158.188
173.436,158.951
175.26,159.766
171.365,160.346
171.95,160.926
173.992,161.579
167.678,161.884
160.275,161.804
151.819,161.305
140.198,160.249
134.847,158.979
132.308,157.646
132.498,156.388
137.763,155.457
144.478,154.908
151.625,154.744
157.131,154.863
164.818,155.361
171.427,156.164
172.789,156.996
174.831,157.887
175.326,158.759
173.188,159.481
172.565,160.135
172.765,160.766
167.225,161.089
155.465,160.808
143.117,159.924
135.744,158.715
132.345,157.396
134.396,156.246
139.948,155.431
145.42,154.931
151.801,154.774
155.702,154.821
160.036,155.081
167.816,155.718
168.091,156.337
172.465,157.143
172.49,157.911
174.02,158.716
173.245,159.442
170.06,159.973
161.826,160.066
152.433,159.684
146.895,159.045
137.292,157.957
134.339,156.776
138.842,155.88
144.618,155.316
155.412,155.321
160.688,155.59
162.332,155.927
165.399,156.4
171.418,157.151
171.965,157.892
173.162,158.655
173.131,159.379
173.001,160.06
169.35,160.525
158.948,160.446
151.731,160.01
143.052,159.162
138.345,158.121
137.467,157.089
141.502,156.309
143.816,155.685
151.018,155.451
156.44,155.501
160.431,155.747
165.499,156.235
170.163,156.931
169.806,157.575
171.408,158.267
172.564,158.981
170.663,159.566
170.619,160.118
167.603,160.492
163.083,160.622
154.714,160.327
146.461,159.633
141.671,158.735
138.116,157.704
137.424,156.69
139.421,155.827
143.073,155.189
149.364,154.898
155.641,154.935
161.09,155.243
170.253,155.993
168.697,156.628
168.868,157.24
168.772,157.817
170.497,158.451
173.637,159.21
173.812,159.94
175.539,160.72
176.463,161.508
175.147,162.189
170.122,162.586
163.88,162.651
154.667,162.252
148.633,161.571
145.341,160.759
142.822,159.862
145.947,159.167
151.351,158.776
155.534,158.614
160.473,158.707
166.895,159.116
169.22,159.621
167.457,160.013
167.41,160.383
166.886,160.708
168.195,161.082
168.835,161.47
166.49,161.721
159.019,161.586
151.164,161.065
146.62,160.343
140.228,159.337
134.94,158.117
135.525,156.987
140.985,156.187
147.814,155.769
152.237,155.592
157.23,155.674
158.702,155.825
157.784,155.923
157.645,156.009
159.16,156.167
164.341,156.576
169.072,157.2
172.58,157.969
172.602,158.701
170.539,159.293
168.258,159.741
168.173,160.163
167.806,160.545
164.766,160.756
160.351,160.736
154.562,160.427
147.786,159.795
144.553,159.033
142.046,158.184
146.715,157.61
153.165,157.388
157.423,157.39
160.546,157.547
160.563,157.698
165.385,158.083
167.755,158.566
172.066,159.241
177.811,160.17
175.477,160.935
173.778,161.577
174.099,162.203
174.747,162.83
174.945,163.436
175.129,164.021
173.953,164.517
164.835,164.533
154.233,164.018
147.153,163.175
140.815,162.057
142.724,161.09
146.407,160.356
151.673,159.922
154.421,159.647
158.011,159.565
161.199,159.647
161.656,159.747
164.155,159.968
166.203,160.279
170.444,160.788
176.948,161.596
177.428,162.387
176.024,163.069
175.573,163.694
173.74,164.197
170.55,164.514
166.958,164.636
162.208,164.515
154.856,164.032
147.963,163.229
144.478,162.291
144.521,161.403
147.021,160.684
150.919,160.195
156.049,159.988
161.753,160.076
164.447,160.295
167.057,160.633
167.114,160.957
173.621,161.59
174.116,162.216
172.198,162.715
174.494,163.304
174.383,163.858
173.369,164.334
172.033,164.719
169.89,164.977
167.554,165.106
161.142,164.908
153.908,164.358
144.011,163.341
136.397,161.993
132.303,160.509
131.767,159.072
136.807,157.959
139.738,157.048
143.982,156.394
148.162,155.983
153.121,155.84
157.549,155.925
158.898,156.074
158.407,156.19
159.321,156.347
162.375,156.648
166.847,157.158
168.67,157.734
172.473,158.471
174.172,159.256
174.127,159.999
173.595,160.679
171.634,161.227
168.656,161.598
163.727,161.705
159.214,161.58
152.266,161.115
145.568,160.337
138.79,159.26
135.054,158.05
133.912,156.843
135.446,155.773
140.933,155.031
145.05,154.532
153.376,154.474
155.457,154.523
158.646,154.729
158.173,154.901
163.863,155.35
168.948,156.029
175.061,156.981
174.844,157.874
172.329,158.597
169.914,159.163
165.948,159.502
167.843,159.919
172.099,160.528
173.652,161.184
173.183,161.784
163.666,161.878
154.108,161.49
146.844,160.757
140.637,159.751
137.463,158.637
137.397,157.575
142.182,156.805
148.114,156.371
154.65,156.285
158.203,156.381
158.258,156.474
158.263,156.564
161.448,156.808
164.138,157.174
166.236,157.628
167.58,158.125
171.856,158.812
174.734,159.608
174.533,160.354
173.908,161.032
172.983,161.629
172.082,162.152
171.032,162.596
165.519,162.742
160.365,162.623
152.823,162.133
145.392,161.296
137.375,160.1
132.884,158.739
131.032,157.354
131.908,156.082
135.098,155.032
139.795,154.271
145.493,153.832
148.82,153.581
150.088,153.406
153.104,153.391
159.465,153.695
167.235,154.372
169.301,155.119
172.532,155.989
173.29,156.854
173.78,157.701
173.539,158.492
173.151,159.225
172.936,159.911
173.802,160.605
173.673,161.259
165.504,161.471
156.611,161.228
149.832,160.658
144.681,159.859
142.503,158.992
142.484,158.166
148.109,157.663
154.904,157.525
158.701,157.584
162.17,157.813
164.044,158.125
168.489,158.643
172.243,159.323
174.501,160.082
175.182,160.837
174.277,161.509
173.625,162.115
172.965,162.657
172.588,163.154
171.209,163.557
166.897,163.724
158.248,163.45
151.658,162.86
141.868,161.811
138.754,160.658
136.036,159.427
135.939,158.252
140.861,157.383
146.991,156.863
153.882,156.714
154.574,156.607
158.501,156.702
160.81,156.907
162.772,157.201
165.655,157.623
170.039,158.244
175.613,159.112
175.683,159.941
169.462,160.417
165.226,160.657
162.138,160.732
164.893,160.94
166.839,161.235
173.923,161.869
171.734,162.362
160.52,162.27
148.213,161.567
141.828,160.58
136.582,159.38
130.748,157.949
131.234,156.613
139.362,155.75
144.551,155.19
151.815,155.022
158.277,155.184
159.649,155.408
