Normal data,Filtered data
61.098,61.098
61.5165,61.1189
60.328,61.0794
58.5973,60.9553
57.5241,60.7837
56.7249,60.5808
55.4783,60.3256
54.81,60.0499
54.8569,59.7902
55.5822,59.5798
56.2541,59.4135
55.4583,59.2158
54.5522,58.9826
53.8766,58.7273
52.9838,58.4401
52.2594,58.1311
51.9569,57.8224
51.9274,57.5276
51.9232,57.2474
52.9046,57.0303
52.5893,56.8082
51.9678,56.5662
51.3166,56.3037
51.4777,56.0624
51.062,55.8124
50.4375,55.5436
50.6893,55.3009
51.3006,55.1009
51.028,54.8973
51.7284,54.7388
52.2421,54.614
53.0784,54.5372
53.1308,54.4669
52.4712,54.3671
51.8857,54.243
50.9362,54.0777
50.0436,53.876
48.8776,53.6261
48.8357,53.3865
49.0729,53.1709
50.7581,53.0502
51.3671,52.9661
52.339,52.9347
52.4231,52.9091
52.9905,52.9132
53.3266,52.9339
52.8426,52.9293
52.7198,52.9188
52.784,52.9121
52.5759,52.8953
53.0998,52.9055
54.3056,52.9755
54.8953,53.0715
54.3582,53.1358
53.9381,53.1759
52.6713,53.1507
52.2482,53.1056
51.2322,53.0119
50.3043,52.8765
49.7927,52.7223
50.0075,52.5866
51.2458,52.5196
52.4635,52.5168
53.2736,52.5546
53.6798,52.6109
53.9803,52.6793
53.5922,52.725
53.6554,52.7715
53.2625,52.796
53.8681,52.8496
53.8974,52.902
54.4944,52.9816
55.2563,53.0954
55.7464,53.2279
56.0723,53.3701
55.9038,53.4968
54.8242,53.5632
53.2183,53.5459
52.2721,53.4823
51.4963,53.383
51.2999,53.2788
51.8488,53.2073
52.9958,53.1967
53.7068,53.2222
53.9632,53.2593
54.4687,53.3197
54.6069,53.3841
54.6336,53.4466
54.1645,53.4825
54.207,53.5187
54.1869,53.5521
54.3572,53.5924
55.0739,53.6664
55.6911,53.7677
56.6794,53.9133
56.542,54.0447
55.4318,54.1141
54.5388,54.1353
53.3284,54.0949
52.5961,54.02
52.509,53.9445
53.0374,53.8991
54.8799,53.9481
55.6697,54.0342
56.0781,54.1364
55.7765,54.2184
55.5586,54.2854
55.3013,54.3362
54.1742,54.3281
54.3092,54.3272
54.2771,54.3247
53.8753,54.3022
54.1749,54.2958
54.8252,54.3223
55.1399,54.3632
54.7038,54.3802
53.8004,54.3512
52.0624,54.2368
51.2379,54.0868
50.6737,53.9162
50.491,53.7449
51.0253,53.6089
52.1152,53.5342
53.7424,53.5447
54.8994,53.6124
54.3152,53.6475
54.2992,53.6801
53.2881,53.6605
53.4193,53.6485
53.1914,53.6256
52.7993,53.5843
52.8958,53.5499
52.7064,53.5077
53.9643,53.5305
55.5989,53.6339
56.4631,53.7754
56.4689,53.9101
55.5729,53.9932
54.2777,54.0074
53.2822,53.9712
52.4474,53.895
51.9758,53.799
52.245,53.7213
53.1915,53.6948
54.8673,53.7535
55.873,53.8594
55.5294,53.9429
55.2081,54.0062
54.6548,54.0386
53.9409,54.0337
54.116,54.0379
54.3576,54.0538
54.631,54.0827
55.3223,54.1447
57.1433,54.2946
58.4603,54.5029
58.9688,54.7262
58.4112,54.9104
57.1944,55.0246
55.4918,55.048
54.518,55.0215
53.4308,54.942
52.716,54.8307
53.2018,54.7492
54.7323,54.7484
55.7762,54.7998
56.6938,54.8945
56.6756,54.9835
56.9354,55.0811
55.4719,55.1007
54.7133,55.0813
54.1576,55.0351
54.334,55
53.5324,54.9267
54.1987,54.8903
55.165,54.904
55.7567,54.9466
55.5185,54.9752
55.2647,54.9897
53.8648,54.9335
52.6117,54.8174
51.5344,54.6532
51.0676,54.4739
51.6815,54.3343
52.3394,54.2346
53.7627,54.211
54.7895,54.2399
55.6295,54.3094
55.4614,54.367
54.8756,54.3924
54.5744,54.4015
54.3763,54.4002
53.8718,54.3738
53.7562,54.3429
53.8064,54.3161
55.022,54.3514
56.0304,54.4354
56.6918,54.5482
55.9901,54.6203
54.8736,54.6329
53.7426,54.5884
52.3605,54.477
51.0604,54.3062
50.3539,54.1086
50.5798,53.9321
51.5274,53.8119
53.2958,53.7861
54.6544,53.8295
55.408,53.9084
55.2334,53.9747
54.9203,54.022
55.0825,54.075
54.6443,54.1035
54.8616,54.1414
53.9472,54.1317
54.8725,54.1687
56.0792,54.2642
57.0561,54.4038
56.3487,54.5011
55.1707,54.5345
53.6482,54.4902
52.6569,54.3986
52.0425,54.2808
52.4597,54.1897
53.062,54.1333
53.496,54.1015
54.3339,54.1131
54.5122,54.133
54.1936,54.1361
52.3194,54.0452
51.4704,53.9165
51.3305,53.7872
51.6263,53.6791
51.7171,53.581
52.6437,53.5342
54.5631,53.5856
55.0871,53.6607
55.1384,53.7346
54.8191,53.7888
53.209,53.7598
52.0154,53.6726
50.6833,53.5231
49.5686,53.3254
49.6571,53.142
50.9843,53.0341
51.8089,52.9728
52.8363,52.966
53.303,52.9828
53.7263,53.02
54.3555,53.0868
53.8877,53.1268
53.3597,53.1385
53.4461,53.1539
53.998,53.1961
54.3886,53.2557
55.3687,53.3613
55.9155,53.4891
55.775,53.6034
54.7622,53.6613
53.2104,53.6387
51.923,53.553
50.9815,53.4244
49.9211,53.2492
50.0276,53.0881
50.9216,52.9798
52.6817,52.9649
53.8014,53.0067
54.9026,53.1015
54.9588,53.1944
55.0852,53.2889
54.4258,53.3458
53.2043,53.3387
52.895,53.3165
52.6649,53.2839
52.8598,53.2627
53.999,53.2995
55.0144,53.3853
55.5296,53.4925
55.1403,53.5749
54.3635,53.6143
53.2822,53.5977
52.377,53.5367
51.423,53.431
50.4361,53.2812
50.2576,53.1301
51.8527,53.0662
52.8978,53.0578
53.536,53.0817
53.6618,53.1107
53.1586,53.1131
52.6427,53.0896
52.4464,53.0574
52.926,53.0508
52.9305,53.0448
53.2039,53.0528
53.1084,53.0555
53.827,53.0941
55.0969,53.1943
56.2398,53.3465
56.4785,53.5031
55.5026,53.6031
54.1872,53.6323
52.6248,53.5819
51.9391,53.4998
50.9943,53.3745
51.1346,53.2625
51.8712,53.1929
52.9759,53.1821
53.837,53.2148
54.1912,53.2637
54.7634,53.3386
54.7992,53.4117
54.3841,53.4603
54.1834,53.4964
54.2593,53.5346
54.2181,53.5688
54.3214,53.6064
55.384,53.6953
56.4362,53.8323
57.0433,53.9929
56.632,54.1248
55.6378,54.2005
53.9762,54.1893
52.6138,54.1105
51.9106,54.0005
51.5245,53.8767
52.2062,53.7932
52.7687,53.7419
54.3861,53.7741
55.3991,53.8554
56.3364,53.9794
56.0439,54.0827
55.22,54.1395
53.9384,54.1295
53.4535,54.0957
52.8415,54.033
52.9143,53.977
52.7702,53.9167
53.0182,53.8718
54.2248,53.8894
55.0162,53.9458
54.7192,53.9844
53.6943,53.9699
52.5046,53.8967
51.3983,53.7717
50.5724,53.6118
49.9966,53.431
50.9672,53.3078
52.1227,53.2486
53.2632,53.2493
54.5227,53.313
55.2937,53.412
54.9026,53.4865
54.7542,53.5499
55.0069,53.6228
55.3074,53.707
55.5727,53.8003
56.2954,53.925
55.849,54.0212
56.1153,54.1259
56.8825,54.2638
56.9997,54.4006
56.6061,54.5108
55.8886,54.5797
54.5169,54.5766
53.7664,54.5361
52.3977,54.4292
51.849,54.3001
53.2291,54.2466
53.9869,54.2336
55.5739,54.3006
55.9286,54.382
56.63,54.4944
56.6164,54.6005
56.0601,54.6735
55.2827,54.704
54.576,54.6976
54.4803,54.6867
54.802,54.6925
54.6589,54.6908
55.2374,54.7181
56.6965,54.817
55.8346,54.8679
54.8925,54.8691
53.6248,54.8069
52.7069,54.7019
51.9421,54.5639
51.2731,54.3994
52.1873,54.2888
53.4062,54.2447
54.7966,54.2722
55.6471,54.341
56.1398,54.4309
55.6809,54.4934
55.1827,54.5279
55.2102,54.562
54.912,54.5795
55.2399,54.6125
54.8531,54.6246
56.471,54.7169
56.7941,54.8207
57.2801,54.9437
57.0818,55.0506
56.6644,55.1313
55.6674,55.1581
54.9686,55.1486
53.9007,55.0862
53.167,54.9903
52.8983,54.8857
53.0024,54.7915
54.351,54.7695
55.1919,54.7906
55.954,54.8488
56.1897,54.9158
55.6133,54.9507
54.8524,54.9458
55.0385,54.9504
55.4595,54.9759
55.1529,54.9847
55.3495,55.003
55.9933,55.0525
56.7082,55.1353
57.224,55.2397
56.7077,55.3131
55.7652,55.3357
53.9404,55.2659
52.308,55.118
50.7802,54.9011
49.98,54.6551
49.6813,54.4064
50.6533,54.2187
51.7533,54.0955
52.0129,53.9913
51.6636,53.875
51.67,53.7647
51.7707,53.665
51.8413,53.5738
52.7076,53.5305
53.3107,53.5195
54.4238,53.5647
54.8797,53.6305
55.6075,53.7293
56.8703,53.8864
57.3525,54.0597
57.0806,54.2107
56.1418,54.3073
54.727,54.3283
53.4189,54.2828
52.5476,54.196
52.715,54.122
53.1588,54.0738
54.9585,54.1181
55.7848,54.2014
55.7286,54.2778
55.3956,54.3336
55.0525,54.3696
54.7353,54.3879
54.5231,54.3946
54.1559,54.3827
54.1286,54.37
54.1561,54.3593
54.9611,54.3894
55.6497,54.4524
55.7886,54.5192
55.4675,54.5666
54.7134,54.574
53.4005,54.5153
52.8273,54.4309
52.224,54.3205
51.1111,54.1601
50.898,53.997
51.6019,53.8772
52.6719,53.8169
53.6513,53.8087
54.1891,53.8277
54.0095,53.8368
54.2195,53.8559
53.9853,53.8624
54.3296,53.8857
54.9684,53.9399
55.608,54.0233
55.6113,54.1027
56.085,54.2018
56.8295,54.3332
57.9306,54.513
57.623,54.6685
56.9277,54.7815
55.7945,54.8321
54.3104,54.806
53.3377,54.7326
52.2683,54.6094
52.1633,54.4871
52.871,54.4063
54.1183,54.3919
54.1948,54.382
54.738,54.3998
55.3412,54.4469
55.6132,54.5052
54.8724,54.5236
54.4587,54.5203
54.1712,54.5029
53.9562,54.4755
54.2334,54.4634
54.5977,54.4701
55.1762,54.5054
55.7443,54.5674
55.8615,54.6321
54.7399,54.6375
53.4796,54.5796
52.2808,54.4646
51.6851,54.3257
50.8928,54.154
51.1605,54.0043
51.5851,53.8834
53.2531,53.8519
55.3816,53.9283
56.2512,54.0445
56.7526,54.1799
56.0502,54.2734
55.9095,54.3552
54.71,54.3729
54.7619,54.3924
54.8097,54.4133
54.3522,54.4102
55.9273,54.4861
57.9813,54.6608
58.2281,54.8392
57.6224,54.9783
56.1917,55.039
55.0996,55.042
53.8923,54.9846
52.7069,54.8707
52.0229,54.7283
51.5163,54.5677
51.734,54.426
52.7524,54.3423
53.9823,54.3243
54.8809,54.3521
54.8359,54.3763
54.7054,54.3928
53.9547,54.3709
54.0919,54.3569
53.8409,54.3311
54.3469,54.3319
55.0711,54.3689
56.6268,54.4818
57.4666,54.631
57.2752,54.7632
56.4707,54.8486
55.0878,54.8606
53.7177,54.8034
52.5763,54.6921
51.8465,54.5498
52.0456,54.4246
52.9288,54.3498
54.5824,54.3614
55.5555,54.4211
56.513,54.5257
56.1514,54.607
55.8575,54.6695
54.9525,54.6837
55.0308,54.701
55.236,54.7278
54.6022,54.7215
54.7071,54.7208
55.0985,54.7397
56.6772,54.8365
57.6537,54.9774
57.4793,55.1025
56.8231,55.1885
55.4685,55.2025
54.3366,55.1592
53.31,55.0668
52.4576,54.9363
53.3961,54.8593
55.0333,54.868
55.9581,54.9225
55.9821,54.9755
55.3701,54.9952
54.7453,54.9827
54.3551,54.9513
54.0436,54.9059
54.6802,54.8947
54.6396,54.8819
55.1294,54.8943
55.8146,54.9403
56.0757,54.9971
55.6077,55.0276
54.5872,55.0056
53.6636,54.9385
53.1376,54.8484
52.4234,54.7272
53.0277,54.6422
53.9082,54.6055
55.3235,54.6414
56.075,54.7131
56.2178,54.7883
56.3513,54.8665
55.9595,54.9211
55.9818,54.9741
55.605,55.0057
55.5647,55.0336
55.7393,55.0689
56.3772,55.1343
57.0489,55.2301
57.9556,55.3663
58.2304,55.5095
57.4391,55.606
56.3227,55.6419
54.9979,55.6097
53.1353,55.4859
51.4436,55.2838
51.0189,55.0706
51.6513,54.8996
52.3804,54.7737
53.5931,54.7146
54.8031,54.719
55.381,54.7521
54.8799,54.7585
54.4536,54.7433
54.0237,54.7073
54.1954,54.6817
54.5823,54.6767
54.3141,54.6586
54.3296,54.6421
55.1719,54.6686
56.5018,54.7603
56.7943,54.862
55.8402,54.9109
54.4552,54.8881
53.2934,54.8084
51.5631,54.6461
50.3497,54.4313
50.2939,54.2244
51.2388,54.0751
52.2435,53.9836
53.9255,53.9807
54.603,54.0118
54.6216,54.0423
54.8103,54.0807
54.6525,54.1093
54.3344,54.1205
54.0269,54.1158
53.9869,54.1094
53.2012,54.064
53.6225,54.0419
54.8356,54.0816
56.0837,54.1817
56.6694,54.3061
55.7186,54.3767
55.2088,54.4183
53.6069,54.3777
52.0219,54.2599
50.7594,54.0849
50.4333,53.9023
50.7717,53.7458
51.3862,53.6278
52.5218,53.5725
53.1426,53.551
53.9001,53.5685
55.0247,53.6413
55.3594,53.7272
55.9075,53.8362
55.4214,53.9155
55.193,53.9793
54.6468,54.0127
55.3738,54.0808
56.5433,54.2039
57.4991,54.3687
57.2164,54.511
56.7068,54.6208
55.4538,54.6625
54.2492,54.6418
52.937,54.5566
52.6293,54.4602
52.3733,54.3559
53.3482,54.3055
54.4218,54.3113
55.3251,54.362
55.8936,54.4386
56.3513,54.5342
55.903,54.6026
54.7956,54.6123
54.8336,54.6234
54.7123,54.6278
55.1825,54.6555
56.8332,54.7644
58.4019,54.9463
59.1864,55.1583
58.663,55.3335
56.7904,55.4064
54.9474,55.3834
52.7546,55.252
51.1253,55.0456
50.4385,54.8153
50.6806,54.6086
52.4137,54.4988
54.3319,54.4905
55.5242,54.5421
55.576,54.5938
55.5626,54.6423
54.4254,54.6314
53.2514,54.5624
53.2899,54.4988
52.9482,54.4213
53.1269,54.3566
54.4034,54.3589
55.5841,54.4202
55.6098,54.4796
55.0443,54.5079
54.3517,54.5001
53.4429,54.4472
51.975,54.3236
50.7957,54.1472
51.4087,54.0103
52.098,53.9147
53.3946,53.8887
54.2851,53.9085
53.9387,53.91
53.1295,53.871
53.2379,53.8393
52.7983,53.7873
53.213,53.7585
53.9989,53.7706
53.5286,53.7585
54.1823,53.7796
55.2487,53.8531
56.2633,53.9736
56.5083,54.1003
56.0006,54.1954
55.154,54.2433
53.9531,54.2288
52.5017,54.1424
51.2639,53.9985
51.3402,53.8656
52.3517,53.7899
52.7896,53.7399
54.4895,53.7774
55.7754,53.8773
56.8437,54.0256
56.3297,54.1408
55.5493,54.2112
55.3455,54.2679
54.7385,54.2914
55.0286,54.3283
54.335,54.3286
55.0523,54.3648
56.1056,54.4519
57.3157,54.595
58.2564,54.7781
57.7182,54.9251
56.5013,55.0039
55.1168,55.0096
53.741,54.9461
52.8473,54.8412
52.8251,54.7404
53.6268,54.6847
54.8746,54.6942
56.1404,54.7665
56.289,54.8426
56.3579,54.9184
55.2823,54.9366
54.2876,54.9041
53.3624,54.827
53.0491,54.7382
53.2922,54.6659
53.1771,54.5914
53.3374,54.5287
54.6428,54.5344
55.4793,54.5817
55.6558,54.6354
55.0337,54.6553
53.3796,54.5915
52.3749,54.4807
51.5002,54.3317
51.1356,54.1719
51.1202,54.0193
51.4384,53.8902
52.2892,53.8102
53.7038,53.8049
54.0358,53.8164
54.6901,53.8601
54.8192,53.908
53.7675,53.901
53.7134,53.8916
53.8314,53.8886
54.0564,53.897
53.6556,53.8849
54.8319,53.9323
56.108,54.0411
57.3045,54.2043
56.9453,54.3413
56.1163,54.43
54.4037,54.4287
53.0501,54.3598
51.7575,54.2297
51.54,54.0952
52.3357,54.0072
53.4196,53.9778
55.1179,54.0349
56.1725,54.1417
56.6858,54.2689
56.9254,54.4018
56.6083,54.5121
56.4754,54.6102
56.301,54.6948
56.3243,54.7763
56.9513,54.885
57.3511,55.0083
58.4416,55.18
58.8166,55.3618
59.0695,55.5472
58.2403,55.6819
56.9868,55.7471
55.1214,55.7158
52.9327,55.5767
51.9536,55.3955
51.8837,55.2199
51.6828,55.0431
52.5458,54.9182
53.1244,54.8285
52.8091,54.7275
53.3902,54.6607
52.9421,54.5747
53.8646,54.5392
54.3263,54.5286
54.1592,54.5101
54.2184,54.4955
55.072,54.5243
55.4895,54.5726
57.2461,54.7063
57.7107,54.8565
57.2507,54.9762
55.8947,55.0221
54.3674,54.9894
53.3132,54.9056
52.4477,54.7827
52.0871,54.6479
52.112,54.5211
52.7501,54.4326
54.4935,54.4356
55.2652,54.4771
55.7016,54.5383
56.2287,54.6228
56.673,54.7253
55.3561,54.7569
54.7722,54.7576
54.2501,54.7323
54.8223,54.7368
55.0398,54.7519
55.3455,54.7816
56.5148,54.8683
57.4685,54.9983
57.0151,55.0991
56.1873,55.1535
55.0457,55.1481
53.9204,55.0867
52.8472,54.9748
51.8198,54.817
52.9651,54.7244
53.9415,54.6853
55.5826,54.7301
55.9088,54.7891
55.6011,54.8297
55.8538,54.8809
55.6608,54.9199
54.471,54.8974
54.0936,54.8572
53.9254,54.8106
53.7257,54.7564
54.8994,54.7635
56.3067,54.8407
57.5596,54.9766
57.3064,55.0931
56.4253,55.1597
54.5807,55.1308
53.5441,55.0515
51.9781,54.8978
51.2192,54.7139
51.3563,54.546
51.9789,54.4176
52.8247,54.338
53.8457,54.3134
54.3757,54.3165
53.7481,54.2881
53.5207,54.2497
53.4374,54.2091
53.3287,54.1651
53.4286,54.1282
53.4734,54.0955
54.6466,54.123
56.0156,54.2177
57.2368,54.3686
57.8924,54.5448
56.9967,54.6674
55.6702,54.7176
54.0258,54.683
52.7946,54.5886
52.4333,54.4808
52.5061,54.3821
53.7755,54.3517
55.5847,54.4134
56.9023,54.5378
57.8597,54.7039
58.0355,54.8705
57.5154,55.0027
55.8033,55.0428
54.9681,55.039
54.2701,55.0006
54.0776,54.9544
54.1568,54.9145
55.1129,54.9245
56.0235,54.9794
56.6654,55.0637
55.8195,55.1015
54.4254,55.0677
53.2253,54.9756
51.9671,54.8251
51.2299,54.6454
50.9467,54.4605
51.1488,54.2949
51.9736,54.1788
53.412,54.1405
53.9987,54.1334
53.8889,54.1211
53.5467,54.0924
52.5985,54.0177
51.3111,53.8824
51.1405,53.7453
51.7699,53.6465
52.7194,53.6002
53.7493,53.6076
55.6886,53.7117
56.6624,53.8592
57.399,54.0362
57.2713,54.198
56.7535,54.3257
55.3974,54.3793
54.5153,54.3861
53.2659,54.3301
52.7051,54.2489
53.4042,54.2066
54.5731,54.2249
55.7862,54.303
55.9324,54.3845
56.456,54.4881
55.2715,54.5272
55.2909,54.5654
54.3177,54.553
54.1056,54.5307
54.3461,54.5214
54.2032,54.5055
55.0142,54.5309
56.6345,54.6361
57.8457,54.7966
58.3327,54.9734
57.6728,55.1084
56.0473,55.1553
54.1671,55.1059
53.1658,55.0089
51.9335,54.8551
51.3048,54.6776
51.7313,54.5303
52.7009,54.4388
54.0216,54.418
54.291,54.4116
54.3399,54.408
54.8122,54.4282
53.6595,54.3898
53.2983,54.3352
53.6854,54.3027
54.3648,54.3058
54.5377,54.3174
55.9272,54.3979
57.3507,54.5455
58.6755,54.752
58.1289,54.9209
56.7715,55.0134
55.5063,55.0381
53.9606,54.9842
52.4352,54.8567
51.4785,54.6878
52.3162,54.5692
53.1499,54.4983
54.5278,54.4998
55.7517,54.5623
56.9005,54.6793
57.1207,54.8013
56.3276,54.8776
55.2049,54.894
54.7652,54.8876
54.2665,54.8565
54.049,54.8161
54.1606,54.7834
55.2804,54.8082
55.9095,54.8633
55.5375,54.897
55.0542,54.9048
53.4203,54.8306
52.056,54.6919
51.7301,54.5438
51.3652,54.3849
51.1846,54.2248
