Normal data,Filtered data
120.774,120.774
125.808,121.026
130.882,121.519
137.985,122.342
144.97,123.473
151.746,124.887
155.83,126.434
157.586,127.992
157.172,129.451
158.19,130.888
160.339,132.36
161.55,133.82
164.343,135.346
169.153,137.036
174.115,138.89
173.427,140.617
171.803,142.176
168.886,143.512
163.435,144.508
157.404,145.153
150.794,145.435
149.254,145.626
148.338,145.761
150.095,145.978
153.644,146.361
157.036,146.895
161.897,147.645
164.673,148.497
161.216,149.133
157.86,149.569
156.83,149.932
156.488,150.26
156.267,150.56
157.216,150.893
164.798,151.588
169.207,152.469
170.532,153.372
168.859,154.147
163.682,154.623
157.661,154.775
152.272,154.65
147.826,154.309
143.984,153.793
142.499,153.228
141.511,152.642
144.64,152.242
148.262,152.043
152.771,152.079
153.279,152.139
150.563,152.061
146.97,151.806
147.806,151.606
146.701,151.361
145.344,151.06
147.828,150.898
154.507,151.079
159.664,151.508
164.685,152.167
166.902,152.904
163.384,153.428
158.349,153.674
152.938,153.637
148.398,153.375
146.563,153.034
143.124,152.539
142.422,152.033
145.303,151.697
149.047,151.564
154.525,151.712
159.705,152.112
161.575,152.585
157.917,152.852
154.916,152.955
153.651,152.99
153.807,153.03
155.515,153.155
161.313,153.563
165.664,154.168
169.59,154.939
170.521,155.718
165.988,156.231
158.525,156.346
152.818,156.17
146.222,155.672
142.351,155.006
139.192,154.215
138.848,153.447
142.64,152.907
146.449,152.584
152.068,152.558
155.559,152.708
156.505,152.898
154.525,152.979
154.686,153.065
156.746,153.249
158.111,153.492
162.965,153.965
167.242,154.629
169.034,155.35
166.926,155.928
161.029,156.183
156.736,156.211
151.152,155.958
145.603,155.44
142.727,154.805
142.673,154.198
142.82,153.629
146.064,153.251
148.975,153.037
154.012,153.086
155.963,153.23
153.376,153.237
153.373,153.244
153.858,153.275
155.46,153.384
156.931,153.561
162.594,154.013
171.37,154.881
174.265,155.85
173.102,156.713
172.212,157.487
167.835,158.005
162.557,158.232
155.41,158.091
149.233,157.648
146.48,157.09
146.415,156.556
148.584,156.158
151.186,155.909
155.523,155.89
159.098,156.05
159.622,156.229
157.555,156.295
154.123,156.186
152.249,155.99
151.611,155.771
151.004,155.532
152.446,155.378
162.793,155.749
169.466,156.435
171.267,157.176
169.166,157.776
164.701,158.122
159.861,158.209
153.728,157.985
148.162,157.494
146.402,156.939
143.139,156.249
141.776,155.525
144.232,154.961
148.996,154.663
153.169,154.588
155.642,154.641
151.775,154.497
150.707,154.308
150.999,154.142
154.296,154.15
153.444,154.115
154.973,154.158
164.976,154.699
169.816,155.454
168.233,156.093
165.97,156.587
161.434,156.829
155.422,156.759
150.205,156.431
147.448,155.982
146.793,155.523
146.777,155.085
148.297,154.746
150.123,154.515
154.624,154.52
159.204,154.755
156.275,154.831
152.994,154.739
154.243,154.714
153.925,154.675
152.915,154.587
154.363,154.575
162.162,154.955
169.092,155.662
171.11,156.434
168.762,157.05
162.288,157.312
156.108,157.252
149.765,156.878
144.075,156.238
141.567,155.504
140.517,154.755
142.197,154.127
145.197,153.68
150.698,153.531
155.794,153.644
158.601,153.892
155.973,153.996
151.288,153.861
152.824,153.809
151.055,153.671
152.329,153.604
154.068,153.627
162.513,154.072
166.478,154.692
170.012,155.458
169.311,156.151
162.156,156.451
156.453,156.451
148.946,156.076
144.406,155.492
141.514,154.793
139.244,154.016
140.791,153.355
146.234,152.999
148.448,152.771
153.298,152.797
151.403,152.728
148.153,152.499
150.515,152.4
150.082,152.284
153.145,152.327
152.207,152.321
156.953,152.553
157.543,152.802
154.789,152.901
150.936,152.803
144.687,152.397
141.012,151.828
138.342,151.154
138.501,150.521
138.081,149.899
142.12,149.51
148.736,149.471
154.898,149.743
158.725,150.192
159.645,150.664
159.293,151.096
159.282,151.505
158.363,151.848
157.789,152.145
159.342,152.505
162.214,152.99
168.494,153.766
172.25,154.69
170.324,155.472
166.145,156.005
158.292,156.12
152.379,155.933
145.406,155.406
141.396,154.706
141.586,154.05
142.397,153.467
144.571,153.022
146.969,152.72
152.544,152.711
154.842,152.817
154.578,152.905
156.005,153.06
155.039,153.159
156.038,153.303
155.523,153.414
160.806,153.784
164.773,154.333
166.256,154.929
167.195,155.543
161.306,155.831
153.978,155.738
148.619,155.382
142.456,154.736
139.399,153.969
138.885,153.215
138.868,152.497
142.116,151.978
148.208,151.79
153.289,151.865
156.94,152.119
156.902,152.358
151.212,152.301
151.432,152.257
148.523,152.07
148.545,151.894
150.707,151.835
157.319,152.109
162.132,152.61
164.902,153.225
167.236,153.925
161.572,154.308
155.394,154.362
148.859,154.087
143.524,153.559
139.915,152.876
139.545,152.21
141.133,151.656
146.886,151.417
152.349,151.464
157.552,151.768
157.459,152.053
155.162,152.208
154.462,152.321
155.379,152.474
154.616,152.581
155.325,152.718
158.461,153.005
163.666,153.538
169.537,154.338
170.192,155.131
168.61,155.805
166.131,156.321
161.918,156.601
155.584,156.55
149.423,156.194
145.182,155.643
143.463,155.034
142.085,154.387
144.478,153.891
150.096,153.702
154.043,153.719
155.625,153.814
155.907,153.919
155.192,153.982
156.227,154.094
155.386,154.159
154.184,154.16
155.427,154.224
160.774,154.551
167.167,155.182
170.883,155.967
168.284,156.583
160.853,156.796
156.186,156.766
151.681,156.512
145.791,155.976
144.79,155.416
144.282,154.86
142.941,154.264
146.279,153.864
151.955,153.769
157.172,153.939
156.79,154.082
152.974,154.026
152.454,153.948
153.621,153.931
153.366,153.903
154.68,153.942
155.893,154.039
165.632,154.619
171.044,155.44
170.825,156.209
170.527,156.925
165.584,157.358
158.354,157.408
153.032,157.189
148.913,156.775
144.905,156.182
144.053,155.576
145.426,155.068
150.266,154.828
155.292,154.851
159.535,155.085
160.765,155.369
157.359,155.469
150.545,155.223
149.006,154.912
148.854,154.609
150.621,154.409
154.804,154.429
160.352,154.725
164.137,155.196
165.871,155.73
163.879,156.137
157.909,156.226
152.872,156.058
148.43,155.677
142.726,155.029
142.018,154.379
141.453,153.732
141.046,153.098
144.719,152.679
148.031,152.447
153.247,152.487
150.843,152.404
149.803,152.274
147.358,152.029
146.652,151.76
147.316,151.538
149.954,151.458
156.338,151.702
163.223,152.278
166.861,153.008
163.367,153.525
156.151,153.657
151.109,153.529
144.559,153.081
141.692,152.511
141.145,151.943
140.84,151.388
144.522,151.045
150.638,151.024
156.271,151.287
159.569,151.701
160.635,152.147
156.771,152.379
157.132,152.616
155.828,152.777
157.494,153.013
157.337,153.229
162.456,153.69
168.001,154.406
170.573,155.214
170.029,155.955
165.484,156.431
159.812,156.6
154.695,156.505
148.291,156.094
144.991,155.539
142.45,154.885
142.047,154.243
145.335,153.798
151.55,153.685
155.933,153.798
158.325,154.024
158.354,154.24
153.052,154.181
150.788,154.011
149.949,153.808
149.186,153.577
153.621,153.579
163.156,154.058
168.632,154.787
168.315,155.463
167.41,156.061
162.639,156.389
156.149,156.377
149.732,156.045
143.89,155.437
141.659,154.749
141.885,154.105
144.908,153.645
151.173,153.522
156.739,153.683
160.339,154.016
161.562,154.393
158.384,154.592
156.659,154.696
154.809,154.701
154.766,154.705
155.895,154.764
157.487,154.9
162.169,155.264
166.669,155.834
164.927,156.289
160.582,156.503
154.365,156.396
146.905,155.922
140.735,155.163
137.405,154.275
136.473,153.385
137.986,152.615
140.893,152.028
144.219,151.638
150.061,151.559
153.776,151.67
152.659,151.719
149.415,151.604
147.313,151.39
146.978,151.169
147.565,150.989
150.355,150.957
158.879,151.353
165.331,152.052
168.562,152.878
167.677,153.618
162.722,154.073
156.308,154.185
150.509,154.001
145.378,153.57
142.713,153.027
143.122,152.532
143.419,152.076
149.091,151.927
154.712,152.066
161.331,152.529
163.032,153.054
160.537,153.429
157.165,153.615
154.088,153.639
152.611,153.588
154.298,153.623
155.909,153.737
165.576,154.329
170.573,155.141
172.251,155.997
167.69,156.582
163.968,156.951
158.285,157.018
150.766,156.705
146.501,156.195
143.404,155.555
142.37,154.896
144.506,154.377
147.711,154.043
151.085,153.895
155.732,153.987
159.013,154.238
158.779,154.466
154.491,154.467
153.709,154.429
152.066,154.311
151.791,154.185
153.487,154.15
159.19,154.402
163.382,154.851
167.411,155.479
166.056,156.008
161.923,156.303
156.589,156.318
150.062,156.005
144.48,155.429
141.755,154.745
141.363,154.076
143.864,153.565
149.879,153.381
154.807,153.452
159.11,153.735
162.302,154.163
160.227,154.467
157.183,154.602
156.734,154.709
156.518,154.799
159.504,155.035
160.718,155.319
165.099,155.808
170.376,156.536
170.678,157.243
168.497,157.806
163.915,158.111
156.651,158.038
150.682,157.671
145.238,157.049
142.438,156.318
140.644,155.535
143.211,154.919
145.544,154.45
150.838,154.269
157.363,154.424
158.461,154.626
154.992,154.644
153.951,154.609
153.97,154.577
153.91,154.544
155.359,154.585
161.082,154.91
169.409,155.635
170.472,156.377
168.635,156.989
162.94,157.287
156.045,157.225
150.906,156.909
144.522,156.29
141.186,155.534
140.595,154.787
140.299,154.063
143.327,153.526
146.648,153.182
151.439,153.095
153.996,153.14
152.282,153.097
149.343,152.91
148.331,152.681
148.588,152.476
150.654,152.385
152.581,152.395
157.929,152.671
161.465,153.111
160.973,153.504
157.89,153.724
154.201,153.747
149.4,153.53
145.586,153.133
142.644,152.608
144.305,152.193
147.583,151.963
153.451,152.037
158.532,152.362
160.76,152.782
162.156,153.25
160.331,153.604
158.433,153.846
157.763,154.042
158.881,154.284
162.05,154.672
166.681,155.272
168.546,155.936
166.065,156.443
161.46,156.693
156.118,156.665
149.279,156.295
143.578,155.66
140.774,154.915
138.77,154.108
141.937,153.499
145.727,153.111
151.525,153.032
156.486,153.204
157.951,153.442
154.588,153.499
151.37,153.392
151.576,153.302
151.272,153.2
153.265,153.203
157.119,153.399
166.832,154.071
169.505,154.843
170.601,155.63
168.028,156.25
162.058,156.541
156.912,156.559
152.143,156.338
147.488,155.896
145.801,155.391
144.635,154.853
147.048,154.463
150.203,154.25
155.372,154.306
158.114,154.497
157.857,154.665
153.571,154.61
151.773,154.468
151.455,154.317
151.313,154.167
152.874,154.103
154.419,154.118
164.406,154.633
170.167,155.409
168.781,156.078
167.039,156.626
161.691,156.879
155.31,156.801
149.608,156.441
144.744,155.856
142.403,155.184
139.969,154.423
140.217,153.713
143.858,153.22
146.66,152.892
151.004,152.798
151.234,152.719
149.906,152.579
150.46,152.473
150.184,152.358
153.253,152.403
152.522,152.409
154.386,152.508
162.244,152.995
169.16,153.803
170.022,154.614
168.795,155.323
164.62,155.788
160.524,156.025
154.417,155.944
151.148,155.704
148.656,155.352
148.591,155.014
150.489,154.788
156.149,154.856
160.348,155.13
162.906,155.519
162.855,155.886
156.921,155.938
154.792,155.88
154.092,155.791
152.867,155.645
152.106,155.468
155.519,155.47
162.818,155.838
167.593,156.426
167.381,156.973
164.186,157.334
157.113,157.323
150.994,157.007
145.06,156.409
143.243,155.751
141.808,155.054
140.172,154.31
142.564,153.722
148.331,153.453
153.206,153.44
155.862,153.561
154.395,153.603
155.309,153.688
155.248,153.766
154.38,153.797
156.062,153.91
166.264,154.528
171.633,155.383
171.027,156.165
168.397,156.777
163.627,157.12
157.186,157.123
152.264,156.88
147.112,156.391
144.995,155.822
145.559,155.309
148.33,154.96
151.277,154.775
153.275,154.7
153.383,154.635
149.928,154.399
148.432,154.101
148.618,153.827
150.509,153.661
154.297,153.693
159.88,154.002
168.075,154.706
169.126,155.427
166.941,156.002
161.42,156.273
154.938,156.206
148.933,155.843
143.768,155.239
141.577,154.556
143.422,153.999
143.706,153.485
148.936,153.257
151.66,153.177
155.392,153.288
155.098,153.378
153.874,153.403
152.224,153.344
148.937,153.124
149.299,152.933
151.263,152.849
153.265,152.87
158.852,153.169
162.708,153.646
165.887,154.258
163.685,154.729
155.968,154.791
149.558,154.53
144.405,154.023
140.105,153.327
138.408,152.582
137.447,151.825
140.563,151.262
144.967,150.947
148.189,150.809
155.488,151.043
156.772,151.33
153.574,151.442
152.548,151.497
152.747,151.56
151.287,151.546
150.815,151.509
152.747,151.571
162.685,152.127
168.966,152.969
169.749,153.808
166.549,154.445
161.405,154.793
155.407,154.824
149.865,154.576
147.353,154.215
145.011,153.754
142.935,153.213
142.399,152.673
145.677,152.323
151.094,152.261
156.249,152.461
157.047,152.69
154.152,152.763
152.406,152.745
152.342,152.725
151.874,152.683
153.625,152.73
157.186,152.953
162.496,153.43
167.22,154.119
165.675,154.697
161.743,155.049
156.321,155.113
151.112,154.913
147.07,154.521
143.329,153.961
141.82,153.354
140.425,152.708
142.802,152.212
149.219,152.063
154.266,152.173
157.211,152.425
157.26,152.667
156.637,152.865
156.658,153.055
156.073,153.206
155.336,153.312
156.565,153.475
164.683,154.035
170.118,154.839
172.548,155.725
170.293,156.453
164.337,156.847
159.215,156.966
152.06,156.72
145.878,156.178
142.076,155.473
141.579,154.778
143.038,154.191
145.623,153.763
151.033,153.626
154.571,153.674
154.906,153.735
154.321,153.765
155.785,153.866
153.029,153.824
152.14,153.74
149.745,153.54
156.183,153.672
163.492,154.163
168.078,154.859
166.08,155.42
161.973,155.747
158.376,155.879
152.48,155.709
149.351,155.391
145.055,154.874
143.361,154.299
142.042,153.686
144.731,153.238
150.098,153.081
156.005,153.227
159.048,153.518
159.237,153.804
157.107,153.969
156.815,154.112
159.158,154.364
158.383,154.565
159.514,154.812
164.151,155.279
170.059,156.018
171.123,156.773
169.526,157.411
164.227,157.752
156.271,157.678
149.77,157.282
145.279,156.682
141.958,155.946
141.172,155.207
142.603,154.577
145.663,154.131
149.039,153.877
154.042,153.885
154.182,153.9
151.594,153.785
148.894,153.54
149.543,153.34
151.544,153.25
149.819,153.079
155.983,153.224
161.369,153.631
166.849,154.292
168.924,155.024
164.815,155.513
159.575,155.716
153.246,155.593
148.05,155.216
145.386,154.724
143.819,154.179
144.598,153.7
147.241,153.377
150.396,153.228
155.435,153.338
158.731,153.608
159.338,153.894
158.672,154.133
156.064,154.23
155.815,154.309
155.452,154.366
156.695,154.483
166.312,155.074
168.606,155.751
170.127,156.47
167.689,157.031
159.779,157.168
153.233,156.971
145.574,156.401
142.574,155.71
140.09,154.929
138.161,154.091
140.203,153.396
144.56,152.954
150.383,152.826
155.047,152.937
158.07,153.194
154.327,153.25
152.985,153.237
153.151,153.233
156.442,153.393
154.101,153.429
157.817,153.648
165.16,154.224
169.951,155.01
168.203,155.67
165.314,156.152
160.659,156.377
154.883,156.302
148.15,155.895
143.771,155.289
140.26,154.537
139.168,153.769
141.809,153.171
148.056,152.915
153.497,152.944
155.81,153.087
156.537,153.26
155.885,153.391
157.335,153.588
156.612,153.739
155.51,153.828
156.725,153.973
164.502,154.499
170.872,155.318
169.95,156.049
165.87,156.541
159.91,156.709
155.548,156.651
149.363,156.287
144.261,155.685
144.293,155.116
144.038,154.562
146.098,154.139
151.779,154.021
156.858,154.162
158.674,154.388
160.08,154.673
154.915,154.685
153.078,154.604
152.611,154.505
149.905,154.275
149.351,154.029
150.821,153.868
156.667,154.008
158.935,154.254
159.331,154.508
158.02,154.684
151.132,154.506
145.424,154.052
140.395,153.369
136.083,152.505
134.805,151.62
133.806,150.729
134.713,149.928
141.205,149.492
145.009,149.268
151.386,149.374
155.336,149.672
153.921,149.885
154.574,150.119
154.335,150.33
154.241,150.525
156.19,150.809
158.106,151.173
165.907,151.91
171.344,152.882
170.13,153.744
168.01,154.458
161.008,154.785
154.72,154.782
147.099,154.398
142.408,153.798
140.395,153.128
141.201,152.532
140.936,151.952
144.24,151.566
149.792,151.478
155.245,151.666
151.991,151.682
148.027,151.499
145.531,151.201
146.352,150.959
150.264,150.924
152.914,151.023
163.291,151.637
169.706,152.54
168.898,153.358
166.796,154.03
160.258,154.341
155.36,154.392
149.716,154.158
145.428,153.722
141.308,153.101
141.819,152.537
144.468,152.134
150.746,152.064
156.042,152.263
159.046,152.602
159.303,152.937
158.317,153.206
158.864,153.489
158.736,153.752
156.153,153.872
157.268,154.041
158.24,154.251
162.337,154.656
166.36,155.241
164.753,155.717
160.727,155.967
