Normal data,Filtered data
138.629,138.629
140.617,140.518
141.459,141.411
141.415,141.415
141.123,141.138
142.566,142.494
142.555,142.552
142.888,142.871
142.996,142.99
141.405,141.485
142.167,142.132
140.356,140.445
141.286,141.244
140.828,140.849
138.607,138.719
132.851,133.144
129.189,129.386
131.667,131.553
134.57,134.419
132.658,132.746
132.415,132.432
131.664,131.703
129.825,129.919
129.964,129.962
129.732,129.744
133.778,133.576
136.398,136.257
138.821,138.692
139.642,139.594
140.695,140.64
150.821,150.312
152.93,152.799
150.917,151.011
150.051,150.099
150.772,150.738
150.873,150.867
149.054,149.144
147.632,147.707
146.124,146.203
143.473,143.609
142.083,142.159
141.29,141.333
141.081,141.093
140.739,140.757
141.018,141.005
139.422,139.501
136.773,136.909
140.038,139.882
140.821,140.774
141.616,141.574
142.376,142.336
141.483,141.526
141.378,141.386
141.398,141.397
137.573,137.764
128.815,129.262
134.777,134.501
134.525,134.524
132.773,132.86
131.003,131.096
129.217,129.311
132.291,132.142
134.823,134.689
137.508,137.367
139.536,139.428
140.955,140.879
141.088,141.078
142.263,142.203
140.582,140.663
156.131,155.358
153.78,153.859
152.741,152.797
152.055,152.092
150.919,150.978
148.55,148.672
147.794,147.838
145.29,145.418
145.98,145.952
145.676,145.69
144.593,144.648
143.542,143.598
143.26,143.277
144.522,144.46
144.984,144.958
145.552,145.522
145.139,145.159
144.085,144.139
143.984,143.992
144.12,144.113
143.539,143.568
144.663,144.609
143.295,143.361
143.013,143.03
142.371,142.404
141.828,141.857
142.202,142.184
141.649,141.675
140.235,140.307
141.494,141.434
142.116,142.082
141.592,141.617
139.887,139.974
137.234,137.371
134.948,135.069
133.507,133.585
132.787,132.827
135.217,135.098
138.311,138.151
138.548,138.528
135.69,135.832
133.751,133.855
134.432,134.403
139.731,139.464
144.355,144.11
144.693,144.664
142.992,143.076
142.114,142.162
140.491,140.574
140.516,140.519
140.817,140.802
136.5,136.715
137.217,137.192
138.711,138.635
135.46,135.618
134.847,134.885
137.636,137.498
139.201,139.116
140.097,140.048
139.575,139.599
140.817,140.756
139.653,139.708
136.007,136.192
134.01,134.119
134.544,134.523
135.451,135.405
136.194,136.155
137.616,137.543
136.038,136.113
134.572,134.649
137.793,137.636
140.055,139.934
141.382,141.31
141.868,141.84
141.35,141.375
140.765,140.795
140.146,140.178
139.919,139.932
137.704,137.815
135.069,135.206
136.697,136.622
130.839,131.128
134.43,134.265
138.889,138.657
142.848,142.638
144.186,144.109
145.261,145.203
144.775,144.796
144.185,144.216
143.927,143.941
142.842,142.897
140.766,140.872
139.557,139.623
139.707,139.703
141.585,141.49
142.899,142.829
143.845,143.794
138.903,139.147
137.122,137.224
135.373,135.465
139.821,139.604
139.817,139.806
138.714,138.769
137.282,137.356
134.608,134.745
132.042,132.177
131.512,131.545
129.833,129.919
125.993,126.189
129.026,128.884
134.67,134.381
137.819,137.647
138.634,138.585
140.506,140.41
142.067,141.984
142.851,142.807
143.667,143.624
143.818,143.809
141.954,142.047
140.361,140.445
140.318,140.324
140.175,140.183
139.7,139.724
140.797,140.744
141.414,141.381
142.109,142.073
152.131,151.628
151.826,151.816
149.348,149.471
148.122,148.19
149.526,149.46
149.127,149.143
147.509,147.591
145.785,145.876
143.189,143.324
142.409,142.455
142.424,142.426
142.253,142.262
142.768,142.743
145.602,145.459
145.636,145.627
143.329,143.444
136.185,136.548
135.382,135.44
137.695,137.582
143.218,142.936
144.934,144.834
144.183,144.215
141.245,141.394
138.279,138.435
141.425,141.276
140.918,140.936
145.297,145.079
143.228,143.321
143.179,143.186
143.959,143.921
143.755,143.764
143.532,143.544
143.532,143.533
142.07,142.143
141.701,141.723
138.656,138.809
137.48,137.546
138.642,138.587
139.766,139.707
139.622,139.626
141.828,141.718
141.893,141.885
143.697,143.607
142.507,142.562
140.272,140.387
141.743,141.675
142.403,142.367
142.988,142.957
143.486,143.46
143.514,143.511
143.719,143.709
144.045,144.028
141.826,141.936
141.79,141.797
140.997,141.037
141.316,141.302
141.876,141.847
141.226,141.257
136.559,136.794
134.521,134.635
136.1,136.027
137.777,137.69
137.927,137.915
138.139,138.128
137.816,137.831
137.42,137.441
137.995,137.967
137.187,137.226
140.385,140.227
141.864,141.782
141.675,141.68
142.967,142.902
141.756,141.814
142.763,142.715
142.938,142.927
143.127,143.117
143.164,143.162
144.126,144.077
144.231,144.223
142.695,142.771
141.428,141.495
140.631,140.674
141.763,141.708
139.506,139.616
139.881,139.868
140.67,140.63
141.298,141.265
141.638,141.619
141.069,141.096
141.268,141.259
141.01,141.022
144.173,144.016
146.557,146.43
149.542,149.386
147.981,148.051
147.78,147.794
144.498,144.663
142.584,142.688
142.389,142.404
141.37,141.422
142.16,142.123
143.247,143.191
142.044,142.102
142.158,142.156
142.873,142.837
143.771,143.724
144.688,144.64
143.709,143.756
142.88,142.924
141.727,141.786
142.243,142.22
139.844,139.963
140.456,140.431
139.136,139.2
134.378,134.619
136.184,136.106
134.186,134.282
136.186,136.091
137.918,137.827
133.251,133.48
134.237,134.199
136.565,136.446
136.061,136.08
132.593,132.768
135.301,135.174
136.905,136.819
137.924,137.869
139.814,139.717
138.909,138.95
138.149,138.189
137.689,137.714
138.257,138.23
135.296,135.442
138.81,138.641
141.062,140.941
142.551,142.471
143.566,143.512
143.593,143.589
142.199,142.268
140.881,140.95
141.924,141.876
143.03,142.972
142.155,142.196
140.898,140.963
143.509,143.382
143.966,143.937
142.054,142.149
142.916,142.877
155.308,154.687
160.131,159.859
160.543,160.508
158.841,158.924
157.322,157.402
155.889,155.964
159.33,159.162
156.755,156.876
152.325,152.552
146.378,146.686
144.113,144.242
140.432,140.622
142.048,141.977
142.573,142.544
141.35,141.409
151.505,151
153.371,153.252
157.289,157.087
153.453,153.635
150.004,150.185
151.254,151.201
150.178,150.229
147.866,147.984
146.419,146.498
144.788,144.873
142.881,142.981
138.957,139.158
139.572,139.551
139.782,139.771
140.771,140.721
139.347,139.415
138.141,138.205
135.342,135.486
135.097,135.117
136.779,136.696
137.385,137.351
137.722,137.704
137.42,137.434
137.12,137.136
136.189,136.237
136.964,136.927
135.141,135.23
135.553,135.537
136.523,136.474
139.619,139.462
140.046,140.016
141.922,141.826
139.814,139.915
139.522,139.542
142.382,142.24
143.86,143.779
142.65,142.707
141.941,141.979
140.926,140.979
140.833,140.84
143.031,142.921
144.075,144.018
144.989,144.94
144.691,144.704
144.062,144.094
156.258,155.65
155.4,155.412
152.67,152.807
157.246,157.024
156.672,156.689
157.94,157.877
156.437,156.509
152.744,152.932
149.673,149.836
147.426,147.546
146.007,146.084
144.061,144.162
143.253,143.299
142.159,142.216
141.823,141.843
139.981,140.074
134.562,134.837
136.369,136.292
138.81,138.684
138.754,138.75
139.362,139.331
137.169,137.277
136.665,136.696
136.389,136.404
136.946,136.919
151.156,150.444
145.216,145.477
143.948,144.024
146.328,146.213
143.985,144.097
144.297,144.287
144.396,144.391
143.48,143.526
143.542,143.541
141.949,142.028
143.132,143.077
143.138,143.135
142.752,142.771
141.872,141.917
151.683,151.195
151.795,151.765
150.306,150.378
149.487,149.531
148.355,148.414
147.725,147.759
145.991,146.08
143.386,143.521
143.601,143.597
142.558,142.61
141.958,141.991
139.288,139.423
132.541,132.885
132.81,132.813
134.752,134.655
133.726,133.772
132.115,132.198
134.05,133.957
131.213,131.35
132.786,132.714
133.805,133.75
138.374,138.143
139.823,139.739
137.237,137.362
138.563,138.503
141.979,141.806
142.045,142.033
138.661,138.829
137.038,137.128
136.959,136.967
135.873,135.928
137.221,137.156
137.884,137.848
153.056,152.296
159.108,158.767
159.917,159.859
157.613,157.725
155.55,155.659
154.301,154.369
153.801,153.829
152.893,152.939
150.031,150.177
147.209,147.357
144.606,144.743
141.134,141.314
140.715,140.745
141.863,141.807
141.014,141.054
141.18,141.173
141.249,141.245
136.603,136.836
134.088,134.225
135.464,135.402
133.562,133.654
131.503,131.61
130.783,130.824
129.909,129.955
133.92,133.722
135.917,135.807
137.2,137.13
151.376,150.664
148.209,148.332
149.423,149.368
150.739,150.67
150.132,150.159
147.021,147.178
144.372,144.513
145.431,145.385
143.733,143.815
141.625,141.734
139.385,139.503
136.232,136.396
138.245,138.152
139.916,139.828
141.009,140.95
141.885,141.839
141.089,141.127
136.168,136.416
134.455,134.553
137.817,137.653
140.525,140.381
142.16,142.071
141.212,141.255
141.688,141.666
142.972,142.907
141.75,141.808
139.821,139.92
137.415,137.54
133.656,133.85
135.789,135.692
132.414,132.578
136.418,136.226
139.209,139.06
140.564,140.489
141.767,141.703
139.565,139.672
141.359,141.274
143.524,143.411
143.821,143.801
143.193,143.223
142.794,142.815
141.175,141.257
141.705,141.682
140.799,140.843
140.919,140.915
140.734,140.743
139.715,139.766
140.182,140.161
142.326,142.218
142.657,142.635
141.249,141.319
140.173,140.231
139.176,139.228
137.361,137.454
138.938,138.864
140.544,140.46
140.692,140.68
141.303,141.272
141.194,141.198
138.73,138.853
141.308,141.185
142.099,142.053
141.846,141.857
142.029,142.02
141.451,141.479
141.659,141.65
143.062,142.992
142.074,142.12
140.712,140.782
140.747,140.749
140.314,140.335
141.302,141.253
152.01,151.472
151.928,151.905
145.199,145.534
138.66,139.004
136.891,136.996
138.125,138.069
135.664,135.784
132.878,133.023
130.752,130.866
130.202,130.235
134.329,134.124
138.107,137.908
139.751,139.658
140.523,140.48
153.025,152.398
150.765,150.846
145.112,145.399
146.003,145.972
145.445,145.471
144.645,144.687
141.089,141.269
141.367,141.362
141.634,141.62
140.723,140.768
140.373,140.393
140.541,140.533
140.315,140.326
138.069,138.182
138.704,138.678
140.456,140.367
141.208,141.166
142.152,142.102
