Normal data,Filtered data
152.051,152.051
152.056,152.052
152.404,152.069
152.532,152.092
152.587,152.117
154.424,152.232
149.75,152.108
145.461,151.776
143.688,151.372
142.227,150.914
146.573,150.697
144.997,150.412
147.426,150.263
149.507,150.225
151.768,150.302
150.386,150.306
154.648,150.523
157.615,150.878
155.237,151.096
156.625,151.372
153.171,151.462
150.3,151.404
150.33,151.351
150.418,151.304
147.959,151.137
142.908,150.725
137.862,150.082
138.75,149.515
142.635,149.171
145.987,149.012
143.379,148.731
141.861,148.387
143.228,148.129
144.044,147.925
148.296,147.943
151.139,148.103
154.015,148.399
156.037,148.781
155.875,149.135
156.912,149.524
156.78,149.887
156.777,150.232
157.127,150.576
156.767,150.886
156.548,151.169
155.515,151.386
154.632,151.549
153.631,151.653
152.632,151.702
151.693,151.701
151.064,151.669
150.549,151.613
150.622,151.564
150.277,151.499
152.37,151.543
154.222,151.677
155.019,151.844
156.5,152.077
157.376,152.342
158.196,152.634
159.549,152.98
160.139,153.338
160.776,153.71
160.157,154.032
158.87,154.274
157.309,154.426
155.747,154.492
154.126,154.474
152.31,154.365
150.705,154.182
147.754,153.861
153.798,153.858
157.776,154.054
160.568,154.379
161.158,154.718
161.707,155.068
161.265,155.378
156.451,155.431
154.947,155.407
153.551,155.314
152.237,155.16
150.85,154.945
149.256,154.66
146.071,154.231
146.623,153.851
149.557,153.636
146.698,153.289
141.232,152.686
142.062,152.155
142.762,151.685
143.207,151.261
143.434,150.87
143.522,150.503
143.92,150.173
142.139,149.772
140.839,149.325
145.918,149.155
150.398,149.217
157.109,149.612
156.32,149.947
153.276,150.113
150.565,150.136
152.354,150.247
153.809,150.425
152.678,150.538
151.634,150.593
150.92,150.609
156.449,150.901
157.542,151.233
158.46,151.594
159.086,151.969
160.524,152.397
160.355,152.795
160.516,153.181
157.902,153.417
156.297,153.561
154.588,153.612
153.32,153.597
152.78,153.557
149.779,153.368
150.855,153.242
152.078,153.184
149.946,153.022
153.827,153.062
157.029,153.261
157.216,153.458
157.413,153.656
155.828,153.765
152.124,153.683
146.396,153.318
135.575,152.431
136.779,151.649
135.875,150.86
134.82,150.058
145.995,149.855
155.074,150.116
159.283,150.574
160.709,151.081
159.041,151.479
157.87,151.798
156.493,152.033
152.364,152.05
154.528,152.173
156.483,152.389
158.027,152.671
158.045,152.94
154.083,152.997
152.998,152.997
153.754,153.035
152.65,153.015
151.585,152.944
147.584,152.676
149.911,152.538
151.802,152.501
150.561,152.404
148.97,152.232
147.887,152.015
147.073,151.768
146.311,151.495
147.791,151.31
149.745,151.232
151.546,151.247
158.534,151.612
161.391,152.101
159.643,152.478
156.99,152.703
154.43,152.79
151.821,152.741
149.992,152.604
148.035,152.375
149.059,152.21
151.407,152.169
153.192,152.221
151.863,152.203
148.691,152.027
145.377,151.695
142.25,151.222
145.445,150.933
142.186,150.496
145.402,150.241
130.021,149.23
134.493,148.493
134.326,147.785
134.18,147.105
130.777,146.288
133.607,145.654
136.196,145.181
138.413,144.843
140.944,144.648
142.995,144.565
141.704,144.422
150.353,144.719
155.141,145.24
152.369,145.596
149.403,145.787
143.492,145.672
144.681,145.622
145.414,145.612
146.581,145.66
144.372,145.596
151.12,145.872
153.867,146.272
148.773,146.397
143.711,146.263
144.999,146.2
146.115,146.195
144.44,146.107
143.128,145.958
141.398,145.73
146.928,145.79
148.574,145.93
152.19,146.243
150.764,146.469
149.314,146.611
147.856,146.673
148.718,146.775
149.424,146.908
148.483,146.987
149.183,147.096
149.966,147.24
146.1,147.183
146.976,147.173
147.678,147.198
150.116,147.344
146.482,147.301
144.573,147.164
142.889,146.95
146.124,146.909
142.093,146.668
143.179,146.494
144.376,146.388
145.029,146.32
137.218,145.865
118.155,144.479
97.3867,142.125
110.427,140.54
121.006,139.563
129.86,139.078
135.883,138.918
140.866,139.016
145.048,139.317
148.107,139.757
152.264,140.382
154.959,141.111
155.805,141.846
154.824,142.495
156.734,143.207
158.201,143.956
156.954,144.606
156.168,145.184
152.621,145.556
153.93,145.975
155.183,146.435
151.256,146.676
148.143,146.75
152.583,147.041
155.478,147.463
156.855,147.933
157.478,148.41
156.051,148.792
152.45,148.975
153.614,149.207
152.651,149.379
151.571,149.489
148.985,149.463
149.822,149.481
151.088,149.562
152.511,149.709
153.922,149.92
153.272,150.087
152.817,150.224
152.302,150.328
151.64,150.393
153.208,150.534
155.003,150.758
158.34,151.137
157.601,151.46
155.735,151.674
156.531,151.917
155.063,152.074
156.591,152.3
161.875,152.778
159.774,153.128
157.607,153.352
155.463,153.458
154.434,153.506
152.96,153.479
151.155,153.363
149.967,153.193
149.323,153
143.184,152.509
138.819,151.824
145.016,151.484
150.996,151.46
150.598,151.416
149.019,151.297
147.979,151.131
147.466,150.947
147.314,150.766
144.173,150.436
147.748,150.302
150.294,150.301
149.226,150.248
148.58,150.164
151.075,150.21
153.001,150.349
152.218,150.443
151.462,150.494
148.084,150.373
151.421,150.426
154.254,150.617
155.973,150.885
155.381,151.11
152.1,151.159
152.492,151.226
153.629,151.346
154.847,151.521
156.425,151.766
158.094,152.083
159.48,152.453
157.831,152.721
156.198,152.895
153.869,152.944
150.46,152.82
146.804,152.519
148.976,152.342
148.864,152.168
148.598,151.989
155.424,152.161
156.652,152.386
157.913,152.662
159.174,152.988
160.483,153.362
158.941,153.641
159.285,153.923
159.036,154.179
158.782,154.409
157.981,154.588
156.222,154.67
153.798,154.626
152.322,154.511
153.066,154.439
150.02,154.218
147.399,153.877
148.238,153.595
152.853,153.558
156.217,153.691
154.866,153.749
153.518,153.738
149.783,153.54
143.516,153.039
143.41,152.557
143.504,152.105
143.737,151.686
138.716,151.038
144.479,150.71
149.374,150.643
147.2,150.471
145.065,150.201
142.848,149.833
140.529,149.368
143.809,149.09
142.407,148.756
143.922,148.514
143.429,148.26
146.363,148.165
149.379,148.226
151.499,148.389
154.287,148.684
153.093,148.905
151.706,149.045
151.453,149.165
148.657,149.14
145.72,148.969
151.455,149.093
150.07,149.142
147.492,149.059
150.136,149.113
147.818,149.048
146.221,148.907
147.356,148.83
151.287,148.952
152.828,149.146
149.128,149.145
156.965,149.536
158.797,149.999
164.183,150.708
165.399,151.443
162.679,152.005
159.097,152.359
155.014,152.492
156.287,152.682
151.708,152.633
153.029,152.653
154.714,152.756
153.467,152.792
152.592,152.782
152.372,152.761
152.619,152.754
155.115,152.872
158.038,153.13
157.926,153.37
158.1,153.607
156.244,153.738
154.65,153.784
156.556,153.923
157.121,154.083
157.787,154.268
157.563,154.433
157.059,154.564
157.749,154.723
160.07,154.991
161.999,155.341
159.128,155.53
156.837,155.596
154.526,155.542
155.078,155.519
154.476,155.467
154.697,155.428
153.996,155.357
154.408,155.309
153.166,155.202
152.178,155.051
151.427,154.87
154.681,154.86
154.538,154.844
155.238,154.864
156.555,154.948
157.601,155.081
151.428,154.898
145.012,154.404
145.985,153.983
140.04,153.286
138.97,152.57
138.15,151.849
137.183,151.116
137.559,150.438
138.815,149.857
137.483,149.238
140.748,148.814
143.86,148.566
151.155,148.695
