Normal data,Filtered data
139.948,139.948
146.721,140.286
152.437,140.894
157.257,141.712
159.893,142.621
160.035,143.492
166.297,144.632
167.895,145.795
167.554,146.883
167.451,147.911
164.213,148.726
165.602,149.57
165.72,150.378
166.538,151.186
166.702,151.962
167.044,152.716
168.446,153.502
168.553,154.255
167.676,154.926
167.713,155.565
167.703,156.172
165.976,156.662
166.615,157.16
166.216,157.613
166.743,158.069
162.342,158.283
156.333,158.185
149.86,157.769
154.517,157.606
155.149,157.484
154.097,157.314
146.205,156.759
146.253,156.234
157.43,156.293
162.021,156.58
164.899,156.996
168.391,157.566
161.408,157.758
165.115,158.126
165.64,158.501
170.705,159.111
167.029,159.507
162.3,159.647
153.924,159.361
149.427,158.864
154.974,158.67
164.404,158.956
167.394,159.378
169.098,159.864
170.58,160.4
168.279,160.794
165.78,161.043
167.13,161.348
169.023,161.731
171.088,162.199
172.612,162.72
170.538,163.111
172.556,163.583
173.167,164.062
174.782,164.598
176.012,165.169
176.454,165.733
174.965,166.195
168.945,166.332
170.778,166.555
172.399,166.847
172.988,167.154
168.432,167.218
170.212,167.367
171.794,167.589
174.014,167.91
173.097,168.169
172.351,168.378
173.433,168.631
174.263,168.913
169.824,168.958
163.889,168.705
157.289,168.134
160.272,167.741
165.224,167.615
168.463,167.658
163.15,167.432
161.191,167.12
164.065,166.967
168.293,167.034
165.907,166.977
158.339,166.545
162.125,166.324
169.015,166.459
170.917,166.682
162.958,166.496
166.774,166.509
169.331,166.651
164.943,166.565
158.072,166.141
161.971,165.932
168.314,166.051
167.901,166.144
166.679,166.17
158.035,165.764
158.529,165.402
157.492,165.006
162.627,164.887
169.052,165.096
159.12,164.797
166.871,164.901
172.946,165.303
174.205,165.748
160.146,165.468
161.81,165.285
168.065,165.424
170.687,165.687
172.537,166.03
166.195,166.038
164.551,165.963
167.709,166.051
169.738,166.235
163.739,166.11
164.843,166.047
165,165.995
158.422,165.616
162.361,165.453
168.267,165.594
167.729,165.701
160.003,165.416
163.635,165.327
167.073,165.414
169.281,165.607
162.286,165.441
163.771,165.358
166.366,165.408
168.072,165.541
164.442,165.486
160.363,165.23
164.571,165.197
167.807,165.328
160.483,165.085
167.605,165.211
173.138,165.608
171.788,165.917
165.747,165.908
171.532,166.19
171.568,166.458
170.93,166.682
174.955,167.096
167.377,167.11
167.032,167.106
166.971,167.099
168.241,167.156
163.54,166.975
162.684,166.761
163.333,166.589
163.289,166.424
166.025,166.404
160.438,166.106
165.815,166.092
166.301,166.102
167.54,166.174
164.561,166.093
165.491,166.063
168.346,166.177
165.603,166.149
168.887,166.286
161.806,166.062
165.367,166.027
167.965,166.124
167.343,166.185
160.415,165.896
158.627,165.533
164.986,165.505
167.125,165.586
169.659,165.79
163.566,165.679
164.82,165.636
167.863,165.747
168.613,165.89
168.577,166.025
173.138,166.38
166.434,166.383
172.057,166.667
174.283,167.048
175.349,167.463
170.256,167.602
175.233,167.984
178.389,168.504
177,168.929
174.265,169.196
174.846,169.478
165.275,169.268
165.46,169.078
166.105,168.929
170.305,168.998
168.529,168.974
167.272,168.889
163.723,168.631
157.444,168.072
159.687,167.652
160.763,167.308
162.98,167.092
163.698,166.922
163.869,166.769
163.485,166.605
162.409,166.395
157.2,165.935
152.722,165.275
150.357,164.529
149.633,163.784
147.838,162.987
152.07,162.441
153.472,161.992
161.215,161.954
164.065,162.059
169.987,162.456
173.673,163.016
174.21,163.576
177.547,164.275
178.43,164.982
174.437,165.455
175.057,165.935
175.626,166.42
177.069,166.952
176.729,167.441
176.065,167.872
176.527,168.305
176.479,168.714
173.598,168.958
170.116,169.016
169.926,169.061
169.964,169.106
170.33,169.168
167.997,169.109
165.919,168.95
164.16,168.71
162.725,168.411
161.596,168.07
160.745,167.704
160.113,167.324
159.669,166.942
159.467,166.568
159.429,166.211
159.529,165.877
159.743,165.57
160.04,165.294
160.454,165.052
160.868,164.842
161.253,164.663
161.625,164.511
167.227,164.647
169.518,164.891
171.271,165.21
172.557,165.577
173.444,165.97
173.652,166.354
173.876,166.73
173.798,167.084
173.395,167.399
171.518,167.605
169.321,167.691
166.731,167.643
164.219,167.472
161.923,167.194
159.857,166.828
158.022,166.387
156.413,165.889
155.021,165.345
153.789,164.767
152.759,164.167
