Normal data,Filtered data
173.462,173.462
175.615,175.507
175.305,175.315
175.722,175.702
176.269,176.241
171.408,171.65
163.343,163.758
159.277,159.501
166.636,166.28
169.557,169.393
175.383,175.083
177.702,177.571
175.295,175.408
175.066,175.083
170.747,170.964
168.302,168.435
164.591,164.783
163.63,163.688
167.486,167.296
171.296,171.096
179.51,179.089
169.447,169.929
166.077,166.269
169.637,169.469
171.587,171.481
175.485,175.284
172.169,172.325
171.254,171.308
171.993,171.958
175.265,175.1
176.371,176.308
174.658,174.741
167.698,168.05
161.467,161.796
161.507,161.522
172.303,171.764
176.302,176.075
169.785,170.099
168.736,168.804
171.854,171.702
165.128,165.457
154.207,154.769
144.536,145.048
136.778,137.192
128.524,128.958
119.41,119.888
116.204,116.388
119.661,119.497
142.275,141.137
163.599,162.476
173.439,172.891
169.807,169.962
159.509,160.032
150.184,150.677
147.015,147.198
150.732,150.555
156.737,156.428
167.887,167.315
173.487,173.178
160.956,161.567
154.978,155.307
165.556,165.043
169.385,169.168
163.936,164.198
156.171,156.572
148.987,149.366
142.67,143.005
135.188,135.579
126.911,127.345
131.833,131.608
151.337,150.35
162.944,162.315
166.9,166.671
161.711,161.959
157.271,157.505
141.89,142.671
130.789,131.383
137.178,136.888
147.144,146.632
170.756,169.55
169.681,169.675
168.442,168.504
167.888,167.919
168.681,168.643
167.82,167.861
165.827,165.929
158.259,158.643
160.478,160.386
167.913,167.536
176.866,176.399
174.101,174.216
168.797,169.068
163.29,163.579
162.383,162.443
156.039,156.359
153.602,153.74
154.918,154.859
157.933,157.779
160.532,160.394
157.945,158.067
154.947,155.103
158.292,158.132
167.896,167.408
162.161,162.423
153.769,154.202
136.554,137.436
145.098,144.715
152.119,151.748
147.419,147.635
138.765,139.208
129.888,130.354
132.561,132.451
104.378,105.781
102.802,102.951
103.158,103.148
110.724,110.345
145.129,143.39
162.717,161.75
157.83,158.026
145.514,146.14
142.767,142.936
136.315,136.646
144.511,144.118
160.778,159.945
165.3,165.032
167.602,167.474
158.832,159.264
162.29,162.138
177.36,176.599
149.305,150.67
166.525,165.732
177.292,176.714
177.537,177.496
175.736,175.824
169.814,170.115
93.1713,97.0185
66.7506,68.264
55.0077,55.6706
55.3943,55.4081
55.2751,55.2818
64.5374,64.0746
100.124,98.3213
124.884,123.555
128.145,127.915
138.86,138.313
144.217,143.921
152.369,151.946
163.551,162.971
172.59,172.109
160.104,160.704
138.814,139.909
123.388,124.214
117.181,117.533
116.691,116.733
109.52,109.881
98.4869,99.0566
92.7185,93.0354
99.7723,99.4354
100.425,100.375
108.094,107.708
117.477,116.989
123.678,123.344
141.061,140.175
137.519,137.652
142.796,142.539
132.543,133.043
142.095,141.643
145.055,144.884
159.227,158.51
144.583,145.279
158.87,158.191
144.349,145.042
108.132,109.977
111.513,111.436
114.811,114.642
123.346,122.911
129.674,129.336
136.804,136.43
142.886,142.563
151.48,151.034
155.511,155.287
157.833,157.706
160.817,160.661
153.855,154.196
158.046,157.853
150.957,151.301
158.513,158.153
158.01,158.017
158.631,158.601
143.222,143.991
157.585,156.905
155.095,155.185
150.214,150.463
141.546,141.992
137.907,138.111
144.704,144.374
142.986,143.056
147.356,147.141
177.997,176.454
97.4947,101.443
73.9141,75.2905
62.2553,62.9071
55.841,56.1943
72.5713,71.7524
104.005,102.392
117.183,116.443
129.89,129.217
142.184,141.536
148.969,148.597
157.182,156.753
155.511,155.573
139.49,140.294
139.587,139.622
143.374,143.186
137.445,137.732
108.923,110.363
99.7164,100.249
95.1365,95.3921
93.4352,93.5331
96.3489,96.2081
100.728,100.502
109.61,109.155
116.314,115.956
115.375,115.404
116.459,116.406
116.024,116.043
114.415,114.497
113.85,113.882
126.998,126.342
134.119,133.73
142.511,142.072
147.204,146.947
162.733,161.944
163.64,163.555
161.447,161.553
170.834,170.37
166.576,166.765
163.784,163.933
157.05,157.394
148.434,148.882
146.714,146.822
123.562,124.725
86.7467,88.6456
58.8923,60.38
55.3605,55.6114
54.7922,54.8331
67.6729,67.0309
79.9079,79.264
93.5915,92.8751
103.245,102.727
128.194,126.92
141.139,140.428
151.577,151.02
153.284,153.17
146.797,147.116
134.343,134.982
117.743,118.605
110.265,110.682
90.7282,91.7258
86.4031,86.6693
84.8216,84.914
83.9026,83.9531
82.8956,82.9484
87.5729,87.3417
92.4455,92.1903
97.0565,96.8132
96.1953,96.2262
107.745,107.169
113.762,113.433
104.289,104.746
112.69,112.292
121.969,121.485
128.195,127.859
144.899,144.047
133.227,133.768
133.908,133.901
134.463,134.435
152.502,151.599
163.806,163.195
171.198,170.798
160.292,160.818
145.864,146.612
131.737,132.481
96.9193,98.6974
103.843,103.586
115.145,114.567
107.888,108.222
119.485,118.922
137.662,136.725
142.39,142.107
142.748,142.716
142.106,142.136
145.768,145.587
147.199,147.118
143.452,143.635
137.378,137.691
119.788,120.683
118.99,119.074
119.499,119.478
114.776,115.011
117.358,117.241
111.831,112.101
114.019,113.923
114.734,114.694
116.472,116.383
128.265,127.671
146.005,145.088
150.475,150.206
159.072,158.629
157.357,157.421
159.089,159.005
155.22,155.409
159.104,158.919
168.707,168.218
152.404,153.194
96.8254,99.6439
70.0848,71.5627
69.5078,69.6105
64.212,64.4819
80.4952,79.6945
91.7538,91.1509
109.207,108.304
123.569,122.805
139.529,138.693
150.8,150.194
153.811,153.63
146.68,147.027
136.269,136.807
120.766,121.568
121.232,121.249
100.064,101.123
95.6112,95.8868
95.9252,95.9233
102.402,102.078
110.959,110.515
120.726,120.215
126.269,125.966
137.378,136.808
145.515,145.08
145.384,145.369
149.286,149.09
146.252,146.394
137.011,137.48
133.915,134.093
133.363,133.4
136.337,136.19
140.398,140.187
146.665,146.341
164.38,163.478
167.783,167.567
160.185,160.555
150.881,151.365
169.387,168.485
165.833,165.965
130.374,132.154
95.6177,97.4445
62.9382,64.6635
50.2439,50.9649
47.925,48.077
53.3956,53.1297
64.2321,63.677
76.2796,75.6495
98.6859,97.5341
114.273,113.437
132.943,131.967
148.577,147.747
151.441,151.256
141.955,142.42
116.918,118.193
99.182,100.133
88.0855,88.6879
87.0268,87.1099
87.3112,87.3012
88.1213,88.0803
94.8561,94.5173
100.416,100.121
102.682,102.554
110.049,109.674
111.461,111.372
99.9976,100.566
100.648,100.644
108.371,107.984
109.38,109.31
120.808,120.233
131.608,131.039
146.921,146.127
161.74,160.959
176.281,175.515
167.657,168.05
151.252,152.092
116.247,118.039
128.871,128.33
90.4957,92.3874
73.2349,74.1925
74.7007,74.6753
77.3765,77.2414
86.7199,86.246
100.025,99.3357
115.75,114.929
138.807,137.613
144.689,144.335
147.45,147.294
145.071,145.182
138.068,138.424
123.497,124.244
108.427,109.218
100.791,101.212
98.3904,98.5314
100.209,100.126
104.587,104.364
110.127,109.839
121.423,120.844
132.879,132.278
136.356,136.152
137.633,137.559
149.745,149.136
157.063,156.667
157.679,157.629
144.71,145.356
145.064,145.079
139.391,139.676
146.504,146.163
147.804,147.722
146.603,146.659
161.187,160.461
147.646,148.287
148.117,148.126
157.238,156.782
176.814,175.812
140.899,142.645
100.217,102.339
86.9273,87.6979
84.4628,84.6246
77.5106,77.8663
95.7581,94.8635
107.767,107.121
117.868,117.331
130.482,129.825
145.485,144.702
151.731,151.379
155.037,154.854
152.71,152.817
142.881,143.378
140.463,140.609
115.304,116.569
102.542,103.243
100.226,100.377
98.7772,98.8571
101.33,101.207
106.897,106.613
105.802,105.843
112.629,112.29
121.403,120.948
123.927,123.778
125.499,125.413
128.102,127.967
126.556,126.626
132.655,132.354
141.119,140.681
167.516,166.174
171.438,171.174
159.524,160.107
166.05,165.753
163.857,163.951
161.469,161.593
152.487,152.942
124.032,125.477
133.044,132.666
88.7601,90.9554
74.354,75.1841
70.3357,70.5781
78.8482,78.4347
89.735,89.17
97.2378,96.8344
110.581,109.894
133.586,132.401
153.794,152.725
157.638,157.392
156.097,156.162
150.413,150.701
141.456,141.918
138.214,138.399
142.726,142.51
146.782,146.569
149.343,149.204
140.784,141.205
131.175,131.676
122.079,122.559
120.697,120.79
118.049,118.186
126.459,126.046
125.097,125.145
125.211,125.208
135.094,134.599
138.176,137.997
146.24,145.828
155.461,154.98
162.599,162.218
167.657,167.385
131.193,133.003
114.519,115.443
92.6717,93.8102
86.1379,86.5215
92.216,91.9313
89.7808,89.8884
96.5863,96.2514
97.5837,97.5171
101.822,101.607
112.116,111.59
127.648,126.845
135.399,134.971
131.935,132.087
124.779,125.145
108.135,108.985
93.0622,93.8583
93.0233,93.0651
85.778,86.1424
79.0543,79.4087
78.7409,78.7743
81.2642,81.1397
87.9429,87.6027
96.6344,96.1828
105.06,104.616
113.164,112.737
116.121,115.952
116.156,116.146
118.267,118.161
112.356,112.646
115.112,114.989
128.015,127.364
144.524,143.666
165.522,164.429
169.941,169.665
167.01,167.143
151.02,151.826
128.341,129.515
114.332,115.092
64.0648,66.6161
50.9465,51.7299
43.248,43.6721
44.6344,44.5862
49.9748,49.7054
56.053,55.7356
65.4774,64.9903
76.964,76.3654
93.5134,92.656
127.383,125.647
148.981,147.814
145.927,146.021
141.878,142.086
137.636,137.858
114.881,116.03
99.9505,100.754
88.0353,88.6713
86.1288,86.2559
85.2216,85.2733
90.753,90.479
100.251,99.7622
104.974,104.713
106.922,106.811
105.589,105.65
104.034,104.115
94.6767,95.1486
95.0846,95.0878
106.553,105.98
120.34,119.622
117.977,118.059
133.244,132.484
145.7,145.04
159.576,158.849
169.12,168.607
139.165,140.637
81.938,84.873
60.8788,62.0786
49.0924,49.7417
43.0278,43.3635
42.5148,42.5572
47.7148,47.4569
56.3449,55.9005
65.7911,65.2965
78.0128,77.377
91.6193,90.9072
114.969,113.766
134.26,133.235
146.727,146.053
141.269,141.508
106.921,108.65
87.7447,88.7899
83.5542,83.816
81.6644,81.7719
82.9736,82.9136
89.5255,89.1949
94.6422,94.3699
97.6035,97.4418
105.444,105.044
103.348,103.433
105.795,105.677
116.502,115.961
123.113,122.755
136.901,136.193
153.71,152.834
177.085,175.872
173.454,173.575
159.293,160.007
162.447,162.325
156.783,157.06
165.195,164.788
154.858,155.355
108.965,111.285
68.0337,70.1962
48.3189,49.4128
47.0304,47.1496
52.6815,52.4049
72.7039,71.6889
95.8501,94.642
103.835,103.375
114.43,113.877
148.18,146.465
170.922,169.699
171.959,171.846
171.716,171.723
160.937,161.476
141.255,142.266
129.467,130.107
109.897,110.907
103.786,104.142
99.0431,99.298
94.5127,94.752
107.476,106.84
105.981,106.024
99.2295,99.5693
104.428,104.185
105.564,105.496
101.487,101.688
100.931,100.968
114.6,113.918
114.247,114.231
117.471,117.309
119.955,119.822
136.746,135.9
133.444,133.567
123.214,123.732
127.297,127.119
143.855,143.018
161.096,160.192
161.921,161.835
105.719,108.524
57.3989,59.9552
48.0834,48.6769
44.5737,44.7789
54.8633,54.3591
82.8108,81.3882
97.9867,97.1568
111.173,110.472
119.971,119.496
129.308,128.817
142.794,142.095
151.685,151.206
155.865,155.632
154.878,154.916
148.628,148.942
123.475,124.748
109.006,109.793
104.012,104.301
86.6504,87.533
88.9372,88.867
92.1883,92.0223
95.2301,95.0697
100.237,99.9782
96.7114,96.8747
105.341,104.918
113.231,112.815
110.127,110.261
117.492,117.131
113.898,114.06
112.298,112.386
125.634,124.972
148.161,147.002
163.288,162.473
168.82,168.502
165.426,165.579
166.202,166.171
152.454,153.14
140.363,141.001
135.923,136.177
140.007,139.816
147.201,146.832
106.043,108.083
91.0638,91.9147
113.923,112.823
130.677,129.785
128.362,128.433
127.586,127.629
127.681,127.678
131.071,130.901
128.339,128.467
118.059,118.579
104.687,105.382
93.8865,94.4612
80.1374,80.8536
71.8655,72.3149
69.0078,69.1731
70.6392,70.5659
72.8717,72.7564
77.5634,77.323
82.4175,82.1628
89.9422,89.5532
92.8624,92.697
94.8913,94.7816
105.199,104.678
113.416,112.98
116.525,116.348
116.004,116.022
125.802,125.313
138.35,137.698
142.259,142.031
144.869,144.727
155.125,154.605
153.226,153.295
157.888,157.658
164.046,163.726
174.566,174.024
155.391,156.323
122.45,124.144
89.0444,90.7994
73.1404,74.0233
66.6907,67.0574
74.2709,73.9102
82.2701,81.8521
96.3704,95.6445
103.196,102.818
116.189,115.52
127.034,126.458
118.304,118.711
102.947,103.735
109.933,109.623
99.8131,100.304
84.4509,85.2435
83.0854,83.1933
77.284,77.5795
74.9707,75.1011
78.5632,78.3901
83.4307,83.1787
84.3848,84.3245
89.7858,89.5127
90.7965,90.7323
105.423,104.689
120.308,119.527
125.872,125.554
138.933,138.264
147.076,146.636
159.532,158.887
159.984,159.929
162.709,162.57
170.518,170.121
153.757,154.576
143.441,143.998
136.363,136.745
122.072,122.806
91.9974,93.5378
76.0294,76.9048
66.5512,67.0688
65.6477,65.7188
74.9751,74.5123
87.5935,86.9394
101.457,100.731
117.352,116.521
143.271,141.934
155.297,154.629
156.91,156.796
153.889,154.035
146.489,146.867
150.008,149.85
139.456,139.976
135.904,136.108
142.235,141.929
151.852,151.356
150.888,150.912
147.923,148.072
151.414,151.247
154.543,154.379
148.909,149.183
144.895,145.109
145.65,145.623
151.944,151.628
158.104,157.78
160.874,160.719
160.63,160.635
170.287,169.804
177.735,177.338
174.164,174.323
166.634,167.019
150.752,151.565
147.475,147.68
158.399,157.863
