Normal data,Filtered data
52.2116,52.2116
50.6229,52.1322
48.6839,51.9598
47.1855,51.7211
46.4056,51.4553
46.571,51.2111
47.7872,51.0399
48.3528,50.9055
48.7233,50.7964
49.4625,50.7297
48.7106,50.6288
48.0198,50.4983
48.7652,50.4117
48.9431,50.3382
48.2868,50.2357
47.2533,50.0865
46.2386,49.8941
45.8238,49.6906
46.2224,49.5172
47.0934,49.396
47.475,49.3
48.2436,49.2471
48.0343,49.1865
47.5902,49.1067
47.4587,49.0243
58.3095,49.4885
55.512,49.7897
53.7877,49.9896
51.9973,50.09
50.1197,50.0915
48.7849,50.0262
50.0036,50.025
50.8057,50.0641
51.0348,50.1126
51.0015,50.157
51.0023,50.1993
50.0728,50.193
60.4153,50.7041
57.5383,51.0458
54.4169,51.2144
51.8319,51.2452
49.987,51.1823
49.1255,51.0795
50.0234,51.0267
50.0996,50.9803
50.0942,50.936
49.5966,50.869
48.9663,50.7739
49.425,50.7065
49.227,50.6325
48.9982,50.5508
48.9661,50.4715
48.6731,50.3816
47.8859,50.2568
49.2168,50.2048
50.2185,50.2055
49.9076,50.1906
49.4699,50.1546
49.4215,50.1179
49.3883,50.0814
49.3666,50.0457
49.0423,49.9955
48.3742,49.9144
47.803,49.8089
47.0405,49.6704
47.7652,49.5752
47.7447,49.4837
47.9782,49.4084
47.3416,49.305
47.0799,49.1938
48.3543,49.1518
49.3603,49.1622
49.3701,49.1726
49.7208,49.2
48.7302,49.1765
50.1559,49.2255
50.495,49.289
50.6081,49.3549
50.488,49.4116
49.9887,49.4404
49.2209,49.4295
49.6632,49.4412
49.7704,49.4576
49.7275,49.4711
49.283,49.4617
48.093,49.3933
47.0051,49.2739
48.3004,49.2252
49.3716,49.2325
49.4227,49.242
49.2251,49.2412
48.6082,49.2095
48.1789,49.158
48.9127,49.1457
49.0685,49.1419
48.4491,49.1072
48.3463,49.0692
47.391,48.9853
48.5269,48.9624
49.2987,48.9792
49.3692,48.9987
49.1651,49.007
49.7157,49.0424
50.1917,49.0999
50.3414,49.162
49.5029,49.179
48.9144,49.1658
48.3214,49.1236
47.8823,49.0615
48.5884,49.0378
49.4552,49.0587
50.3758,49.1246
50.7076,49.2037
50.6965,49.2784
50.5781,49.3433
50.3546,49.3939
50.9732,49.4729
51.0518,49.5518
49.9976,49.5741
48.6355,49.5272
48.0498,49.4533
47.4461,49.3529
48.689,49.3197
49.5896,49.3332
50.0094,49.367
49.6125,49.3793
49.0961,49.3652
48.5263,49.3232
49.3245,49.3233
49.1291,49.3136
48.7996,49.2879
48.0757,49.2273
47.3913,49.1355
47.2771,49.0425
47.4257,48.9617
47.4566,48.8865
47.573,48.8208
47.1638,48.7379
46.6347,48.6328
47.5792,48.5801
47.3307,48.5176
46.977,48.4406
46.4274,48.3399
45.9655,48.2212
45.8577,48.103
46.8898,48.0424
47.7899,48.0297
48.2649,48.0415
49.0694,48.0929
49.2104,48.1488
49.1755,48.2001
50.2677,48.3035
50.4314,48.4099
50.4506,48.5119
49.5838,48.5655
48.2548,48.55
48.7955,48.5622
48.7792,48.5731
48.4347,48.5662
47.8095,48.5283
49.1773,48.5608
49.1395,48.5897
49.0346,48.612
48.4994,48.6063
48.2113,48.5866
48.8478,48.5996
49.2459,48.632
48.9931,48.65
48.7331,48.6542
48.7977,48.6613
48.0649,48.6315
49.1766,48.6588
49.5298,48.7023
49.6788,48.7512
49.2614,48.7767
48.424,48.759
47.4538,48.6938
46.8083,48.5995
47.6276,48.5509
47.6325,48.505
47.9223,48.4758
47.5863,48.4314
47.1609,48.3678
47.0216,48.3005
48.1158,48.2913
47.9192,48.2727
47.7066,48.2444
46.9035,48.1773
46.3882,48.0879
45.9814,47.9825
46.8742,47.9271
47.5744,47.9095
48.3333,47.9307
48.5583,47.9621
48.3097,47.9794
48.3679,47.9989
49.6386,48.0809
49.385,48.1461
48.7901,48.1783
48.0381,48.1713
47.3894,48.1322
46.4007,48.0456
45.9491,47.9408
47.271,47.9073
47.4225,47.883
47.3273,47.8552
48.035,47.8642
48.5046,47.8963
48.389,47.9209
47.8024,47.915
48.5656,47.9475
48.4429,47.9723
48.1259,47.98
47.5106,47.9565
46.8747,47.9024
48.8271,47.9486
50.0199,48.0522
50.9524,48.1972
51.0705,48.3409
51.2267,48.4852
50.451,48.5834
51.7018,48.7394
52.4432,48.9245
52.4173,49.0992
51.4191,49.2152
50.4544,49.2771
49.6555,49.2961
49.3899,49.3007
49.3509,49.3033
48.6861,49.2724
48.0158,49.2096
47.5879,49.1285
47.582,49.0512
46.5898,48.9281
48.0369,48.8835
48.1903,48.8489
47.6206,48.7875
46.2496,48.6606
45.2657,48.4908
43.8959,48.2611
45.0726,48.1016
46.1699,48.0051
46.7416,47.9419
48.6125,47.9754
49.154,48.0343
49.8334,48.1243
49.3006,48.1831
59.3223,48.7401
58.14,49.2101
55.9051,49.5448
54.2452,49.7798
52.7978,49.9307
50.9024,49.9793
50.3028,49.9955
50.7589,50.0337
50.2157,50.0428
49.8489,50.0331
49.4356,50.0032
48.6189,49.934
49.6531,49.9199
49.5613,49.902
49.5714,49.8855
48.7619,49.8293
47.3875,49.7072
46.2687,49.5353
45.2075,49.3189
45.9088,49.1484
46.7657,49.0292
47.3865,48.9471
47.6492,48.8822
47.8381,48.83
47.8933,48.7832
48.0608,48.7471
49.0601,48.7627
49.3814,48.7936
49.082,48.8081
48.7713,48.8062
47.6757,48.7497
46.5664,48.6405
47.8829,48.6026
48.1926,48.5821
48.4458,48.5753
48.5748,48.5753
48.3163,48.5623
48.5123,48.5598
47.4801,48.5058
48.2203,48.4916
48.6801,48.501
48.6925,48.5106
48.4977,48.5099
47.7741,48.4731
47.0877,48.4039
47.2448,48.3459
48.3936,48.3483
48.7694,48.3694
49.6058,48.4312
49.1613,48.4677
49.1629,48.5024
49.2969,48.5422
48.4781,48.539
57.595,48.9918
55.7302,49.3287
54.2992,49.5772
52.9103,49.7439
51.4427,49.8288
50.2091,49.8478
50.0235,49.8566
49.3725,49.8324
48.4801,49.7648
48.5695,49.705
48.3388,49.6367
47.9616,49.5529
48.88,49.5193
48.9888,49.4928
48.9637,49.4663
48.4756,49.4168
47.6611,49.329
46.6867,49.1969
47.0146,49.0878
48.5169,49.0592
48.3728,49.0249
49.1592,49.0316
49.3893,49.0495
50.0917,49.1016
49.7771,49.1354
51.0491,49.2311
50.6326,49.3011
49.8843,49.3303
49.1677,49.3222
48.6254,49.2873
49.5299,49.2994
49.4717,49.3081
49.7762,49.3315
49.183,49.324
48.5835,49.287
48.0254,49.2239
48.4689,49.1862
48.2814,49.1409
47.5348,49.0606
46.2855,48.9219
45.5253,48.752
44.7803,48.5535
45.9523,48.4234
46.9831,48.3514
47.6731,48.3175
48.1442,48.3088
48.6162,48.3242
48.3123,48.3236
48.9601,48.3554
48.6489,48.3701
47.8359,48.3434
47.171,48.2848
46.2031,48.1807
46.9572,48.1195
47.5936,48.0932
48.2172,48.0994
48.5193,48.1204
48.2868,48.1287
48.9918,48.1719
49.8318,48.2549
50.2741,48.3558
49.9907,48.4376
49.6089,48.4961
49.0541,48.524
48.2808,48.5119
47.7563,48.4741
48.4598,48.4734
48.5945,48.4794
48.7187,48.4914
48.7832,48.506
48.7819,48.5198
48.4345,48.5155
47.8993,48.4847
48.928,48.5069
49.2647,48.5447
49.0662,48.5708
48.3049,48.5575
47.1256,48.4859
46.6839,48.3958
46.0278,48.2774
46.7617,48.2016
47.3291,48.158
47.9225,48.1462
48.1135,48.1446
48.0879,48.1418
47.733,48.1213
47.6499,48.0977
48.7083,48.1283
48.8216,48.1629
49.0119,48.2054
49.0612,48.2482
48.5096,48.2612
48.2987,48.2631
47.6921,48.2346
49.2395,48.2848
48.9247,48.3168
49.8533,48.3936
50.0753,48.4777
50.0211,48.5549
50.0196,48.6281
50.8763,48.7405
50.2391,48.8154
49.166,48.833
48.1391,48.7983
46.5628,48.6865
45.0883,48.5066
44.0153,48.282
45.5715,48.1465
46.7719,48.0778
46.7447,48.0111
46.6919,47.9451
47.0771,47.9017
47.2263,47.868
47.7747,47.8633
47.5203,47.8462
47.2901,47.8184
46.9556,47.7752
46.137,47.6933
45.0761,47.5624
44.8284,47.4257
46.0852,47.3587
47.0495,47.3433
47.758,47.364
47.8916,47.3904
47.7015,47.4059
48.1682,47.444
48.868,47.5152
48.619,47.5704
48.0687,47.5953
47.0871,47.5699
46.2907,47.506
47.4611,47.5037
47.623,47.5097
47.8488,47.5266
47.1613,47.5084
47.2869,47.4973
47.1935,47.4821
47.8292,47.4995
47.8409,47.5165
47.6959,47.5255
47.3105,47.5147
46.8963,47.4838
46.2477,47.422
46.3511,47.3685
47.7129,47.3857
48.4753,47.4402
48.7416,47.5052
48.4254,47.5513
48.4954,47.5985
49.3905,47.6881
49.0172,47.7545
48.6368,47.7986
48.1832,47.8179
47.7445,47.8142
48.8081,47.8639
49.7742,47.9594
49.5198,48.0374
49.5304,48.1121
49.0401,48.1585
48.4273,48.1719
48.1252,48.1696
49.3883,48.2305
50.3118,48.3346
50.257,48.4307
50.076,48.513
49.4298,48.5588
48.8495,48.5733
48.8743,48.5884
49.1381,48.6159
49.0885,48.6395
48.6711,48.6411
48.3032,48.6242
48.4739,48.6167
48.3852,48.6051
56.6511,49.0074
54.9386,49.3039
53.3675,49.5071
52.2172,49.6426
49.8295,49.652
49.5982,49.6493
48.9064,49.6121
48.8396,49.5735
48.6131,49.5255
48.376,49.468
47.8634,49.3878
48.3015,49.3335
48.4303,49.2883
47.82,49.2149
47.182,49.1132
46.6629,48.9907
45.8909,48.8357
45.207,48.6543
45.892,48.5162
47.019,48.4413
48.0256,48.4205
48.4955,48.4243
48.2943,48.4178
48.5492,48.4244
48.6364,48.435
49.2782,48.4771
49.6646,48.5365
48.953,48.5573
48.1264,48.5358
47.1249,48.4652
45.8917,48.3365
46.9585,48.2676
47.3937,48.2239
47.122,48.1688
47.1717,48.119
47.7944,48.1027
47.5337,48.0743
47.3335,48.0373
48.1983,48.0453
47.7783,48.0319
47.6091,48.0108
47.707,47.9956
47.4866,47.9702
48.3371,47.9885
49.1837,48.0483
49.8156,48.1366
50.1174,48.2357
50.6537,48.3566
50.4652,48.462
50.5079,48.5643
50.8586,48.679
51.5344,48.8218
51.1943,48.9404
50.603,49.0235
49.3218,49.0385
48.3764,49.0053
47.1449,48.9123
47.9224,48.8628
48.6517,48.8523
49.0277,48.861
48.784,48.8572
48.7558,48.8521
48.6242,48.8407
48.6933,48.8334
49.2002,48.8517
50.2494,48.9216
50.2608,48.9885
49.9473,49.0365
49.1201,49.0407
48.7462,49.0259
47.9246,48.9709
49.2841,48.9865
49.8388,49.0291
50.3284,49.0941
50.7908,49.1789
51.2425,49.2821
50.8762,49.3618
