Normal data,Filtered data
134.894,134.894
138.353,135.067
140.984,135.363
147.462,135.968
147.979,136.568
148.683,137.174
151.525,137.892
153.693,138.682
157.016,139.598
159.981,140.617
158.986,141.536
158.401,142.379
157.265,143.123
158.775,143.906
161.762,144.799
163.204,145.719
163.904,146.628
163.942,147.494
163.5,148.294
162.713,149.015
162.207,149.675
162.207,150.301
162.207,150.897
162.207,151.462
162.207,151.999
162.207,152.51
162.207,152.995
162.207,153.455
157.612,153.663
162.404,154.1
166.101,154.7
167.304,155.33
166.107,155.869
157.268,155.939
157.339,156.009
157.379,156.078
157.007,156.124
157.089,156.172
156.801,156.204
150.967,155.942
150.605,155.675
150.09,155.396
151.945,155.223
153.301,155.127
150.422,154.892
148.669,154.581
150.97,154.4
153.642,154.362
154.685,154.378
155.296,154.424
158.052,154.606
158.575,154.804
159.297,155.029
158.793,155.217
158.539,155.383
155.837,155.406
151.734,155.222
151.734,155.048
151.734,154.882
151.734,154.725
59.8995,149.983
66.8798,145.828
98.457,143.46
110.95,141.834
123.573,140.921
134.717,140.611
137.256,140.443
139.476,140.395
141.395,140.445
142.867,140.566
144.412,140.758
145.643,141.003
148.92,141.398
153.785,142.018
157.292,142.781
159.313,143.608
160.343,144.445
159.37,145.191
159.551,145.909
160.084,146.618
160.29,147.301
160.626,147.968
160.709,148.605
161.474,149.248
162.022,149.887
162.709,150.528
163.623,151.183
164.381,151.843
164.737,152.487
165.235,153.125
165.446,153.741
164.879,154.298
164.353,154.8
163.146,155.218
162.907,155.602
160.809,155.862
161.605,156.15
156.758,156.18
151.091,155.926
148.049,155.532
147.551,155.133
141.695,154.461
136.953,153.585
135.754,152.694
135.048,151.812
134.428,150.942
134.088,150.1
133.108,149.25
132.335,148.404
134.851,147.727
140.497,147.365
145.387,147.266
149.865,147.396
153.796,147.716
157.128,148.187
159.789,148.767
161.548,149.406
161.943,150.033
164.061,150.734
164.42,151.418
165.532,152.124
166.445,152.84
165.55,153.476
166.15,154.109
166.847,154.746
166.659,155.342
166.221,155.886
165.521,156.368
159.933,156.546
153.334,156.385
147.151,155.924
141.421,155.198
136.628,154.27
132.327,153.173
134.177,152.223
136.178,151.421
138.159,150.758
140.26,150.233
142.266,149.834
144.188,149.552
140.163,149.083
139.753,148.616
142.208,148.296
144.334,148.098
146.367,148.011
148.902,148.056
150.916,148.199
149.926,148.285
154.501,148.596
158.087,149.07
162.202,149.727
162.775,150.379
163.169,151.019
161.794,151.558
161.363,152.048
162.346,152.563
163.106,153.09
163.649,153.618
164.099,154.142
162.334,154.551
161.817,154.915
156.497,154.994
150.687,154.779
144.97,154.288
142.306,153.689
140.459,153.027
142.08,152.48
140.831,151.898
139.749,151.29
141.832,150.817
143.645,150.459
145.128,150.192
146.571,150.011
148.04,149.913
149.106,149.872
153.283,150.043
156.87,150.384
159.924,150.861
161.87,151.412
161.858,151.934
161.82,152.428
161.915,152.903
162.136,153.364
162.608,153.826
163.137,154.292
163.649,154.76
163.81,155.212
163.366,155.62
164.678,156.073
163.443,156.441
162.292,156.734
163.334,157.064
162.438,157.333
156.043,157.268
149.387,156.874
145.7,156.315
142.587,155.629
143.898,155.042
144.895,154.535
134.376,153.527
134.599,152.581
135.25,151.714
138.326,151.045
140.54,150.519
142.667,150.127
144.752,149.858
146.444,149.687
147.994,149.603
149.373,149.591
150.892,149.656
149.564,149.652
154.081,149.873
157.857,150.272
161.17,150.817
163.159,151.434
163.159,152.021
164.168,152.628
164.168,153.205
164.168,153.753
165.335,154.332
165.905,154.911
165.532,155.442
165.951,155.967
166.604,156.499
162.217,156.785
155.048,156.698
150.458,156.386
146.126,155.873
148.658,155.512
151.031,155.288
150.655,155.057
153.615,154.985
156.075,155.039
155.526,155.063
155.197,155.07
151.991,154.916
151.623,154.751
154.094,154.719
156.217,154.794
158.217,154.965
155.605,154.997
155.793,155.037
156.193,155.094
158.496,155.264
160.26,155.514
160.26,155.752
160.415,155.985
161.698,156.27
160.344,156.474
161.686,156.735
161.711,156.983
161.626,157.216
161.626,157.436
161.826,157.656
159.327,157.739
156.792,157.692
151.728,157.394
148.907,156.969
141.557,156.199
137.488,155.263
131.15,154.058
125.944,152.652
124.103,151.224
125.412,149.934
126.883,148.781
133.198,148.002
134.331,147.319
140.319,146.969
140.665,146.653
141.286,146.385
144.681,146.3
147.633,146.367
150.463,146.571
152.74,146.88
154.401,147.256
158.284,147.807
160.53,148.443
162.012,149.122
163.531,149.842
165.636,150.632
166.14,151.407
166.235,152.149
165.979,152.84
165.713,153.484
164.35,154.027
164.199,154.536
164.199,155.019
163.996,155.468
161.223,155.756
158.496,155.893
155.633,155.88
150.28,155.6
147.314,155.185
144.636,154.658
142.211,154.036
134.457,153.057
130.851,151.946
133.425,151.02
133.326,150.136
136.942,149.476
142.536,149.129
147.476,149.046
149.017,149.045
150.349,149.11
151.564,149.233
150.003,149.271
149.07,149.261
148.303,149.213
152.803,149.393
156.692,149.758
158.043,150.172
159.563,150.641
161.888,151.204
160.878,151.688
163.44,152.275
163.728,152.848
163.81,153.396
163.631,153.908
163.269,154.376
161.162,154.715
159.086,154.934
157.394,155.057
155.737,155.091
154.087,155.04
152.249,154.901
152.519,154.782
147.873,154.436
146.111,154.02
144.541,153.546
143.73,153.055
137.396,152.272
140.598,151.689
143.647,151.287
146.386,151.042
148.681,150.923
150.129,150.884
151.763,150.928
152.993,151.031
150.849,151.022
149.437,150.943
148.405,150.816
147.601,150.655
146.711,150.458
146.203,150.245
150.96,150.281
153.421,150.438
154.918,150.662
158.549,151.056
161.223,151.565
161.135,152.043
159.663,152.424
157.861,152.696
156.294,152.876
154.546,152.959
152.563,152.939
152.646,152.925
155.175,153.037
157.32,153.251
156.987,153.438
158.562,153.694
155.426,153.781
152.178,153.701
149.314,153.481
149.502,153.283
150.096,153.123
151.075,153.021
152.296,152.984
156.36,153.153
159.827,153.487
159.5,153.788
159.42,154.069
159.298,154.331
158.687,154.548
160.946,154.868
162.822,155.266
161.811,155.593
160.768,155.852
162.746,156.197
164.129,156.593
163.492,156.938
162.976,157.24
165.014,157.629
166.532,158.074
166.532,158.497
166.532,158.899
166.032,159.255
164.801,159.533
161.73,159.642
162.561,159.788
163.271,159.962
159.769,159.953
155.618,159.736
151.503,159.324
149.992,158.858
145.664,158.198
142.27,157.402
139.786,156.521
137.972,155.593
139.394,154.783
140.776,154.083
142.14,153.486
141.261,152.875
143.142,152.388
145.07,152.022
146.558,151.749
151.283,151.726
155.443,151.911
158.643,152.248
161.661,152.719
163.845,153.275
164.18,153.82
166.693,154.464
167.428,155.112
167.774,155.745
167.728,156.344
167.901,156.922
168.009,157.477
167.697,157.988
166.445,158.41
166.696,158.825
166.367,159.202
163.413,159.412
159.552,159.419
155.863,159.242
152.467,158.903
149.008,158.408
148.162,157.896
144.799,157.241
141.516,156.455
138.845,155.574
133.38,154.464
126.281,153.055
129.218,151.863
132.143,150.877
135.161,150.092
141.762,149.675
146.997,149.541
145.021,149.315
143.114,149.005
144.517,148.781
146.039,148.644
147.572,148.59
148.83,148.602
150.36,148.69
151.861,148.848
150.334,148.923
154.764,149.215
156.695,149.589
160.126,150.116
162.381,150.729
162.381,151.312
162.773,151.885
161.213,152.351
162.365,152.852
158.973,153.158
160.291,153.514
158.08,153.743
156.245,153.868
154.47,153.898
154.533,153.93
154.76,153.971
152.081,153.877
149.231,153.644
146.699,153.297
144.259,152.845
142.464,152.326
144.225,151.921
143.5,151.5
142.75,151.063
141.676,150.593
143.798,150.253
145.527,150.017
146.883,149.86
148.606,149.798
150.032,149.809
154.36,150.037
157.758,150.423
160.367,150.92
162.364,151.492
163.669,152.101
163.079,152.65
162.971,153.166
162.608,153.638
162.145,154.064
161.912,154.456
161.352,154.801
160.917,155.107
160.917,155.397
158.23,155.539
155.301,155.527
154.041,155.453
150.873,155.224
147.488,154.837
144.327,154.311
141.157,153.654
138.356,152.889
142.106,152.35
142.781,151.871
143.557,151.455
144.545,151.11
146.256,150.867
147.693,150.709
149.165,150.631
150.359,150.618
151.764,150.675
152.688,150.776
153.573,150.916
153.573,151.048
157.632,151.378
160.688,151.843
161.403,152.321
162.213,152.816
165.896,153.47
167.21,154.157
167.705,154.834
167.165,155.451
166.253,155.991
165.769,156.48
165.476,156.929
165.463,157.356
164.898,157.733
164.371,158.065
163.681,158.346
162.641,158.561
162.349,158.75
159.654,158.795
158.177,158.764
158.64,158.758
154.919,158.566
150.854,158.181
147.037,157.623
140.148,156.75
140.759,155.95
141.965,155.251
144.298,154.703
148.533,154.395
148.75,154.112
149.421,153.878
146.733,153.521
147.468,153.218
148.332,152.974
152.363,152.943
155.701,153.081
158.701,153.362
159.117,153.65
159.294,153.932
161.499,154.31
162.639,154.727
163.099,155.145
163.095,155.543
162.51,155.891
162.458,156.22
160.531,156.435
158.08,156.517
155.368,156.46
154.72,156.373
155.404,156.324
155.68,156.292
156.217,156.288
156.697,156.309
155.986,156.293
154.835,156.22
149.399,155.879
143.801,155.275
141.798,154.601
138.106,153.776
140.785,153.127
145.369,152.739
143.964,152.3
148.39,152.105
152.214,152.11
153.139,152.161
156.178,152.362
153.705,152.429
154.796,152.548
152.987,152.57
151.673,152.525
155.073,152.652
156.617,152.851
157.774,153.097
161.986,153.541
164.162,154.072
165.999,154.669
166.729,155.272
166.764,155.846
166.183,156.363
166.123,156.851
165.798,157.298
166.046,157.736
164.661,158.082
162.463,158.301
159.248,158.348
155.901,158.226
154.907,158.06
149.432,157.629
146.429,157.069
140.437,156.237
135.539,155.202
137.135,154.299
139.483,153.558
139.265,152.843
141.726,152.287
143.746,151.86
145.652,151.55
147.28,151.336
148.59,151.199
152.873,151.283
156.496,151.543
159.655,151.949
161.917,152.447
163.361,152.993
163.315,153.509
163.318,154
164.912,154.545
165.523,155.094
166.297,155.654
166.813,156.212
167.181,156.761
167.573,157.301
167.369,157.805
166.761,158.253
165.858,158.633
165.501,158.976
165.667,159.311
163.603,159.525
160.613,159.58
154.956,159.348
149.215,158.842
143.843,158.092
139.316,157.153
135.846,156.088
135.651,155.066
136.126,154.119
141.469,153.486
141.355,152.88
141.415,152.307
141.423,151.762
146.425,151.496
150.837,151.463
154.741,151.627
157.92,151.941
156.158,152.152
157.211,152.405
158.253,152.697
161.587,153.142
162.038,153.587
165.938,154.204
165.921,154.79
165.716,155.336
165.481,155.844
165.311,156.317
165.405,156.771
165.43,157.204
164.877,157.588
162.743,157.846
159.762,157.941
156.941,157.891
149.368,157.465
143.915,156.788
138.863,155.892
140.229,155.108
141.89,154.447
140.978,153.774
140.396,153.105
140.368,152.468
142.4,151.965
144.792,151.606
146.51,151.351
150.785,151.323
154.63,151.488
158.213,151.825
161.419,152.304
162.281,152.803
163.324,153.329
163.866,153.856
162.656,154.296
160.828,154.623
164.75,155.129
166.547,155.7
166.288,156.229
166.174,156.727
165.656,157.173
165.208,157.575
163.249,157.858
160.034,157.967
157.256,157.932
155.93,157.832
155.93,157.736
155.93,157.646
74.8878,153.508
55.3135,148.598
60.3549,144.186
65.7356,140.264
71.8557,136.843
80.2971,134.016
89.0033,131.765
99.4737,130.151
109.883,129.137
119.629,128.662
125.82,128.52
133.708,128.779
140.659,129.373
146.541,130.232
153.316,131.386
158.044,132.719
161.22,134.144
162.663,135.57
162.872,136.935
163.141,138.245
163.036,139.485
161.212,140.571
159.092,141.497
158.088,142.327
159.773,143.199
160.661,144.072
161.525,144.945
161.92,145.794
162.25,146.616
162.845,147.428
163.02,148.207
163.903,148.992
163.873,149.736
162.396,150.369
159.824,150.842
151.87,150.893
143.445,150.521
136.492,149.819
138.723,149.265
143.473,148.975
145.449,148.799
142.089,148.463
146.441,148.362
150.175,148.453
148.81,148.471
147.602,148.427
149.136,148.463
152.764,148.678
155.947,149.041
160.09,149.594
159.456,150.087
159.068,150.536
157.825,150.9
161.057,151.408
163.158,151.996
164.157,152.604
164.409,153.194
164.562,153.762
164.201,154.284
163.074,154.724
160.738,155.024
159.042,155.225
78.6908,151.399
86.7886,148.168
94.3265,145.476
98.4959,143.127
102.685,141.105
106.698,139.385
108.578,137.844
110.576,136.481
112.693,135.291
115.264,134.29
120.434,133.597
125.527,133.194
130.36,133.052
134.786,133.139
138.469,133.405
141.481,133.809
144.14,134.326
146.255,134.922
150.501,135.701
154.171,136.624
154.924,137.539
160.375,138.681
164.211,139.958
165.323,141.226
166.292,142.479
166.524,143.681
167.099,144.852
166.873,145.953
166.646,146.988
164.81,147.879
164.505,148.71
164.641,149.507
165.921,150.328
167.01,151.162
167.721,151.99
165.846,152.683
165.645,153.331
164.655,153.897
164.942,154.449
165.109,154.982
163.949,155.43
158.615,155.59
144.388,155.03
141.914,154.374
138.749,153.593
141.206,152.973
122.815,151.465
130.769,150.431
102.183,148.018
112.991,146.267
120.295,144.968
125.226,143.981
129.039,143.234
132.218,142.683
137.522,142.425
142.002,142.404
145.857,142.577
151.762,143.036
151.762,143.472
155.107,144.054
155.107,144.607
159.045,145.329
161.974,146.161
162.573,146.981
163.11,147.788
163.268,148.562
163.091,149.288
161.252,149.887
159.692,150.377
157.79,150.747
153.323,150.876
153.685,151.017
154.225,151.177
152.788,151.258
151.202,151.255
152.023,151.293
147.901,151.124
149.839,151.059
151.519,151.082
155.148,151.286
157.797,151.611
160.102,152.036
157.572,152.313
157.372,152.566
158.934,152.884
156.573,153.068
154.372,153.134
152.419,153.098
155.491,153.218
157.452,153.429
158.8,153.698
158.319,153.929
159.362,154.201
156.847,154.333
156.73,154.453
158.368,154.648
159.883,154.91
161.016,155.215
161.661,155.538
161.278,155.825
161.201,156.094
160.431,156.31
159.161,156.453
157.027,156.482
149.295,156.122
145.151,155.574
136.457,154.618
128.178,153.296
123.032,151.783
118.52,150.12
114.871,148.357
111.806,146.53
111.656,144.786
111.9,143.142
112.698,141.619
113.738,140.225
117.503,139.089
118.494,138.059
119.587,137.136
123.047,136.431
127.043,135.962
130.753,135.701
138.984,135.866
146.059,136.375
147.883,136.951
149.328,137.569
150.772,138.23
151.979,138.917
152.38,139.59
155.634,140.392
157.874,141.266
159.733,142.19
160.604,143.11
160.932,144.002
161.574,144.88
161.418,145.707
160.341,146.439
160.341,147.134
160.341,147.794
160.341,148.422
160.341,149.018
158.152,149.474
155.599,149.781
152.685,149.926
149.746,149.917
146.759,149.759
145.984,149.57
145.28,149.356
144.94,149.135
144.25,148.891
142.768,148.584
142.581,148.284
142.442,147.992
143.023,147.744
143.748,147.544
143.856,147.36
145.047,147.244
146.059,147.185
147.338,147.192
148.719,147.269
149.907,147.401
149.596,147.51
149.352,147.602
148.673,147.656
148.346,147.691
150.463,147.829
151.624,148.019
152.015,148.219
152.385,148.427
152.227,148.617
151.82,148.777
151.146,148.896
149.808,148.941
148.156,148.902
145.99,148.756
144.024,148.52
142.334,148.21
140.596,147.83
139.307,147.404
137.876,146.927
137.834,146.473
138.677,146.083
138.456,145.701
138.315,145.332
137.73,144.952
137.396,144.574
137.515,144.221
137.567,143.889
137.936,143.591
137.953,143.309
137.753,143.031
138.048,142.782
139.087,142.597
139.247,142.43
139.263,142.271
140.783,142.197
141.883,142.181
142.76,142.21
143.876,142.294
144.758,142.417
145.718,142.582
147.781,142.842
148.449,143.122
149.947,143.463
150.987,143.839
150.978,144.196
152.155,144.594
153.277,145.028
153.886,145.471
153.886,145.892
153.886,146.292
153.886,146.671
153.886,147.032
153.886,147.375
152.569,147.635
150.801,147.793
148.695,147.838
144.486,147.67
140.36,147.305
133.656,146.622
130.316,145.807
127.747,144.904
125.848,143.951
130.366,143.272
128.345,142.526
126.885,141.744
126.341,140.973
125.41,140.195
124.701,139.421
124.322,138.666
125.232,137.994
126.418,137.415
129.981,137.043
129.981,136.69
129.981,136.355
129.981,136.036
129.981,135.733
129.981,135.446
129.981,135.172
129.981,134.913
129.981,134.666
129.981,134.432
139.319,134.676
146.741,135.28
150.267,136.029
150.267,136.741
150.267,137.417
150.267,138.06
152.064,138.76
152.444,139.444
152.444,140.094
152.444,140.712
152.444,141.298
148.986,141.683
146.853,141.941
145.063,142.097
143.573,142.171
142.409,142.183
139.949,142.071
139.238,141.93
136.309,141.649
133.729,141.253
133.273,140.854
134.922,140.557
135.075,140.283
134.4,139.989
133.487,139.664
132.279,139.294
133.265,138.993
134.874,138.787
137.936,138.745
141.82,138.898
143.616,139.134
145.506,139.453
145.506,139.755
145.506,140.043
145.506,140.316
145.506,140.576
145.506,140.822
145.506,141.056
145.506,141.279
145.506,141.49
145.506,141.691
145.506,141.882
150.382,142.307
154.013,142.892
156.347,143.565
156.347,144.204
156.347,144.811
156.347,145.388
155.413,145.889
154.131,146.301
153.49,146.661
151.203,146.888
148.519,146.969
145.997,146.921
143.321,146.741
140.743,146.441
132.818,145.76
130.723,145.008
130.646,144.29
125.24,143.337
120.062,142.174
121.618,141.146
123.071,140.242
126.222,139.541
123.621,138.745
126.679,138.142
129.789,137.724
133.077,137.492
134.614,137.348
136.096,137.285
136.096,137.226
136.096,137.169
139.576,137.29
143.097,137.58
146.209,138.011
148.794,138.551
148.794,139.063
148.794,139.549
148.794,140.011
148.794,140.451
148.794,140.868
148.794,141.264
148.794,141.641
148.794,141.998
148.794,142.338
148.794,142.661
148.794,142.967
148.794,143.259
151.383,143.665
152.624,144.113
152.988,144.557
152.763,144.967
153.86,145.412
154.039,145.843
154.232,146.262
154.232,146.661
154.232,147.039
152.09,147.292
149.727,147.414
149.727,147.529
148.717,147.589
142.652,147.342
138.514,146.901
135.319,146.322
132.069,145.609
133.521,145.004
130.553,144.282
128.19,143.477
126.284,142.618
124.408,141.707
123.483,140.796
123.388,139.926
124.132,139.136
124.748,138.416
128.875,137.939
132.604,137.673
136.209,137.599
136.349,137.537
136.349,137.478
136.349,137.421
136.349,137.367
136.349,137.316
136.349,137.268
130.769,136.943
131.114,136.652
132.453,136.442
130.215,136.13
128.275,135.738
122.753,135.088
124.629,134.566
123.797,134.027
123.012,133.476
124.899,133.047
126.97,132.744
129.015,132.557
133.613,132.61
135.571,132.758
137.549,132.998
136.602,133.178
135.674,133.303
134.727,133.374
133.918,133.401
133.32,133.397
135.078,133.481
134.558,133.535
136.599,133.688
138.775,133.942
140.641,134.277
140.114,134.569
139.481,134.815
136.554,134.902
141.019,135.208
144.674,135.681
147.426,136.268
151.486,137.029
154.398,137.898
154.398,138.723
154.398,139.506
154.398,140.251
154.398,140.958
152.662,141.543
151.145,142.024
148.439,142.344
145.45,142.5
142.47,142.498
139.845,142.365
138.987,142.197
137.93,141.983
137.006,141.734
136.363,141.466
136.168,141.201
135.56,140.919
135.229,140.634
135.112,140.358
137.08,140.194
138.556,140.112
137.747,139.994
135.126,139.751
132.703,139.398
130.692,138.963
128.936,138.462
127.446,137.911
126.211,137.326
127.78,136.849
129.73,136.493
131.847,136.26
136.033,136.249
141.811,136.527
144.689,136.935
147.233,137.45
149.765,138.066
151.4,138.733
152.832,139.437
154.003,140.166
156.005,140.958
154.117,141.616
154.362,142.253
152.845,142.783
152.745,143.281
153.649,143.799
150.476,144.133
144.487,144.151
141.129,144
138.094,143.704
135.094,143.274
130.002,142.61
127.685,141.864
125.936,141.068
124.768,140.253
124.305,139.455
124.247,138.695
124.651,137.993
124.738,137.33
125.293,136.728
125.746,136.179
126.168,135.678
126.512,135.22
126.764,134.797
130.084,134.562
133.255,134.496
135.858,134.564
138.158,134.744
139.8,134.997
141.226,135.308
145.32,135.809
148.734,136.455
151.235,137.194
149.739,137.821
147.723,138.316
147.723,138.787
146.845,139.19
145.875,139.524
145.05,139.8
144.344,140.027
143.238,140.188
138.452,140.101
133.516,139.772
128.249,139.196
122.476,138.36
116.933,137.288
112.824,136.065
114.546,134.989
118.198,134.15
117.166,133.3
116.496,132.46
120.475,131.861
123.597,131.448
126.683,131.21
129.555,131.127
132.115,131.176
134.288,131.332
135.638,131.547
136.88,131.814
138.963,132.171
141.963,132.661
144.528,133.254
147.86,133.984
150.089,134.79
151.608,135.631
152.981,136.498
153.664,137.356
152.968,138.137
153.971,138.929
154.263,139.695
154.268,140.424
154.472,141.126
151.384,141.639
148.454,141.98
147.262,142.244
145.772,142.421
146.239,142.611
146.093,142.786
144.765,142.885
143.418,142.911
142.286,142.88
140.677,142.77
139.335,142.598
132.235,142.08
130.314,141.492
128.581,140.846
127.34,140.171
126.377,139.481
127.814,138.898
128.743,138.39
128.437,137.892
127.953,137.395
127.925,136.922
127.977,136.475
127.947,136.048
131.241,135.808
134.693,135.752
137.594,135.844
141.775,136.141
145.573,136.612
148.228,137.193
150.218,137.844
151.463,138.525
152.721,139.235
154.289,139.988
153.384,140.658
151.887,141.219
152.661,141.791
156.102,142.507
155.71,143.167
155.71,143.794
153.058,144.257
148.672,144.478
145.284,144.518
143.625,144.474
141.511,144.326
137.043,143.961
135.284,143.528
131.565,142.929
133.619,142.464
127.437,141.713
128.385,141.046
129.018,140.445
125.422,139.694
122.232,138.821
121.645,137.962
118.873,137.007
119.388,136.126
124.465,135.543
125.315,135.032
126.333,134.597
129.084,134.321
127.852,133.998
131.62,133.879
130.304,133.7
134.678,133.749
140.606,134.092
144.828,134.629
145.573,135.176
149.813,135.908
152.537,136.739
153.569,137.581
155.986,138.501
156.796,139.416
158.927,140.391
160.257,141.385
162.55,142.443
163.24,143.483
162.963,144.457
161.856,145.327
160.043,146.063
158.317,146.675
156.46,147.164
151.618,147.387
146.834,147.359
133.811,146.682
125.994,145.648
131.476,144.939
136.823,144.533
136.851,144.149
141.13,143.998
144.85,144.041
147.716,144.225
149.921,144.509
147.809,144.674
145.92,144.737
136.844,144.342
131.079,143.679
127.146,142.852
124.451,141.932
122.435,140.957
124.82,140.15
133.18,139.802
142.582,139.941
148.789,140.383
151.255,140.927
152.82,141.522
153.503,142.121
152.816,142.655
152.965,143.171
151.285,143.577
149.278,143.862
147.302,144.034
144.861,144.075
142.086,143.976
139.636,143.759
137.258,143.434
135.196,143.022
133.169,142.529
131.105,141.958
129.804,141.35
131.476,140.856
132.878,140.458
131.614,140.015
130.655,139.547
129.663,139.053
128.873,138.544
128.184,138.026
129.997,137.625
131.06,137.296
134.641,137.164
137.518,137.181
140.952,137.37
142.693,137.636
145.864,138.047
147.757,138.533
149.341,139.073
150.464,139.643
151.092,140.215
151.131,140.761
150.804,141.263
151.12,141.756
151.017,142.219
150.756,142.646
150.128,143.02
146.376,143.188
142.336,143.145
137.755,142.876
133.807,142.422
130.064,141.804
129.925,141.21
130.265,140.663
130.583,140.159
129.947,139.649
129.353,139.134
129.207,138.637
128.878,138.149
128.769,137.68
128.759,137.234
129.153,136.83
129.843,136.481
131.114,136.213
129.89,135.896
129.058,135.554
128.056,135.18
127.282,134.785
130.28,134.559
142.289,134.946
150.96,135.747
155.436,136.731
157.057,137.747
156.309,138.675
153.096,139.396
148.595,139.856
148.036,140.265
142.391,140.372
144.793,140.593
139.155,140.521
133.563,140.173
128.769,139.603
121.03,138.674
126.911,138.086
132.423,137.803
133.579,137.592
128.126,137.118
132.206,136.873
132.487,136.653
132.814,136.461
133.072,136.292
133.138,136.134
133.171,135.986
133.523,135.863
133.839,135.762
134.817,135.715
138.171,135.837
138.652,135.978
139.704,136.164
141,136.406
142.176,136.695
143.08,137.014
146.096,137.468
149.138,138.051
153.418,138.82
154.628,139.61
155.237,140.392
154.586,141.101
153.538,141.723
152.197,142.247
151.655,142.717
149.496,143.056
147.254,143.266
144.413,143.323
141.922,143.253
139.581,143.07
137.451,142.789
135.612,142.43
134.071,142.012
133.074,141.565
133.916,141.183
135.01,140.874
138.227,140.742
134.315,140.42
135.987,140.199
135.625,139.97
135.418,139.742
134.825,139.497
136.892,139.366
136.438,139.22
138.172,139.168
139.405,139.179
140.895,139.265
141.995,139.402
142.706,139.567
143.883,139.783
147.114,140.149
149.451,140.614
152.923,141.23
155.307,141.934
155.533,142.614
157.488,143.357
158.219,144.1
156.232,144.707
153.226,145.133
153.041,145.528
152.354,145.87
151.281,146.14
150.199,146.343
149.143,146.483
142.182,146.268
137.332,145.821
132.655,145.163
128.376,144.324
124.429,143.329
120.849,142.205
120.014,141.095
124.368,140.259
123.259,139.409
122.382,138.558
124.437,137.852
127.816,137.35
131.036,137.034
133.847,136.875
136.668,136.864
139.114,136.977
143.405,137.298
146.734,137.77
144.927,138.128
145.593,138.501
146.05,138.879
146.302,139.25
146.385,139.607
146.594,139.956
148.655,140.391
152.348,140.989
154.633,141.671
157.067,142.441
157.597,143.198
157.597,143.918
159.133,144.679
160.505,145.47
160.614,146.228
160.097,146.921
159.775,147.564
159.306,148.151
154.482,148.467
151.853,148.637
146.305,148.52
140.927,148.14
135.65,147.516
130.366,146.658
125.853,145.618
121.707,144.423
118.492,143.126
117.851,141.862
122.07,140.873
120.947,139.876
120.307,138.898
120.936,138
121.671,137.183
122.37,136.443
125.601,135.901
128.512,135.531
131.452,135.327
133.859,135.254
136.06,135.294
138.04,135.431
142.177,135.769
145.833,136.272
148.719,136.894
152.813,137.69
155.682,138.59
157.33,139.527
157.33,140.417
157.33,141.263
157.33,142.066
155.977,142.762
156.493,143.448
157.113,144.131
153.802,144.615
149.466,144.857
144.581,144.844
140.086,144.606
137.583,144.255
136.277,143.856
140.056,143.666
136.526,143.309
133.143,142.8
132.927,142.307
132.916,141.837
132.974,141.394
132.988,140.974
133.27,140.589
135.599,140.339
137.685,140.206
139.573,140.175
141.204,140.226
136.913,140.061
133.321,139.724
132.922,139.384
132.918,139.06
133.283,138.771
133.635,138.515
139.848,138.581
145.047,138.904
147.424,139.33
149.812,139.855
151.903,140.457
154.591,141.164
157.208,141.966
159.708,142.853
161.994,143.81
155.631,144.401
149.46,144.654
143.708,144.607
134.332,144.093
128.254,143.301
121.252,142.199
121.252,141.151
121.252,140.156
121.252,139.211
121.252,138.313
117.425,137.269
114.176,136.114
117.118,135.164
125.653,134.689
129.939,134.451
131.372,134.297
132.714,134.218
132.87,134.151
133.082,134.097
133.331,134.059
133.751,134.044
134.728,134.078
135.749,134.161
141.198,134.513
145.693,135.072
147.53,135.695
148.925,136.357
152.456,137.162
151.572,137.882
154.745,138.725
155.186,139.548
154.297,140.286
151.254,140.834
153.132,141.449
146.542,141.704
139.196,141.578
129.922,140.995
123.889,140.14
117.261,138.996
113.727,137.733
116.695,136.681
119.516,135.823
122.066,135.135
124.207,134.588
126.376,134.178
128.109,133.874
131.927,133.777
134.909,133.834
137.665,134.025
133.512,133.999
130.113,133.805
128.1,133.52
126.813,133.185
127.115,132.881
127.904,132.632
133.444,132.673
136.561,132.867
139.326,133.19
144.321,133.747
150.066,134.563
154.011,135.535
156.303,136.573
157.589,137.624
159.072,138.697
159.854,139.755
159.252,140.729
158.522,141.619
155.431,142.31
151.915,142.79
148.207,143.061
144.838,143.15
139.295,142.957
132.438,142.431
126.538,141.636
121.708,140.64
121.708,139.693
121.708,138.794
121.708,137.94
121.708,137.128
119.55,136.249
121.284,135.501
119.152,134.684
116.857,133.792
117.731,132.989
118.752,132.277
119.488,131.638
121.859,131.149
123.625,130.773
125.142,130.491
127.177,130.325
130.808,130.35
131.728,130.418
134.431,130.619
136.493,130.913
138.016,131.268
137.807,131.595
137.813,131.906
137.033,132.162
135.918,132.35
138.565,132.661
141.825,133.119
145.007,133.713
143.597,134.207
142.006,134.597
140.408,134.888
139.115,135.099
136.079,135.148
133.75,135.078
132.895,134.969
132.097,134.825
128.054,134.487
130.005,134.263
130.005,134.05
131.503,133.923
132.938,133.873
132.479,133.804
132.168,133.722
131.389,133.605
131.828,133.516
134.066,133.544
136.023,133.668
138.876,133.928
141.556,134.31
143.832,134.786
145.578,135.325
147.197,135.919
148.453,136.546
150.928,137.265
150.831,137.943
150.775,138.585
150.966,139.204
152.008,139.844
153.233,140.513
154.355,141.205
154.582,141.874
154.067,142.484
153.248,143.022
151.371,143.44
147.473,143.641
137.085,143.313
126.332,142.464
121.45,141.414
117.194,140.203
113.909,138.888
113.538,137.62
113.261,136.402
115.525,135.359
117.607,134.471
122.657,133.88
126.715,133.522
127.426,133.217
126.844,132.899
128.623,132.685
130.283,132.565
132.539,132.563
134.642,132.667
137.791,132.923
140.683,133.311
142.662,133.779
144.459,134.313
147.492,134.972
149.073,135.677
149.037,136.345
148.153,136.935
148.506,137.514
149.811,138.129
151.142,138.779
152.465,139.464
154.225,140.202
153.963,140.89
153.595,141.525
152.391,142.068
148.97,142.413
145.431,142.564
144.252,142.649
137.491,142.391
133.485,141.946
130.139,141.355
127.809,140.678
128.399,140.064
128.68,139.495
126.931,138.867
128.354,138.341
129.093,137.879
129.598,137.465
129.901,137.086
130.385,136.751
130.734,136.45
132.46,136.251
137.289,136.303
141.167,136.546
143.919,136.915
146.136,137.376
148.19,137.916
150.04,138.523
153.207,139.257
154.19,140.003
152.963,140.651
152.204,141.229
151.769,141.756
153.168,142.327
154.733,142.947
155.715,143.585
156.659,144.239
152.687,144.661
146.156,144.736
138.666,144.433
131.316,143.777
125.182,142.847
120.165,141.713
121.631,140.709
123.124,139.83
121.557,138.916
120.555,137.998
120.555,137.126
120.555,136.297
120.06,135.485
119.722,134.697
119.438,133.934
126.202,133.548
125.558,133.148
127.106,132.846
128.4,132.624
129.57,132.471
132.395,132.467
135.241,132.606
137.907,132.871
140.266,133.241
144.394,133.798
149.459,134.581
152.575,135.481
152.525,136.333
152.305,137.132
152.324,137.891
153.678,138.681
154.853,139.489
155.118,140.271
156.139,141.064
156.32,141.827
156.619,142.567
150.948,142.986
144.16,143.044
137.454,142.765
140.088,142.631
142.402,142.62
141.656,142.571
138.079,142.347
138.079,142.133
138.079,141.931
138.079,141.738
138.079,141.555
136.739,141.314
135.641,141.031
135.379,140.748
134.894,140.455
134.399,140.152
135.205,139.905
135.634,139.692
137.103,139.562
135.504,139.359
138.997,139.341
141.856,139.467
142.081,139.598
140.047,139.62
138.987,139.588
138.158,139.517
138.064,139.444
137.875,139.366
137.998,139.297
138.079,139.236
136.617,139.105
137.338,139.017
138.003,138.966
136.786,138.857
129.113,138.37
124.626,137.683
123.532,136.975
120.275,136.14
120.088,135.338
120.088,134.575
120.088,133.851
120.088,133.163
120.088,132.509
123.023,132.035
125.597,131.713
127.576,131.506
131.563,131.509
134.904,131.679
137.426,131.966
139.69,132.352
141.009,132.785
143.725,133.332
142.111,133.771
144.496,134.307
146.909,134.937
148.267,135.604
146.594,136.153
148.301,136.761
150.019,137.424
150.898,138.097
151.869,138.786
152.564,139.475
149.839,139.993
150.674,140.527
151.58,141.08
145.132,141.282
140.523,141.244
133.944,140.879
123.512,140.011
114.981,138.759
114.981,137.57
114.981,136.441
114.981,135.368
114.981,134.349
114.981,133.38
114.981,132.46
114.981,131.586
113.67,130.69
113.015,129.807
112.309,128.932
111.639,128.067
113.58,127.343
114.752,126.713
115.95,126.175
120.705,125.901
122.249,125.719
123.548,125.61
124.984,125.579
132.835,125.942
137.564,126.523
137.432,127.068
139.261,127.678
141.248,128.357
143.027,129.09
144.178,129.844
143.646,130.534
143.017,131.159
142.587,131.73
142.421,132.265
142.48,132.775
136.973,132.985
131.613,132.917
129.195,132.731
127.933,132.491
132.622,132.497
130.507,132.398
130.507,132.303
130.507,132.213
130.507,132.128
130.507,132.047
130.507,131.97
130.507,131.897
128.678,131.736
127.152,131.507
124.863,131.174
122.589,130.745
125.652,130.49
126.381,130.285
129.801,130.261
130.03,130.249
131.035,130.288
135.808,130.564
137.694,130.921
139.721,131.361
142.74,131.93
142.929,132.48
143.009,133.006
145.075,133.61
146.494,134.254
147.819,134.932
149.121,135.642
148.628,136.291
147.973,136.875
147.356,137.399
146.068,137.832
145.047,138.193
138.264,138.197
132.269,137.9
126.859,137.348
128.633,136.913
126.674,136.401
126.674,135.914
126.674,135.452
126.674,135.013
126.674,134.596
127.894,134.261
129.27,134.012
130.126,133.817
133.05,133.779
135.414,133.861
137.405,134.038
131.728,133.922
130.322,133.742
129.52,133.531
127.184,133.214
127.242,132.915
127.993,132.669
130.934,132.582
133.56,132.631
138.572,132.928
140.42,133.303
143.451,133.81
144.826,134.361
142.442,134.765
143.904,135.222
145.571,135.74
146.044,136.255
146.051,136.745
145.928,137.204
139.31,137.309
132.72,137.08
129.177,136.684
126.862,136.193
127.953,135.781
123.193,135.152
116.273,134.208
113.157,133.155
110.912,132.043
110.912,130.987
111.72,130.023
117.29,129.387
122.425,129.039
126.905,128.932
130.614,129.016
131.994,129.165
135.024,129.458
134.126,129.691
132.616,129.838
132.069,129.949
135.679,130.236
136.911,130.569
141.76,131.129
143.845,131.765
144.886,132.421
147.322,133.166
149.215,133.968
151.083,134.824
152.997,135.733
154.581,136.675
156.378,137.66
157.324,138.643
158.299,139.626
152.819,140.286
144.931,140.518
137.131,140.349
130.152,139.839
130.318,139.363
124.398,138.615
119.48,137.658
123.234,136.937
123.234,136.251
123.429,135.61
127.272,135.193
130.199,134.944
132.268,134.81
132.553,134.697
131.182,134.521
129.939,134.292
129.46,134.051
132.733,133.985
135.948,134.083
140.03,134.38
140.333,134.678
143.505,135.119
146.665,135.697
148.425,136.333
148.53,136.943
147.635,137.477
146.873,137.947
148.486,138.474
149.641,139.032
150.72,139.617
151.962,140.234
153.327,140.889
151.055,141.397
146.632,141.659
139.439,141.548
134.705,141.206
130.362,140.663
132.831,140.272
128.494,139.683
125.023,138.95
122.343,138.12
120.368,137.232
118.696,136.305
117.221,135.351
115.977,134.382
114.575,133.392
113.039,132.374
111.72,131.342
113.244,130.437
114.637,129.647
116.37,128.983
118.046,128.436
119.599,127.994
123.404,127.765
127.134,127.733
130.724,127.883
137.689,128.373
140.142,128.962
143.887,129.708
143.828,130.414
142.212,131.004
145.964,131.752
148.099,132.569
149.672,133.424
151.01,134.304
149.598,135.068
147.191,135.674
144.701,136.126
130.6,135.849
120.366,135.075
120.811,134.362
119.006,133.594
117.988,132.814
117.282,132.037
116.69,131.27
116.331,130.523
115.998,129.797
115.819,129.098
115.728,128.429
115.761,127.796
115.722,127.192
115.759,126.621
115.628,126.071
117.44,125.639
119.612,125.338
124.042,125.273
128.044,125.412
131.231,125.703
134.654,126.15
137.454,126.715
142.009,127.48
147.196,128.466
150.369,129.561
153.119,130.739
154.86,131.945
156.619,133.179
155.039,134.272
155.001,135.308
154.517,136.269
147.903,136.85
140.885,137.052
134.049,136.902
130.278,136.571
127.568,136.121
131.748,135.902
126.707,135.442
124.856,134.913
123.322,134.333
122.023,133.718
120.946,133.079
119.848,132.418
124.276,132.011
121.734,131.497
119.288,130.886
119.003,130.292
119.555,129.755
120.381,129.287
121.125,128.878
121.976,128.533
122.774,128.245
125.994,128.133
129.144,128.183
137.83,128.666
139.723,129.219
141.838,129.85
141.997,130.457
144.242,131.146
146.069,131.892
147.072,132.651
148.367,133.437
149.404,134.235
151.057,135.077
149.345,135.79
144.589,136.23
138.428,136.34
132.02,136.124
128.125,135.724
124.651,135.17
121.69,134.496
119.309,133.737
120.132,133.057
118.347,132.321
119.702,131.69
121.083,131.16
127.134,130.958
126.38,130.73
125.696,130.478
125.977,130.253
125.713,130.026
125.532,129.801
126.037,129.613
126.226,129.444
129.315,129.437
131.665,129.549
134.246,129.783
140.691,130.329
147.967,131.211
152.166,132.258
152.046,133.248
151.248,134.148
150.543,134.968
151.884,135.813
153.126,136.679
153.976,137.544
155.184,138.426
155.327,139.271
150.849,139.85
143.88,140.051
136.118,139.855
129.362,139.33
126.182,138.673
129.766,138.227
132.918,137.962
127.557,137.442
128.882,137.014
129.356,136.631
129.797,136.289
130.221,135.986
133.864,135.88
136.865,135.929
136.399,135.952
138.519,136.081
140.261,136.29
140.588,136.505
143.31,136.845
143.321,137.169
143.228,137.472
143.202,137.758
143.323,138.036
143.463,138.308
143.573,138.571
145.771,138.931
149.357,139.452
151.515,140.055
151.648,140.635
150.433,141.125
149.076,141.522
149.803,141.937
150.156,142.347
150.361,142.748
150.431,143.132
150.513,143.501
146.896,143.671
141.752,143.575
136.83,143.238
132.138,142.683
127.898,141.944
124.159,141.054
120.939,140.049
115.746,138.833
116.254,137.705
117.368,136.688
118.879,135.797
120.669,135.041
124.686,134.523
125.661,134.08
131.584,133.955
131.334,133.824
134.078,133.837
134.122,133.851
133.523,133.835
133.141,133.8
135.386,133.879
137.118,134.041
138.74,134.276
140.582,134.591
142.147,134.969
148.893,135.665
151.103,136.437
150.69,137.15
151.798,137.882
150.852,138.531
152.479,139.228
153.169,139.925
151.16,140.487
147.464,140.836
146.373,141.113
144.946,141.304
137.429,141.111
132.604,140.685
125.839,139.943
122.383,139.065
113.501,137.787
112.636,136.529
111.734,135.289
111.187,134.084
111.076,132.934
113.834,131.979
114.035,131.082
114.329,130.244
114.674,129.466
114.917,128.738
117.186,128.16
119.243,127.715
121.457,127.402
123.727,127.218
125.121,127.113
129.326,127.224
132.541,127.49
135.206,127.875
137.83,128.373
141.955,129.052
145.27,129.863
148.59,130.799
153.093,131.914
154.279,133.032
155.651,134.163
157.341,135.322
158.283,136.47
159.205,137.607
160.596,138.756
161.856,139.911
163.619,141.097
160.967,142.09
153.758,142.674
145.056,142.793
136.693,142.488
129.332,141.83
125.299,141.003
121.711,140.039
124.351,139.254
118.728,138.228
119.656,137.299
123.75,136.622
127.289,136.155
124.726,135.584
127.836,135.197
130.712,134.972
133.308,134.889
135.384,134.914
139.031,135.12
136.814,135.204
135.061,135.197
133.308,135.103
131.25,134.91
131.778,134.753
132.298,134.631
131.708,134.485
136.452,134.583
137.643,134.736
140.727,135.035
142.2,135.394
143.674,135.808
145.692,136.302
147.382,136.856
145.598,137.293
145.892,137.723
145.375,138.106
143.038,138.352
140.527,138.461
134.269,138.251
121.664,137.422
113.547,136.228
113.001,135.067
106.934,133.66
102.519,132.103
102.519,130.624
102.519,129.219
109.65,128.24
116.168,127.637
121.591,127.334
126.638,127.3
130.732,127.471
134.149,127.805
137.013,128.265
133.483,128.526
135.879,128.894
139.757,129.437
142.059,130.068
144.153,130.772
146.865,131.577
147.354,132.366
147.355,133.115
147.355,133.827
147.355,134.504
148.828,135.22
150.524,135.985
151.501,136.761
152.794,137.563
153.938,138.381
153.471,139.136
147.947,139.576
140.513,139.623
132.954,139.29
119.255,138.288
110.432,136.895
106.912,135.396
103.956,133.824
103.79,132.322
104.18,130.915
104.18,129.578
104.18,128.308
104.943,127.14
110.682,126.317
116.047,125.804
121.171,125.572
125.642,125.576
131.891,125.891
132.024,126.198
132.371,126.507
132.861,126.824
133.39,127.153
138.8,127.735
138.197,128.258
142.581,128.974
145.74,129.813
146.702,130.657
146.702,131.459
146.702,132.221
149.476,133.084
150.43,133.951
150.409,134.774
150.855,135.578
145.986,136.099
145.317,136.56
144.57,136.96
137.46,136.985
130.547,136.663
124.645,136.062
119.919,135.255
116.175,134.301
112.898,133.231
112.422,132.191
117.739,131.468
122.672,131.028
127.051,130.829
130.89,130.832
134.296,131.006
137.364,131.323
138.908,131.703
140.969,132.166
143.175,132.716
139.842,133.073
143.925,133.615
145.736,134.221
145.171,134.769
144.629,135.262
144.578,135.728
146.893,136.286
149.048,136.924
156.537,137.905
159.453,138.982
161.031,140.085
161.349,141.148
161.504,142.166
160.877,143.101
155.279,143.71
151.285,144.089
146.592,144.214
142.015,144.104
137.127,143.755
132.217,143.178
127.734,142.406
123.822,141.477
120.654,140.436
117.775,139.303
118.365,138.256
121.273,137.407
119.441,136.508
124.246,135.895
124.273,135.314
124.87,134.792
125.252,134.315
125.937,133.896
126.621,133.532
127.433,133.227
130.084,133.07
131.854,133.009
133.436,133.031
134.576,133.108
137.75,133.34
140.679,133.707
142.08,134.126
142.08,134.523
142.08,134.901
142.08,135.26
142.08,135.601
142.08,135.925
142.08,136.233
145.119,136.677
148.947,137.29
146.517,137.752
144.648,138.097
143.687,138.376
142.121,138.563
143.757,138.823
143.773,139.071
144.212,139.328
144.637,139.593
140.544,139.641
136.094,139.463
134.054,139.193
131.953,138.831
129.852,138.382
127.967,137.861
125.386,137.237
123.176,136.534
123.456,135.88
124.454,135.309
123.301,134.709
122.501,134.098
122.128,133.5
122.128,132.931
122.128,132.391
122.128,131.878
121.996,131.384
122.315,130.93
125.404,130.654
128.043,130.523
130.679,130.531
130.679,130.539
130.679,130.546
130.679,130.552
130.679,130.559
130.679,130.565
130.679,130.57
130.679,130.576
130.679,130.581
130.679,130.586
130.679,130.59
130.679,130.595
139.594,131.045
144.837,131.734
150.44,132.67
152.797,133.676
149.882,134.486
149.882,135.256
150.155,136.001
152.53,136.827
151.503,137.561
152.103,138.288
150.357,138.892
148.808,139.388
147.592,139.798
146.551,140.136
140.767,140.167
133.38,139.828
134.132,139.543
135.076,139.32
136.117,139.159
136.778,139.04
136.919,138.934
137.346,138.855
135.539,138.689
135.907,138.55
133.908,138.318
134.203,138.112
134.709,137.942
134.754,137.783
134.859,137.636
135.706,137.54
137.253,137.526
137.253,137.512
137.253,137.499
137.253,137.487
137.253,137.475
137.253,137.464
137.253,137.453
137.253,137.443
137.253,137.434
137.253,137.425
137.253,137.416
142.457,137.668
145.236,138.047
145.236,138.406
143.868,138.679
141.755,138.833
141.693,138.976
143.568,139.206
142.159,139.353
142.159,139.494
142.159,139.627
139.987,139.645
137.77,139.551
137.19,139.433
135.157,139.219
133.207,138.919
131.391,138.542
128.86,138.058
126.904,137.5
126.687,136.96
126.576,136.44
128.016,136.019
129.957,135.716
131.853,135.523
131.7,135.332
132.008,135.166
132.394,135.027
134.277,134.99
134.864,134.983
136.51,135.06
139.191,135.266
140.64,135.535
140.64,135.79
140.64,136.033
140.64,136.263
140.64,136.482
140.64,136.69
140.64,136.887
144.806,137.283
144.806,137.659
144.806,138.016
144.806,138.356
145.04,138.69
146.859,139.099
148.546,139.571
153.553,140.27
157.325,141.123
159.486,142.041
159.486,142.913
159.486,143.742
159.486,144.529
156.888,145.147
155.613,145.67
154.352,146.104
152.808,146.44
150.746,146.655
149.172,146.781
147.189,146.801
140.332,146.478
133.44,145.826
127.905,144.93
121.73,143.77
122.176,142.69
120.694,141.59
121.276,140.575
123.728,139.732
125.981,139.045
127.887,138.487
130.083,138.067
130.628,137.695
129.234,137.272
127.701,136.793
127.701,136.338
127.701,135.907
128.319,135.527
129.424,135.222
130.676,134.995
132.887,134.889
135.516,134.921
139.766,135.163
143.322,135.571
143.322,135.958
143.322,136.327
143.322,136.676
144.812,137.083
146.206,137.539
147.545,138.04
151.034,138.689
152.577,139.384
156.926,140.261
159.885,141.242
161.925,142.276
162.836,143.304
163.107,144.294
163.328,145.246
163.69,146.168
164.151,147.067
164.151,147.922
164.151,148.733
162.112,149.402
159.754,149.92
158.277,150.337
158.277,150.734
158.277,151.112
152.214,151.167
149.654,151.091
142.567,150.665
135.517,149.907
129.828,148.903
127.692,147.843
123.201,146.611
119.352,145.248
118.042,143.887
117.614,142.574
117.342,141.312
117.287,140.111
122.097,139.21
121.262,138.313
119.104,137.352
119.043,136.437
119.323,135.581
119.323,134.768
119.323,133.996
119.718,133.282
120.348,132.635
123.099,132.159
126.159,131.859
129.238,131.728
132.163,131.749
132.163,131.77
132.163,131.79
132.163,131.808
137.291,132.083
142.101,132.584
145.884,133.249
149.24,134.048
152.228,134.957
154.661,135.942
156.42,136.966
157.862,138.011
158.744,139.048
159.808,140.086
160.261,141.094
160.329,142.056
160.869,142.997
160.869,143.89
160.869,144.739
160.869,145.546
161.207,146.329
159.296,146.977
156.749,147.466
155.75,147.88
155.75,148.273
150.911,148.405
144.33,148.202
138.741,147.728
133.133,146.999
128.084,146.053
123.975,144.949
120.233,143.713
120.105,142.533
116.973,141.255
117.395,140.062
117.732,138.945
117.019,137.849
116.401,136.777
116.322,135.754
117.022,134.817
118.393,133.996
119.498,133.271
121.043,132.66
122.479,132.151
123.817,131.734
125.419,131.418
131.426,131.419
137.135,131.705
141.958,132.217
147.299,132.971
147.299,133.688
147.299,134.368
147.299,135.015
147.299,135.629
150.681,136.381
150.681,137.096
153.918,137.937
156.875,138.884
159.559,139.918
161.446,140.994
161.698,142.03
162.395,143.048
162.976,144.044
164.078,145.046
164.838,146.036
164.725,146.97
164.155,147.829
163.531,148.614
160.761,149.222
157.623,149.642
155.485,149.934
151.143,149.994
146.571,149.823
142.387,149.451
142.387,149.098
142.387,148.763
138.958,148.272
135.571,147.637
130.36,146.773
125.412,145.705
123.985,144.619
123.389,143.558
119.43,142.351
115.888,141.028
116.211,139.787
113.577,138.477
111.223,137.114
111.573,135.837
112.47,134.669
118.425,133.857
124.076,133.368
129.217,133.16
129.217,132.963
129.217,132.776
129.217,132.598
129.217,132.429
134.006,132.508
135.957,132.68
138.175,132.955
140.844,133.349
140.844,133.724
140.844,134.08
140.844,134.418
140.844,134.739
143.279,135.166
147.092,135.763
150.166,136.483
152.842,137.301
154.628,138.167
156.264,139.072
157.485,139.993
158.555,140.921
159.569,141.853
159.839,142.752
160.102,143.62
160.374,144.458
160.404,145.255
161.911,146.088
162.539,146.91
162.218,147.676
161.66,148.375
160.852,148.999
160.733,149.585
159.356,150.074
157.855,150.463
155.239,150.702
148.335,150.584
148.335,150.471
148.335,150.364
148.335,150.263
143.956,149.947
139.336,149.417
132.698,148.581
131.574,147.731
125.71,146.63
120.683,145.332
116.348,143.883
112.813,142.33
115.555,140.991
113.083,139.595
117.031,138.467
121.176,137.603
126.297,137.037
129.018,136.636
130.281,136.319
130.009,136.003
134.386,135.922
134.544,135.853
134.544,135.788
134.544,135.726
134.544,135.667
133.251,135.546
133.517,135.444
134.303,135.387
135.307,135.383
137.489,135.489
140.145,135.721
140.145,135.943
143.9,136.34
147.345,136.891
147.527,137.422
147.354,137.919
147.207,138.383
149,138.914
150.416,139.489
151.844,140.107
155.694,140.886
158.102,141.747
158.846,142.602
159.907,143.467
160.47,144.318
160.933,145.148
161.135,145.948
160.813,146.691
160.912,147.402
161.242,148.094
160.02,148.69
157.028,149.107
151.803,149.242
146.858,149.123
145.632,148.948
145.632,148.782
145.632,148.625
144.124,148.4
142.923,148.126
141.677,147.804
140.361,147.431
134.905,146.805
130.278,145.979
126.143,144.987
127.145,144.095
123.905,143.085
121.187,141.99
125.528,141.167
125.126,140.365
124.597,139.577
123.355,138.766
122.973,137.976
123.251,137.24
123.996,136.578
124.491,135.973
125.082,135.429
125.082,134.911
125.683,134.45
126.45,134.05
129.314,133.813
131.92,133.719
134.647,133.765
137.752,133.964
137.752,134.154
137.752,134.334
137.752,134.505
137.752,134.667
137.752,134.821
137.752,134.968
142.4,135.339
146.466,135.896
149.885,136.595
153.112,137.421
155.353,138.318
157.277,139.266
158.35,140.22
159.07,141.162
159.182,142.063
160.106,142.965
161.642,143.899
162.125,144.811
162.45,145.693
162.446,146.53
162.003,147.304
162.381,148.058
162.764,148.793
163.293,149.518
163.604,150.222
163.156,150.869
161.897,151.42
161.897,151.944
161.897,152.442
161.897,152.915
161.897,153.364
161.897,153.79
161.897,154.196
161.897,154.581
161.897,154.946
161.897,155.294
161.897,155.624
161.897,155.938
161.897,156.236
161.897,156.519
161.897,156.788
161.897,157.043
161.897,157.286
161.897,157.516
161.897,157.735
160.582,157.878
159.145,157.941
159.145,158.001
159.145,158.058
156.608,157.986
156.608,157.917
156.608,157.852
156.608,157.789
156.655,157.733
156.642,157.678
155.265,157.557
153.822,157.371
153.822,157.193
153.822,157.025
153.822,156.865
148.318,156.437
143.462,155.788
138.516,154.925
133.627,153.86
129.072,152.62
125.413,151.26
122.655,149.83
120.444,148.361
118.836,146.884
120.191,145.55
119.237,144.234
118.679,142.956
118.532,141.735
118.848,140.591
119.976,139.56
119.976,138.581
123.825,137.843
130.693,137.485
137.063,137.464
145.309,137.857
152.247,138.576
157.557,139.525
159.516,140.525
161.475,141.572
162.042,142.596
162.042,143.568
162.042,144.492
162.042,145.369
162.042,146.203
162.539,147.02
163.746,147.856
163.746,148.651
163.746,149.405
163.746,150.122
163.746,150.804
163.746,151.451
163.746,152.065
163.746,152.649
155.569,152.795
137.146,152.013
107.906,149.808
107.906,147.713
107.906,145.722
107.906,143.831
107.906,142.035
107.906,140.329
107.906,138.707
107.906,137.167
77.3877,134.178
95.5261,132.246
95.5261,130.41
95.5261,128.666
95.5261,127.009
95.5261,125.434
95.5261,123.939
95.5261,122.518
95.5261,121.169
95.5261,119.887
95.5261,118.669
95.5261,117.511
95.5261,116.412
95.5261,115.368
95.5261,114.376
95.5261,113.433
95.5261,112.538
95.5261,111.687
95.5261,110.879
95.5261,110.112
95.5261,109.382
95.5261,108.69
95.5261,108.031
95.5261,107.406
95.5261,106.812
95.5261,106.248
95.5261,105.712
95.5261,105.202
95.5261,104.719
95.5261,104.259
95.5261,103.822
95.5261,103.408
95.5261,103.013
95.5261,102.639
95.5261,102.283
95.5261,101.946
95.5261,101.625
95.5261,101.32
109.605,101.734
109.605,102.128
109.605,102.501
109.605,102.857
109.605,103.194
109.605,103.515
109.605,103.819
109.605,104.108
109.605,104.383
109.605,104.644
109.605,104.892
109.605,105.128
109.605,105.352
109.605,105.565
109.605,105.767
109.605,105.959
109.605,106.141
109.605,106.314
109.605,106.479
109.605,106.635
109.605,106.784
109.605,106.925
109.605,107.059
109.605,107.186
109.605,107.307
109.605,107.422
119.566,108.029
124.616,108.858
124.616,109.646
124.616,110.395
124.616,111.106
124.616,111.781
124.616,112.423
124.616,113.033
132.478,114.005
138.589,115.234
143.364,116.641
143.364,117.977
145.141,119.335
146.654,120.701
149.217,122.127
151.862,123.614
155.985,125.232
158.689,126.905
160.183,128.569
160.941,130.188
161.68,131.762
162.449,133.297
162.705,134.767
163.27,136.192
163.75,137.57
163.808,138.882
163.808,140.128
163.808,141.312
161.659,142.33
158.061,143.116
158.068,143.864
158.068,144.574
158.068,145.249
158.068,145.89
158.068,146.499
158.068,147.077
158.068,147.627
158.068,148.149
158.068,148.645
158.068,149.116
158.068,149.564
158.068,149.989
158.068,150.393
158.068,150.777
158.068,151.141
158.068,151.488
158.068,151.817
151.382,151.795
136.37,151.024
111.824,149.064
87.943,146.008
73.0938,142.362
65.6745,138.528
60.0497,134.604
60.0497,130.876
60.0497,127.335
66.2702,124.281
60.6961,121.102
66.7039,118.382
76.2887,116.278
76.2887,114.278
76.2887,112.379
76.2887,110.574
76.2887,108.86
76.2887,107.231
91.661,106.453
109.634,106.612
126.442,107.603
137.143,109.08
144.91,110.872
144.91,112.574
150.713,114.481
153.83,116.448
157.626,118.507
160.122,120.588
161.524,122.635
163.113,124.659
164.05,126.628
164.598,128.527
164.686,130.335
165.39,132.087
165.39,133.752
165.39,135.334
165.39,136.837
165.39,138.265
162.748,139.489
159.524,140.491
155.647,141.249
155.32,141.952
152.841,142.497
150.764,142.91
148.816,143.205
142.384,143.164
141.001,143.056
140.324,142.919
139.724,142.76
139.011,142.572
140.698,142.479
142.806,142.495
145.404,142.64
147.552,142.886
149.612,143.222
149.612,143.542
151.29,143.929
154.066,144.436
155.28,144.978
156.271,145.543
157.059,146.119
157.8,146.703
158.988,147.317
160.014,147.952
159.594,148.534
160.513,149.133
160.659,149.709
160.404,150.244
160.404,150.752
160.404,151.235
159.421,151.644
156.743,151.899
156.313,152.12
156.871,152.357
153.304,152.404
149.748,152.272
145.834,151.95
142.166,151.461
138.483,150.812
135.417,150.042
132.695,149.175
130.944,148.263
132.059,147.453
133.593,146.76
137.852,146.315
144.435,146.221
147.606,146.29
150.212,146.486
150.212,146.672
153.804,147.029
154.755,147.415
154.726,147.781
154.904,148.137
157.159,148.588
157.159,149.016
157.159,149.423
157.159,149.81
156.314,150.135
155.166,150.387
155.166,150.626
155.166,150.853
155.166,151.069
155.166,151.273
155.166,151.468
155.166,151.653
155.166,151.829
154.582,151.966
152.481,151.992
148.303,151.808
149.203,151.677
150.616,151.624
150.616,151.574
150.616,151.526
150.616,151.481
150.616,151.437
150.616,151.396
150.207,151.337
151.281,151.334
151.281,151.331
150.128,151.271
143.726,150.894
140.137,150.356
137.226,149.7
135.087,148.969
135.087,148.275
135.087,147.615
136.812,147.075
135.684,146.506
135.169,145.939
134.858,145.385
141.231,145.177
141.231,144.98
141.231,144.792
141.231,144.614
141.231,144.445
141.231,144.284
142.935,144.217
144.051,144.209
142.503,144.123
142.503,144.042
142.503,143.965
141.522,143.843
143.231,143.813
138.21,143.532
140.538,143.383
138.989,143.163
137.469,142.878
136.371,142.553
135.399,142.195
135.367,141.854
135.373,141.53
135.501,141.228
138.9,141.112
141.826,141.148
141.826,141.181
141.826,141.214
141.826,141.244
140.844,141.224
140.844,141.205
140.844,141.187
140.844,141.17
140.844,141.154
140.844,141.138
140.094,141.086
140.094,141.036
140.094,140.989
140.094,140.945
138.6,140.827
127.422,140.157
105.365,138.418
84.6301,135.728
71.9627,132.54
71.9627,129.511
71.9627,126.634
71.9627,123.9
71.9627,121.303
82.7583,119.376
91.9289,118.004
91.9289,116.7
91.9289,115.461
101.399,114.758
109.456,114.493
119.325,114.735
119.325,114.964
119.325,115.182
119.325,115.389
131.936,116.217
115.972,116.204
95.7067,115.18
79.5341,113.397
69.0069,111.178
63.2541,108.782
63.2541,106.505
63.2541,104.343
63.2541,102.288
74.2475,100.886
89.3007,100.307
108.732,100.728
123.706,101.877
131.472,103.357
136.198,104.999
138.218,106.66
137.148,108.184
137.148,109.632
137.148,111.008
137.148,112.315
137.148,113.557
137.148,114.736
136.924,115.846
139.365,117.022
139.365,118.139
139.365,119.2
139.365,120.208
139.365,121.166
137.032,121.959
129.847,122.354
129.847,122.728
129.847,123.084
129.847,123.423
129.847,123.744
134.779,124.295
134.779,124.82
134.779,125.318
134.779,125.791
134.779,126.24
136.983,126.777
135.355,127.206
124.504,127.071
110.888,126.262
97.6073,124.829
84.756,122.825
84.756,120.922
84.756,119.114
102.509,118.283
115.181,118.128
123.942,118.419
123.942,118.695
123.942,118.958
131.644,119.592
137.105,120.467
135.669,121.228
133.176,121.825
136.142,122.541
135.89,123.208
133.226,123.709
133.936,124.221
140.235,125.021
146.027,126.072
145.45,127.04
153.237,128.35
159.438,129.905
162.096,131.514
161.58,133.018
161.228,134.428
158.364,135.625
155.053,136.596
149.688,137.251
147.3,137.753
145.027,138.117
143.218,138.372
146.437,138.775
146.437,139.158
146.437,139.522
141.205,139.606
146.288,139.94
148.14,140.35
148.897,140.778
152.828,141.38
158.151,142.219
161.555,143.186
162.533,144.153
162.022,145.046
161.079,145.848
159.579,146.535
156.191,147.017
152.537,147.293
151.173,147.487
147.378,147.482
141.73,147.194
136.231,146.646
136.231,146.125
134.172,145.528
130.34,144.768
127.235,143.892
130.6,143.227
122.525,142.192
109.891,140.577
122.401,139.668
131.884,139.279
136.606,139.145
137.425,139.059
137.387,138.976
134.055,138.73
130.209,138.304
130.209,137.899
129.455,137.477
131.946,137.2
128.734,136.777
135.171,136.697
140.204,136.872
144.101,137.233
145.118,137.628
149.186,138.206
151.099,138.85
151.634,139.489
154.73,140.251
158.495,141.164
161.03,142.157
161.805,143.139
161.773,144.071
163.063,145.021
160.983,145.819
158.076,146.432
152.829,146.751
147.169,146.772
141.777,146.523
139.208,146.157
137.85,145.742
137.85,145.347
139.335,145.046
141.15,144.852
140.524,144.635
142.753,144.541
145.16,144.572
146.921,144.689
153.103,145.11
155.673,145.638
151.772,145.945
147.259,146.011
145.279,145.974
145.279,145.939
140.762,145.68
136.16,145.204
132.16,144.552
127.523,143.701
127.523,142.892
127.523,142.123
127.523,141.393
127.523,140.7
115.277,139.429
97.1921,137.317
83.5779,134.63
96.6906,132.733
81.0305,130.148
70.9329,127.187
81.1328,124.884
93.4641,123.313
105.06,122.401
105.06,121.534
105.06,120.71
105.06,119.927
114.753,119.669
120.076,119.689
120.076,119.708
120.076,119.727
120.076,119.744
120.076,119.761
108.316,119.189
122.566,119.358
105.249,118.652
120.34,118.737
104.18,118.009
122.94,118.255
134.812,119.083
142.037,120.231
146.902,121.564
152.029,123.088
148.818,124.374
144.726,125.392
143.691,126.307
135.105,126.747
129.829,126.901
129.829,127.047
134.899,127.44
132.874,127.711
137.426,128.197
133.316,128.453
136.386,128.85
141.03,129.459
144.792,130.225
145.123,130.97
142.514,131.547
139.525,131.946
138.611,132.28
138.611,132.596
138.611,132.897
139.439,133.224
140.604,133.593
139.726,133.9
131.005,133.755
131.005,133.617
131.005,133.487
131.005,133.363
131.439,133.266
130.006,133.103
134.353,133.166
140.907,133.553
147.056,134.228
153.697,135.202
158.386,136.361
158.814,137.483
158.955,138.557
156.725,139.465
152.266,140.105
152.266,140.713
147.346,141.045
148.174,141.401
143.02,141.482
128.711,140.844
130.258,140.314
127.898,139.694
125.936,139.006
124.758,138.293
129.559,137.857
133.691,137.648
126.317,137.082
132.61,136.858
140.757,137.053
148.575,137.629
152.487,138.372
153.428,139.125
153.982,139.868
152.052,140.477
149.7,140.938
145.02,141.142
140.517,141.111
139.563,141.034
137.645,140.864
137.645,140.703
137.645,140.55
139.517,140.499
135.568,140.252
131.839,139.831
117.236,138.702
124.024,137.968
110.647,136.602
122.927,135.918
131.534,135.699
116.441,134.736
123.516,134.175
123.516,133.642
123.516,133.136
123.516,132.655
124.16,132.23
123.798,131.808
123.798,131.408
123.798,131.027
123.798,130.666
123.798,130.322
123.798,129.996
128.583,129.926
128.97,129.878
134.225,130.095
136.271,130.404
140.696,130.919
144.341,131.59
146.923,132.356
146.682,133.073
146.682,133.753
146.682,134.4
142.933,134.826
139.248,135.047
136.349,135.112
135.796,135.147
135.796,135.179
135.796,135.21
138.329,135.366
138.666,135.531
141.651,135.837
141.656,136.128
149.194,136.781
156.572,137.771
159.674,138.866
159.382,139.892
156.508,140.722
152.783,141.326
153.395,141.929
153.395,142.502
151.625,142.958
151.625,143.392
151.625,143.803
151.625,144.195
150.872,144.528
150.872,144.846
150.81,145.144
150.812,145.427
150.917,145.702
148.865,145.86
147.238,145.929
147.709,146.018
148.804,146.157
147.552,146.227
146.308,146.231
148.962,146.367
151.249,146.612
151.249,146.843
150.786,147.04
150.547,147.216
147.449,147.227
144.891,147.111
144.891,147
145.027,146.901
145.118,146.812
146.153,146.779
147.521,146.816
146.131,146.782
152.412,147.063
152.681,147.344
152.826,147.618
153.499,147.912
151.661,148.1
151.854,148.287
153.949,148.571
150.791,148.682
145.409,148.518
139.803,148.082
134.724,147.414
130.675,146.577
132.465,145.872
132.465,145.201
132.465,144.565
131.9,143.931
135.56,143.513
138.185,143.246
125.463,142.357
130.59,141.769
130.59,141.21
130.59,140.679
132.818,140.286
134.301,139.987
132.803,139.627
135.54,139.423
135.54,139.229
138.093,139.172
135.244,138.976
132.859,138.67
132.735,138.373
135.448,138.227
137.664,138.199
137.508,138.164
137.533,138.133
140.459,138.249
143.472,138.51
145.513,138.86
148.111,139.323
150.396,139.876
155.21,140.643
158.51,141.536
159.188,142.419
164.132,143.505
162.196,144.439
155.411,144.988
153.124,145.395
147.709,145.51
147.709,145.62
139.866,145.333
139.866,145.059
139.866,144.8
139.866,144.553
139.866,144.319
121.569,143.181
98.0954,140.927
83.6035,138.061
73.018,134.809
73.018,131.719
73.018,128.784
73.018,125.996
83.2215,123.857
93.0412,122.316
105.628,121.482
105.628,120.689
105.628,119.936
114.844,119.681
114.844,119.44
114.844,119.21
114.844,118.991
114.844,118.784
123.962,119.043
130.022,119.592
134.105,120.318
138.988,121.251
138.988,122.138
138.988,122.98
138.988,123.781
129.18,124.051
134.123,124.554
134.63,125.058
134.63,125.537
134.63,125.991
134.63,126.423
134.63,126.834
134.63,127.223
134.63,127.594
134.63,127.945
134.63,128.28
129.347,128.333
114.345,127.634
98.0891,126.156
85.2242,124.11
74.998,121.654
74.998,119.321
68.8675,116.799
64.0781,114.163
61.7363,111.541
61.7363,109.051
63.144,106.756
66.4328,104.74
73.2748,103.166
72.1314,101.615
72.1314,100.14
72.1314,98.74
72.1314,97.4096
69.891,96.0336
66.9135,94.5776
65.0485,93.1012
62.4043,91.5663
62.4043,90.1082
62.4043,88.723
62.4043,87.4071
62.8495,86.1792
62.2684,84.9837
62.2684,83.8479
62.2684,82.7689
68.7518,82.0681
69.8582,81.4576
71.8068,80.975
74.3923,80.6459
74.3923,80.3332
74.3923,80.0362
74.3923,79.754
73.1362,79.4231
71.6109,79.0325
70.5741,78.6096
69.9749,78.1778
87.2045,78.6291
87.2045,79.0579
106.509,80.4304
125.464,82.6821
135.306,85.3133
139.67,88.0311
139.222,90.5907
131.037,92.613
131.687,94.5667
131.687,96.4227
131.687,98.1859
131.687,99.861
129.964,101.366
133.951,102.995
134.398,104.565
134.398,106.057
134.398,107.474
134.398,108.82
134.398,110.099
134.398,111.314
138.24,112.66
138.437,113.949
138.076,115.156
135.109,116.153
132.201,116.956
129.574,117.587
132.679,118.341
135.907,119.219
144.497,120.483
144.497,121.684
144.497,122.825
144.497,123.908
143.256,124.876
142.62,125.763
144.85,126.717
149.868,127.875
149.868,128.974
149.868,130.019
149.868,131.012
148.621,131.892
149.907,132.793
149.907,133.648
149.907,134.461
149.907,135.234
144.868,135.715
144.868,136.173
144.868,136.608
144.868,137.021
141.795,137.26
130.714,136.932
130.714,136.621
130.714,136.326
130.714,136.045
130.714,135.779
130.714,135.526
111.879,134.343
89.6788,132.11
89.6788,129.989
89.6788,127.973
89.6788,126.058
89.6788,124.239
89.6788,122.511
89.6788,120.87
89.6788,119.31
77.8692,117.238
70.5495,114.904
65.3268,112.425
65.3268,110.07
65.3268,107.833
65.3268,105.707
65.3268,103.688
63.1358,101.661
67.749,99.9652
72.2047,98.5772
72.2047,97.2585
78.9577,96.3435
91.1149,96.0821
105.705,96.5632
118.287,97.6494
128.207,99.1773
134.779,100.957
139.173,102.868
129.2,104.185
117.255,104.838
102.563,104.725
123.486,105.663
123.486,106.554
123.486,107.4
123.486,108.205
132.449,109.417
137.099,110.801
136.26,112.074
131.341,113.037
131.341,113.952
126.175,114.564
126.175,115.144
126.175,115.696
126.175,116.22
126.175,116.718
128.842,117.324
133.311,118.123
126.987,118.566
135.574,119.417
126.24,119.758
131.345,120.337
121.867,120.414
129.978,120.892
117.936,120.744
124.624,120.938
124.624,121.122
126.461,121.389
127.316,121.686
129.681,122.085
129.681,122.465
129.681,122.826
128.121,123.091
122.741,123.073
115.876,122.713
101.944,121.675
87.7466,119.979
87.7466,118.367
87.7466,116.836
87.7466,115.381
78.1618,113.52
91.6649,112.428
104.774,112.045
114.003,112.143
114.003,112.236
114.003,112.324
114.003,112.408
114.003,112.488
114.003,112.564
114.003,112.636
101.386,112.073
113.344,112.137
126.212,112.84
114.312,112.914
130.676,113.802
143.294,115.277
150.182,117.022
155.281,118.935
157.91,120.884
157.042,122.692
154.89,124.302
154.828,125.828
148.591,126.966
145.152,127.875
137.594,128.361
137.594,128.823
127.311,128.747
109.653,127.793
94.5142,126.129
82.4047,123.942
73.1535,121.403
73.1535,118.991
73.1535,116.699
73.1535,114.521
70.0184,112.296
78.2573,110.594
87.3334,109.431
96.7743,108.798
105.084,108.613
110.439,108.704
116.539,109.096
121.065,109.694
126.821,110.55
130.95,111.57
134.721,112.728
134.767,113.83
132.67,114.772
139.029,115.985
147.608,117.566
154.395,119.407
160.284,121.451
163.006,123.529
161.414,125.423
158.786,127.091
155.781,128.526
149.926,129.596
143.912,130.312
138.697,130.731
133.59,130.874
133.59,131.01
133.59,131.139
133.005,131.232
132.73,131.307
131.097,131.296
121.079,130.785
107.78,129.635
120.702,129.189
120.702,128.764
129.217,128.787
113.175,128.006
93.1157,126.262
79.0019,123.899
79.0019,121.654
79.0019,119.521
85.4495,117.818
77.0219,115.778
73.6717,113.673
73.6717,111.673
73.6717,109.773
72.8056,107.924
71.5924,106.108
69.6441,104.284
67.9803,102.469
65.4461,100.618
63.844,98.7793
67.3024,97.2055
77.1424,96.2023
91.0864,95.9465
106.92,96.4952
118.563,97.5986
127.288,99.0831
125.797,100.419
124.053,101.6
135.311,103.286
135.368,104.89
135.781,106.435
133.715,107.799
137.391,109.278
138.229,110.726
144.764,112.428
150.318,114.322
152.038,116.208
151.061,117.951
156.205,119.863
154.282,121.584
152.41,123.126
147.897,124.364
143.372,125.315
144.604,126.279
140.098,126.97
140.098,127.626
140.098,128.25
136.219,128.648
136.081,129.02
127.448,128.941
127.448,128.867
127.448,128.796
127.448,128.728
127.448,128.664
114.908,127.977
97.2725,126.441
103.554,125.297
103.554,124.21
103.554,123.177
103.554,122.196
103.554,121.264
103.554,120.378
103.554,119.537
103.554,118.738
87.4132,117.172
76.4211,115.134
69.2673,112.841
66.6262,110.53
66.6262,108.335
66.6262,106.249
66.6262,104.268
66.6262,102.386
72.065,100.87
79.1235,99.7828
87.9838,99.1928
97.8685,99.1266
107.095,99.525
117.341,100.416
118.405,101.315
128.835,102.691
130.805,104.097
135.307,105.657
139.458,107.347
140.084,108.984
143.824,110.726
149.94,112.687
149.94,114.55
149.94,116.319
149.94,118
151.254,119.663
150.119,121.186
146.18,122.435
144.998,123.564
143.733,124.572
137.111,125.199
131.563,125.517
129.183,125.7
132.316,126.031
135.553,126.507
135.538,126.959
135.538,127.388
138.459,127.941
141.582,128.623
146.978,129.541
152.284,130.678
152.284,131.759
152.284,132.785
152.284,133.76
152.284,134.686
155.476,135.725
157.941,136.836
153.3,137.659
153.3,138.441
146.824,138.861
142.572,139.046
138.075,138.998
138.075,138.951
138.075,138.908
138.075,138.866
137.71,138.808
133.665,138.551
133.665,138.307
133.665,138.075
133.665,137.854
133.665,137.645
133.665,137.446
133.665,137.257
133.64,137.076
132.966,136.87
132.966,136.675
132.966,136.49
129.334,136.132
123.354,135.493
121.281,134.782
126.311,134.359
131.096,134.196
131.994,134.086
135.861,134.174
139.628,134.447
146.267,135.038
151.467,135.859
151.467,136.64
151.467,137.381
154.124,138.218
150.398,138.827
143.791,139.076
141.852,139.214
139.955,139.251
139.955,139.287
139.955,139.32
139.955,139.352
139.955,139.382
137.192,139.272
137.192,139.168
128.65,138.642
117.103,137.565
117.103,136.542
117.103,135.57
117.103,134.647
117.103,133.77
117.103,132.936
98.1921,131.199
104.831,129.881
108.225,128.798
110.595,127.888
112.978,127.142
115.175,126.544
126.282,126.531
131.838,126.796
129.788,126.946
129.788,127.088
124.224,126.945
108.164,126.006
91.0186,124.256
91.0186,122.594
91.0186,121.016
91.0186,119.516
91.0186,118.091
106.676,117.52
118.804,117.584
125.911,118.001
125.911,118.396
125.911,118.772
129.026,119.285
126.362,119.638
132.153,120.264
132.153,120.859
132.153,121.423
137.059,122.205
129.852,122.587
115.756,122.246
101.208,121.194
88.6142,119.565
88.6142,118.017
88.6142,116.547
88.6142,115.151
80.8664,113.436
93.1182,112.421
93.1182,111.455
93.1182,110.539
99.302,109.977
99.302,109.443
99.302,108.936
99.302,108.454
99.302,107.997
99.302,107.562
99.302,107.149
99.302,106.757
87.7001,105.804
79.9112,104.509
79.9112,103.279
79.9112,102.111
79.9112,101.001
79.9112,99.9463
93.8267,99.6403
109.272,100.122
119.753,101.103
124.743,102.285
128.665,103.604
131.825,105.015
133.512,106.44
137.16,107.976
143.25,109.74
147.933,111.65
149.45,113.54
148.413,115.283
149.695,117.004
151.903,118.749
156.465,120.635
160.347,122.62
160.347,124.506
162.375,126.4
162.435,128.202
160.042,129.794
152.611,130.935
145.56,131.666
140.876,132.126
135.122,132.276
122.503,131.787
122.503,131.323
122.503,130.882
122.503,130.463
122.503,130.065
108.446,128.984
93.8348,127.227
81.1353,124.922
81.1353,122.733
81.1353,120.653
81.1353,118.677
81.1353,116.8
72.674,114.594
68.2988,112.279
71.3134,110.231
71.3134,108.285
75.5925,106.65
83.9765,105.517
96.3582,105.059
110.089,105.31
122.256,106.157
127.706,107.235
134.595,108.603
137.242,110.035
139.232,111.495
143.57,113.098
146.741,114.781
152.811,116.682
151.402,118.418
146.192,119.807
137.76,120.704
126.049,120.972
126.049,121.225
126.049,121.467
126.049,121.696
126.049,121.913
126.049,122.12
126.049,122.317
126.049,122.503
128.903,122.823
118.289,122.597
103.286,121.631
89.6769,120.033
80.4317,118.053
72.8899,115.795
72.8899,113.65
72.8899,111.612
69.5383,109.508
77.5392,107.91
72.4478,106.137
78.8962,104.775
90.3759,104.055
90.3759,103.371
103.838,103.394
92.4527,102.847
85.416,101.975
79.8117,100.867
75.8443,99.6161
73.1814,98.2944
70.6648,96.9129
68.2908,95.4818
65.5682,93.9861
63.8118,92.4774
63.8118,91.0441
63.8118,89.6825
63.8118,88.389
73.7679,87.6579
87.4858,87.6493
105.682,88.5509
122.39,90.2429
129.922,92.2268
132.444,94.2377
129.538,96.0027
119.17,97.1611
119.17,98.2615
119.17,99.307
109.161,99.7997
98.8446,99.7519
91.0527,99.3169
85.6148,98.6318
85.6148,97.981
85.6148,97.3627
85.6148,96.7753
79.9939,95.9362
74.9545,94.8871
85.9697,94.4412
85.9697,94.0177
85.9697,93.6153
85.9697,93.233
85.9697,92.8698
83.5654,92.4046
98.3214,92.7004
98.3214,92.9815
98.3214,93.2485
90.3583,93.104
83.0635,92.6019
77.1367,91.8287
72.658,90.8701
72.658,89.9595
90.4332,89.9832
110.853,91.0267
129.372,92.9439
137.038,95.1487
140.041,97.3933
139.958,99.5215
135.365,101.314
132.332,102.865
123.222,103.882
112.803,104.328
120.949,105.16
123.861,106.095
113.837,106.482
105.723,106.444
95.101,105.877
84.6003,104.813
78.1683,103.481
78.1683,102.215
72.8111,100.745
69.9085,99.203
66.8528,97.5855
74.1023,96.4113
84.1898,95.8002
97.4567,95.883
