Normal data,Filtered data
51.5892,51.5892
51.6322,51.5914
51.5226,51.5879
51.5226,51.5847
51.5226,51.5816
51.5226,51.5786
51.5226,51.5758
51.5226,51.5731
52.4567,51.6173
52.3093,51.6519
51.8598,51.6623
51.8388,51.6711
52.2749,51.7013
52.2749,51.73
52.2749,51.7572
52.2749,51.7831
52.2749,51.8077
52.1121,51.8229
51.3784,51.8007
51.5244,51.7869
51.1448,51.7548
51.1833,51.7262
51.1833,51.6991
51.1833,51.6733
51.1833,51.6488
51.1833,51.6255
52.226,51.6555
52.5559,51.7005
52.6172,51.7464
52.8946,51.8038
52.8946,51.8583
52.8946,51.9101
52.8946,51.9594
52.8946,52.0061
52.8946,52.0505
52.5611,52.0761
52.0428,52.0744
51.526,52.047
51.189,52.0041
51.3374,51.9707
51.3374,51.9391
51.3374,51.909
51.3374,51.8804
51.3374,51.8533
52.4251,51.8819
52.8931,51.9324
53.3869,52.0051
53.051,52.0574
51.9528,52.0522
51.9528,52.0472
51.9528,52.0425
51.9528,52.038
51.9528,52.0337
52.224,52.0433
52.406,52.0614
51.8178,52.0492
51.6932,52.0314
51.0335,51.9815
51.0335,51.9341
51.0335,51.8891
51.0335,51.8463
51.0335,51.8057
52.1234,51.8215
51.1404,51.7875
50.0749,51.7019
49.1843,51.576
49.9343,51.4939
49.9343,51.4159
49.9343,51.3418
49.9343,51.2715
49.9343,51.2046
51.4169,51.2152
52.368,51.2729
52.3981,51.3291
52.094,51.3674
52.2439,51.4112
52.2439,51.4528
52.2439,51.4924
52.2439,51.53
52.2439,51.5657
52.817,51.6282
52.0296,51.6483
52.1006,51.6709
52.4031,51.7075
53.5312,51.7987
53.5312,51.8853
53.5312,51.9676
53.5312,52.0458
53.5312,52.1201
53.5312,52.1906
52.8881,52.2255
52.1585,52.2221
51.7466,52.1984
51.3697,52.1569
51.3697,52.1176
51.3697,52.0802
51.3697,52.0446
51.3697,52.0109
52.1323,52.017
52.5678,52.0445
52.6851,52.0765
53.3052,52.138
54.2168,52.2419
54.2168,52.3406
54.2168,52.4345
54.2168,52.5236
54.2168,52.6082
54.2168,52.6887
53.6137,52.7349
53.2571,52.761
52.7636,52.7612
52.5841,52.7523
52.5841,52.7439
52.5841,52.7359
52.5841,52.7283
52.5841,52.7211
53.1949,52.7448
52.8773,52.7514
52.9161,52.7597
53.2946,52.7864
53.6922,52.8317
53.6922,52.8747
53.6922,52.9156
53.6922,52.9544
53.6922,52.9913
54.3266,53.0581
55.1733,53.1638
54.1824,53.2148
54.088,53.2584
54.088,53.2999
54.088,53.3393
54.088,53.3767
54.088,53.4123
54.088,53.4461
54.6688,53.5072
53.5548,53.5096
53.1614,53.4922
53.6894,53.502
54.7983,53.5668
54.7983,53.6284
54.7983,53.6869
54.7983,53.7425
54.7983,53.7953
55.6145,53.8862
53.5697,53.8704
52.9393,53.8238
52.1598,53.7406
51.3348,53.6203
51.3348,53.5061
51.3348,53.3975
51.3348,53.2944
51.3348,53.1964
51.2178,53.0974
51.2178,53.0035
50.7334,52.89
51.1573,52.8033
52.6958,52.798
52.6958,52.7928
52.6958,52.788
52.6958,52.7834
52.6958,52.779
55.0397,52.892
54.385,52.9667
54.1506,53.0259
53.8309,53.0661
53.0899,53.0673
53.0899,53.0685
53.0899,53.0695
53.0899,53.0705
53.0899,53.0715
53.5333,53.0946
52.9094,53.0853
52.6877,53.0655
52.6336,53.0439
52.788,53.0311
52.788,53.0189
52.788,53.0074
52.788,52.9964
52.788,52.986
52.788,52.9761
52.1129,52.9329
51.7286,52.8727
51.059,52.782
50.8552,52.6857
50.8552,52.5941
50.8552,52.5072
50.8552,52.4246
50.8552,52.3461
50.8552,52.2716
52.1318,52.2646
53.0948,52.3061
53.0493,52.3433
53.1608,52.3841
53.1608,52.423
53.1608,52.4599
53.1608,52.4949
53.1608,52.5282
53.6054,52.5821
53.5285,52.6294
52.684,52.6321
52.4521,52.6231
51.3798,52.5609
51.3798,52.5019
51.3798,52.4458
51.3798,52.3925
51.3798,52.3419
52.153,52.3324
52.6707,52.3493
52.2346,52.3436
52.0642,52.3296
52.0008,52.3132
52.0008,52.2976
52.0008,52.2827
52.0008,52.2686
52.0008,52.2552
52.3424,52.2596
52.3133,52.2623
51.7441,52.2364
50.7335,52.1612
50.3336,52.0698
50.3336,51.983
50.3336,51.9006
50.3336,51.8222
50.3336,51.7478
51.377,51.7292
51.2983,51.7077
51.9785,51.7212
51.6343,51.7169
52.1879,51.7404
52.1879,51.7628
52.1879,51.7841
52.1879,51.8043
52.1879,51.8235
52.9508,51.8798
53.2587,51.9488
53.2193,52.0123
52.8232,52.0528
52.9812,52.0993
52.9812,52.1434
52.9812,52.1852
52.9812,52.225
52.9812,52.2629
53.7746,52.3384
53.8741,52.4152
54.2405,52.5065
54.3578,52.5991
54.6869,52.7034
54.6869,52.8026
54.6869,52.8968
54.6869,52.9863
54.6869,53.0714
54.0331,53.1194
54.0502,53.166
53.2381,53.1696
53.4012,53.1812
53.1611,53.1802
53.1611,53.1792
53.1611,53.1783
53.1611,53.1774
53.1611,53.1766
53.6414,53.1999
53.2344,53.2016
53.0916,53.1961
53.3269,53.2026
53.1739,53.2012
53.1739,53.1998
53.1739,53.1985
53.1739,53.1973
53.1739,53.1961
53.9239,53.2325
54.2787,53.2848
53.5955,53.3004
54.1647,53.3436
54.1647,53.3846
54.1647,53.4236
54.1647,53.4607
54.1647,53.4959
54.1647,53.5293
53.3951,53.5226
52.6736,53.4802
52.5759,53.435
52.4506,53.3857
52.4506,53.339
52.4506,53.2945
52.4506,53.2523
52.4506,53.2123
52.4506,53.1742
52.1268,53.1218
51.2988,53.0307
51.0727,52.9328
50.8346,52.8278
50.8859,52.7307
50.8859,52.6385
50.8859,52.5509
50.8859,52.4676
50.8859,52.3885
50.1842,52.2783
50.5706,52.1929
50.2206,52.0943
50.9909,52.0391
51.8659,52.0305
51.8659,52.0222
51.8659,52.0144
51.8659,52.007
51.8659,52
52.1814,52.009
52.3378,52.0255
51.4415,51.9963
51.2706,51.96
50.8605,51.905
50.8605,51.8528
50.8605,51.8032
50.8605,51.756
50.8605,51.7113
51.8782,51.7196
51.1013,51.6887
50.806,51.6446
50.6309,51.5939
51.4957,51.589
51.4957,51.5843
51.4957,51.5799
51.4957,51.5756
51.4957,51.5716
51.4957,51.5678
51.0765,51.5433
50.9097,51.5116
51.1659,51.4943
51.5122,51.4952
51.5122,51.4961
51.5122,51.4969
51.5122,51.4976
51.5122,51.4984
52.711,51.559
53.2412,51.6431
53.283,51.7251
53.2654,51.8021
53.2376,51.8739
53.2376,51.9421
53.2376,52.0069
53.2376,52.0684
53.2376,52.1269
53.2376,52.1824
53.4883,52.2477
53.2545,52.298
53.031,52.3347
52.5107,52.3435
52.1723,52.3349
52.1723,52.3268
52.1723,52.3191
52.1723,52.3117
52.1723,52.3048
53.4486,52.3619
54.9701,52.4924
53.6283,52.5491
52.8109,52.5622
52.4799,52.5581
52.4799,52.5542
52.4799,52.5505
52.4799,52.547
52.4799,52.5436
52.4799,52.5404
52.9868,52.5627
52.4052,52.5548
52.1258,52.5334
51.7138,52.4924
51.7138,52.4535
51.7138,52.4165
51.7138,52.3814
51.7138,52.348
53.0346,52.3823
53.368,52.4316
53.2747,52.4737
52.4592,52.473
52.2114,52.4599
52.2114,52.4475
52.2114,52.4357
52.2114,52.4245
52.2114,52.4138
52.2114,52.4037
52.4319,52.4051
52.5272,52.4112
51.6306,52.3722
51.3293,52.32
50.6372,52.2359
50.6372,52.156
50.6372,52.08
50.6372,52.0079
50.6372,51.9394
51.7616,51.9305
51.8161,51.9247
51.3431,51.8957
51.1824,51.86
51.9081,51.8624
51.9081,51.8647
51.9081,51.8669
51.9081,51.8689
51.9081,51.8709
54.1464,51.9846
53.4588,52.0584
52.1842,52.0646
51.8216,52.0525
51.203,52.01
51.203,51.9697
51.203,51.9313
51.203,51.8949
51.203,51.8603
51.203,51.8274
51.0527,51.7887
51.3522,51.7669
50.9015,51.7236
50.9903,51.687
51.1105,51.6581
51.1105,51.6307
51.1105,51.6047
51.1105,51.58
51.1105,51.5565
51.999,51.5787
52.0954,51.6045
51.6663,51.6076
51.6295,51.6087
50.9028,51.5734
50.9028,51.5398
50.9028,51.508
50.9028,51.4777
50.9028,51.449
50.9028,51.4217
51.0633,51.4038
51.192,51.3932
51.6024,51.4036
52.7111,51.469
52.7111,51.5311
52.7111,51.5901
52.7111,51.6461
52.7111,51.6994
53.3356,51.7812
52.929,51.8386
52.8646,51.8899
52.0204,51.8964
51.9335,51.8983
51.9335,51.9
51.9335,51.9017
51.9335,51.9033
51.9335,51.9048
51.9335,51.9062
51.6671,51.8943
51.7176,51.8854
51.5238,51.8673
51.4159,51.8448
51.6921,51.8371
51.6921,51.8299
51.6921,51.823
51.6921,51.8164
51.6921,51.8102
51.3411,51.7868
51.4863,51.7717
51.5438,51.7603
51.0354,51.7241
51.1727,51.6965
51.1727,51.6703
51.1727,51.6454
51.1727,51.6218
51.1727,51.5993
52.5655,51.6477
53.4929,51.7399
52.569,51.7814
51.7521,51.7799
51.5237,51.7671
51.5237,51.7549
51.5237,51.7434
51.5237,51.7324
51.5237,51.722
51.5237,51.712
51.5273,51.7028
51.3981,51.6876
50.9834,51.6524
51.0015,51.6198
51.0015,51.5889
51.0015,51.5595
51.0015,51.5316
51.0015,51.5051
51.0015,51.4799
52.0468,51.5083
52.0811,51.5369
51.8117,51.5507
52.6774,51.607
53.1537,51.6843
53.1537,51.7578
53.1537,51.8276
53.1537,51.8939
53.1537,51.9569
53.1537,52.0167
52.3499,52.0334
52.2627,52.0449
51.9577,52.0405
52.3061,52.0538
52.3061,52.0664
52.3061,52.0784
52.3061,52.0898
52.3061,52.1006
52.648,52.128
51.3775,52.0904
50.5901,52.0154
50.5753,51.9434
51.2263,51.9076
51.2263,51.8735
51.2263,51.8411
51.2263,51.8104
51.2263,51.7812
51.2263,51.7534
51.1106,51.7213
51.0923,51.6898
50.8802,51.6494
50.7493,51.6044
50.7493,51.5616
50.7493,51.521
50.7493,51.4824
50.7493,51.4457
50.7493,51.4109
51.5333,51.417
51.6541,51.4289
51.5027,51.4326
51.8359,51.4528
52.5074,51.5055
52.5074,51.5556
52.5074,51.6032
52.5074,51.6484
52.5074,51.6913
54.0347,51.8085
53.3266,51.8844
53.4924,51.9648
53.4464,52.0389
52.916,52.0827
52.916,52.1244
52.916,52.164
52.916,52.2016
52.916,52.2373
53.2193,52.2864
53.2139,52.3328
53.3317,52.3827
53.5804,52.4426
53.8752,52.5142
53.8752,52.5823
53.8752,52.6469
53.8752,52.7083
53.8752,52.7667
54.3939,52.848
55.02,52.9566
54.6426,53.0409
54.4066,53.1092
53.8971,53.1486
53.8971,53.186
53.8971,53.2216
53.8971,53.2554
53.8971,53.2875
53.8971,53.3179
53.3414,53.3191
53.4685,53.3266
53.5423,53.3374
53.746,53.3578
53.746,53.3772
53.746,53.3956
53.746,53.4132
53.746,53.4298
53.746,53.4456
53.5291,53.4498
53.3027,53.4424
52.6355,53.4021
52.1681,53.3404
51.9252,53.2696
51.9252,53.2024
51.9252,53.1385
51.9252,53.0779
51.9252,53.0202
52.846,53.0115
53.9791,53.0599
53.7661,53.0952
53.0172,53.0913
52.8733,53.0804
52.8733,53.07
52.8733,53.0602
52.8733,53.0509
52.8733,53.042
53.193,53.0495
53.0418,53.0491
52.6839,53.0309
52.6075,53.0097
51.7202,52.9452
51.7202,52.884
51.7202,52.8258
51.7202,52.7705
51.7202,52.718
54.0152,52.7829
54.8082,52.8841
54.8394,52.9819
53.5707,53.0113
53.5534,53.0384
53.9545,53.0842
53.9545,53.1277
53.9545,53.1691
53.9545,53.2083
53.9545,53.2457
53.9103,53.2789
53.0015,53.265
52.295,53.2165
51.7106,53.1412
50.9521,53.0318
50.9521,52.9278
50.9521,52.829
50.9521,52.7351
50.9521,52.646
51.8342,52.6054
51.7935,52.5648
51.4579,52.5095
50.3285,52.4004
50.2043,52.2906
50.2043,52.1863
50.2043,52.0872
50.2043,51.993
50.2043,51.9036
50.2043,51.8186
50.5707,51.7562
50.2265,51.6797
50.1549,51.6035
49.6353,51.5051
49.1211,51.3859
49.1211,51.2727
49.1211,51.1651
49.1211,51.0629
49.1211,50.9658
51.0079,50.9679
51.9934,51.0192
51.0351,51.02
50.2207,50.98
51.3231,50.9972
51.3231,51.0135
51.3231,51.0289
51.3231,51.0437
51.3231,51.0576
51.3231,51.0709
51.5824,51.0965
51.602,51.1217
51.4213,51.1367
51.1683,51.1383
51.1683,51.1398
51.1683,51.1412
51.1683,51.1426
51.1683,51.1439
51.1683,51.1451
51.4391,51.1598
51.3656,51.1701
51.1596,51.1696
51.4352,51.1828
52.0058,51.224
52.0058,51.2631
52.0058,51.3002
52.0058,51.3355
52.0058,51.369
53.6645,51.4838
53.1059,51.5649
53.1471,51.644
52.7217,51.6979
53.5039,51.7882
53.5039,51.874
53.5039,51.9555
53.5039,52.0329
53.5039,52.1064
53.5039,52.1763
53.2855,52.2318
53.1022,52.2753
53.2573,52.3244
53.8899,52.4027
53.8899,52.477
53.8899,52.5477
53.8899,52.6148
53.8899,52.6785
53.8899,52.7391
53.4851,52.7764
52.3465,52.7549
51.9212,52.7132
51.7479,52.665
50.9924,52.5813
50.9924,52.5019
50.9924,52.4264
50.9924,52.3547
50.9924,52.2866
51.3709,52.2408
50.9948,52.1785
50.7874,52.1089
51.4683,52.0769
52.445,52.0953
52.445,52.1128
52.445,52.1294
52.445,52.1452
52.445,52.1602
53.6907,52.2367
53.4724,52.2985
53.0554,52.3363
52.7133,52.3552
52.5114,52.363
52.5114,52.3704
52.5114,52.3775
52.5114,52.3842
52.5114,52.3905
53.5675,52.4494
53.1831,52.4861
52.87,52.5052
52.6157,52.5108
52.3479,52.5026
52.7432,52.5146
52.7432,52.5261
52.7432,52.5369
52.7432,52.5472
52.7432,52.557
52.7025,52.5643
51.4428,52.5082
50.6209,52.4139
49.7262,52.2795
49.1803,52.1245
49.1803,51.9773
49.1803,51.8375
49.1803,51.7046
49.1803,51.5784
49.4943,51.4742
49.7797,51.3895
49.8462,51.3123
49.8914,51.2412
49.8904,51.1737
49.8904,51.1095
49.8904,51.0486
49.8904,50.9907
49.8904,50.9357
49.9578,50.8868
50.7597,50.8804
51.1906,50.8959
50.7891,50.8906
51.1387,50.903
51.1387,50.9148
51.1387,50.926
51.1387,50.9366
51.1387,50.9467
52.7708,51.0379
53.5461,51.1633
53.6359,51.2869
52.9029,51.3677
53.158,51.4573
53.158,51.5423
53.158,51.6231
53.158,51.6998
53.158,51.7727
53.158,51.842
53.0677,51.9033
52.5713,51.9367
52.1058,51.9451
51.6019,51.928
50.8894,51.876
50.8894,51.8267
50.8894,51.7799
50.8894,51.7353
50.8894,51.693
52.0543,51.7111
52.3322,51.7422
52.0547,51.7578
51.7166,51.7557
51.7326,51.7546
51.7326,51.7535
51.7326,51.7524
51.7326,51.7514
51.7326,51.7505
52.03,51.7645
52.747,51.8136
52.5317,51.8495
52.2361,51.8688
51.7856,51.8647
51.7856,51.8607
51.7856,51.857
51.7856,51.8534
51.7856,51.85
53.3052,51.9228
53.7911,52.0162
54.4153,52.1361
53.8457,52.2216
53.0224,52.2616
53.0224,52.2997
53.0224,52.3358
53.0224,52.3701
53.0224,52.4028
53.0224,52.4337
53.0685,52.4655
53.4062,52.5125
52.2646,52.5001
51.5311,52.4517
50.9468,52.3764
50.9468,52.3049
50.9468,52.237
50.9468,52.1725
50.9468,52.1112
51.7211,52.0917
51.7297,52.0736
51.9672,52.0683
51.6412,52.0469
51.1481,52.002
51.6231,51.9831
51.6231,51.9651
51.6231,51.948
51.6231,51.9317
51.6231,51.9163
52.5444,51.9477
52.0073,51.9507
51.4274,51.9245
51.2005,51.8883
50.3531,51.8116
50.3531,51.7386
50.3531,51.6693
50.3531,51.6035
50.3531,51.541
51.2466,51.5263
51.9573,51.5478
51.6825,51.5546
51.6042,51.557
51.6156,51.56
51.6156,51.5628
51.6156,51.5654
51.6156,51.5679
51.6156,51.5703
51.6156,51.5726
51.3945,51.5637
51.2886,51.5499
51.1418,51.5295
50.6992,51.488
50.6992,51.4485
50.6992,51.4111
50.6992,51.3755
50.6992,51.3417
50.6992,51.3096
52.2141,51.3548
51.8474,51.3794
50.795,51.3502
49.2185,51.2436
49.2185,51.1423
49.2185,51.0462
49.2185,50.9548
49.2185,50.868
49.2185,50.7855
50.3055,50.7615
50.5589,50.7514
50.5028,50.7389
50.6632,50.7351
50.6632,50.7315
50.6632,50.7281
50.6632,50.7249
50.6632,50.7218
50.6632,50.7189
52.3587,50.8009
53.1078,50.9162
53.2109,51.0309
52.7797,51.1184
52.5691,51.1909
52.5691,51.2598
52.5691,51.3253
52.5691,51.3875
52.5691,51.4466
52.9155,51.52
52.8911,51.5886
51.8671,51.6025
50.6868,51.5567
49.9553,51.4766
49.9553,51.4006
49.9553,51.3283
49.9553,51.2596
49.9553,51.1944
49.9553,51.1325
51.8335,51.1675
52.2317,51.2207
51.7513,51.2473
51.6499,51.2674
51.8284,51.2954
51.8284,51.3221
51.8284,51.3474
51.8284,51.3714
51.8284,51.3943
52.0404,51.4266
51.5197,51.4313
50.9219,51.4058
50.8135,51.3762
50.1714,51.3159
50.1714,51.2587
50.1714,51.2043
50.1714,51.1527
50.1714,51.1036
51.0499,51.1009
52.0718,51.1495
52.34,51.209
52.1379,51.2554
52.0113,51.2932
52.0113,51.3291
52.0113,51.3632
52.0113,51.3956
52.0113,51.4264
52.4545,51.4778
52.8659,51.5472
52.2318,51.5815
52.3728,51.621
51.6129,51.6206
51.6129,51.6202
51.6129,51.6199
51.6129,51.6195
51.6129,51.6192
51.6129,51.6189
52.4679,51.6613
53.2868,51.7426
52.3455,51.7727
51.7989,51.774
52.5405,51.8124
52.5405,51.8488
52.5405,51.8834
52.5405,51.9162
52.5405,51.9474
54.1424,52.0572
54.8321,52.1959
54.3842,52.3053
53.1443,52.3473
52.2762,52.3437
52.2762,52.3403
52.2762,52.3371
52.2762,52.3341
52.2762,52.3312
53.3784,52.3835
52.866,52.4077
51.5068,52.3626
51.5114,52.3201
51.9057,52.2993
52.7892,52.3238
52.7892,52.3471
52.7892,52.3692
52.7892,52.3902
52.7892,52.4102
52.6096,52.4201
51.5252,52.3754
50.6328,52.2883
50.0315,52.1754
49.676,52.0504
49.676,51.9317
49.676,51.8189
49.676,51.7118
49.676,51.61
51.5429,51.6066
53.0098,51.6768
53.4339,51.7647
54.2157,51.8872
54.8737,52.0365
54.8737,52.1784
54.8737,52.3132
54.8737,52.4412
54.8737,52.5628
54.6697,52.6682
53.6917,52.7193
52.6974,52.7182
51.5545,52.6601
51.0917,52.5816
51.0917,52.5071
51.0917,52.4364
51.0917,52.3691
51.0917,52.3053
51.0917,52.2446
51.505,52.2076
51.8529,52.1899
51.8949,52.1751
51.7648,52.1546
51.9169,52.1427
51.9169,52.1314
51.9169,52.1207
51.9169,52.1105
51.9169,52.1008
53.4674,52.1691
53.1786,52.2196
52.6166,52.2395
52.1335,52.2342
51.5837,52.2016
51.5837,52.1707
51.5837,52.1414
51.5837,52.1135
51.5837,52.087
51.8336,52.0743
51.76,52.0586
51.76,52.0437
51.4332,52.0132
51.0935,51.9672
51.0952,51.9236
51.0952,51.8822
51.0952,51.8428
51.0952,51.8054
51.0952,51.7699
51.6461,51.7637
51.3038,51.7407
50.9491,51.7011
50.4138,51.6368
49.5951,51.5347
49.5951,51.4377
49.5951,51.3456
49.5951,51.2581
49.5951,51.1749
50.7909,51.1557
51.0287,51.1494
50.8725,51.1355
50.7004,51.1138
50.8788,51.102
50.8788,51.0909
50.8788,51.0802
50.8788,51.0702
50.8788,51.0606
50.8788,51.0515
50.9194,51.0449
50.4563,51.0155
50.4638,50.9879
50.1691,50.9469
49.7593,50.8876
49.7593,50.8312
49.7593,50.7776
49.7593,50.7266
49.7593,50.6783
50.7756,50.6831
51.4563,50.7218
51.085,50.74
51.3056,50.7682
51.9676,50.8282
51.9676,50.8852
51.9676,50.9393
51.9676,50.9907
51.9676,51.0396
51.9676,51.086
52.336,51.1485
52.2163,51.2019
51.3642,51.21
50.7639,51.1877
50.0489,51.1307
50.0489,51.0766
50.0489,51.0253
50.0489,50.9764
50.0489,50.9301
51.9109,50.9791
53.0094,51.0806
53.6185,51.2075
53.4398,51.3191
54.1287,51.4596
54.2134,51.5973
54.2134,51.7281
54.2134,51.8524
54.2134,51.9704
54.2134,52.0826
53.5078,52.1538
53.0145,52.1969
52.026,52.1883
51.3904,52.1484
50.7907,52.0805
50.7907,52.016
50.7907,51.9548
50.7907,51.8966
50.7907,51.8413
51.58,51.8282
