Normal data,Filtered data
137.968,137.968
153.981,138.769
176.465,140.654
176.465,142.444
176.465,144.145
176.465,145.761
176.465,147.297
176.465,148.755
168.217,149.728
151.289,149.806
145.36,149.584
148.393,149.524
147.742,149.435
147.742,149.351
147.742,149.27
147.742,149.194
147.742,149.121
149.985,149.164
171.193,150.266
177.484,151.627
163.954,152.243
158.03,152.532
158.03,152.807
158.03,153.068
158.03,153.316
158.03,153.552
147.804,153.265
133.346,152.269
127.387,151.025
129.209,149.934
129.209,148.898
129.209,147.913
129.209,146.978
129.209,146.089
129.209,145.245
134.445,144.705
157.672,145.354
168.369,146.505
164.411,147.4
159.407,148
159.407,148.571
159.407,149.112
159.407,149.627
159.407,150.116
148.092,150.015
136.188,149.324
130.453,148.38
138.635,147.893
144.876,147.742
144.876,147.599
144.876,147.463
144.876,147.333
144.876,147.21
150.685,147.384
163.701,148.2
154.155,148.498
164.637,149.305
176.506,150.665
176.506,151.957
176.506,153.184
176.506,154.35
176.506,155.458
164.214,155.896
150.183,155.61
152.428,155.451
154.892,155.423
153.892,155.346
153.892,155.274
153.892,155.205
153.892,155.139
153.892,155.077
150.722,154.859
175.135,155.873
170.981,156.628
176.538,157.624
175.139,158.499
175.139,159.331
175.139,160.122
175.139,160.873
175.139,161.586
164.039,161.709
152.681,161.257
150.154,160.702
154.759,160.405
159.153,160.342
159.153,160.283
159.153,160.226
159.153,160.173
159.153,160.122
159.153,160.073
175.17,160.828
162.017,160.887
174.107,161.548
177.649,162.354
177.649,163.118
177.649,163.845
177.649,164.535
177.649,165.191
168.702,165.366
155.022,164.849
151.306,164.172
147.447,163.336
151.847,162.761
151.847,162.216
151.847,161.697
151.847,161.205
151.847,160.737
151.847,160.292
177.083,161.132
170.837,161.617
179.094,162.491
172.457,162.989
172.457,163.463
172.457,163.912
172.457,164.34
172.457,164.745
159.367,164.476
151.803,163.843
145.367,162.919
145.589,162.052
151.58,161.529
151.58,161.031
151.58,160.559
151.58,160.11
151.58,159.683
159.34,159.666
172.812,160.324
170.242,160.82
177.665,161.662
177.665,162.462
177.665,163.222
177.665,163.944
177.665,164.63
177.665,165.282
172.549,165.645
163.77,165.552
153.16,164.932
152.866,164.329
156.947,163.96
156.947,163.609
156.947,163.276
156.947,162.959
156.947,162.659
172.739,163.163
167.576,163.383
170.46,163.737
176.913,164.396
168.444,164.598
168.444,164.791
168.444,164.973
168.444,165.147
168.444,165.312
158.842,164.988
158.842,164.681
155.097,164.202
163.275,164.156
164.204,164.158
164.204,164.16
164.204,164.162
164.204,164.164
164.204,164.166
178.067,164.861
153.042,164.271
153.286,163.721
166.553,163.863
170.436,164.192
170.436,164.504
170.436,164.8
170.436,165.082
170.436,165.35
167.735,165.469
154.005,164.896
151.738,164.238
150.348,163.544
156.834,163.208
156.834,162.889
156.834,162.587
156.834,162.299
156.834,162.026
156.834,161.766
177.493,162.553
157.172,162.283
164.593,162.399
168.949,162.726
168.949,163.038
168.949,163.333
168.949,163.614
168.949,163.881
168.949,164.134
176.206,164.738
166.383,164.82
166.037,164.881
168.093,165.041
168.093,165.194
168.093,165.339
168.093,165.477
168.093,165.607
176.274,166.141
159.687,165.818
155.305,165.292
167.351,165.395
178.38,166.044
178.38,166.661
178.38,167.247
178.38,167.804
178.38,168.333
168.027,168.317
162.931,168.048
152.976,167.294
157.666,166.813
163.656,166.655
163.656,166.505
163.656,166.363
163.656,166.227
163.656,166.099
158.357,165.712
176.828,166.267
156.638,165.786
159.664,165.48
160.166,165.214
160.166,164.962
160.166,164.722
160.166,164.494
160.166,164.278
175.758,164.852
165.574,164.888
153.777,164.332
156.837,163.958
162.546,163.887
162.546,163.82
162.546,163.756
162.546,163.696
162.546,163.638
164.467,163.68
175.725,164.282
168.512,164.493
174.482,164.993
176.964,165.592
176.964,166.16
176.964,166.7
176.964,167.214
176.964,167.701
165.2,167.576
151.618,166.778
142.703,165.574
144.083,164.5
154.104,163.98
154.104,163.486
154.104,163.017
154.104,162.572
154.104,162.148
150.411,161.561
173.183,162.142
166.758,162.373
163.572,162.433
170.385,162.831
170.385,163.208
170.385,163.567
170.385,163.908
170.385,164.232
170.061,164.523
162.838,164.439
148.947,163.665
150.385,163.001
151.705,162.436
151.705,161.899
151.705,161.389
151.705,160.905
151.705,160.445
168.112,160.829
167.952,161.185
176.258,161.938
173.257,162.504
173.257,163.042
173.257,163.553
173.257,164.038
173.257,164.499
173.257,164.937
163.368,164.858
158.11,164.521
154.435,164.017
158.332,163.732
158.332,163.462
158.332,163.206
158.332,162.962
158.332,162.731
158.332,162.511
173.15,163.043
177.028,163.742
166.355,163.873
171.997,164.279
174.845,164.807
174.845,165.309
174.845,165.786
174.845,166.239
174.845,166.669
170.072,166.839
166.129,166.804
160.86,166.506
168.369,166.6
176.465,167.093
176.465,167.561
176.465,168.007
176.465,168.43
176.465,168.831
176.451,169.212
158.211,168.662
137.061,167.082
149.897,166.223
157.655,165.795
157.655,165.388
157.655,165.001
157.655,164.634
157.655,164.285
170.47,164.594
176.518,165.19
166.509,165.256
165.245,165.256
166.846,165.335
166.846,165.411
166.846,165.482
166.846,165.551
166.846,165.615
166.846,165.677
168.965,165.841
150.079,165.053
161.857,164.893
173.073,165.302
173.073,165.691
173.073,166.06
173.073,166.411
173.073,166.744
168.478,166.831
151.749,166.076
144.137,164.979
139.268,163.694
147.351,162.877
147.351,162.1
147.351,161.363
147.351,160.662
147.351,159.997
147.351,159.365
171.663,159.979
172.371,160.599
170.958,161.117
178.082,161.965
170.46,162.39
170.46,162.793
170.46,163.177
170.46,163.541
170.46,163.887
154.465,163.416
143.23,162.406
141.864,161.379
130.489,159.835
135.251,158.606
135.251,157.438
135.251,156.329
135.251,155.275
135.251,154.274
135.251,153.322
160.014,153.657
178.389,154.894
170.87,155.692
165.345,156.175
165.345,156.634
165.345,157.069
165.345,157.483
165.345,157.876
151.955,157.58
147.833,157.093
138.486,156.162
140.086,155.358
149.686,155.075
149.686,154.805
149.686,154.549
149.686,154.306
149.686,154.075
149.686,153.856
165.68,154.447
170.57,155.253
174.506,156.216
175.78,157.194
177.793,158.224
177.793,159.202
177.793,160.132
177.793,161.015
177.793,161.854
168.891,162.206
159.232,162.057
154.683,161.688
162.496,161.729
161.613,161.723
161.613,161.718
161.613,161.712
161.613,161.707
161.613,161.703
172.274,162.231
162.624,162.251
152.555,161.766
163.127,161.834
172.945,162.39
172.945,162.917
172.945,163.419
172.945,163.895
172.945,164.348
172.945,164.778
166.937,164.886
153.677,164.325
138.728,163.045
143.01,162.044
141.547,161.019
141.547,160.045
141.547,159.12
141.547,158.242
141.547,157.407
146.905,156.882
171.301,157.603
167.301,158.088
174.006,158.884
179.169,159.898
179.169,160.861
179.169,161.777
179.169,162.646
179.169,163.473
179.169,164.257
173.193,164.704
158.573,164.398
163.939,164.375
166.073,164.46
166.073,164.54
166.073,164.617
166.073,164.69
166.073,164.759
164.141,164.728
173.275,165.155
154.152,164.605
165.874,164.668
173.563,165.113
173.563,165.536
173.563,165.937
173.563,166.318
173.563,166.681
173.563,167.025
176.29,167.488
171.988,167.713
168.796,167.767
173.096,168.034
172.05,168.234
172.05,168.425
172.05,168.606
172.05,168.778
172.05,168.942
176.911,169.34
152.581,168.502
148.191,167.487
162.324,167.229
170.193,167.377
170.193,167.518
170.193,167.652
170.193,167.779
170.193,167.899
171.365,168.073
157.158,167.527
144.402,166.371
143.105,165.207
146.148,164.254
146.148,163.349
146.148,162.489
146.148,161.672
146.148,160.896
146.148,160.158
171.787,160.74
165.539,160.98
177.237,161.793
177.483,162.577
177.483,163.322
177.483,164.03
177.483,164.703
177.483,165.342
177.483,165.949
177.877,166.545
173.121,166.874
171.968,167.129
175.672,167.556
170.185,167.688
170.185,167.812
170.185,167.931
170.185,168.044
170.185,168.151
170.185,168.253
166.933,168.187
157.908,167.673
165.374,167.558
169.654,167.662
169.654,167.762
169.654,167.857
169.654,167.947
169.654,168.032
175.063,168.383
160.511,167.99
156.713,167.426
159.572,167.033
170.947,167.229
170.947,167.415
170.947,167.592
170.947,167.759
170.947,167.919
170.947,168.07
175.282,168.431
171.034,168.561
169.685,168.617
174.343,168.903
174.343,169.175
174.343,169.434
174.343,169.679
174.343,169.912
174.343,170.134
161.96,169.725
152.112,168.844
149.904,167.897
158.868,167.446
162.496,167.198
162.496,166.963
162.496,166.74
162.496,166.528
162.496,166.326
160.65,166.042
171.834,166.332
169.485,166.49
167.867,166.559
167.038,166.582
167.038,166.605
167.038,166.627
167.038,166.647
167.038,166.667
176.939,167.181
164.95,167.069
150.837,166.257
154.51,165.67
158.08,165.291
158.08,164.93
158.08,164.587
158.08,164.262
158.08,163.953
160.972,163.804
175.174,164.372
160.007,164.154
170.489,164.471
174.559,164.975
174.559,165.454
174.559,165.91
174.559,166.342
174.559,166.753
174.559,167.143
161.88,166.88
153.897,166.231
155.509,165.695
164.29,165.625
164.29,165.558
164.29,165.494
164.29,165.434
164.29,165.377
164.29,165.323
174.444,165.779
154.491,165.214
167.14,165.311
170.881,165.589
178.731,166.246
178.731,166.87
178.731,167.463
178.731,168.027
178.731,168.562
166.382,168.453
152.418,167.651
148.959,166.717
152.279,165.995
162.108,165.8
162.108,165.616
162.108,165.441
162.108,165.274
162.108,165.116
160.737,164.897
174.314,165.368
172.863,165.742
175.605,166.235
177.95,166.821
177.95,167.378
177.95,167.906
177.95,168.408
177.95,168.885
162.68,168.575
159.296,168.111
152.266,167.319
156.193,166.763
162.77,166.563
153.669,165.918
153.669,165.306
153.669,164.724
153.669,164.171
153.669,163.646
170.007,163.964
158.273,163.68
157.46,163.369
163.244,163.362
173.39,163.864
173.39,164.34
173.39,164.793
173.39,165.223
173.39,165.631
175.839,166.141
164.928,166.081
164.536,166.003
170.111,166.209
172.279,166.512
172.279,166.801
172.279,167.075
172.279,167.335
172.279,167.582
172.279,167.817
167.514,167.802
140.126,166.418
137.241,164.959
152.583,164.34
157.884,164.018
157.884,163.711
157.884,163.419
157.884,163.143
157.884,162.88
175.851,163.528
171.518,163.928
169.389,164.201
170.462,164.514
174.598,165.018
174.598,165.497
174.598,165.952
174.598,166.384
174.598,166.795
174.598,167.185
171.067,167.379
155.546,166.788
164.178,166.657
169.683,166.809
169.683,166.952
169.683,167.089
169.683,167.218
169.683,167.342
169.683,167.459
168.781,167.525
166.117,167.455
159.834,167.073
164.14,166.927
160.692,166.615
160.692,166.319
160.692,166.038
160.692,165.77
160.692,165.516
165.686,165.525
171.652,165.831
162.505,165.665
165.439,165.654
170.109,165.876
170.109,166.088
170.109,166.289
170.109,166.48
170.109,166.661
170.109,166.834
175.586,167.271
172.743,167.545
170.936,167.714
174.506,168.054
174.506,168.377
174.506,168.683
174.506,168.974
174.506,169.251
174.506,169.514
175.623,169.819
144.167,168.536
146.822,167.451
153.907,166.773
156.268,166.248
156.268,165.749
156.268,165.275
156.268,164.825
156.268,164.397
177.352,165.045
169.716,165.278
165.274,165.278
166.558,165.342
170.515,165.601
170.515,165.846
170.515,166.08
170.515,166.302
170.515,166.512
170.327,166.703
156.452,166.19
145.305,165.146
150.296,164.404
162.947,164.331
162.947,164.262
162.947,164.196
162.947,164.133
162.947,164.074
176.612,164.701
164.953,164.714
157.604,164.358
157.745,164.028
162.318,163.942
156.761,163.583
156.761,163.242
156.761,162.918
156.761,162.61
156.761,162.317
166.829,162.543
159.816,162.407
163.011,162.437
176.026,163.116
174.882,163.705
174.882,164.264
174.882,164.794
174.882,165.299
174.882,165.778
159.942,165.486
145.401,164.482
140.55,163.285
141.617,162.202
146.227,161.403
146.227,160.644
146.227,159.923
146.227,159.239
146.227,158.588
154.223,158.37
168.956,158.899
164.074,159.158
176.194,160.01
171.395,160.579
171.395,161.12
171.395,161.633
171.395,162.122
171.395,162.585
157.654,162.339
144.01,161.422
142.658,160.484
144.348,159.677
149.779,159.182
149.779,158.712
149.779,158.265
149.779,157.841
149.779,157.438
149.779,157.055
171.242,157.764
169.405,158.346
167.009,158.779
178.228,159.752
178.775,160.703
178.775,161.607
178.775,162.465
178.775,163.281
178.775,164.055
177.103,164.708
173.127,165.129
170.415,165.393
170.389,165.643
173.137,166.018
173.137,166.373
173.137,166.712
173.137,167.033
173.137,167.338
174.249,167.684
153.518,166.975
128.589,165.056
143.916,163.999
159.22,163.76
159.22,163.533
159.22,163.317
159.22,163.113
159.22,162.918
178.072,163.676
166.348,163.809
159.837,163.611
157.24,163.292
165.56,163.406
165.56,163.513
165.56,163.616
165.56,163.713
165.56,163.805
165.56,163.893
176.653,164.531
150.53,163.831
152.128,163.246
165.349,163.351
165.89,163.478
165.89,163.598
165.89,163.713
165.89,163.822
165.89,163.925
176.057,164.532
172.613,164.936
167.477,165.063
165.749,165.097
170.131,165.349
160.029,165.083
160.029,164.83
160.029,164.59
160.029,164.362
160.029,164.145
176.263,164.751
154.111,164.219
152.242,163.62
165.562,163.717
176.798,164.371
176.798,164.993
176.798,165.583
176.798,166.144
176.798,166.676
162.891,166.487
160.103,166.168
156.486,165.684
160.931,165.446
163.168,165.332
163.168,165.224
163.168,165.121
163.168,165.024
163.168,164.931
163.168,164.843
173.607,165.281
157.354,164.885
165.81,164.931
176.617,165.515
176.617,166.07
176.617,166.597
176.617,167.098
176.617,167.574
176.617,168.026
164.391,167.845
154.453,167.175
147.278,166.18
150.649,165.404
150.649,164.666
150.649,163.965
150.649,163.299
150.649,162.667
150.649,162.066
162.138,162.069
171.524,162.542
176.397,163.235
175.396,163.843
175.396,164.421
175.396,164.969
175.396,165.491
175.396,165.986
175.396,166.457
161.58,166.213
156.077,165.706
151.766,165.009
160.067,164.762
163.17,164.682
163.17,164.607
163.17,164.535
163.17,164.466
163.17,164.402
169.237,164.643
162.718,164.547
144.52,163.546
150.38,162.887
161.225,162.804
161.225,162.725
161.225,162.65
161.225,162.579
161.225,162.511
161.225,162.447
177.819,163.216
171.956,163.653
156.334,163.287
156.025,162.924
152.325,162.394
152.325,161.89
152.325,161.412
152.325,160.958
152.325,160.526
163.956,160.697
165.633,160.944
156.942,160.744
166.297,161.022
174.23,161.682
174.23,162.31
174.23,162.906
174.23,163.472
174.23,164.01
168.784,164.248
153.976,163.735
143.298,162.713
137.02,161.428
141.039,160.409
141.039,159.44
141.039,158.52
141.039,157.646
141.039,156.816
148.477,156.399
169.004,157.029
174.249,157.89
177.106,158.851
174.168,159.617
174.168,160.344
174.168,161.036
174.168,161.692
174.168,162.316
174.168,162.909
164.323,162.979
155.191,162.59
153.836,162.152
160.42,162.066
161.652,162.045
161.652,162.025
161.652,162.007
161.652,161.989
161.652,161.972
168.896,162.318
159.712,162.188
153.195,161.738
159.808,161.642
166.473,161.883
166.473,162.113
166.473,162.331
166.473,162.538
166.473,162.735
171.098,163.153
153.445,162.667
148.905,161.979
146.007,161.181
150.572,160.65
147.537,159.995
147.537,159.372
147.537,158.78
147.537,158.218
147.537,157.684
160.184,157.809
172.208,158.529
169.545,159.08
177.57,160.004
173.65,160.686
173.65,161.335
173.65,161.95
173.65,162.535
173.65,163.091
159.234,162.898
154.995,162.503
156.232,162.19
164.005,162.28
166.949,162.514
166.949,162.736
166.949,162.946
166.949,163.146
166.949,163.336
172.186,163.779
163.74,163.777
140.62,162.619
149.289,161.953
161.451,161.928
161.451,161.904
161.451,161.881
161.451,161.86
161.451,161.839
161.451,161.82
176.108,162.534
175.135,163.164
171.553,163.584
170.537,163.931
167.001,164.085
167.001,164.231
167.001,164.369
167.001,164.501
167.001,164.626
168.239,164.806
156.736,164.403
144.589,163.412
157.251,163.104
169.293,163.414
169.293,163.707
169.293,163.987
169.293,164.252
169.293,164.504
172.275,164.893
158.428,164.569
158.428,164.262
146.05,163.352
145.1,162.439
146.816,161.658
146.816,160.916
146.816,160.211
146.816,159.541
146.816,158.905
157.219,158.82
175.166,159.638
160.842,159.698
171.54,160.29
176.828,161.117
176.828,161.903
176.828,162.649
176.828,163.358
176.828,164.031
168.476,164.254
161.403,164.111
154.443,163.628
157.691,163.331
160.689,163.199
160.689,163.073
160.689,162.954
160.689,162.841
160.689,162.733
160.689,162.631
171.32,163.065
147.476,162.286
150.803,161.712
161.826,161.717
166.98,161.981
166.98,162.231
166.98,162.468
166.98,162.694
166.98,162.908
171.843,163.355
159.03,163.139
157.18,162.841
155.358,162.467
158.919,162.289
158.919,162.121
158.919,161.961
158.919,161.809
158.919,161.664
158.919,161.527
176.662,162.284
151.896,161.764
148.576,161.105
156.229,160.861
162.188,160.927
162.188,160.99
162.188,161.05
162.188,161.107
162.188,161.161
179.152,162.061
164.823,162.199
159.136,162.046
154.526,161.67
155.15,161.344
153.83,160.968
153.83,160.611
153.83,160.272
153.83,159.95
153.83,159.644
164.449,159.884
172.874,160.534
158.909,160.453
163.382,160.599
172.823,161.21
172.823,161.791
172.823,162.342
172.823,162.866
172.823,163.364
169.958,163.694
